down( f1 f0)::up( f0 f1)::down( f1 f0)::up( f0 f1)::board( f1 p0)::down( f1 f0)::up( f0 f1)::down( f1 f0)::depart( f0 p0)::up( f0 f1)::down( f1 f0)::depart( f0 p0)
down( f1 f0)::up( f0 f1)::board( f1 p0)::board( f1 p0)::up( f0 f1)::board( f1 p0)::board( f1 p0)::down( f1 f0)::up( f0 f1)::down( f1 f0)::up( f0 f1)::down( f1 f0)::depart( f0 p0)::up( f0 f1)::down( f1 f0)
board( f1 p0)::down( f1 f0)::up( f0 f1)::down( f1 f0)::depart( f0 p0)::up( f0 f1)::down( f1 f0)::down( f1 f0)::up( f0 f1)::down( f1 f0)
down( f1 f0)::depart( f0 p0)::up( f0 f1)::board( f1 p0)::down( f1 f0)::depart( f0 p0)::up( f0 f1)::down( f1 f0)::up( f0 f1)::down( f1 f0)::down( f1 f0)::up( f0 f1)::board( f1 p0)::board( f1 p0)
board( f1 p0)::board( f1 p0)::down( f1 f0)::depart( f0 p0)::up( f0 f1)::down( f1 f0)::down( f1 f0)::board( f1 p0)::up( f0 f1)::up( f0 f1)::board( f1 p0)::board( f1 p0)::up( f0 f1)::up( f0 f1)::depart( f0 p0)
down( f1 f0)::up( f0 f1)::down( f1 f0)::up( f0 f1)::board( f1 p0)::board( f1 p0)::up( f0 f1)
down( f1 f0)::up( f0 f1)::down( f1 f0)::depart( f0 p0)::board( f1 p0)::up( f0 f1)::down( f1 f0)::up( f0 f1)::down( f1 f0)::up( f0 f1)::board( f1 p0)::board( f1 p0)::down( f1 f0)::up( f0 f1)::board( f1 p0)::board( f1 p0)::board( f1 p0)::down( f1 f0)::up( f0 f1)::up( f0 f1)
down( f1 f0)::up( f0 f1)::down( f1 f0)::up( f0 f1)::board( f1 p0)::down( f1 f0)::up( f0 f1)::board( f1 p0)::down( f1 f0)::depart( f0 p0)::up( f0 f1)::depart( f0 p0)::down( f1 f0)::up( f0 f1)::down( f1 f0)::up( f0 f1)::up( f0 f1)::down( f1 f0)::up( f0 f1)::down( f1 f0)
down( f1 f0)::up( f0 f1)::board( f1 p0)::board( f1 p0)::down( f1 f0)::depart( f0 p0)::up( f0 f1)::board( f1 p0)::depart( f0 p0)::down( f1 f0)::depart( f0 p0)::up( f0 f1)::down( f1 f0)::up( f0 f1)::board( f1 p0)::board( f1 p0)
board( f1 p0)::down( f1 f0)::up( f0 f1)::board( f1 p0)::up( f0 f1)::board( f1 p0)::down( f1 f0)::up( f0 f1)::up( f0 f1)::down( f1 f0)::depart( f0 p0)::up( f0 f1)
board( f1 p0)::board( f1 p0)::down( f1 f0)::up( f0 f1)::board( f1 p0)::board( f1 p0)::board( f1 p0)::board( f1 p0)::board( f1 p0)::board( f1 p0)::down( f1 f0)::board( f1 p0)::depart( f0 p0)
board( f1 p0)::up( f0 f1)::depart( f0 p0)::board( f1 p0)
board( f1 p0)::board( f1 p0)::down( f1 f0)::depart( f0 p0)::up( f0 f1)::board( f1 p0)::up( f0 f1)
depart( f0 p0)
board( f1 p0)::board( f1 p0)::board( f1 p0)::down( f1 f0)::down( f1 f0)
down( f1 f0)::up( f0 f1)::board( f1 p0)::down( f1 f0)::down( f1 f0)::depart( f0 p0)::depart( f0 p0)
board( f1 p0)::board( f1 p0)::down( f1 f0)::up( f0 f1)::board( f1 p0)::down( f1 f0)::up( f0 f1)::down( f1 f0)::up( f0 f1)::down( f1 f0)::up( f0 f1)::board( f1 p0)::depart( f0 p0)
down( f1 f0)::up( f0 f1)::board( f1 p0)::board( f1 p0)::down( f1 f0)::down( f1 f0)::up( f0 f1)::board( f1 p0)::down( f1 f0)::up( f0 f1)::board( f1 p0)::down( f1 f0)::down( f1 f0)::up( f0 f1)
down( f1 f0)::up( f0 f1)::down( f1 f0)::up( f0 f1)::down( f1 f0)::up( f0 f1)::board( f1 p0)::down( f1 f0)::up( f0 f1)::down( f1 f0)::up( f0 f1)::up( f0 f1)::down( f1 f0)::depart( f0 p0)::up( f0 f1)::down( f1 f0)
down( f1 f0)::down( f1 f0)::up( f0 f1)::board( f1 p0)::down( f1 f0)::depart( f0 p0)::up( f0 f1)
down( f1 f0)::up( f0 f1)::down( f1 f0)::depart( f0 p0)::up( f0 f1)::down( f1 f0)::up( f0 f1)::board( f1 p0)::down( f1 f0)::up( f0 f1)::down( f1 f0)::up( f0 f1)::down( f1 f0)::depart( f0 p0)::up( f0 f1)::board( f1 p0)::up( f0 f1)::board( f1 p0)::down( f1 f0)
down( f1 f0)::up( f0 f1)::board( f1 p0)::down( f1 f0)::up( f0 f1)::down( f1 f0)::up( f0 f1)::depart( f0 p0)::down( f1 f0)::depart( f0 p0)::up( f0 f1)::down( f1 f0)::up( f0 f1)::down( f1 f0)::up( f0 f1)::board( f1 p0)::board( f1 p0)::up( f0 f1)::down( f1 f0)::down( f1 f0)
down( f1 f0)::up( f0 f1)::board( f1 p0)::down( f1 f0)::up( f0 f1)::board( f1 p0)::board( f1 p0)::depart( f0 p0)::down( f1 f0)::depart( f0 p0)::up( f0 f1)::board( f1 p0)::down( f1 f0)::up( f0 f1)::down( f1 f0)::depart( f0 p0)::up( f0 f1)::board( f1 p0)
down( f1 f0)::up( f0 f1)::board( f1 p0)::down( f1 f0)::up( f0 f1)::down( f1 f0)::up( f0 f1)::board( f1 p0)::down( f1 f0)::up( f0 f1)::board( f1 p0)::board( f1 p0)::board( f1 p0)::up( f0 f1)::down( f1 f0)::depart( f0 p0)::up( f0 f1)::depart( f0 p0)::down( f1 f0)::up( f0 f1)
board( f1 p0)::board( f1 p0)::board( f1 p0)::board( f1 p0)::depart( f0 p0)::up( f0 f1)::up( f0 f1)::down( f1 f0)::down( f1 f0)::down( f1 f0)::depart( f0 p0)::depart( f0 p0)::up( f0 f1)::up( f0 f1)::down( f1 f0)
down( f1 f0)::up( f0 f1)::down( f1 f0)::up( f0 f1)::board( f1 p0)::board( f1 p0)::down( f1 f0)::depart( f0 p0)::up( f0 f1)::board( f1 p0)::depart( f0 p0)::board( f1 p0)::board( f1 p0)::down( f1 f0)::up( f0 f1)::down( f1 f0)::up( f0 f1)::board( f1 p0)::board( f1 p0)
board( f1 p0)::board( f1 p0)::board( f1 p0)::board( f1 p0)::down( f1 f0)::depart( f0 p0)::down( f1 f0)
board( f1 p0)::board( f1 p0)::down( f1 f0)::up( f0 f1)::down( f1 f0)::up( f0 f1)::depart( f0 p0)
down( f1 f0)::up( f0 f1)::down( f1 f0)::up( f0 f1)::board( f1 p0)::down( f1 f0)::up( f0 f1)::down( f1 f0)::up( f0 f1)::board( f1 p0)::down( f1 f0)::up( f0 f1)::depart( f0 p0)
down( f1 f0)::up( f0 f1)::board( f1 p0)::board( f1 p0)::board( f1 p0)::board( f1 p0)::down( f1 f0)::up( f0 f1)::down( f1 f0)::depart( f0 p0)::depart( f0 p0)::up( f0 f1)::down( f1 f0)
down( f1 f0)::up( f0 f1)::board( f1 p0)::board( f1 p0)::board( f1 p0)::down( f1 f0)::up( f0 f1)::board( f1 p0)::down( f1 f0)::up( f0 f1)::down( f1 f0)::up( f0 f1)::down( f1 f0)::up( f0 f1)::down( f1 f0)::depart( f0 p0)::up( f0 f1)::down( f1 f0)::up( f0 f1)::board( f1 p0)::down( f1 f0)::up( f0 f1)::board( f1 p0)::board( f1 p0)::down( f1 f0)::up( f0 f1)::down( f1 f0)::down( f1 f0)
down( f1 f0)::up( f0 f1)::depart( f0 p0)
board( f1 p0)::board( f1 p0)::board( f1 p0)::up( f0 f1)::depart( f0 p0)::down( f1 f0)::up( f0 f1)::down( f1 f0)::depart( f0 p0)::board( f1 p0)::board( f1 p0)::up( f0 f1)::down( f1 f0)::up( f0 f1)::down( f1 f0)
down( f1 f0)::up( f0 f1)::down( f1 f0)::up( f0 f1)::down( f1 f0)::board( f1 p0)::up( f0 f1)::up( f0 f1)::board( f1 p0)::board( f1 p0)::down( f1 f0)::up( f0 f1)::board( f1 p0)::down( f1 f0)::up( f0 f1)
up( f0 f1)::board( f1 p0)::board( f1 p0)::board( f1 p0)::board( f1 p0)::down( f1 f0)::depart( f0 p0)::up( f0 f1)::board( f1 p0)::down( f1 f0)::depart( f0 p0)::up( f0 f1)::down( f1 f0)::up( f0 f1)::down( f1 f0)::up( f0 f1)::down( f1 f0)::up( f0 f1)::down( f1 f0)::up( f0 f1)
down( f1 f0)::up( f0 f1)::board( f1 p0)::down( f1 f0)::depart( f0 p0)::up( f0 f1)::down( f1 f0)::up( f0 f1)::board( f1 p0)::down( f1 f0)::up( f0 f1)::down( f1 f0)::board( f1 p0)
board( f1 p0)::down( f1 f0)::up( f0 f1)::down( f1 f0)::depart( f0 p0)::up( f0 f1)::board( f1 p0)::down( f1 f0)::up( f0 f1)::board( f1 p0)::down( f1 f0)::depart( f0 p0)::up( f0 f1)::board( f1 p0)::board( f1 p0)::down( f1 f0)::depart( f0 p0)::up( f0 f1)::board( f1 p0)::down( f1 f0)::depart( f0 p0)::depart( f0 p0)
down( f1 f0)::up( f0 f1)::down( f1 f0)::up( f0 f1)::board( f1 p0)::down( f1 f0)::up( f0 f1)::up( f0 f1)
down( f1 f0)::up( f0 f1)::board( f1 p0)::down( f1 f0)::up( f0 f1)::depart( f0 p0)
board( f1 p0)::up( f0 f1)::down( f1 f0)::up( f0 f1)::down( f1 f0)::depart( f0 p0)::up( f0 f1)::board( f1 p0)::down( f1 f0)::up( f0 f1)::board( f1 p0)::board( f1 p0)::depart( f0 p0)::down( f1 f0)::depart( f0 p0)::depart( f0 p0)::up( f0 f1)
board( f1 p0)::depart( f0 p0)::down( f1 f0)::depart( f0 p0)::down( f1 f0)::up( f0 f1)::down( f1 f0)::up( f0 f1)::down( f1 f0)::board( f1 p0)::up( f0 f1)
depart( f0 p0)::board( f1 p0)::board( f1 p0)::down( f1 f0)
board( f1 p0)::down( f1 f0)::up( f0 f1)::down( f1 f0)::up( f0 f1)::up( f0 f1)::down( f1 f0)::board( f1 p0)::up( f0 f1)::board( f1 p0)::board( f1 p0)::board( f1 p0)::board( f1 p0)::board( f1 p0)::down( f1 f0)::depart( f0 p0)::up( f0 f1)
board( f1 p0)::up( f0 f1)::down( f1 f0)::depart( f0 p0)::board( f1 p0)::up( f0 f1)::up( f0 f1)::board( f1 p0)::board( f1 p0)::down( f1 f0)::up( f0 f1)::down( f1 f0)
depart( f0 p0)::board( f1 p0)::board( f1 p0)::board( f1 p0)::board( f1 p0)::down( f1 f0)::depart( f0 p0)::up( f0 f1)::board( f1 p0)::down( f1 f0)::down( f1 f0)::up( f0 f1)::down( f1 f0)::up( f0 f1)::down( f1 f0)::up( f0 f1)
up( f0 f1)::down( f1 f0)::up( f0 f1)
depart( f0 p0)
down( f1 f0)::down( f1 f0)
board( f1 p0)::depart( f0 p0)::down( f1 f0)
board( f1 p0)::down( f1 f0)::up( f0 f1)::down( f1 f0)::depart( f0 p0)::up( f0 f1)::board( f1 p0)::board( f1 p0)::down( f1 f0)::depart( f0 p0)::up( f0 f1)::down( f1 f0)::up( f0 f1)::board( f1 p0)::down( f1 f0)::down( f1 f0)
down( f1 f0)::up( f0 f1)::board( f1 p0)::depart( f0 p0)
down( f1 f0)::up( f0 f1)::up( f0 f1)
up( f0 f1)::up( f0 f1)::board( f1 p0)::down( f1 f0)::up( f0 f1)::down( f1 f0)::down( f1 f0)::depart( f0 p0)::up( f0 f1)::down( f1 f0)
up( f0 f1)::board( f1 p0)::down( f1 f0)::up( f0 f1)::down( f1 f0)::depart( f0 p0)::depart( f0 p0)::up( f0 f1)::down( f1 f0)::up( f0 f1)::down( f1 f0)::depart( f0 p0)::up( f0 f1)::down( f1 f0)::up( f0 f1)::down( f1 f0)::up( f0 f1)::down( f1 f0)
board( f1 p0)::down( f1 f0)::depart( f0 p0)::up( f0 f1)::board( f1 p0)::board( f1 p0)::board( f1 p0)::board( f1 p0)::board( f1 p0)::down( f1 f0)::depart( f0 p0)::down( f1 f0)
down( f1 f0)::up( f0 f1)::board( f1 p0)::board( f1 p0)::up( f0 f1)::board( f1 p0)::down( f1 f0)::up( f0 f1)::board( f1 p0)::up( f0 f1)::down( f1 f0)::up( f0 f1)::up( f0 f1)::down( f1 f0)
down( f1 f0)::up( f0 f1)::board( f1 p0)::board( f1 p0)::board( f1 p0)::down( f1 f0)::up( f0 f1)::down( f1 f0)::depart( f0 p0)::up( f0 f1)::board( f1 p0)::down( f1 f0)::depart( f0 p0)::up( f0 f1)::down( f1 f0)::down( f1 f0)::up( f0 f1)::board( f1 p0)::down( f1 f0)::depart( f0 p0)
down( f1 f0)::up( f0 f1)::down( f1 f0)::up( f0 f1)::down( f1 f0)::up( f0 f1)::down( f1 f0)::up( f0 f1)::down( f1 f0)::up( f0 f1)::board( f1 p0)::down( f1 f0)::depart( f0 p0)::up( f0 f1)::board( f1 p0)::board( f1 p0)::down( f1 f0)::up( f0 f1)::board( f1 p0)::board( f1 p0)::down( f1 f0)::board( f1 p0)
board( f1 p0)::up( f0 f1)::down( f1 f0)::down( f1 f0)::depart( f0 p0)
down( f1 f0)::up( f0 f1)::down( f1 f0)::up( f0 f1)::down( f1 f0)::up( f0 f1)::board( f1 p0)::depart( f0 p0)::board( f1 p0)::down( f1 f0)::up( f0 f1)::depart( f0 p0)::down( f1 f0)::up( f0 f1)::up( f0 f1)::up( f0 f1)::down( f1 f0)::up( f0 f1)::board( f1 p0)::down( f1 f0)
down( f1 f0)::up( f0 f1)::down( f1 f0)::up( f0 f1)::board( f1 p0)::board( f1 p0)::board( f1 p0)::depart( f0 p0)
down( f1 f0)::up( f0 f1)::down( f1 f0)::board( f1 p0)::up( f0 f1)::down( f1 f0)::up( f0 f1)::down( f1 f0)::board( f1 p0)::up( f0 f1)::down( f1 f0)::board( f1 p0)::up( f0 f1)::up( f0 f1)::board( f1 p0)::down( f1 f0)
board( f1 p0)::board( f1 p0)::depart( f0 p0)::depart( f0 p0)::down( f1 f0)::up( f0 f1)::board( f1 p0)::down( f1 f0)::up( f0 f1)::down( f1 f0)::depart( f0 p0)::down( f1 f0)::up( f0 f1)::board( f1 p0)::down( f1 f0)
board( f1 p0)::board( f1 p0)::down( f1 f0)::up( f0 f1)::up( f0 f1)::board( f1 p0)::down( f1 f0)::depart( f0 p0)::up( f0 f1)::board( f1 p0)::board( f1 p0)
board( f1 p0)::board( f1 p0)::down( f1 f0)::up( f0 f1)::down( f1 f0)::up( f0 f1)::board( f1 p0)::board( f1 p0)::up( f0 f1)::depart( f0 p0)::board( f1 p0)::up( f0 f1)
up( f0 f1)::depart( f0 p0)::down( f1 f0)::up( f0 f1)::board( f1 p0)::board( f1 p0)::board( f1 p0)::depart( f0 p0)::board( f1 p0)::board( f1 p0)::board( f1 p0)::down( f1 f0)::depart( f0 p0)
board( f1 p0)::down( f1 f0)::up( f0 f1)::board( f1 p0)::board( f1 p0)::board( f1 p0)::board( f1 p0)::down( f1 f0)::depart( f0 p0)::up( f0 f1)::down( f1 f0)::up( f0 f1)::down( f1 f0)::up( f0 f1)::board( f1 p0)::down( f1 f0)::depart( f0 p0)::up( f0 f1)::depart( f0 p0)
board( f1 p0)::down( f1 f0)::up( f0 f1)::board( f1 p0)::down( f1 f0)::up( f0 f1)::board( f1 p0)::board( f1 p0)::down( f1 f0)::up( f0 f1)::board( f1 p0)::board( f1 p0)::board( f1 p0)::down( f1 f0)::up( f0 f1)::board( f1 p0)::down( f1 f0)::up( f0 f1)::up( f0 f1)
down( f1 f0)::up( f0 f1)::down( f1 f0)::depart( f0 p0)
board( f1 p0)::board( f1 p0)::board( f1 p0)::board( f1 p0)::down( f1 f0)::up( f0 f1)::depart( f0 p0)
down( f1 f0)::down( f1 f0)::up( f0 f1)::board( f1 p0)::up( f0 f1)::depart( f0 p0)::board( f1 p0)::board( f1 p0)
down( f1 f0)::up( f0 f1)::board( f1 p0)::board( f1 p0)::board( f1 p0)::down( f1 f0)::down( f1 f0)
board( f1 p0)::down( f1 f0)::board( f1 p0)::depart( f0 p0)::up( f0 f1)
down( f1 f0)::up( f0 f1)::down( f1 f0)::board( f1 p0)::up( f0 f1)::board( f1 p0)::down( f1 f0)::board( f1 p0)::up( f0 f1)::down( f1 f0)::depart( f0 p0)::up( f0 f1)::down( f1 f0)::up( f0 f1)::board( f1 p0)::board( f1 p0)::down( f1 f0)
up( f0 f1)::board( f1 p0)::board( f1 p0)::up( f0 f1)::board( f1 p0)::board( f1 p0)::down( f1 f0)::up( f0 f1)::down( f1 f0)::depart( f0 p0)::up( f0 f1)::board( f1 p0)::board( f1 p0)
board( f1 p0)::depart( f0 p0)
down( f1 f0)::up( f0 f1)::depart( f0 p0)::board( f1 p0)::down( f1 f0)::depart( f0 p0)::up( f0 f1)::board( f1 p0)
board( f1 p0)::down( f1 f0)::up( f0 f1)::board( f1 p0)::up( f0 f1)
board( f1 p0)::board( f1 p0)::board( f1 p0)::board( f1 p0)::down( f1 f0)::up( f0 f1)::board( f1 p0)::down( f1 f0)::depart( f0 p0)::board( f1 p0)
down( f1 f0)::board( f1 p0)::board( f1 p0)::up( f0 f1)::down( f1 f0)::up( f0 f1)::board( f1 p0)::depart( f0 p0)
depart( f0 p0)::down( f1 f0)::up( f0 f1)::board( f1 p0)::down( f1 f0)::depart( f0 p0)::up( f0 f1)::board( f1 p0)::up( f0 f1)::board( f1 p0)::depart( f0 p0)
down( f1 f0)::up( f0 f1)::board( f1 p0)::down( f1 f0)::depart( f0 p0)::up( f0 f1)::down( f1 f0)::board( f1 p0)::up( f0 f1)
down( f1 f0)::up( f0 f1)::down( f1 f0)::up( f0 f1)::down( f1 f0)::up( f0 f1)::board( f1 p0)::board( f1 p0)::down( f1 f0)::up( f0 f1)::board( f1 p0)::down( f1 f0)::depart( f0 p0)::depart( f0 p0)
board( f1 p0)::down( f1 f0)::up( f0 f1)::up( f0 f1)::down( f1 f0)::depart( f0 p0)::up( f0 f1)::board( f1 p0)::board( f1 p0)::down( f1 f0)::up( f0 f1)::down( f1 f0)::depart( f0 p0)::down( f1 f0)
board( f1 p0)::board( f1 p0)::down( f1 f0)::depart( f0 p0)::up( f0 f1)::board( f1 p0)::board( f1 p0)::down( f1 f0)::board( f1 p0)::depart( f0 p0)::up( f0 f1)
board( f1 p0)::down( f1 f0)::depart( f0 p0)::down( f1 f0)::up( f0 f1)::down( f1 f0)::depart( f0 p0)::up( f0 f1)::board( f1 p0)
board( f1 p0)::board( f1 p0)::down( f1 f0)::up( f0 f1)::board( f1 p0)::down( f1 f0)::depart( f0 p0)::up( f0 f1)::up( f0 f1)
board( f1 p0)::board( f1 p0)::down( f1 f0)::depart( f0 p0)::up( f0 f1)::down( f1 f0)::down( f1 f0)
down( f1 f0)::down( f1 f0)::up( f0 f1)::down( f1 f0)::up( f0 f1)::down( f1 f0)::up( f0 f1)::down( f1 f0)::up( f0 f1)
down( f1 f0)::up( f0 f1)::board( f1 p0)::board( f1 p0)::down( f1 f0)::down( f1 f0)
board( f1 p0)::up( f0 f1)::down( f1 f0)::up( f0 f1)::down( f1 f0)::depart( f0 p0)::up( f0 f1)::down( f1 f0)::up( f0 f1)::down( f1 f0)::up( f0 f1)::down( f1 f0)::board( f1 p0)::up( f0 f1)::board( f1 p0)::board( f1 p0)::down( f1 f0)::depart( f0 p0)::up( f0 f1)
down( f1 f0)::up( f0 f1)::board( f1 p0)::down( f1 f0)::up( f0 f1)::down( f1 f0)::depart( f0 p0)::up( f0 f1)::depart( f0 p0)
down( f1 f0)::up( f0 f1)::down( f1 f0)::up( f0 f1)::down( f1 f0)::up( f0 f1)::down( f1 f0)::up( f0 f1)::down( f1 f0)::up( f0 f1)::down( f1 f0)::depart( f0 p0)
board( f1 p0)::board( f1 p0)::board( f1 p0)::down( f1 f0)::down( f1 f0)
board( f1 p0)::board( f1 p0)::depart( f0 p0)::depart( f0 p0)::down( f1 f0)::depart( f0 p0)::up( f0 f1)::board( f1 p0)::board( f1 p0)::depart( f0 p0)::board( f1 p0)::up( f0 f1)::up( f0 f1)
down( f1 f0)::up( f0 f1)::board( f1 p0)::board( f1 p0)::down( f1 f0)::depart( f0 p0)::up( f0 f1)::board( f1 p0)::board( f1 p0)::board( f1 p0)::board( f1 p0)::down( f1 f0)::depart( f0 p0)::up( f0 f1)::down( f1 f0)::up( f0 f1)::down( f1 f0)::up( f0 f1)::up( f0 f1)
down( f1 f0)::up( f0 f1)::up( f0 f1)::down( f1 f0)::up( f0 f1)::down( f1 f0)::up( f0 f1)::board( f1 p0)::board( f1 p0)::down( f1 f0)::depart( f0 p0)::up( f0 f1)::down( f1 f0)::up( f0 f1)
depart( f0 p0)
down( f1 f0)::up( f0 f1)::down( f1 f0)::up( f0 f1)::down( f1 f0)::up( f0 f1)::board( f1 p0)::down( f1 f0)::depart( f0 p0)::up( f0 f1)::down( f1 f0)::up( f0 f1)::down( f1 f0)::up( f0 f1)::board( f1 p0)::board( f1 p0)::down( f1 f0)::up( f0 f1)::board( f1 p0)::down( f1 f0)::up( f0 f1)::depart( f0 p0)
up( f0 f1)::up( f0 f1)::down( f1 f0)::up( f0 f1)::down( f1 f0)::depart( f0 p0)
down( f1 f0)::board( f1 p0)::up( f0 f1)::down( f1 f0)::board( f1 p0)::up( f0 f1)::board( f1 p0)::board( f1 p0)::board( f1 p0)::board( f1 p0)
board( f1 p0)::board( f1 p0)::board( f1 p0)::down( f1 f0)::board( f1 p0)::depart( f0 p0)::up( f0 f1)::down( f1 f0)::up( f0 f1)::down( f1 f0)::up( f0 f1)::board( f1 p0)::down( f1 f0)::depart( f0 p0)::up( f0 f1)::down( f1 f0)::up( f0 f1)
board( f1 p0)::board( f1 p0)::down( f1 f0)::depart( f0 p0)::up( f0 f1)::board( f1 p0)::board( f1 p0)::down( f1 f0)::depart( f0 p0)::up( f0 f1)::down( f1 f0)::down( f1 f0)::up( f0 f1)::depart( f0 p0)::board( f1 p0)::board( f1 p0)::board( f1 p0)::board( f1 p0)::up( f0 f1)
up( f0 f1)::down( f1 f0)::up( f0 f1)::down( f1 f0)::up( f0 f1)::depart( f0 p0)::down( f1 f0)::up( f0 f1)::down( f1 f0)::up( f0 f1)::down( f1 f0)::down( f1 f0)::up( f0 f1)::down( f1 f0)
up( f0 f1)::down( f1 f0)::up( f0 f1)::down( f1 f0)::down( f1 f0)::up( f0 f1)::board( f1 p0)
board( f1 p0)::board( f1 p0)::up( f0 f1)::board( f1 p0)::depart( f0 p0)::board( f1 p0)::down( f1 f0)::depart( f0 p0)::up( f0 f1)::board( f1 p0)::up( f0 f1)::down( f1 f0)::up( f0 f1)::board( f1 p0)::board( f1 p0)::board( f1 p0)::down( f1 f0)
depart( f0 p0)::depart( f0 p0)::up( f0 f1)::depart( f0 p0)::board( f1 p0)::board( f1 p0)::board( f1 p0)::down( f1 f0)::up( f0 f1)::board( f1 p0)::board( f1 p0)::down( f1 f0)::up( f0 f1)::board( f1 p0)::down( f1 f0)::depart( f0 p0)
board( f1 p0)::board( f1 p0)::board( f1 p0)::board( f1 p0)::down( f1 f0)::depart( f0 p0)::up( f0 f1)::board( f1 p0)::down( f1 f0)::up( f0 f1)::down( f1 f0)::up( f0 f1)::board( f1 p0)::down( f1 f0)::board( f1 p0)
down( f1 f0)::board( f1 p0)::up( f0 f1)
board( f1 p0)::down( f1 f0)::board( f1 p0)::depart( f0 p0)::up( f0 f1)::down( f1 f0)::up( f0 f1)::board( f1 p0)::depart( f0 p0)::up( f0 f1)::board( f1 p0)::down( f1 f0)::depart( f0 p0)
down( f1 f0)::up( f0 f1)::down( f1 f0)::up( f0 f1)::down( f1 f0)::up( f0 f1)::down( f1 f0)::up( f0 f1)::board( f1 p0)::down( f1 f0)::up( f0 f1)::down( f1 f0)::depart( f0 p0)::depart( f0 p0)
board( f1 p0)::down( f1 f0)::depart( f0 p0)::up( f0 f1)::down( f1 f0)::up( f0 f1)::depart( f0 p0)
board( f1 p0)::board( f1 p0)::down( f1 f0)::down( f1 f0)::depart( f0 p0)::up( f0 f1)::board( f1 p0)::board( f1 p0)::down( f1 f0)::up( f0 f1)::board( f1 p0)::board( f1 p0)::down( f1 f0)::depart( f0 p0)::depart( f0 p0)
board( f1 p0)::depart( f0 p0)::board( f1 p0)::down( f1 f0)::up( f0 f1)::down( f1 f0)::down( f1 f0)::up( f0 f1)::board( f1 p0)::down( f1 f0)::depart( f0 p0)::up( f0 f1)::board( f1 p0)::down( f1 f0)::depart( f0 p0)
down( f1 f0)::board( f1 p0)::up( f0 f1)
depart( f0 p0)::depart( f0 p0)::down( f1 f0)::up( f0 f1)::board( f1 p0)::board( f1 p0)::down( f1 f0)::up( f0 f1)::board( f1 p0)::up( f0 f1)::depart( f0 p0)
down( f1 f0)::up( f0 f1)::depart( f0 p0)::board( f1 p0)::depart( f0 p0)::up( f0 f1)
board( f1 p0)::board( f1 p0)::down( f1 f0)::up( f0 f1)::board( f1 p0)::down( f1 f0)::up( f0 f1)::down( f1 f0)::up( f0 f1)::down( f1 f0)::board( f1 p0)
down( f1 f0)::up( f0 f1)::board( f1 p0)::up( f0 f1)::board( f1 p0)::down( f1 f0)::up( f0 f1)::up( f0 f1)::board( f1 p0)::down( f1 f0)::depart( f0 p0)::up( f0 f1)::down( f1 f0)::up( f0 f1)::down( f1 f0)::up( f0 f1)::down( f1 f0)
down( f1 f0)::up( f0 f1)::board( f1 p0)::down( f1 f0)::up( f0 f1)::board( f1 p0)::down( f1 f0)::depart( f0 p0)::up( f0 f1)::down( f1 f0)::up( f0 f1)::down( f1 f0)::up( f0 f1)::board( f1 p0)::down( f1 f0)::up( f0 f1)::board( f1 p0)::board( f1 p0)::board( f1 p0)::board( f1 p0)::down( f1 f0)::depart( f0 p0)::up( f0 f1)::up( f0 f1)
depart( f0 p0)::board( f1 p0)::up( f0 f1)::board( f1 p0)::board( f1 p0)::board( f1 p0)::depart( f0 p0)::down( f1 f0)::board( f1 p0)::depart( f0 p0)::board( f1 p0)::up( f0 f1)::board( f1 p0)::down( f1 f0)::board( f1 p0)::up( f0 f1)::board( f1 p0)::down( f1 f0)::up( f0 f1)::down( f1 f0)
board( f1 p0)::board( f1 p0)::down( f1 f0)::depart( f0 p0)::up( f0 f1)::board( f1 p0)::down( f1 f0)::up( f0 f1)::board( f1 p0)::board( f1 p0)::down( f1 f0)::depart( f0 p0)::up( f0 f1)::down( f1 f0)::up( f0 f1)::down( f1 f0)::up( f0 f1)::board( f1 p0)::board( f1 p0)::down( f1 f0)::up( f0 f1)::down( f1 f0)::board( f1 p0)
board( f1 p0)::board( f1 p0)::up( f0 f1)::board( f1 p0)::board( f1 p0)::board( f1 p0)::down( f1 f0)::up( f0 f1)::down( f1 f0)::board( f1 p0)::up( f0 f1)::depart( f0 p0)::board( f1 p0)::down( f1 f0)::depart( f0 p0)::up( f0 f1)
board( f1 p0)::down( f1 f0)::depart( f0 p0)::depart( f0 p0)::up( f0 f1)::board( f1 p0)::down( f1 f0)::up( f0 f1)::down( f1 f0)::board( f1 p0)::depart( f0 p0)::up( f0 f1)::board( f1 p0)::board( f1 p0)::down( f1 f0)::board( f1 p0)::depart( f0 p0)::up( f0 f1)::down( f1 f0)
board( f1 p0)::board( f1 p0)::down( f1 f0)::up( f0 f1)::down( f1 f0)::depart( f0 p0)::up( f0 f1)::down( f1 f0)::up( f0 f1)::down( f1 f0)::up( f0 f1)::down( f1 f0)::board( f1 p0)
board( f1 p0)::board( f1 p0)::board( f1 p0)::down( f1 f0)::depart( f0 p0)::up( f0 f1)::board( f1 p0)::board( f1 p0)::down( f1 f0)::up( f0 f1)::down( f1 f0)::depart( f0 p0)::up( f0 f1)::down( f1 f0)::up( f0 f1)::board( f1 p0)::board( f1 p0)::board( f1 p0)::board( f1 p0)::down( f1 f0)::up( f0 f1)::up( f0 f1)
board( f1 p0)::board( f1 p0)::up( f0 f1)
down( f1 f0)::up( f0 f1)::down( f1 f0)::up( f0 f1)::board( f1 p0)::down( f1 f0)::depart( f0 p0)::board( f1 p0)::up( f0 f1)
depart( f0 p0)::down( f1 f0)::up( f0 f1)::down( f1 f0)::depart( f0 p0)::up( f0 f1)::up( f0 f1)::down( f1 f0)::up( f0 f1)::depart( f0 p0)::board( f1 p0)::down( f1 f0)::depart( f0 p0)::up( f0 f1)::down( f1 f0)::depart( f0 p0)::board( f1 p0)
board( f1 p0)::board( f1 p0)::depart( f0 p0)::board( f1 p0)::down( f1 f0)
board( f1 p0)::depart( f0 p0)::down( f1 f0)::up( f0 f1)
board( f1 p0)::down( f1 f0)::up( f0 f1)::board( f1 p0)::board( f1 p0)::down( f1 f0)::depart( f0 p0)::board( f1 p0)
board( f1 p0)::down( f1 f0)::depart( f0 p0)::up( f0 f1)::board( f1 p0)::down( f1 f0)::depart( f0 p0)::up( f0 f1)::down( f1 f0)::up( f0 f1)::down( f1 f0)::up( f0 f1)::down( f1 f0)::board( f1 p0)::down( f1 f0)::up( f0 f1)
depart( f0 p0)::up( f0 f1)::down( f1 f0)::down( f1 f0)::up( f0 f1)
board( f1 p0)::board( f1 p0)::board( f1 p0)::depart( f0 p0)::board( f1 p0)::board( f1 p0)
down( f1 f0)::up( f0 f1)::depart( f0 p0)::down( f1 f0)::up( f0 f1)::board( f1 p0)::depart( f0 p0)::depart( f0 p0)
board( f1 p0)::up( f0 f1)::down( f1 f0)::up( f0 f1)
down( f1 f0)::up( f0 f1)::depart( f0 p0)::down( f1 f0)::up( f0 f1)::board( f1 p0)::board( f1 p0)::board( f1 p0)::board( f1 p0)::board( f1 p0)::board( f1 p0)::board( f1 p0)
down( f1 f0)::up( f0 f1)::down( f1 f0)::up( f0 f1)::down( f1 f0)::up( f0 f1)::board( f1 p0)::board( f1 p0)::down( f1 f0)::up( f0 f1)::board( f1 p0)::board( f1 p0)::board( f1 p0)::down( f1 f0)::up( f0 f1)::depart( f0 p0)::up( f0 f1)
down( f1 f0)::up( f0 f1)::up( f0 f1)::board( f1 p0)::board( f1 p0)::board( f1 p0)::down( f1 f0)::up( f0 f1)::board( f1 p0)::depart( f0 p0)
up( f0 f1)::board( f1 p0)::down( f1 f0)::depart( f0 p0)::up( f0 f1)::board( f1 p0)::up( f0 f1)::down( f1 f0)::up( f0 f1)::depart( f0 p0)
down( f1 f0)::up( f0 f1)::board( f1 p0)::up( f0 f1)::down( f1 f0)::depart( f0 p0)::up( f0 f1)::depart( f0 p0)::board( f1 p0)::board( f1 p0)::board( f1 p0)::down( f1 f0)::depart( f0 p0)::down( f1 f0)::up( f0 f1)::down( f1 f0)::up( f0 f1)::down( f1 f0)::up( f0 f1)
down( f1 f0)::up( f0 f1)::board( f1 p0)::board( f1 p0)::board( f1 p0)::board( f1 p0)::down( f1 f0)::board( f1 p0)::up( f0 f1)::board( f1 p0)::depart( f0 p0)::down( f1 f0)::down( f1 f0)::up( f0 f1)::down( f1 f0)::board( f1 p0)::up( f0 f1)::board( f1 p0)::down( f1 f0)::board( f1 p0)
board( f1 p0)::depart( f0 p0)::down( f1 f0)::depart( f0 p0)
board( f1 p0)::board( f1 p0)::down( f1 f0)::board( f1 p0)::up( f0 f1)::board( f1 p0)::down( f1 f0)::up( f0 f1)::board( f1 p0)::board( f1 p0)::down( f1 f0)::depart( f0 p0)::depart( f0 p0)::up( f0 f1)::board( f1 p0)::down( f1 f0)::up( f0 f1)::board( f1 p0)::board( f1 p0)
board( f1 p0)::up( f0 f1)::board( f1 p0)::board( f1 p0)::board( f1 p0)::board( f1 p0)::up( f0 f1)::board( f1 p0)::board( f1 p0)
down( f1 f0)::up( f0 f1)::down( f1 f0)::up( f0 f1)::down( f1 f0)::up( f0 f1)::down( f1 f0)::up( f0 f1)::down( f1 f0)::up( f0 f1)::board( f1 p0)::down( f1 f0)::up( f0 f1)::down( f1 f0)::depart( f0 p0)::up( f0 f1)::board( f1 p0)::down( f1 f0)::up( f0 f1)::down( f1 f0)::up( f0 f1)::board( f1 p0)::board( f1 p0)::down( f1 f0)::down( f1 f0)
depart( f0 p0)::board( f1 p0)::down( f1 f0)::up( f0 f1)::down( f1 f0)::up( f0 f1)::board( f1 p0)::board( f1 p0)::board( f1 p0)
down( f1 f0)::down( f1 f0)::up( f0 f1)::down( f1 f0)::up( f0 f1)::down( f1 f0)::board( f1 p0)::up( f0 f1)::down( f1 f0)::down( f1 f0)
board( f1 p0)::board( f1 p0)::down( f1 f0)::up( f0 f1)::down( f1 f0)::up( f0 f1)::up( f0 f1)::board( f1 p0)::up( f0 f1)::board( f1 p0)::down( f1 f0)::up( f0 f1)::down( f1 f0)
depart( f0 p0)::down( f1 f0)::up( f0 f1)::down( f1 f0)::up( f0 f1)::down( f1 f0)
depart( f0 p0)::down( f1 f0)::up( f0 f1)::board( f1 p0)::board( f1 p0)::board( f1 p0)::board( f1 p0)::down( f1 f0)::board( f1 p0)::up( f0 f1)::board( f1 p0)::board( f1 p0)::board( f1 p0)::down( f1 f0)::up( f0 f1)::down( f1 f0)::up( f0 f1)::up( f0 f1)::up( f0 f1)
down( f1 f0)::up( f0 f1)::board( f1 p0)::down( f1 f0)::depart( f0 p0)::up( f0 f1)::down( f1 f0)::up( f0 f1)::down( f1 f0)::up( f0 f1)::depart( f0 p0)::board( f1 p0)::board( f1 p0)::down( f1 f0)::depart( f0 p0)::up( f0 f1)::down( f1 f0)::up( f0 f1)::board( f1 p0)::board( f1 p0)
board( f1 p0)::board( f1 p0)::board( f1 p0)::down( f1 f0)::down( f1 f0)::depart( f0 p0)::up( f0 f1)::down( f1 f0)::board( f1 p0)::up( f0 f1)
board( f1 p0)::depart( f0 p0)::board( f1 p0)::down( f1 f0)::up( f0 f1)::down( f1 f0)::up( f0 f1)::board( f1 p0)::board( f1 p0)::board( f1 p0)
down( f1 f0)::up( f0 f1)::board( f1 p0)::down( f1 f0)::up( f0 f1)::down( f1 f0)::up( f0 f1)::board( f1 p0)::board( f1 p0)::board( f1 p0)::board( f1 p0)::board( f1 p0)::up( f0 f1)::down( f1 f0)::up( f0 f1)::down( f1 f0)::up( f0 f1)
down( f1 f0)::up( f0 f1)::board( f1 p0)::depart( f0 p0)
down( f1 f0)::depart( f0 p0)::up( f0 f1)::board( f1 p0)::down( f1 f0)::up( f0 f1)::board( f1 p0)::down( f1 f0)::down( f1 f0)::depart( f0 p0)
board( f1 p0)::board( f1 p0)::down( f1 f0)::depart( f0 p0)::up( f0 f1)::down( f1 f0)::up( f0 f1)::board( f1 p0)::board( f1 p0)::depart( f0 p0)
down( f1 f0)::up( f0 f1)::up( f0 f1)::down( f1 f0)::depart( f0 p0)
board( f1 p0)::board( f1 p0)::down( f1 f0)::up( f0 f1)::board( f1 p0)::board( f1 p0)::up( f0 f1)
down( f1 f0)::up( f0 f1)::down( f1 f0)::down( f1 f0)::up( f0 f1)::board( f1 p0)::down( f1 f0)::depart( f0 p0)::up( f0 f1)::down( f1 f0)::up( f0 f1)::board( f1 p0)::board( f1 p0)::up( f0 f1)::down( f1 f0)::board( f1 p0)::up( f0 f1)::down( f1 f0)::depart( f0 p0)
down( f1 f0)::board( f1 p0)::up( f0 f1)::down( f1 f0)::up( f0 f1)::board( f1 p0)::down( f1 f0)::depart( f0 p0)::up( f0 f1)::board( f1 p0)::down( f1 f0)::up( f0 f1)::down( f1 f0)::depart( f0 p0)::up( f0 f1)::down( f1 f0)::up( f0 f1)::board( f1 p0)
down( f1 f0)::up( f0 f1)::depart( f0 p0)
down( f1 f0)::up( f0 f1)::board( f1 p0)::down( f1 f0)::depart( f0 p0)::up( f0 f1)::board( f1 p0)::board( f1 p0)::board( f1 p0)::down( f1 f0)::depart( f0 p0)::depart( f0 p0)
down( f1 f0)::up( f0 f1)::depart( f0 p0)::board( f1 p0)::depart( f0 p0)
down( f1 f0)::up( f0 f1)::down( f1 f0)::up( f0 f1)::board( f1 p0)::down( f1 f0)::up( f0 f1)::down( f1 f0)::depart( f0 p0)::up( f0 f1)::down( f1 f0)::up( f0 f1)::board( f1 p0)::down( f1 f0)::up( f0 f1)::down( f1 f0)::up( f0 f1)::board( f1 p0)::down( f1 f0)::depart( f0 p0)::down( f1 f0)
down( f1 f0)::depart( f0 p0)::up( f0 f1)::board( f1 p0)::board( f1 p0)::board( f1 p0)::down( f1 f0)::depart( f0 p0)::up( f0 f1)::down( f1 f0)::up( f0 f1)::depart( f0 p0)::down( f1 f0)::up( f0 f1)
up( f0 f1)::down( f1 f0)::up( f0 f1)::down( f1 f0)::up( f0 f1)::down( f1 f0)::up( f0 f1)
board( f1 p0)::board( f1 p0)::down( f1 f0)::depart( f0 p0)::up( f0 f1)::down( f1 f0)::up( f0 f1)::down( f1 f0)::up( f0 f1)::board( f1 p0)::down( f1 f0)::up( f0 f1)::board( f1 p0)::board( f1 p0)::depart( f0 p0)
down( f1 f0)::up( f0 f1)::depart( f0 p0)::board( f1 p0)::board( f1 p0)::board( f1 p0)
board( f1 p0)::board( f1 p0)::down( f1 f0)::up( f0 f1)::board( f1 p0)::board( f1 p0)::board( f1 p0)::down( f1 f0)::depart( f0 p0)::up( f0 f1)::down( f1 f0)::up( f0 f1)::down( f1 f0)::up( f0 f1)::down( f1 f0)::up( f0 f1)::down( f1 f0)::depart( f0 p0)
down( f1 f0)::up( f0 f1)::board( f1 p0)::board( f1 p0)::board( f1 p0)::board( f1 p0)::up( f0 f1)::up( f0 f1)::board( f1 p0)::board( f1 p0)::board( f1 p0)::board( f1 p0)
board( f1 p0)::down( f1 f0)::depart( f0 p0)::up( f0 f1)::down( f1 f0)::up( f0 f1)::down( f1 f0)::up( f0 f1)::board( f1 p0)::board( f1 p0)::down( f1 f0)::up( f0 f1)::board( f1 p0)::up( f0 f1)::board( f1 p0)::down( f1 f0)::depart( f0 p0)::down( f1 f0)::up( f0 f1)::down( f1 f0)
board( f1 p0)::board( f1 p0)::board( f1 p0)::down( f1 f0)::down( f1 f0)::depart( f0 p0)::depart( f0 p0)::up( f0 f1)::board( f1 p0)::down( f1 f0)::depart( f0 p0)
down( f1 f0)::up( f0 f1)::board( f1 p0)::down( f1 f0)::down( f1 f0)::board( f1 p0)
board( f1 p0)::depart( f0 p0)::down( f1 f0)::depart( f0 p0)::up( f0 f1)::board( f1 p0)::down( f1 f0)::depart( f0 p0)::up( f0 f1)::board( f1 p0)::up( f0 f1)::up( f0 f1)::board( f1 p0)::up( f0 f1)
board( f1 p0)::down( f1 f0)::up( f0 f1)::board( f1 p0)::down( f1 f0)::up( f0 f1)::down( f1 f0)::up( f0 f1)::board( f1 p0)::up( f0 f1)
board( f1 p0)::board( f1 p0)::down( f1 f0)::up( f0 f1)::down( f1 f0)::up( f0 f1)::down( f1 f0)::up( f0 f1)::board( f1 p0)::down( f1 f0)::depart( f0 p0)::up( f0 f1)::board( f1 p0)::board( f1 p0)::down( f1 f0)::depart( f0 p0)::up( f0 f1)::board( f1 p0)::down( f1 f0)::up( f0 f1)::board( f1 p0)::board( f1 p0)::down( f1 f0)::up( f0 f1)::depart( f0 p0)
down( f1 f0)::up( f0 f1)::up( f0 f1)::down( f1 f0)::board( f1 p0)::up( f0 f1)::board( f1 p0)::board( f1 p0)::board( f1 p0)::board( f1 p0)
down( f1 f0)::up( f0 f1)::depart( f0 p0)
up( f0 f1)::down( f1 f0)::up( f0 f1)::depart( f0 p0)::down( f1 f0)::up( f0 f1)::down( f1 f0)::board( f1 p0)::up( f0 f1)::down( f1 f0)::up( f0 f1)
down( f1 f0)::up( f0 f1)::down( f1 f0)::up( f0 f1)::depart( f0 p0)
board( f1 p0)::down( f1 f0)::depart( f0 p0)::up( f0 f1)::down( f1 f0)::up( f0 f1)::board( f1 p0)::board( f1 p0)::down( f1 f0)::up( f0 f1)::down( f1 f0)::up( f0 f1)::board( f1 p0)::board( f1 p0)::down( f1 f0)::depart( f0 p0)::up( f0 f1)::down( f1 f0)::up( f0 f1)::depart( f0 p0)
down( f1 f0)::up( f0 f1)::down( f1 f0)::depart( f0 p0)::up( f0 f1)::down( f1 f0)::up( f0 f1)::board( f1 p0)::board( f1 p0)::down( f1 f0)::up( f0 f1)::down( f1 f0)::depart( f0 p0)::up( f0 f1)::down( f1 f0)::up( f0 f1)::down( f1 f0)::depart( f0 p0)
down( f1 f0)::up( f0 f1)::board( f1 p0)::board( f1 p0)::down( f1 f0)::up( f0 f1)::down( f1 f0)::depart( f0 p0)::up( f0 f1)::down( f1 f0)::up( f0 f1)::board( f1 p0)::down( f1 f0)::board( f1 p0)
down( f1 f0)::down( f1 f0)::up( f0 f1)::board( f1 p0)::down( f1 f0)::depart( f0 p0)::up( f0 f1)::board( f1 p0)::board( f1 p0)::down( f1 f0)::up( f0 f1)::board( f1 p0)::down( f1 f0)::depart( f0 p0)::up( f0 f1)::down( f1 f0)::up( f0 f1)::down( f1 f0)::up( f0 f1)::depart( f0 p0)
depart( f0 p0)::depart( f0 p0)::board( f1 p0)::down( f1 f0)::depart( f0 p0)::up( f0 f1)::down( f1 f0)
down( f1 f0)::up( f0 f1)::board( f1 p0)::down( f1 f0)::up( f0 f1)::up( f0 f1)::down( f1 f0)::depart( f0 p0)::up( f0 f1)::board( f1 p0)::down( f1 f0)::board( f1 p0)::depart( f0 p0)::up( f0 f1)::down( f1 f0)::up( f0 f1)::board( f1 p0)
down( f1 f0)::up( f0 f1)::down( f1 f0)::up( f0 f1)::depart( f0 p0)::down( f1 f0)::up( f0 f1)::board( f1 p0)::down( f1 f0)::up( f0 f1)
depart( f0 p0)
down( f1 f0)::depart( f0 p0)::depart( f0 p0)::up( f0 f1)::up( f0 f1)::down( f1 f0)::up( f0 f1)::down( f1 f0)::up( f0 f1)::board( f1 p0)::down( f1 f0)::depart( f0 p0)::up( f0 f1)::down( f1 f0)::up( f0 f1)
depart( f0 p0)::board( f1 p0)::up( f0 f1)::down( f1 f0)::down( f1 f0)::up( f0 f1)::board( f1 p0)::board( f1 p0)::down( f1 f0)::up( f0 f1)
down( f1 f0)::up( f0 f1)::down( f1 f0)::up( f0 f1)::board( f1 p0)::down( f1 f0)::up( f0 f1)::board( f1 p0)::board( f1 p0)::board( f1 p0)::board( f1 p0)::down( f1 f0)::up( f0 f1)::depart( f0 p0)
board( f1 p0)::depart( f0 p0)::board( f1 p0)::down( f1 f0)::depart( f0 p0)::up( f0 f1)::board( f1 p0)::down( f1 f0)::up( f0 f1)::down( f1 f0)::board( f1 p0)::depart( f0 p0)::up( f0 f1)
board( f1 p0)::board( f1 p0)::board( f1 p0)::board( f1 p0)::board( f1 p0)::board( f1 p0)::down( f1 f0)::up( f0 f1)::down( f1 f0)::depart( f0 p0)::up( f0 f1)::up( f0 f1)::down( f1 f0)
up( f0 f1)::up( f0 f1)::board( f1 p0)::board( f1 p0)::down( f1 f0)::depart( f0 p0)::up( f0 f1)::down( f1 f0)::up( f0 f1)::up( f0 f1)::board( f1 p0)::down( f1 f0)::depart( f0 p0)::up( f0 f1)
down( f1 f0)::depart( f0 p0)::up( f0 f1)::board( f1 p0)::down( f1 f0)::down( f1 f0)::depart( f0 p0)::up( f0 f1)
down( f1 f0)::up( f0 f1)::board( f1 p0)::down( f1 f0)::depart( f0 p0)::up( f0 f1)::down( f1 f0)::depart( f0 p0)::up( f0 f1)::board( f1 p0)::board( f1 p0)::board( f1 p0)::down( f1 f0)::up( f0 f1)::down( f1 f0)::up( f0 f1)
board( f1 p0)::down( f1 f0)::depart( f0 p0)::up( f0 f1)::down( f1 f0)::up( f0 f1)::down( f1 f0)::up( f0 f1)::board( f1 p0)::board( f1 p0)::down( f1 f0)::depart( f0 p0)::up( f0 f1)::board( f1 p0)::down( f1 f0)::down( f1 f0)::up( f0 f1)
board( f1 p0)::board( f1 p0)::board( f1 p0)::down( f1 f0)::up( f0 f1)::down( f1 f0)::depart( f0 p0)::up( f0 f1)::down( f1 f0)::up( f0 f1)::down( f1 f0)::up( f0 f1)::down( f1 f0)::depart( f0 p0)::up( f0 f1)
board( f1 p0)::board( f1 p0)::board( f1 p0)::down( f1 f0)::up( f0 f1)::board( f1 p0)::board( f1 p0)::depart( f0 p0)
board( f1 p0)::down( f1 f0)::up( f0 f1)::board( f1 p0)::board( f1 p0)::down( f1 f0)::depart( f0 p0)::up( f0 f1)::down( f1 f0)::up( f0 f1)::down( f1 f0)::down( f1 f0)
down( f1 f0)::up( f0 f1)::depart( f0 p0)::down( f1 f0)::up( f0 f1)::down( f1 f0)::up( f0 f1)::board( f1 p0)::depart( f0 p0)::board( f1 p0)::down( f1 f0)::down( f1 f0)::board( f1 p0)::up( f0 f1)::down( f1 f0)::depart( f0 p0)
depart( f0 p0)::down( f1 f0)
down( f1 f0)::up( f0 f1)::board( f1 p0)::board( f1 p0)::down( f1 f0)::up( f0 f1)::board( f1 p0)::board( f1 p0)::down( f1 f0)::depart( f0 p0)::up( f0 f1)::down( f1 f0)::up( f0 f1)::down( f1 f0)::up( f0 f1)::board( f1 p0)::board( f1 p0)::board( f1 p0)::board( f1 p0)::down( f1 f0)::up( f0 f1)::board( f1 p0)::depart( f0 p0)
down( f1 f0)::down( f1 f0)::board( f1 p0)
down( f1 f0)::up( f0 f1)::down( f1 f0)::up( f0 f1)::board( f1 p0)::board( f1 p0)::board( f1 p0)::down( f1 f0)::up( f0 f1)::board( f1 p0)::down( f1 f0)::depart( f0 p0)::up( f0 f1)::down( f1 f0)::up( f0 f1)::down( f1 f0)::up( f0 f1)::board( f1 p0)::down( f1 f0)::depart( f0 p0)::up( f0 f1)::down( f1 f0)::up( f0 f1)::board( f1 p0)::down( f1 f0)::up( f0 f1)::board( f1 p0)::depart( f0 p0)
down( f1 f0)::up( f0 f1)::down( f1 f0)::up( f0 f1)::board( f1 p0)::board( f1 p0)::down( f1 f0)::up( f0 f1)::down( f1 f0)::depart( f0 p0)::up( f0 f1)::depart( f0 p0)
down( f1 f0)::depart( f0 p0)::depart( f0 p0)::up( f0 f1)::down( f1 f0)::up( f0 f1)::board( f1 p0)
board( f1 p0)::board( f1 p0)::board( f1 p0)::depart( f0 p0)::board( f1 p0)::board( f1 p0)::up( f0 f1)
down( f1 f0)::up( f0 f1)::board( f1 p0)::down( f1 f0)::depart( f0 p0)::down( f1 f0)::up( f0 f1)::down( f1 f0)::up( f0 f1)
depart( f0 p0)::board( f1 p0)::down( f1 f0)::depart( f0 p0)
board( f1 p0)::down( f1 f0)::up( f0 f1)::board( f1 p0)::down( f1 f0)::down( f1 f0)::depart( f0 p0)::up( f0 f1)::board( f1 p0)::up( f0 f1)::down( f1 f0)::up( f0 f1)::board( f1 p0)::board( f1 p0)::depart( f0 p0)
down( f1 f0)::up( f0 f1)::down( f1 f0)::up( f0 f1)::board( f1 p0)::down( f1 f0)::up( f0 f1)::board( f1 p0)::down( f1 f0)::depart( f0 p0)::up( f0 f1)::down( f1 f0)::up( f0 f1)::down( f1 f0)::up( f0 f1)::board( f1 p0)::up( f0 f1)::board( f1 p0)::down( f1 f0)
down( f1 f0)::up( f0 f1)::down( f1 f0)::up( f0 f1)::board( f1 p0)::board( f1 p0)::down( f1 f0)::up( f0 f1)::depart( f0 p0)::down( f1 f0)::up( f0 f1)::board( f1 p0)::board( f1 p0)
board( f1 p0)::down( f1 f0)::up( f0 f1)::board( f1 p0)::board( f1 p0)::down( f1 f0)::depart( f0 p0)::up( f0 f1)::down( f1 f0)::up( f0 f1)::depart( f0 p0)::down( f1 f0)::up( f0 f1)::up( f0 f1)::depart( f0 p0)::down( f1 f0)::up( f0 f1)
board( f1 p0)::board( f1 p0)::down( f1 f0)::depart( f0 p0)::up( f0 f1)::board( f1 p0)::board( f1 p0)::board( f1 p0)::board( f1 p0)::board( f1 p0)::board( f1 p0)::board( f1 p0)::board( f1 p0)::down( f1 f0)::up( f0 f1)::board( f1 p0)::board( f1 p0)::down( f1 f0)::up( f0 f1)::board( f1 p0)::board( f1 p0)::board( f1 p0)::board( f1 p0)::board( f1 p0)::board( f1 p0)::down( f1 f0)::depart( f0 p0)::up( f0 f1)::board( f1 p0)::up( f0 f1)
board( f1 p0)::down( f1 f0)::depart( f0 p0)::up( f0 f1)::board( f1 p0)::down( f1 f0)::up( f0 f1)::board( f1 p0)::down( f1 f0)::depart( f0 p0)::up( f0 f1)::down( f1 f0)::up( f0 f1)::down( f1 f0)::up( f0 f1)::down( f1 f0)::board( f1 p0)
down( f1 f0)::down( f1 f0)::up( f0 f1)::board( f1 p0)::up( f0 f1)::down( f1 f0)
board( f1 p0)::down( f1 f0)::up( f0 f1)::depart( f0 p0)::board( f1 p0)::down( f1 f0)::board( f1 p0)::depart( f0 p0)::up( f0 f1)::board( f1 p0)::up( f0 f1)::down( f1 f0)::up( f0 f1)::board( f1 p0)::down( f1 f0)::depart( f0 p0)::up( f0 f1)
up( f0 f1)::depart( f0 p0)::down( f1 f0)::up( f0 f1)::board( f1 p0)::depart( f0 p0)
down( f1 f0)::up( f0 f1)::board( f1 p0)::down( f1 f0)::depart( f0 p0)::up( f0 f1)::board( f1 p0)::down( f1 f0)::up( f0 f1)::board( f1 p0)::board( f1 p0)::down( f1 f0)::up( f0 f1)::board( f1 p0)::down( f1 f0)::up( f0 f1)::down( f1 f0)::up( f0 f1)::up( f0 f1)
down( f1 f0)::up( f0 f1)::board( f1 p0)::depart( f0 p0)
board( f1 p0)::down( f1 f0)::depart( f0 p0)::down( f1 f0)
down( f1 f0)::up( f0 f1)::down( f1 f0)::up( f0 f1)::board( f1 p0)::board( f1 p0)::down( f1 f0)::depart( f0 p0)::up( f0 f1)::down( f1 f0)::depart( f0 p0)::up( f0 f1)::depart( f0 p0)
down( f1 f0)::depart( f0 p0)::depart( f0 p0)::up( f0 f1)::board( f1 p0)::board( f1 p0)::down( f1 f0)::up( f0 f1)::down( f1 f0)::up( f0 f1)::down( f1 f0)::up( f0 f1)::down( f1 f0)::up( f0 f1)::board( f1 p0)::board( f1 p0)::down( f1 f0)::depart( f0 p0)::up( f0 f1)::down( f1 f0)
down( f1 f0)::up( f0 f1)::board( f1 p0)::board( f1 p0)::board( f1 p0)::down( f1 f0)::depart( f0 p0)::up( f0 f1)::board( f1 p0)::depart( f0 p0)::board( f1 p0)::board( f1 p0)::down( f1 f0)::depart( f0 p0)::up( f0 f1)::down( f1 f0)::up( f0 f1)::board( f1 p0)
board( f1 p0)::depart( f0 p0)::board( f1 p0)::board( f1 p0)::board( f1 p0)::down( f1 f0)
board( f1 p0)::down( f1 f0)::depart( f0 p0)::down( f1 f0)::up( f0 f1)
down( f1 f0)::up( f0 f1)::board( f1 p0)::board( f1 p0)::down( f1 f0)::depart( f0 p0)::up( f0 f1)::board( f1 p0)::up( f0 f1)::down( f1 f0)::up( f0 f1)::board( f1 p0)::down( f1 f0)::down( f1 f0)::board( f1 p0)::depart( f0 p0)
board( f1 p0)::depart( f0 p0)::down( f1 f0)::up( f0 f1)::down( f1 f0)::up( f0 f1)::down( f1 f0)::up( f0 f1)::down( f1 f0)::up( f0 f1)::up( f0 f1)
board( f1 p0)::board( f1 p0)::board( f1 p0)::board( f1 p0)::board( f1 p0)::up( f0 f1)::board( f1 p0)
down( f1 f0)::up( f0 f1)::board( f1 p0)::down( f1 f0)::depart( f0 p0)::up( f0 f1)::down( f1 f0)::up( f0 f1)::board( f1 p0)::board( f1 p0)::board( f1 p0)::board( f1 p0)::down( f1 f0)::up( f0 f1)::board( f1 p0)::board( f1 p0)::board( f1 p0)::board( f1 p0)::board( f1 p0)::board( f1 p0)::down( f1 f0)::board( f1 p0)
down( f1 f0)::up( f0 f1)::down( f1 f0)::up( f0 f1)::board( f1 p0)::up( f0 f1)::board( f1 p0)::down( f1 f0)::depart( f0 p0)::up( f0 f1)::board( f1 p0)::down( f1 f0)::up( f0 f1)::down( f1 f0)::depart( f0 p0)::up( f0 f1)
down( f1 f0)::up( f0 f1)::board( f1 p0)::down( f1 f0)::depart( f0 p0)::up( f0 f1)::down( f1 f0)::up( f0 f1)::down( f1 f0)::up( f0 f1)::down( f1 f0)::up( f0 f1)::depart( f0 p0)::board( f1 p0)
down( f1 f0)::up( f0 f1)::down( f1 f0)::up( f0 f1)::down( f1 f0)::up( f0 f1)::board( f1 p0)::down( f1 f0)::up( f0 f1)::board( f1 p0)::down( f1 f0)::up( f0 f1)::down( f1 f0)::depart( f0 p0)::up( f0 f1)::board( f1 p0)::down( f1 f0)::depart( f0 p0)::up( f0 f1)::board( f1 p0)::down( f1 f0)::depart( f0 p0)::up( f0 f1)::down( f1 f0)::up( f0 f1)::board( f1 p0)::board( f1 p0)::board( f1 p0)::board( f1 p0)::board( f1 p0)::down( f1 f0)::depart( f0 p0)::up( f0 f1)::board( f1 p0)::down( f1 f0)::depart( f0 p0)::up( f0 f1)::down( f1 f0)::up( f0 f1)::board( f1 p0)::down( f1 f0)::depart( f0 p0)::up( f0 f1)::down( f1 f0)::up( f0 f1)::down( f1 f0)::depart( f0 p0)
down( f1 f0)::board( f1 p0)
board( f1 p0)::up( f0 f1)::board( f1 p0)
board( f1 p0)::down( f1 f0)::up( f0 f1)::down( f1 f0)::depart( f0 p0)::up( f0 f1)::board( f1 p0)::down( f1 f0)::up( f0 f1)::up( f0 f1)::board( f1 p0)::down( f1 f0)::depart( f0 p0)::up( f0 f1)::board( f1 p0)::board( f1 p0)
down( f1 f0)::up( f0 f1)::down( f1 f0)::up( f0 f1)::board( f1 p0)::down( f1 f0)::up( f0 f1)::down( f1 f0)::up( f0 f1)::down( f1 f0)::depart( f0 p0)::up( f0 f1)::down( f1 f0)::up( f0 f1)::down( f1 f0)::board( f1 p0)
board( f1 p0)::down( f1 f0)::board( f1 p0)::depart( f0 p0)::up( f0 f1)::board( f1 p0)::down( f1 f0)::up( f0 f1)::depart( f0 p0)::down( f1 f0)::depart( f0 p0)::up( f0 f1)::board( f1 p0)::down( f1 f0)::depart( f0 p0)::up( f0 f1)::down( f1 f0)
board( f1 p0)::board( f1 p0)::board( f1 p0)::board( f1 p0)::down( f1 f0)::depart( f0 p0)::up( f0 f1)::board( f1 p0)::down( f1 f0)::up( f0 f1)::board( f1 p0)::board( f1 p0)::board( f1 p0)::down( f1 f0)::depart( f0 p0)::up( f0 f1)::board( f1 p0)::board( f1 p0)::down( f1 f0)::down( f1 f0)
board( f1 p0)::down( f1 f0)::down( f1 f0)
down( f1 f0)::up( f0 f1)::down( f1 f0)::up( f0 f1)::depart( f0 p0)::down( f1 f0)::up( f0 f1)
board( f1 p0)::board( f1 p0)::board( f1 p0)::board( f1 p0)::board( f1 p0)::board( f1 p0)::up( f0 f1)::down( f1 f0)::depart( f0 p0)::up( f0 f1)::down( f1 f0)::up( f0 f1)::board( f1 p0)::depart( f0 p0)::down( f1 f0)::depart( f0 p0)::up( f0 f1)::down( f1 f0)::up( f0 f1)::down( f1 f0)
board( f1 p0)::up( f0 f1)::board( f1 p0)::board( f1 p0)::depart( f0 p0)::board( f1 p0)::down( f1 f0)::up( f0 f1)::down( f1 f0)::up( f0 f1)::down( f1 f0)
board( f1 p0)::down( f1 f0)::depart( f0 p0)::up( f0 f1)::board( f1 p0)::board( f1 p0)::board( f1 p0)::up( f0 f1)::up( f0 f1)::down( f1 f0)::depart( f0 p0)::board( f1 p0)
down( f1 f0)::up( f0 f1)::board( f1 p0)::down( f1 f0)::up( f0 f1)::board( f1 p0)::board( f1 p0)::down( f1 f0)::up( f0 f1)::board( f1 p0)::board( f1 p0)::down( f1 f0)::up( f0 f1)::down( f1 f0)::up( f0 f1)::up( f0 f1)
down( f1 f0)::up( f0 f1)::board( f1 p0)::down( f1 f0)::up( f0 f1)::down( f1 f0)::depart( f0 p0)::up( f0 f1)::down( f1 f0)::down( f1 f0)::up( f0 f1)
