# actions 18
# predicate 16
Initial state : pddl/blocksworld/initial_states/initial3.pddl
pddl/blocksworld/domain.pddl
E+ size : 100
E- size : 23864
e+ mean size : 45.41
e- mean size : 32.710526
############################################
### Fluent = 25.0% ###

*** Noise = 0.0% ***
Iteration 1
Time : 6.182
Syntactical distance : 0.11805556
Error Rate Precondition : 0.07721836
Error Rate Postcondition : 0.0
FSCORE : 0.16513762
Iteration 2
Size I+ 2
Size I- 137
Time : 16.566
Syntactical distance : 0.027777778
Error Rate Precondition : 0.019558316
Error Rate Postcondition : 0.05230849
FSCORE : 0.30508474
Iteration 3
Size I+ 3
Size I- 187
Time : 24.909
Syntactical distance : 0.0
Error Rate Precondition : 0.0
Error Rate Postcondition : 0.0
FSCORE : 1.0
Iteration 4
Size I+ 4
Size I- 264
Time : 37.098
Syntactical distance : 0.0
Error Rate Precondition : 0.0
Error Rate Postcondition : 0.0
FSCORE : 1.0
Iteration 5
Size I+ 5
Size I- 316
Time : 50.896
Syntactical distance : 0.0
Error Rate Precondition : 0.0
Error Rate Postcondition : 0.0
FSCORE : 1.0
Iteration 6
Size I+ 6
Size I- 355
Time : 66.163
Syntactical distance : 0.0
Error Rate Precondition : 0.0
Error Rate Postcondition : 0.0
FSCORE : 1.0
Iteration 7
Size I+ 7
Size I- 423
Time : 75.72
Syntactical distance : 0.0
Error Rate Precondition : 0.0
Error Rate Postcondition : 0.0
FSCORE : 1.0
Iteration 8
Size I+ 8
Size I- 487
Time : 86.986
Syntactical distance : 0.0
Error Rate Precondition : 0.0
Error Rate Postcondition : 0.0
FSCORE : 1.0
Iteration 9
Size I+ 9
Size I- 519
Time : 98.469
Syntactical distance : 0.0
Error Rate Precondition : 0.0
Error Rate Postcondition : 0.0
FSCORE : 1.0
Iteration 10
Size I+ 10
Size I- 569
Time : 111.361
Syntactical distance : 0.0
Error Rate Precondition : 0.0
Error Rate Postcondition : 0.0
FSCORE : 1.0
Iteration 11
Size I+ 11
Size I- 646
Time : 125.914
Syntactical distance : 0.0
Error Rate Precondition : 0.0
Error Rate Postcondition : 0.0
FSCORE : 1.0
Iteration 12
Size I+ 12
Size I- 721
Time : 142.858
Syntactical distance : 0.0
Error Rate Precondition : 0.0
Error Rate Postcondition : 0.0
FSCORE : 1.0
Iteration 13
Size I+ 13
Size I- 776
Time : 160.85
Syntactical distance : 0.0
Error Rate Precondition : 0.0
Error Rate Postcondition : 0.0
FSCORE : 1.0
Iteration 14
Size I+ 14
Size I- 849
Time : 183.802
Syntactical distance : 0.0
Error Rate Precondition : 0.0
Error Rate Postcondition : 0.0
FSCORE : 1.0
Iteration 15
Size I+ 15
Size I- 867
Time : 201.209
Syntactical distance : 0.0
Error Rate Precondition : 0.0
Error Rate Postcondition : 0.0
FSCORE : 1.0
Iteration 16
Size I+ 16
Size I- 933
Time : 224.462
Syntactical distance : 0.0
Error Rate Precondition : 0.0
Error Rate Postcondition : 0.0
FSCORE : 1.0
Iteration 17
Size I+ 17
Size I- 1055
Time : 250.796
Syntactical distance : 0.0
Error Rate Precondition : 0.0
Error Rate Postcondition : 0.0
FSCORE : 1.0
Iteration 18
Size I+ 18
Size I- 1111
Time : 278.301
Syntactical distance : 0.0
Error Rate Precondition : 0.0
Error Rate Postcondition : 0.0
FSCORE : 1.0
Iteration 19
Size I+ 19
Size I- 1150
Time : 310.938
Syntactical distance : 0.0
Error Rate Precondition : 0.0
Error Rate Postcondition : 0.0
FSCORE : 1.0
Iteration 20
Size I+ 20
Size I- 1180
Time : 334.691
Syntactical distance : 0.0
Error Rate Precondition : 0.0
Error Rate Postcondition : 0.0
FSCORE : 1.0
Iteration 21
Size I+ 21
Size I- 1262
Time : 375.137
Syntactical distance : 0.0
Error Rate Precondition : 0.0
Error Rate Postcondition : 0.0
FSCORE : 1.0
Iteration 22
Size I+ 22
Size I- 1333
Time : 402.459
Syntactical distance : 0.0
Error Rate Precondition : 0.0
Error Rate Postcondition : 0.0
FSCORE : 1.0
Iteration 23
Size I+ 23
Size I- 1394
Time : 439.045
Syntactical distance : 0.0
Error Rate Precondition : 0.0
Error Rate Postcondition : 0.0
FSCORE : 1.0
Iteration 24
Size I+ 24
Size I- 1444
Time : 479.231
Syntactical distance : 0.0
Error Rate Precondition : 0.0
Error Rate Postcondition : 0.0
FSCORE : 1.0
Iteration 25
Size I+ 25
Size I- 1537
Time : 526.466
Syntactical distance : 0.0
Error Rate Precondition : 0.0
Error Rate Postcondition : 0.0
FSCORE : 1.0
Iteration 26
Size I+ 26
Size I- 1566
Time : 569.004
Syntactical distance : 0.0
Error Rate Precondition : 0.0
Error Rate Postcondition : 0.0
FSCORE : 1.0
Iteration 27
Size I+ 27
Size I- 1614
Time : 614.537
Syntactical distance : 0.0
Error Rate Precondition : 0.0
Error Rate Postcondition : 0.0
FSCORE : 1.0
Iteration 28
Size I+ 28
Size I- 1689
Time : 649.782
Syntactical distance : 0.0
Error Rate Precondition : 0.0
Error Rate Postcondition : 0.0
FSCORE : 1.0
Iteration 29
Size I+ 29
Size I- 1757
Time : 717.605
Syntactical distance : 0.0
Error Rate Precondition : 0.0
Error Rate Postcondition : 0.0
FSCORE : 1.0
Iteration 30
Size I+ 30
Size I- 1848
Time : 774.824
Syntactical distance : 0.0
Error Rate Precondition : 0.0
Error Rate Postcondition : 0.0
FSCORE : 1.0

*** Noise = 20.0% ***
Iteration 1
Time : 5.723
Syntactical distance : 0.13657407
Error Rate Precondition : 0.14016415
Error Rate Postcondition : 0.086317904
FSCORE : 0.16513762
Iteration 2
Size I+ 2
Size I- 137
Time : 16.103
Syntactical distance : 0.074074075
Error Rate Precondition : 0.11617185
Error Rate Postcondition : 0.0
FSCORE : 0.17486338
Iteration 3
Size I+ 3
Size I- 187
Time : 27.84
Syntactical distance : 0.027777778
Error Rate Precondition : 0.046728607
Error Rate Postcondition : 0.0
FSCORE : 1.0
Iteration 4
Size I+ 4
Size I- 264
Time : 52.074
Syntactical distance : 0.055555556
Error Rate Precondition : 0.07573488
Error Rate Postcondition : 0.08635219
FSCORE : 1.0
Iteration 5
Size I+ 5
Size I- 316
Time : 85.225
Syntactical distance : 0.027777778
Error Rate Precondition : 0.046728607
Error Rate Postcondition : 0.0
FSCORE : 1.0
Iteration 6
Size I+ 6
Size I- 355
Time : 106.007
Syntactical distance : 0.083333336
Error Rate Precondition : 0.12644129
Error Rate Postcondition : 0.10579966
FSCORE : 0.6289308
Iteration 7
Size I+ 7
Size I- 423
Time : 131.046
Syntactical distance : 0.083333336
Error Rate Precondition : 0.12644129
Error Rate Postcondition : 0.10579966
FSCORE : 0.6289308
Iteration 8
Size I+ 8
Size I- 487
Time : 159.295
Syntactical distance : 0.074074075
Error Rate Precondition : 0.12644129
Error Rate Postcondition : 0.06233049
FSCORE : 1.0
Iteration 9
Size I+ 9
Size I- 519
Time : 187.532
Syntactical distance : 0.074074075
Error Rate Precondition : 0.12644129
Error Rate Postcondition : 0.06233049
FSCORE : 1.0
Iteration 10
Size I+ 10
Size I- 569
Time : 222.796
Syntactical distance : 0.074074075
Error Rate Precondition : 0.12644129
Error Rate Postcondition : 0.06233049
FSCORE : 1.0
Iteration 11
Size I+ 11
Size I- 646
Time : 262.97
Syntactical distance : 0.074074075
Error Rate Precondition : 0.12644129
Error Rate Postcondition : 0.06233049
FSCORE : 1.0
Iteration 12
Size I+ 12
Size I- 721
Time : 333.185
Syntactical distance : 0.0462963
Error Rate Precondition : 0.0801715
Error Rate Postcondition : 0.055637214
FSCORE : 0.22962113
Iteration 13
Size I+ 13
Size I- 776
Time : 411.532
Syntactical distance : 0.0462963
Error Rate Precondition : 0.0801715
Error Rate Postcondition : 0.055637214
FSCORE : 0.22962113
Iteration 14
Size I+ 14
Size I- 849
Time : 457.418
Syntactical distance : 0.06481481
Error Rate Precondition : 0.08757388
Error Rate Postcondition : 0.06233049
FSCORE : 1.0
Iteration 15
Size I+ 15
Size I- 867
Time : 496.45
Syntactical distance : 0.06481481
Error Rate Precondition : 0.08757388
Error Rate Postcondition : 0.06233049
FSCORE : 1.0
Iteration 16
Size I+ 16
Size I- 933
Time : 541.323
Syntactical distance : 0.06481481
Error Rate Precondition : 0.08757388
Error Rate Postcondition : 0.06233049
FSCORE : 1.0
Iteration 17
Size I+ 17
Size I- 1055
Time : 594.733
Syntactical distance : 0.06481481
Error Rate Precondition : 0.08757388
Error Rate Postcondition : 0.06233049
FSCORE : 1.0
Iteration 18
Size I+ 18
Size I- 1111
Time : 650.784
Syntactical distance : 0.06481481
Error Rate Precondition : 0.08757388
Error Rate Postcondition : 0.06233049
FSCORE : 1.0
Iteration 19
Size I+ 19
Size I- 1150
Time : 708.656
Syntactical distance : 0.06481481
Error Rate Precondition : 0.08757388
Error Rate Postcondition : 0.06233049
FSCORE : 1.0
Iteration 20
Size I+ 20
Size I- 1180
Time : 760.741
Syntactical distance : 0.06481481
Error Rate Precondition : 0.08757388
Error Rate Postcondition : 0.06233049
FSCORE : 1.0
Iteration 21
Size I+ 21
Size I- 1262
Time : 803.778
Syntactical distance : 0.06481481
Error Rate Precondition : 0.08757388
Error Rate Postcondition : 0.06233049
FSCORE : 1.0
Iteration 22
Size I+ 22
Size I- 1333
Time : 833.723
Syntactical distance : 0.055555556
Error Rate Precondition : 0.08757388
Error Rate Postcondition : 0.058915082
FSCORE : 1.0
Iteration 23
Size I+ 23
Size I- 1394
Time : 873.063
Syntactical distance : 0.055555556
Error Rate Precondition : 0.08757388
Error Rate Postcondition : 0.058915082
FSCORE : 1.0
Iteration 24
Size I+ 24
Size I- 1444
Time : 916.102
Syntactical distance : 0.055555556
Error Rate Precondition : 0.08757388
Error Rate Postcondition : 0.058915082
FSCORE : 1.0
Iteration 25
Size I+ 25
Size I- 1537
Time : 1006.2
Syntactical distance : 0.0
Error Rate Precondition : 0.0
Error Rate Postcondition : 0.0
FSCORE : 1.0
Iteration 26
Size I+ 26
Size I- 1566
Time : 1048.633
Syntactical distance : 0.0
Error Rate Precondition : 0.0
Error Rate Postcondition : 0.0
FSCORE : 1.0
Iteration 27
Size I+ 27
Size I- 1614
Time : 1093.957
Syntactical distance : 0.0
Error Rate Precondition : 0.0
Error Rate Postcondition : 0.0
FSCORE : 1.0
Iteration 28
Size I+ 28
Size I- 1689
Time : 1128.978
Syntactical distance : 0.0
Error Rate Precondition : 0.0
Error Rate Postcondition : 0.0
FSCORE : 1.0
Iteration 29
Size I+ 29
Size I- 1757
Time : 1196.283
Syntactical distance : 0.0
Error Rate Precondition : 0.0
Error Rate Postcondition : 0.0
FSCORE : 1.0
Iteration 30
Size I+ 30
Size I- 1848
Time : 1253.275
Syntactical distance : 0.0
Error Rate Precondition : 0.0
Error Rate Postcondition : 0.0
FSCORE : 1.0
############################################
### Fluent = 100.0% ###

*** Noise = 0.0% ***
Iteration 1
Time : 1.312
Syntactical distance : 0.0
Error Rate Precondition : 0.021299109
Error Rate Postcondition : 0.0
FSCORE : 0.16513762
Iteration 2
Size I+ 2
Size I- 146
Time : 4.528
Syntactical distance : 0.0
Error Rate Precondition : 0.0
Error Rate Postcondition : 0.0
FSCORE : 1.0
Iteration 3
Size I+ 3
Size I- 277
Time : 10.632
Syntactical distance : 0.0
Error Rate Precondition : 0.0
Error Rate Postcondition : 0.0
FSCORE : 1.0
Iteration 4
Size I+ 4
Size I- 328
Time : 17.742
Syntactical distance : 0.0
Error Rate Precondition : 0.0
Error Rate Postcondition : 0.0
FSCORE : 1.0
Iteration 5
Size I+ 5
Size I- 415
Time : 26.882
Syntactical distance : 0.0
Error Rate Precondition : 0.0
Error Rate Postcondition : 0.0
FSCORE : 1.0
Iteration 6
Size I+ 6
Size I- 466
Time : 37.097
Syntactical distance : 0.0
Error Rate Precondition : 0.0
Error Rate Postcondition : 0.0
FSCORE : 1.0
Iteration 7
Size I+ 7
Size I- 503
Time : 48.753
Syntactical distance : 0.0
Error Rate Precondition : 0.0
Error Rate Postcondition : 0.0
FSCORE : 1.0
Iteration 8
Size I+ 8
Size I- 542
Time : 61.077
Syntactical distance : 0.0
Error Rate Precondition : 0.0
Error Rate Postcondition : 0.0
FSCORE : 1.0
Iteration 9
Size I+ 9
Size I- 637
Time : 75.716
Syntactical distance : 0.0
Error Rate Precondition : 0.0
Error Rate Postcondition : 0.0
FSCORE : 1.0
Iteration 10
Size I+ 10
Size I- 710
Time : 91.784
Syntactical distance : 0.0
Error Rate Precondition : 0.0
Error Rate Postcondition : 0.0
FSCORE : 1.0
Iteration 11
Size I+ 11
Size I- 783
Time : 110.184
Syntactical distance : 0.0
Error Rate Precondition : 0.0
Error Rate Postcondition : 0.0
FSCORE : 1.0
Iteration 12
Size I+ 12
Size I- 833
Time : 130.293
Syntactical distance : 0.0
Error Rate Precondition : 0.0
Error Rate Postcondition : 0.0
FSCORE : 1.0
Iteration 13
Size I+ 13
Size I- 870
Time : 151.598
Syntactical distance : 0.0
Error Rate Precondition : 0.0
Error Rate Postcondition : 0.0
FSCORE : 1.0
Iteration 14
Size I+ 14
Size I- 960
Time : 175.845
Syntactical distance : 0.0
Error Rate Precondition : 0.0
Error Rate Postcondition : 0.0
FSCORE : 1.0
Iteration 15
Size I+ 15
Size I- 1017
Time : 201.762
Syntactical distance : 0.0
Error Rate Precondition : 0.0
Error Rate Postcondition : 0.0
FSCORE : 1.0
Iteration 16
Size I+ 16
Size I- 1065
Time : 228.486
Syntactical distance : 0.0
Error Rate Precondition : 0.0
Error Rate Postcondition : 0.0
FSCORE : 1.0
Iteration 17
Size I+ 17
Size I- 1122
Time : 251.667
Syntactical distance : 0.0
Error Rate Precondition : 0.0
Error Rate Postcondition : 0.0
FSCORE : 1.0
Iteration 18
Size I+ 18
Size I- 1209
Time : 282.98
Syntactical distance : 0.0
Error Rate Precondition : 0.0
Error Rate Postcondition : 0.0
FSCORE : 1.0
Iteration 19
Size I+ 19
Size I- 1260
Time : 314.725
Syntactical distance : 0.0
Error Rate Precondition : 0.0
Error Rate Postcondition : 0.0
FSCORE : 1.0
Iteration 20
Size I+ 20
Size I- 1311
Time : 348.051
Syntactical distance : 0.0
Error Rate Precondition : 0.0
Error Rate Postcondition : 0.0
FSCORE : 1.0
Iteration 21
Size I+ 21
Size I- 1357
Time : 376.095
Syntactical distance : 0.0
Error Rate Precondition : 0.0
Error Rate Postcondition : 0.0
FSCORE : 1.0
Iteration 22
Size I+ 22
Size I- 1422
Time : 412.2
Syntactical distance : 0.0
Error Rate Precondition : 0.0
Error Rate Postcondition : 0.0
FSCORE : 1.0
Iteration 23
Size I+ 23
Size I- 1456
Time : 441.917
Syntactical distance : 0.0
Error Rate Precondition : 0.0
Error Rate Postcondition : 0.0
FSCORE : 1.0
Iteration 24
Size I+ 24
Size I- 1476
Time : 471.938
Syntactical distance : 0.0
Error Rate Precondition : 0.0
Error Rate Postcondition : 0.0
FSCORE : 1.0
Iteration 25
Size I+ 25
Size I- 1527
Time : 509.734
Syntactical distance : 0.0
Error Rate Precondition : 0.0
Error Rate Postcondition : 0.0
FSCORE : 1.0
Iteration 26
Size I+ 26
Size I- 1581
Time : 541.851
Syntactical distance : 0.0
Error Rate Precondition : 0.0
Error Rate Postcondition : 0.0
FSCORE : 1.0
Iteration 27
Size I+ 27
Size I- 1641
Time : 581.768
Syntactical distance : 0.0
Error Rate Precondition : 0.0
Error Rate Postcondition : 0.0
FSCORE : 1.0
Iteration 28
Size I+ 28
Size I- 1723
Time : 616.899
Syntactical distance : 0.0
Error Rate Precondition : 0.0
Error Rate Postcondition : 0.0
FSCORE : 1.0
Iteration 29
Size I+ 29
Size I- 1769
Time : 652.701
Syntactical distance : 0.0
Error Rate Precondition : 0.0
Error Rate Postcondition : 0.0
FSCORE : 1.0
Iteration 30
Size I+ 30
Size I- 1894
Time : 696.313
Syntactical distance : 0.0
Error Rate Precondition : 0.0
Error Rate Postcondition : 0.0
FSCORE : 1.0

*** Noise = 20.0% ***
Iteration 1
Time : 4.639
Syntactical distance : 0.055555556
Error Rate Precondition : 0.024359776
Error Rate Postcondition : 0.0
FSCORE : 0.073469386
Iteration 2
Size I+ 2
Size I- 146
Time : 12.092
Syntactical distance : 0.0
Error Rate Precondition : 0.0
Error Rate Postcondition : 0.0
FSCORE : 1.0
Iteration 3
Size I+ 3
Size I- 277
Time : 19.334
Syntactical distance : 0.027777778
Error Rate Precondition : 0.081644
Error Rate Postcondition : 0.0
FSCORE : 0.01980198
Iteration 4
Size I+ 4
Size I- 328
Time : 38.163
Syntactical distance : 0.0
Error Rate Precondition : 0.0
Error Rate Postcondition : 0.0
FSCORE : 1.0
Iteration 5
Size I+ 5
Size I- 415
Time : 59.784
Syntactical distance : 0.0
Error Rate Precondition : 0.0
Error Rate Postcondition : 0.0
FSCORE : 1.0
Iteration 6
Size I+ 6
Size I- 466
Time : 84.08
Syntactical distance : 0.0
Error Rate Precondition : 0.0
Error Rate Postcondition : 0.0
FSCORE : 1.0
Iteration 7
Size I+ 7
Size I- 503
Time : 107.727
Syntactical distance : 0.0
Error Rate Precondition : 0.0
Error Rate Postcondition : 0.0
FSCORE : 1.0
Iteration 8
Size I+ 8
Size I- 542
Time : 132.891
Syntactical distance : 0.0
Error Rate Precondition : 0.0
Error Rate Postcondition : 0.0
FSCORE : 1.0
Iteration 9
Size I+ 9
Size I- 637
Time : 162.638
Syntactical distance : 0.0
Error Rate Precondition : 0.0
Error Rate Postcondition : 0.0
FSCORE : 1.0
Iteration 10
Size I+ 10
Size I- 710
Time : 194.187
Syntactical distance : 0.0462963
Error Rate Precondition : 0.07703374
Error Rate Postcondition : 0.055637214
FSCORE : 0.22962113
Iteration 11
Size I+ 11
Size I- 783
Time : 229.83
Syntactical distance : 0.0
Error Rate Precondition : 0.0
Error Rate Postcondition : 0.0
FSCORE : 1.0
Iteration 12
Size I+ 12
Size I- 833
Time : 249.95
Syntactical distance : 0.0
Error Rate Precondition : 0.0
Error Rate Postcondition : 0.0
FSCORE : 1.0
Iteration 13
Size I+ 13
Size I- 870
Time : 271.316
Syntactical distance : 0.0
Error Rate Precondition : 0.0
Error Rate Postcondition : 0.0
FSCORE : 1.0
Iteration 14
Size I+ 14
Size I- 960
Time : 295.636
Syntactical distance : 0.0
Error Rate Precondition : 0.0
Error Rate Postcondition : 0.0
FSCORE : 1.0
Iteration 15
Size I+ 15
Size I- 1017
Time : 321.483
Syntactical distance : 0.0
Error Rate Precondition : 0.0
Error Rate Postcondition : 0.0
FSCORE : 1.0
Iteration 16
Size I+ 16
Size I- 1065
Time : 368.996
Syntactical distance : 0.0462963
Error Rate Precondition : 0.07703374
Error Rate Postcondition : 0.055637214
FSCORE : 0.22962113
Iteration 17
Size I+ 17
Size I- 1122
Time : 414.007
Syntactical distance : 0.0462963
Error Rate Precondition : 0.07703374
Error Rate Postcondition : 0.055637214
FSCORE : 0.22962113
Iteration 18
Size I+ 18
Size I- 1209
Time : 469.434
Syntactical distance : 0.0462963
Error Rate Precondition : 0.07703374
Error Rate Postcondition : 0.055637214
FSCORE : 0.22962113
Iteration 19
Size I+ 19
Size I- 1260
Time : 562.085
Syntactical distance : 0.0
Error Rate Precondition : 0.0
Error Rate Postcondition : 0.0
FSCORE : 1.0
Iteration 20
Size I+ 20
Size I- 1311
Time : 595.473
Syntactical distance : 0.0
Error Rate Precondition : 0.0
Error Rate Postcondition : 0.0
FSCORE : 1.0
Iteration 21
Size I+ 21
Size I- 1357
Time : 623.636
Syntactical distance : 0.0
Error Rate Precondition : 0.0
Error Rate Postcondition : 0.0
FSCORE : 1.0
Iteration 22
Size I+ 22
Size I- 1422
Time : 659.96
Syntactical distance : 0.0
Error Rate Precondition : 0.0
Error Rate Postcondition : 0.0
FSCORE : 1.0
Iteration 23
Size I+ 23
Size I- 1456
Time : 689.89
Syntactical distance : 0.0
Error Rate Precondition : 0.0
Error Rate Postcondition : 0.0
FSCORE : 1.0
Iteration 24
Size I+ 24
Size I- 1476
Time : 720.072
Syntactical distance : 0.0
Error Rate Precondition : 0.0
Error Rate Postcondition : 0.0
FSCORE : 1.0
Iteration 25
Size I+ 25
Size I- 1527
Time : 829.179
Syntactical distance : 0.0
Error Rate Precondition : 0.0
Error Rate Postcondition : 0.0
FSCORE : 1.0
Iteration 26
Size I+ 26
Size I- 1581
Time : 935.461
Syntactical distance : 0.0
Error Rate Precondition : 0.0
Error Rate Postcondition : 0.0
FSCORE : 1.0
Iteration 27
Size I+ 27
Size I- 1641
Time : 1082.629
Syntactical distance : 0.0
Error Rate Precondition : 0.0
Error Rate Postcondition : 0.0
FSCORE : 1.0
Iteration 28
Size I+ 28
Size I- 1723
Time : 1220.41
Syntactical distance : 0.0
Error Rate Precondition : 0.0
Error Rate Postcondition : 0.0
FSCORE : 1.0
Iteration 29
Size I+ 29
Size I- 1769
Time : 1365.164
Syntactical distance : 0.0
Error Rate Precondition : 0.0
Error Rate Postcondition : 0.0
FSCORE : 1.0
Iteration 30
Size I+ 30
Size I- 1894
Time : 1596.409
Syntactical distance : 0.0
Error Rate Precondition : 0.0
Error Rate Postcondition : 0.0
FSCORE : 1.0
E+ size : 100
E- size : 28025
e+ mean size : 54.08
e- mean size : 37.01067
############################################
### Fluent = 25.0% ###

*** Noise = 0.0% ***
Iteration 1
Time : 2.565
Syntactical distance : 0.1898148
Error Rate Precondition : 0.10006347
Error Rate Postcondition : 0.06545242
FSCORE : 0.036144577
Iteration 2
Size I+ 2
Size I- 101
Time : 7.388
Syntactical distance : 0.0462963
Error Rate Precondition : 0.020379044
Error Rate Postcondition : 0.028988007
FSCORE : 0.14615385
Iteration 3
Size I+ 3
Size I- 165
Time : 16.06
Syntactical distance : 0.0462963
Error Rate Precondition : 0.07618374
Error Rate Postcondition : 0.0
FSCORE : 0.23008849
Iteration 4
Size I+ 4
Size I- 273
Time : 28.047
Syntactical distance : 0.0
Error Rate Precondition : 0.0
Error Rate Postcondition : 0.0
FSCORE : 1.0
Iteration 5
Size I+ 5
Size I- 317
Time : 42.718
Syntactical distance : 0.0
Error Rate Precondition : 0.0
Error Rate Postcondition : 0.0
FSCORE : 1.0
Iteration 6
Size I+ 6
Size I- 343
Time : 58.406
Syntactical distance : 0.0
Error Rate Precondition : 0.0
Error Rate Postcondition : 0.0
FSCORE : 1.0
Iteration 7
Size I+ 7
Size I- 390
Time : 75.608
Syntactical distance : 0.0
Error Rate Precondition : 0.0
Error Rate Postcondition : 0.0
FSCORE : 1.0
Iteration 8
Size I+ 8
Size I- 449
Time : 95.495
Syntactical distance : 0.018518519
Error Rate Precondition : 0.018676976
Error Rate Postcondition : 0.025647877
FSCORE : 0.2317073
Iteration 9
Size I+ 9
Size I- 519
Time : 117.537
Syntactical distance : 0.018518519
Error Rate Precondition : 0.018676976
Error Rate Postcondition : 0.025647877
FSCORE : 0.2317073
Iteration 10
Size I+ 10
Size I- 608
Time : 130.325
Syntactical distance : 0.0
Error Rate Precondition : 0.0
Error Rate Postcondition : 0.0
FSCORE : 1.0
Iteration 11
Size I+ 11
Size I- 694
Time : 145.187
Syntactical distance : 0.0
Error Rate Precondition : 0.0
Error Rate Postcondition : 0.0
FSCORE : 1.0
Iteration 12
Size I+ 12
Size I- 779
Time : 161.934
Syntactical distance : 0.0
Error Rate Precondition : 0.0
Error Rate Postcondition : 0.0
FSCORE : 1.0
Iteration 13
Size I+ 13
Size I- 893
Time : 181.168
Syntactical distance : 0.0
Error Rate Precondition : 0.0
Error Rate Postcondition : 0.0
FSCORE : 1.0
Iteration 14
Size I+ 14
Size I- 1011
Time : 203.868
Syntactical distance : 0.0
Error Rate Precondition : 0.0
Error Rate Postcondition : 0.0
FSCORE : 1.0
Iteration 15
Size I+ 15
Size I- 1116
Time : 229.932
Syntactical distance : 0.0
Error Rate Precondition : 0.0
Error Rate Postcondition : 0.0
FSCORE : 1.0
Iteration 16
Size I+ 16
Size I- 1167
Time : 255.454
Syntactical distance : 0.0
Error Rate Precondition : 0.0
Error Rate Postcondition : 0.0
FSCORE : 1.0
Iteration 17
Size I+ 17
Size I- 1226
Time : 286.034
Syntactical distance : 0.0
Error Rate Precondition : 0.0
Error Rate Postcondition : 0.0
FSCORE : 1.0
Iteration 18
Size I+ 18
Size I- 1253
Time : 312.935
Syntactical distance : 0.0
Error Rate Precondition : 0.0
Error Rate Postcondition : 0.0
FSCORE : 1.0
Iteration 19
Size I+ 19
Size I- 1301
Time : 340.586
Syntactical distance : 0.0
Error Rate Precondition : 0.0
Error Rate Postcondition : 0.0
FSCORE : 1.0
Iteration 20
Size I+ 20
Size I- 1345
Time : 369.314
Syntactical distance : 0.0
Error Rate Precondition : 0.0
Error Rate Postcondition : 0.0
FSCORE : 1.0
Iteration 21
Size I+ 21
Size I- 1441
Time : 404.577
Syntactical distance : 0.0
Error Rate Precondition : 0.0
Error Rate Postcondition : 0.0
FSCORE : 1.0
Iteration 22
Size I+ 22
Size I- 1493
Time : 442.356
Syntactical distance : 0.0
Error Rate Precondition : 0.0
Error Rate Postcondition : 0.0
FSCORE : 1.0
Iteration 23
Size I+ 23
Size I- 1567
Time : 481.32
Syntactical distance : 0.0
Error Rate Precondition : 0.0
Error Rate Postcondition : 0.0
FSCORE : 1.0
Iteration 24
Size I+ 24
Size I- 1608
Time : 515.144
Syntactical distance : 0.0
Error Rate Precondition : 0.0
Error Rate Postcondition : 0.0
FSCORE : 1.0
Iteration 25
Size I+ 25
Size I- 1676
Time : 550.3
Syntactical distance : 0.0
Error Rate Precondition : 0.0
Error Rate Postcondition : 0.0
FSCORE : 1.0
Iteration 26
Size I+ 26
Size I- 1723
Time : 590.043
Syntactical distance : 0.0
Error Rate Precondition : 0.0
Error Rate Postcondition : 0.0
FSCORE : 1.0
Iteration 27
Size I+ 27
Size I- 1763
Time : 627.403
Syntactical distance : 0.0
Error Rate Precondition : 0.0
Error Rate Postcondition : 0.0
FSCORE : 1.0
Iteration 28
Size I+ 28
Size I- 1800
Time : 665.315
Syntactical distance : 0.0
Error Rate Precondition : 0.0
Error Rate Postcondition : 0.0
FSCORE : 1.0
Iteration 29
Size I+ 29
Size I- 1858
Time : 704.196
Syntactical distance : 0.0
Error Rate Precondition : 0.0
Error Rate Postcondition : 0.0
FSCORE : 1.0
Iteration 30
Size I+ 30
Size I- 1880
Time : 743.473
Syntactical distance : 0.0
Error Rate Precondition : 0.0
Error Rate Postcondition : 0.0
FSCORE : 1.0

*** Noise = 20.0% ***
Iteration 1
Time : 3.141
Syntactical distance : 0.18981482
Error Rate Precondition : 0.09817616
Error Rate Postcondition : 0.16114707
FSCORE : 0.051612906
Iteration 2
Size I+ 2
Size I- 101
Time : 10.922
Syntactical distance : 0.074074075
Error Rate Precondition : 0.06833156
Error Rate Postcondition : 0.033328373
FSCORE : 0.23008849
Iteration 3
Size I+ 3
Size I- 165
Time : 22.745
Syntactical distance : 0.08796297
Error Rate Precondition : 0.06773679
Error Rate Postcondition : 0.0
FSCORE : 0.17500001
Iteration 4
Size I+ 4
Size I- 273
Time : 23.335
Syntactical distance : 0.17129631
Error Rate Precondition : 0.06362629
Error Rate Postcondition : 0.1419737
FSCORE : 0.055813953
Iteration 5
Size I+ 5
Size I- 317
Time : 54.052
Syntactical distance : 0.0
Error Rate Precondition : 0.0
Error Rate Postcondition : 0.0
FSCORE : 1.0
Iteration 6
Size I+ 6
Size I- 343
Time : 74.735
Syntactical distance : 0.0
Error Rate Precondition : 0.0
Error Rate Postcondition : 0.0
FSCORE : 1.0
Iteration 7
Size I+ 7
Size I- 390
Time : 95.916
Syntactical distance : 0.0
Error Rate Precondition : 0.0
Error Rate Postcondition : 0.0
FSCORE : 1.0
Iteration 8
Size I+ 8
Size I- 449
Time : 119.933
Syntactical distance : 0.0
Error Rate Precondition : 0.0
Error Rate Postcondition : 0.0
FSCORE : 1.0
Iteration 9
Size I+ 9
Size I- 519
Time : 151.338
Syntactical distance : 0.0
Error Rate Precondition : 0.0
Error Rate Postcondition : 0.0
FSCORE : 1.0
Iteration 10
Size I+ 10
Size I- 608
Time : 164.603
Syntactical distance : 0.0
Error Rate Precondition : 0.0
Error Rate Postcondition : 0.0
FSCORE : 1.0
Iteration 11
Size I+ 11
Size I- 694
Time : 177.074
Syntactical distance : 0.0462963
Error Rate Precondition : 0.06273986
Error Rate Postcondition : 0.050787132
FSCORE : 0.039215688
Iteration 12
Size I+ 12
Size I- 779
Time : 197.124
Syntactical distance : 0.0462963
Error Rate Precondition : 0.08399815
Error Rate Postcondition : 0.050787132
FSCORE : 0.039215688
Iteration 13
Size I+ 13
Size I- 893
Time : 215.609
Syntactical distance : 0.0462963
Error Rate Precondition : 0.06273986
Error Rate Postcondition : 0.050787132
FSCORE : 0.039215688
Iteration 14
Size I+ 14
Size I- 1011
Time : 243.093
Syntactical distance : 0.0462963
Error Rate Precondition : 0.08399815
Error Rate Postcondition : 0.050787132
FSCORE : 0.039215688
Iteration 15
Size I+ 15
Size I- 1116
Time : 328.739
Syntactical distance : 0.0
Error Rate Precondition : 0.0
Error Rate Postcondition : 0.0
FSCORE : 1.0
Iteration 16
Size I+ 16
Size I- 1167
Time : 407.562
Syntactical distance : 0.0
Error Rate Precondition : 0.0
Error Rate Postcondition : 0.0
FSCORE : 1.0
Iteration 17
Size I+ 17
Size I- 1226
Time : 493.52
Syntactical distance : 0.0
Error Rate Precondition : 0.0
Error Rate Postcondition : 0.0
FSCORE : 1.0
Iteration 18
Size I+ 18
Size I- 1253
Time : 576.852
Syntactical distance : 0.0
Error Rate Precondition : 0.0
Error Rate Postcondition : 0.0
FSCORE : 1.0
Iteration 19
Size I+ 19
Size I- 1301
Time : 672.174
Syntactical distance : 0.0
Error Rate Precondition : 0.0
Error Rate Postcondition : 0.0
FSCORE : 1.0
Iteration 20
Size I+ 20
Size I- 1345
Time : 781.749
Syntactical distance : 0.0
Error Rate Precondition : 0.0
Error Rate Postcondition : 0.0
FSCORE : 1.0
Iteration 21
Size I+ 21
Size I- 1441
Time : 897.787
Syntactical distance : 0.0
Error Rate Precondition : 0.0
Error Rate Postcondition : 0.0
FSCORE : 1.0
Iteration 22
Size I+ 22
Size I- 1493
Time : 997.869
Syntactical distance : 0.0462963
Error Rate Precondition : 0.060437217
Error Rate Postcondition : 0.07604381
FSCORE : 0.19493178
Iteration 23
Size I+ 23
Size I- 1567
Time : 1109.515
Syntactical distance : 0.0
Error Rate Precondition : 0.0
Error Rate Postcondition : 0.0
FSCORE : 1.0
Iteration 24
Size I+ 24
Size I- 1608
Time : 1206.664
Syntactical distance : 0.0
Error Rate Precondition : 0.0
Error Rate Postcondition : 0.0
FSCORE : 1.0
Iteration 25
Size I+ 25
Size I- 1676
Time : 1307.751
Syntactical distance : 0.0
Error Rate Precondition : 0.0
Error Rate Postcondition : 0.0
FSCORE : 1.0
Iteration 26
Size I+ 26
Size I- 1723
Time : 1385.171
Syntactical distance : 0.0462963
Error Rate Precondition : 0.060437217
Error Rate Postcondition : 0.07604381
FSCORE : 0.19493178
Iteration 27
Size I+ 27
Size I- 1763
Time : 1498.24
Syntactical distance : 0.055555556
Error Rate Precondition : 0.06927563
Error Rate Postcondition : 0.08030358
FSCORE : 1.0
Iteration 28
Size I+ 28
Size I- 1800
Time : 1580.843
Syntactical distance : 0.055555556
Error Rate Precondition : 0.06927563
Error Rate Postcondition : 0.08030358
FSCORE : 1.0
Iteration 29
Size I+ 29
Size I- 1858
Time : 1665.373
Syntactical distance : 0.055555556
Error Rate Precondition : 0.06927563
Error Rate Postcondition : 0.08030358
FSCORE : 1.0
Iteration 30
Size I+ 30
Size I- 1880
Time : 1750.998
Syntactical distance : 0.055555556
Error Rate Precondition : 0.06927563
Error Rate Postcondition : 0.08030358
FSCORE : 1.0
############################################
### Fluent = 100.0% ###

*** Noise = 0.0% ***
Iteration 1
Time : 0.815
Syntactical distance : 0.018518519
Error Rate Precondition : 0.036185913
Error Rate Postcondition : 0.0
FSCORE : 0.23008849
Iteration 2
Size I+ 2
Size I- 119
Time : 3.27
Syntactical distance : 0.0
Error Rate Precondition : 0.0
Error Rate Postcondition : 0.0
FSCORE : 1.0
Iteration 3
Size I+ 3
Size I- 201
Time : 7.94
Syntactical distance : 0.0
Error Rate Precondition : 0.0
Error Rate Postcondition : 0.0
FSCORE : 1.0
Iteration 4
Size I+ 4
Size I- 281
Time : 14.166
Syntactical distance : 0.0
Error Rate Precondition : 0.0
Error Rate Postcondition : 0.0
FSCORE : 1.0
Iteration 5
Size I+ 5
Size I- 333
Time : 21.336
Syntactical distance : 0.0
Error Rate Precondition : 0.0
Error Rate Postcondition : 0.0
FSCORE : 1.0
Iteration 6
Size I+ 6
Size I- 394
Time : 29.652
Syntactical distance : 0.0
Error Rate Precondition : 0.0
Error Rate Postcondition : 0.0
FSCORE : 1.0
Iteration 7
Size I+ 7
Size I- 453
Time : 39.107
Syntactical distance : 0.0
Error Rate Precondition : 0.0
Error Rate Postcondition : 0.0
FSCORE : 1.0
Iteration 8
Size I+ 8
Size I- 517
Time : 49.969
Syntactical distance : 0.0
Error Rate Precondition : 0.0
Error Rate Postcondition : 0.0
FSCORE : 1.0
Iteration 9
Size I+ 9
Size I- 587
Time : 62.955
Syntactical distance : 0.0
Error Rate Precondition : 0.0
Error Rate Postcondition : 0.0
FSCORE : 1.0
Iteration 10
Size I+ 10
Size I- 627
Time : 76.318
Syntactical distance : 0.0
Error Rate Precondition : 0.0
Error Rate Postcondition : 0.0
FSCORE : 1.0
Iteration 11
Size I+ 11
Size I- 729
Time : 92.343
Syntactical distance : 0.0
Error Rate Precondition : 0.0
Error Rate Postcondition : 0.0
FSCORE : 1.0
Iteration 12
Size I+ 12
Size I- 762
Time : 108.397
Syntactical distance : 0.0
Error Rate Precondition : 0.0
Error Rate Postcondition : 0.0
FSCORE : 1.0
Iteration 13
Size I+ 13
Size I- 877
Time : 127.344
Syntactical distance : 0.0
Error Rate Precondition : 0.0
Error Rate Postcondition : 0.0
FSCORE : 1.0
Iteration 14
Size I+ 14
Size I- 961
Time : 149.372
Syntactical distance : 0.0
Error Rate Precondition : 0.0
Error Rate Postcondition : 0.0
FSCORE : 1.0
Iteration 15
Size I+ 15
Size I- 1100
Time : 175.01
Syntactical distance : 0.0
Error Rate Precondition : 0.0
Error Rate Postcondition : 0.0
FSCORE : 1.0
Iteration 16
Size I+ 16
Size I- 1192
Time : 202.823
Syntactical distance : 0.0
Error Rate Precondition : 0.0
Error Rate Postcondition : 0.0
FSCORE : 1.0
Iteration 17
Size I+ 17
Size I- 1218
Time : 231.318
Syntactical distance : 0.0
Error Rate Precondition : 0.0
Error Rate Postcondition : 0.0
FSCORE : 1.0
Iteration 18
Size I+ 18
Size I- 1289
Time : 260.585
Syntactical distance : 0.0
Error Rate Precondition : 0.0
Error Rate Postcondition : 0.0
FSCORE : 1.0
Iteration 19
Size I+ 19
Size I- 1360
Time : 292.251
Syntactical distance : 0.0
Error Rate Precondition : 0.0
Error Rate Postcondition : 0.0
FSCORE : 1.0
Iteration 20
Size I+ 20
Size I- 1416
Time : 320.75
Syntactical distance : 0.0
Error Rate Precondition : 0.0
Error Rate Postcondition : 0.0
FSCORE : 1.0
Iteration 21
Size I+ 21
Size I- 1445
Time : 349.754
Syntactical distance : 0.0
Error Rate Precondition : 0.0
Error Rate Postcondition : 0.0
FSCORE : 1.0
Iteration 22
Size I+ 22
Size I- 1508
Time : 380.318
Syntactical distance : 0.0
Error Rate Precondition : 0.0
Error Rate Postcondition : 0.0
FSCORE : 1.0
Iteration 23
Size I+ 23
Size I- 1564
Time : 411.859
Syntactical distance : 0.0
Error Rate Precondition : 0.0
Error Rate Postcondition : 0.0
FSCORE : 1.0
Iteration 24
Size I+ 24
Size I- 1631
Time : 444.952
Syntactical distance : 0.0
Error Rate Precondition : 0.0
Error Rate Postcondition : 0.0
FSCORE : 1.0
Iteration 25
Size I+ 25
Size I- 1719
Time : 479.817
Syntactical distance : 0.0
Error Rate Precondition : 0.0
Error Rate Postcondition : 0.0
FSCORE : 1.0
Iteration 26
Size I+ 26
Size I- 1792
Time : 523.938
Syntactical distance : 0.0
Error Rate Precondition : 0.0
Error Rate Postcondition : 0.0
FSCORE : 1.0
Iteration 27
Size I+ 27
Size I- 1877
Time : 566.31
Syntactical distance : 0.0
Error Rate Precondition : 0.0
Error Rate Postcondition : 0.0
FSCORE : 1.0
Iteration 28
Size I+ 28
Size I- 1971
Time : 615.539
Syntactical distance : 0.0
Error Rate Precondition : 0.0
Error Rate Postcondition : 0.0
FSCORE : 1.0
Iteration 29
Size I+ 29
Size I- 2009
Time : 659.548
Syntactical distance : 0.0
Error Rate Precondition : 0.0
Error Rate Postcondition : 0.0
FSCORE : 1.0
Iteration 30
Size I+ 30
Size I- 2090
Time : 702.617
Syntactical distance : 0.0
Error Rate Precondition : 0.0
Error Rate Postcondition : 0.0
FSCORE : 1.0

*** Noise = 20.0% ***
Iteration 1
Time : 1.822
Syntactical distance : 0.22222222
Error Rate Precondition : 0.14110488
Error Rate Postcondition : 0.0
FSCORE : 0.043290045
Iteration 2
Size I+ 2
Size I- 119
Time : 5.239
Syntactical distance : 0.097222224
Error Rate Precondition : 0.087497875
Error Rate Postcondition : 0.030185968
FSCORE : 0.039215688
Iteration 3
Size I+ 3
Size I- 201
Time : 17.305
Syntactical distance : 0.018518519
Error Rate Precondition : 0.0
Error Rate Postcondition : 0.0
FSCORE : 1.0
Iteration 4
Size I+ 4
Size I- 281
Time : 33.914
Syntactical distance : 0.0
Error Rate Precondition : 0.0
Error Rate Postcondition : 0.0
FSCORE : 1.0
Iteration 5
Size I+ 5
Size I- 333
Time : 49.16
Syntactical distance : 0.0
Error Rate Precondition : 0.0
Error Rate Postcondition : 0.0
FSCORE : 1.0
Iteration 6
Size I+ 6
Size I- 394
Time : 75.512
Syntactical distance : 0.0
Error Rate Precondition : 0.0
Error Rate Postcondition : 0.0
FSCORE : 1.0
Iteration 7
Size I+ 7
Size I- 453
Time : 108.174
Syntactical distance : 0.0
Error Rate Precondition : 0.0
Error Rate Postcondition : 0.0
FSCORE : 1.0
Iteration 8
Size I+ 8
Size I- 517
Time : 146.462
Syntactical distance : 0.0
Error Rate Precondition : 0.0
Error Rate Postcondition : 0.0
FSCORE : 1.0
Iteration 9
Size I+ 9
Size I- 587
Time : 159.47
Syntactical distance : 0.0
Error Rate Precondition : 0.0
Error Rate Postcondition : 0.0
FSCORE : 1.0
Iteration 10
Size I+ 10
Size I- 627
Time : 172.892
Syntactical distance : 0.0
Error Rate Precondition : 0.0
Error Rate Postcondition : 0.0
FSCORE : 1.0
Iteration 11
Size I+ 11
Size I- 729
Time : 188.928
Syntactical distance : 0.0
Error Rate Precondition : 0.0
Error Rate Postcondition : 0.0
FSCORE : 1.0
Iteration 12
Size I+ 12
Size I- 762
Time : 204.936
Syntactical distance : 0.0
Error Rate Precondition : 0.0
Error Rate Postcondition : 0.0
FSCORE : 1.0
Iteration 13
Size I+ 13
Size I- 877
Time : 223.909
Syntactical distance : 0.0
Error Rate Precondition : 0.0
Error Rate Postcondition : 0.0
FSCORE : 1.0
Iteration 14
Size I+ 14
Size I- 961
Time : 245.892
Syntactical distance : 0.0
Error Rate Precondition : 0.0
Error Rate Postcondition : 0.0
FSCORE : 1.0
Iteration 15
Size I+ 15
Size I- 1100
Time : 271.585
Syntactical distance : 0.0
Error Rate Precondition : 0.0
Error Rate Postcondition : 0.0
FSCORE : 1.0
Iteration 16
Size I+ 16
Size I- 1192
Time : 299.455
Syntactical distance : 0.0
Error Rate Precondition : 0.0
Error Rate Postcondition : 0.0
FSCORE : 1.0
Iteration 17
Size I+ 17
Size I- 1218
Time : 328.134
Syntactical distance : 0.0
Error Rate Precondition : 0.0
Error Rate Postcondition : 0.0
FSCORE : 1.0
Iteration 18
Size I+ 18
Size I- 1289
Time : 402.977
Syntactical distance : 0.0
Error Rate Precondition : 0.0
Error Rate Postcondition : 0.0
FSCORE : 1.0
Iteration 19
Size I+ 19
Size I- 1360
Time : 527.428
Syntactical distance : 0.0
Error Rate Precondition : 0.0
Error Rate Postcondition : 0.0
FSCORE : 1.0
Iteration 20
Size I+ 20
Size I- 1416
Time : 652.579
Syntactical distance : 0.0
Error Rate Precondition : 0.0
Error Rate Postcondition : 0.0
FSCORE : 1.0
Iteration 21
Size I+ 21
Size I- 1445
Time : 770.9
Syntactical distance : 0.0
Error Rate Precondition : 0.0
Error Rate Postcondition : 0.0
FSCORE : 1.0
Iteration 22
Size I+ 22
Size I- 1508
Time : 895.514
Syntactical distance : 0.0
Error Rate Precondition : 0.0
Error Rate Postcondition : 0.0
FSCORE : 1.0
Iteration 23
Size I+ 23
Size I- 1564
Time : 1024.367
Syntactical distance : 0.0
Error Rate Precondition : 0.0
Error Rate Postcondition : 0.0
FSCORE : 1.0
Iteration 24
Size I+ 24
Size I- 1631
Time : 1156.134
Syntactical distance : 0.0
Error Rate Precondition : 0.0
Error Rate Postcondition : 0.0
FSCORE : 1.0
Iteration 25
Size I+ 25
Size I- 1719
Time : 1295.285
Syntactical distance : 0.0
Error Rate Precondition : 0.0
Error Rate Postcondition : 0.0
FSCORE : 1.0
Iteration 26
Size I+ 26
Size I- 1792
Time : 1447.743
Syntactical distance : 0.0
Error Rate Precondition : 0.0
Error Rate Postcondition : 0.0
FSCORE : 1.0
Iteration 27
Size I+ 27
Size I- 1877
Time : 1604.955
Syntactical distance : 0.0
Error Rate Precondition : 0.0
Error Rate Postcondition : 0.0
FSCORE : 1.0
Iteration 28
Size I+ 28
Size I- 1971
Time : 1779.1
Syntactical distance : 0.0
Error Rate Precondition : 0.0
Error Rate Postcondition : 0.0
FSCORE : 1.0
Iteration 29
Size I+ 29
Size I- 2009
Time : 1963.083
Syntactical distance : 0.0
Error Rate Precondition : 0.0
Error Rate Postcondition : 0.0
FSCORE : 1.0
Iteration 30
Size I+ 30
Size I- 2090
Time : 2129.859
Syntactical distance : 0.0
Error Rate Precondition : 0.0
Error Rate Postcondition : 0.0
FSCORE : 1.0
E+ size : 100
E- size : 24581
e+ mean size : 47.66
e- mean size : 33.426712
############################################
### Fluent = 25.0% ###

*** Noise = 0.0% ***
Iteration 1
Time : 4.468
Syntactical distance : 0.19444445
Error Rate Precondition : 0.21056595
Error Rate Postcondition : 0.23215686
FSCORE : 0.06477732
Iteration 2
Size I+ 2
Size I- 158
Time : 11.46
Syntactical distance : 0.055555556
Error Rate Precondition : 0.06577619
Error Rate Postcondition : 0.0
FSCORE : 0.07114625
Iteration 3
Size I+ 3
Size I- 235
Time : 23.985
Syntactical distance : 0.0
Error Rate Precondition : 0.0
Error Rate Postcondition : 0.0
FSCORE : 1.0
Iteration 4
Size I+ 4
Size I- 301
Time : 33.877
Syntactical distance : 0.037037037
Error Rate Precondition : 0.022044558
Error Rate Postcondition : 0.0
FSCORE : 0.23008849
Iteration 5
Size I+ 5
Size I- 334
Time : 40.725
Syntactical distance : 0.0
Error Rate Precondition : 0.0
Error Rate Postcondition : 0.0
FSCORE : 1.0
Iteration 6
Size I+ 6
Size I- 425
Time : 49.993
Syntactical distance : 0.0
Error Rate Precondition : 0.0
Error Rate Postcondition : 0.0
FSCORE : 1.0
Iteration 7
Size I+ 7
Size I- 491
Time : 60.502
Syntactical distance : 0.0
Error Rate Precondition : 0.0
Error Rate Postcondition : 0.0
FSCORE : 1.0
Iteration 8
Size I+ 8
Size I- 563
Time : 72.539
Syntactical distance : 0.0
Error Rate Precondition : 0.0
Error Rate Postcondition : 0.0
FSCORE : 1.0
Iteration 9
Size I+ 9
Size I- 600
Time : 84.672
Syntactical distance : 0.0
Error Rate Precondition : 0.0
Error Rate Postcondition : 0.0
FSCORE : 1.0
Iteration 10
Size I+ 10
Size I- 657
Time : 98.699
Syntactical distance : 0.0
Error Rate Precondition : 0.0
Error Rate Postcondition : 0.0
FSCORE : 1.0
Iteration 11
Size I+ 11
Size I- 744
Time : 114.23
Syntactical distance : 0.0
Error Rate Precondition : 0.0
Error Rate Postcondition : 0.0
FSCORE : 1.0
Iteration 12
Size I+ 12
Size I- 819
Time : 132.825
Syntactical distance : 0.0
Error Rate Precondition : 0.0
Error Rate Postcondition : 0.0
FSCORE : 1.0
Iteration 13
Size I+ 13
Size I- 907
Time : 153.586
Syntactical distance : 0.0
Error Rate Precondition : 0.0
Error Rate Postcondition : 0.0
FSCORE : 1.0
Iteration 14
Size I+ 14
Size I- 975
Time : 176.674
Syntactical distance : 0.0
Error Rate Precondition : 0.0
Error Rate Postcondition : 0.0
FSCORE : 1.0
Iteration 15
Size I+ 15
Size I- 1028
Time : 203.398
Syntactical distance : 0.0
Error Rate Precondition : 0.0
Error Rate Postcondition : 0.0
FSCORE : 1.0
Iteration 16
Size I+ 16
Size I- 1057
Time : 224.386
Syntactical distance : 0.0
Error Rate Precondition : 0.0
Error Rate Postcondition : 0.0
FSCORE : 1.0
Iteration 17
Size I+ 17
Size I- 1108
Time : 251.824
Syntactical distance : 0.0
Error Rate Precondition : 0.0
Error Rate Postcondition : 0.0
FSCORE : 1.0
Iteration 18
Size I+ 18
Size I- 1177
Time : 274.986
Syntactical distance : 0.0
Error Rate Precondition : 0.0
Error Rate Postcondition : 0.0
FSCORE : 1.0
Iteration 19
Size I+ 19
Size I- 1236
Time : 306.984
Syntactical distance : 0.0
Error Rate Precondition : 0.0
Error Rate Postcondition : 0.0
FSCORE : 1.0
Iteration 20
Size I+ 20
Size I- 1281
Time : 338.118
Syntactical distance : 0.0
Error Rate Precondition : 0.0
Error Rate Postcondition : 0.0
FSCORE : 1.0
Iteration 21
Size I+ 21
Size I- 1331
Time : 369.831
Syntactical distance : 0.0
Error Rate Precondition : 0.0
Error Rate Postcondition : 0.0
FSCORE : 1.0
Iteration 22
Size I+ 22
Size I- 1379
Time : 405.855
Syntactical distance : 0.0
Error Rate Precondition : 0.0
Error Rate Postcondition : 0.0
FSCORE : 1.0
Iteration 23
Size I+ 23
Size I- 1420
Time : 434.118
Syntactical distance : 0.0
Error Rate Precondition : 0.0
Error Rate Postcondition : 0.0
FSCORE : 1.0
Iteration 24
Size I+ 24
Size I- 1445
Time : 471.044
Syntactical distance : 0.0
Error Rate Precondition : 0.0
Error Rate Postcondition : 0.0
FSCORE : 1.0
Iteration 25
Size I+ 25
Size I- 1504
Time : 500.849
Syntactical distance : 0.0
Error Rate Precondition : 0.0
Error Rate Postcondition : 0.0
FSCORE : 1.0
Iteration 26
Size I+ 26
Size I- 1583
Time : 543.246
Syntactical distance : 0.0
Error Rate Precondition : 0.0
Error Rate Postcondition : 0.0
FSCORE : 1.0
Iteration 27
Size I+ 27
Size I- 1614
Time : 575.411
Syntactical distance : 0.0
Error Rate Precondition : 0.0
Error Rate Postcondition : 0.0
FSCORE : 1.0
Iteration 28
Size I+ 28
Size I- 1711
Time : 617.53
Syntactical distance : 0.0
Error Rate Precondition : 0.0
Error Rate Postcondition : 0.0
FSCORE : 1.0
Iteration 29
Size I+ 29
Size I- 1811
Time : 658.489
Syntactical distance : 0.0
Error Rate Precondition : 0.0
Error Rate Postcondition : 0.0
FSCORE : 1.0
Iteration 30
Size I+ 30
Size I- 1868
Time : 696.086
Syntactical distance : 0.0
Error Rate Precondition : 0.0
Error Rate Postcondition : 0.0
FSCORE : 1.0

*** Noise = 20.0% ***
Iteration 1
Time : 3.984
Syntactical distance : 0.2175926
Error Rate Precondition : 0.30194253
Error Rate Postcondition : 0.119834
FSCORE : 0.08235294
Iteration 2
Size I+ 2
Size I- 158
Time : 4.243
Syntactical distance : 0.25925928
Error Rate Precondition : 0.26066276
Error Rate Postcondition : 0.24509321
FSCORE : 0.020202022
Iteration 3
Size I+ 3
Size I- 235
Time : 19.425
Syntactical distance : 0.083333336
Error Rate Precondition : 0.12581973
Error Rate Postcondition : 0.13902308
FSCORE : 0.20833333
Iteration 4
Size I+ 4
Size I- 301
Time : 37.708
Syntactical distance : 0.083333336
Error Rate Precondition : 0.12581973
Error Rate Postcondition : 0.13902308
FSCORE : 0.20833333
Iteration 5
Size I+ 5
Size I- 334
Time : 59.701
Syntactical distance : 0.10185185
Error Rate Precondition : 0.1461499
Error Rate Postcondition : 0.15439758
FSCORE : 0.20833333
Iteration 6
Size I+ 6
Size I- 425
Time : 80.535
Syntactical distance : 0.11111111
Error Rate Precondition : 0.15992002
Error Rate Postcondition : 0.16159748
FSCORE : 0.61728394
Iteration 7
Size I+ 7
Size I- 491
Time : 103.884
Syntactical distance : 0.083333336
Error Rate Precondition : 0.11978095
Error Rate Postcondition : 0.12638704
FSCORE : 1.0
Iteration 8
Size I+ 8
Size I- 563
Time : 129.359
Syntactical distance : 0.083333336
Error Rate Precondition : 0.11978095
Error Rate Postcondition : 0.12638704
FSCORE : 1.0
Iteration 9
Size I+ 9
Size I- 600
Time : 154.642
Syntactical distance : 0.083333336
Error Rate Precondition : 0.11978095
Error Rate Postcondition : 0.12638704
FSCORE : 1.0
Iteration 10
Size I+ 10
Size I- 657
Time : 182.603
Syntactical distance : 0.083333336
Error Rate Precondition : 0.11978095
Error Rate Postcondition : 0.12638704
FSCORE : 1.0
Iteration 11
Size I+ 11
Size I- 744
Time : 213.983
Syntactical distance : 0.083333336
Error Rate Precondition : 0.11978095
Error Rate Postcondition : 0.12638704
FSCORE : 1.0
Iteration 12
Size I+ 12
Size I- 819
Time : 250.382
Syntactical distance : 0.083333336
Error Rate Precondition : 0.11978095
Error Rate Postcondition : 0.12638704
FSCORE : 1.0
Iteration 13
Size I+ 13
Size I- 907
Time : 288.724
Syntactical distance : 0.083333336
Error Rate Precondition : 0.11964457
Error Rate Postcondition : 0.12650247
FSCORE : 1.0
Iteration 14
Size I+ 14
Size I- 975
Time : 334.483
Syntactical distance : 0.083333336
Error Rate Precondition : 0.10068934
Error Rate Postcondition : 0.14341004
FSCORE : 1.0
Iteration 15
Size I+ 15
Size I- 1028
Time : 383.151
Syntactical distance : 0.083333336
Error Rate Precondition : 0.10068934
Error Rate Postcondition : 0.14341004
FSCORE : 1.0
Iteration 16
Size I+ 16
Size I- 1057
Time : 426.628
Syntactical distance : 0.083333336
Error Rate Precondition : 0.10068934
Error Rate Postcondition : 0.14341004
FSCORE : 1.0
Iteration 17
Size I+ 17
Size I- 1108
Time : 522.433
Syntactical distance : 0.055555556
Error Rate Precondition : 0.08722491
Error Rate Postcondition : 0.10220485
FSCORE : 1.0
Iteration 18
Size I+ 18
Size I- 1177
Time : 545.253
Syntactical distance : 0.055555556
Error Rate Precondition : 0.08722491
Error Rate Postcondition : 0.10220485
FSCORE : 1.0
Iteration 19
Size I+ 19
Size I- 1236
Time : 576.998
Syntactical distance : 0.055555556
Error Rate Precondition : 0.08722491
Error Rate Postcondition : 0.10220485
FSCORE : 1.0
Iteration 20
Size I+ 20
Size I- 1281
Time : 633.763
Syntactical distance : 0.10185185
Error Rate Precondition : 0.1461499
Error Rate Postcondition : 0.15439758
FSCORE : 0.20833333
Iteration 21
Size I+ 21
Size I- 1331
Time : 710.787
Syntactical distance : 0.083333336
Error Rate Precondition : 0.11978095
Error Rate Postcondition : 0.12638704
FSCORE : 1.0
Iteration 22
Size I+ 22
Size I- 1379
Time : 774.249
Syntactical distance : 0.083333336
Error Rate Precondition : 0.13694401
Error Rate Postcondition : 0.10770904
FSCORE : 1.0
Iteration 23
Size I+ 23
Size I- 1420
Time : 775.262
Syntactical distance : 0.13425927
Error Rate Precondition : 0.18556194
Error Rate Postcondition : 0.20119676
FSCORE : 0.11320755
Iteration 24
Size I+ 24
Size I- 1445
Time : 887.304
Syntactical distance : 0.027777778
Error Rate Precondition : 0.043612454
Error Rate Postcondition : 0.056719594
FSCORE : 1.0
Iteration 25
Size I+ 25
Size I- 1504
Time : 947.489
Syntactical distance : 0.07638889
Error Rate Precondition : 0.09315392
Error Rate Postcondition : 0.103244156
FSCORE : 1.0
Iteration 26
Size I+ 26
Size I- 1583
Time : 1046.861
Syntactical distance : 0.07638889
Error Rate Precondition : 0.09315392
Error Rate Postcondition : 0.103244156
FSCORE : 1.0
Iteration 27
Size I+ 27
Size I- 1614
Time : 1137.007
Syntactical distance : 0.07638889
Error Rate Precondition : 0.09315392
Error Rate Postcondition : 0.103244156
FSCORE : 1.0
Iteration 28
Size I+ 28
Size I- 1711
Time : 1241.271
Syntactical distance : 0.07638889
Error Rate Precondition : 0.09315392
Error Rate Postcondition : 0.103244156
FSCORE : 1.0
Iteration 29
Size I+ 29
Size I- 1811
Time : 1375.413
Syntactical distance : 0.027777778
Error Rate Precondition : 0.043612454
Error Rate Postcondition : 0.056719594
FSCORE : 1.0
Iteration 30
Size I+ 30
Size I- 1868
Time : 1449.541
Syntactical distance : 0.0
Error Rate Precondition : 0.0
Error Rate Postcondition : 0.0
FSCORE : 1.0
############################################
### Fluent = 100.0% ###

*** Noise = 0.0% ***
Iteration 1
Time : 0.865
Syntactical distance : 0.0
Error Rate Precondition : 0.0
Error Rate Postcondition : 0.0
FSCORE : 1.0
Iteration 2
Size I+ 2
Size I- 105
Time : 3.333
Syntactical distance : 0.0
Error Rate Precondition : 0.0
Error Rate Postcondition : 0.0
FSCORE : 1.0
Iteration 3
Size I+ 3
Size I- 231
Time : 8.438
Syntactical distance : 0.0
Error Rate Precondition : 0.0
Error Rate Postcondition : 0.0
FSCORE : 1.0
Iteration 4
Size I+ 4
Size I- 303
Time : 15.241
Syntactical distance : 0.0
Error Rate Precondition : 0.0
Error Rate Postcondition : 0.0
FSCORE : 1.0
Iteration 5
Size I+ 5
Size I- 338
Time : 22.614
Syntactical distance : 0.0
Error Rate Precondition : 0.0
Error Rate Postcondition : 0.0
FSCORE : 1.0
Iteration 6
Size I+ 6
Size I- 399
Time : 31.422
Syntactical distance : 0.0
Error Rate Precondition : 0.0
Error Rate Postcondition : 0.0
FSCORE : 1.0
Iteration 7
Size I+ 7
Size I- 461
Time : 41.668
Syntactical distance : 0.0
Error Rate Precondition : 0.0
Error Rate Postcondition : 0.0
FSCORE : 1.0
Iteration 8
Size I+ 8
Size I- 510
Time : 52.655
Syntactical distance : 0.0
Error Rate Precondition : 0.0
Error Rate Postcondition : 0.0
FSCORE : 1.0
Iteration 9
Size I+ 9
Size I- 576
Time : 65.198
Syntactical distance : 0.0
Error Rate Precondition : 0.0
Error Rate Postcondition : 0.0
FSCORE : 1.0
Iteration 10
Size I+ 10
Size I- 651
Time : 79.841
Syntactical distance : 0.0
Error Rate Precondition : 0.0
Error Rate Postcondition : 0.0
FSCORE : 1.0
Iteration 11
Size I+ 11
Size I- 748
Time : 96.604
Syntactical distance : 0.0
Error Rate Precondition : 0.0
Error Rate Postcondition : 0.0
FSCORE : 1.0
Iteration 12
Size I+ 12
Size I- 800
Time : 114.579
Syntactical distance : 0.0
Error Rate Precondition : 0.0
Error Rate Postcondition : 0.0
FSCORE : 1.0
Iteration 13
Size I+ 13
Size I- 881
Time : 134.997
Syntactical distance : 0.0
Error Rate Precondition : 0.0
Error Rate Postcondition : 0.0
FSCORE : 1.0
Iteration 14
Size I+ 14
Size I- 949
Time : 156.54
Syntactical distance : 0.0
Error Rate Precondition : 0.0
Error Rate Postcondition : 0.0
FSCORE : 1.0
Iteration 15
Size I+ 15
Size I- 1012
Time : 180.169
Syntactical distance : 0.0
Error Rate Precondition : 0.0
Error Rate Postcondition : 0.0
FSCORE : 1.0
Iteration 16
Size I+ 16
Size I- 1082
Time : 203.695
Syntactical distance : 0.0
Error Rate Precondition : 0.0
Error Rate Postcondition : 0.0
FSCORE : 1.0
Iteration 17
Size I+ 17
Size I- 1155
Time : 228.959
Syntactical distance : 0.0
Error Rate Precondition : 0.0
Error Rate Postcondition : 0.0
FSCORE : 1.0
Iteration 18
Size I+ 18
Size I- 1250
Time : 258.754
Syntactical distance : 0.0
Error Rate Precondition : 0.0
Error Rate Postcondition : 0.0
FSCORE : 1.0
Iteration 19
Size I+ 19
Size I- 1309
Time : 290.279
Syntactical distance : 0.0
Error Rate Precondition : 0.0
Error Rate Postcondition : 0.0
FSCORE : 1.0
Iteration 20
Size I+ 20
Size I- 1362
Time : 321.88
Syntactical distance : 0.0
Error Rate Precondition : 0.0
Error Rate Postcondition : 0.0
FSCORE : 1.0
Iteration 21
Size I+ 21
Size I- 1422
Time : 354.716
Syntactical distance : 0.0
Error Rate Precondition : 0.0
Error Rate Postcondition : 0.0
FSCORE : 1.0
Iteration 22
Size I+ 22
Size I- 1496
Time : 387.03
Syntactical distance : 0.0
Error Rate Precondition : 0.0
Error Rate Postcondition : 0.0
FSCORE : 1.0
Iteration 23
Size I+ 23
Size I- 1617
Time : 421.106
Syntactical distance : 0.0
Error Rate Precondition : 0.0
Error Rate Postcondition : 0.0
FSCORE : 1.0
Iteration 24
Size I+ 24
Size I- 1641
Time : 455.608
Syntactical distance : 0.0
Error Rate Precondition : 0.0
Error Rate Postcondition : 0.0
FSCORE : 1.0
Iteration 25
Size I+ 25
Size I- 1730
Time : 492.529
Syntactical distance : 0.0
Error Rate Precondition : 0.0
Error Rate Postcondition : 0.0
FSCORE : 1.0
Iteration 26
Size I+ 26
Size I- 1783
Time : 530.292
Syntactical distance : 0.0
Error Rate Precondition : 0.0
Error Rate Postcondition : 0.0
FSCORE : 1.0
Iteration 27
Size I+ 27
Size I- 1801
Time : 568.393
Syntactical distance : 0.0
Error Rate Precondition : 0.0
Error Rate Postcondition : 0.0
FSCORE : 1.0
Iteration 28
Size I+ 28
Size I- 1851
Time : 607.593
Syntactical distance : 0.0
Error Rate Precondition : 0.0
Error Rate Postcondition : 0.0
FSCORE : 1.0
Iteration 29
Size I+ 29
Size I- 1883
Time : 647.384
Syntactical distance : 0.0
Error Rate Precondition : 0.0
Error Rate Postcondition : 0.0
FSCORE : 1.0
Iteration 30
Size I+ 30
Size I- 1908
Time : 687.748
Syntactical distance : 0.0
Error Rate Precondition : 0.0
Error Rate Postcondition : 0.0
FSCORE : 1.0

*** Noise = 20.0% ***
Iteration 1
Time : 3.68
Syntactical distance : 0.037037037
Error Rate Precondition : 0.05338809
Error Rate Postcondition : 0.05990664
FSCORE : 0.09473685
Iteration 2
Size I+ 2
Size I- 105
Time : 5.983
Syntactical distance : 0.06481481
Error Rate Precondition : 0.09011004
Error Rate Postcondition : 0.10401983
FSCORE : 0.058252428
Iteration 3
Size I+ 3
Size I- 231
Time : 10.429
Syntactical distance : 0.0462963
Error Rate Precondition : 0.12519234
Error Rate Postcondition : 0.05367516
FSCORE : 0.058252428
Iteration 4
Size I+ 4
Size I- 303
Time : 14.339
Syntactical distance : 0.055555556
Error Rate Precondition : 0.10707857
Error Rate Postcondition : 0.05367516
FSCORE : 0.058252428
Iteration 5
Size I+ 5
Size I- 338
Time : 33.479
Syntactical distance : 0.0462963
Error Rate Precondition : 0.08013787
Error Rate Postcondition : 0.056719594
FSCORE : 0.20833333
Iteration 6
Size I+ 6
Size I- 399
Time : 58.324
Syntactical distance : 0.0462963
Error Rate Precondition : 0.08013787
Error Rate Postcondition : 0.056719594
FSCORE : 0.20833333
Iteration 7
Size I+ 7
Size I- 461
Time : 87.285
Syntactical distance : 0.0462963
Error Rate Precondition : 0.08013787
Error Rate Postcondition : 0.056719594
FSCORE : 0.20833333
Iteration 8
Size I+ 8
Size I- 510
Time : 118.504
Syntactical distance : 0.0462963
Error Rate Precondition : 0.08013787
Error Rate Postcondition : 0.056719594
FSCORE : 0.20833333
Iteration 9
Size I+ 9
Size I- 576
Time : 146.795
Syntactical distance : 0.0462963
Error Rate Precondition : 0.08013787
Error Rate Postcondition : 0.056719594
FSCORE : 0.20833333
Iteration 10
Size I+ 10
Size I- 651
Time : 192.343
Syntactical distance : 0.0462963
Error Rate Precondition : 0.08013787
Error Rate Postcondition : 0.056719594
FSCORE : 0.20833333
Iteration 11
Size I+ 11
Size I- 748
Time : 244.771
Syntactical distance : 0.0462963
Error Rate Precondition : 0.08013787
Error Rate Postcondition : 0.056719594
FSCORE : 0.20833333
Iteration 12
Size I+ 12
Size I- 800
Time : 300.363
Syntactical distance : 0.0462963
Error Rate Precondition : 0.08013787
Error Rate Postcondition : 0.056719594
FSCORE : 0.20833333
Iteration 13
Size I+ 13
Size I- 881
Time : 364.765
Syntactical distance : 0.0462963
Error Rate Precondition : 0.08013787
Error Rate Postcondition : 0.056719594
FSCORE : 0.20833333
Iteration 14
Size I+ 14
Size I- 949
Time : 438.789
Syntactical distance : 0.0462963
Error Rate Precondition : 0.08013787
Error Rate Postcondition : 0.056719594
FSCORE : 0.20833333
Iteration 15
Size I+ 15
Size I- 1012
Time : 558.482
Syntactical distance : 0.0
Error Rate Precondition : 0.0
Error Rate Postcondition : 0.0
FSCORE : 1.0
Iteration 16
Size I+ 16
Size I- 1082
Time : 685.266
Syntactical distance : 0.0
Error Rate Precondition : 0.0
Error Rate Postcondition : 0.0
FSCORE : 1.0
Iteration 17
Size I+ 17
Size I- 1155
Time : 819.227
Syntactical distance : 0.0
Error Rate Precondition : 0.0
Error Rate Postcondition : 0.0
FSCORE : 1.0
Iteration 18
Size I+ 18
Size I- 1250
Time : 849.082
Syntactical distance : 0.0
Error Rate Precondition : 0.0
Error Rate Postcondition : 0.0
FSCORE : 1.0
Iteration 19
Size I+ 19
Size I- 1309
Time : 983.278
Syntactical distance : 0.0
Error Rate Precondition : 0.0
Error Rate Postcondition : 0.0
FSCORE : 1.0
Iteration 20
Size I+ 20
Size I- 1362
Time : 1109.168
Syntactical distance : 0.0
Error Rate Precondition : 0.0
Error Rate Postcondition : 0.0
FSCORE : 1.0
Iteration 21
Size I+ 21
Size I- 1422
Time : 1230.657
Syntactical distance : 0.0
Error Rate Precondition : 0.0
Error Rate Postcondition : 0.0
FSCORE : 1.0
Iteration 22
Size I+ 22
Size I- 1496
Time : 1367.677
Syntactical distance : 0.0
Error Rate Precondition : 0.0
Error Rate Postcondition : 0.0
FSCORE : 1.0
Iteration 23
Size I+ 23
Size I- 1617
Time : 1515.1
Syntactical distance : 0.0
Error Rate Precondition : 0.0
Error Rate Postcondition : 0.0
FSCORE : 1.0
Iteration 24
Size I+ 24
Size I- 1641
Time : 1664.409
Syntactical distance : 0.0
Error Rate Precondition : 0.0
Error Rate Postcondition : 0.0
FSCORE : 1.0
Iteration 25
Size I+ 25
Size I- 1730
Time : 1824.357
Syntactical distance : 0.0
Error Rate Precondition : 0.0
Error Rate Postcondition : 0.0
FSCORE : 1.0
Iteration 26
Size I+ 26
Size I- 1783
Time : 1988.156
Syntactical distance : 0.0
Error Rate Precondition : 0.0
Error Rate Postcondition : 0.0
FSCORE : 1.0
Iteration 27
Size I+ 27
Size I- 1801
Time : 2153.669
Syntactical distance : 0.0
Error Rate Precondition : 0.0
Error Rate Postcondition : 0.0
FSCORE : 1.0
Iteration 28
Size I+ 28
Size I- 1851
Time : 2323.534
Syntactical distance : 0.0
Error Rate Precondition : 0.0
Error Rate Postcondition : 0.0
FSCORE : 1.0
Iteration 29
Size I+ 29
Size I- 1883
Time : 2499.394
Syntactical distance : 0.0
Error Rate Precondition : 0.0
Error Rate Postcondition : 0.0
FSCORE : 1.0
Iteration 30
Size I+ 30
Size I- 1908
Time : 2673.096
Syntactical distance : 0.0
Error Rate Precondition : 0.0
Error Rate Postcondition : 0.0
FSCORE : 1.0
E+ size : 100
E- size : 26402
e+ mean size : 49.54
e- mean size : 35.303234
############################################
### Fluent = 25.0% ###

*** Noise = 0.0% ***
Iteration 1
Time : 5.912
Syntactical distance : 0.11805556
Error Rate Precondition : 0.1505593
Error Rate Postcondition : 0.0
FSCORE : 0.01980198
Iteration 2
Size I+ 2
Size I- 220
Time : 18.056
Syntactical distance : 0.0
Error Rate Precondition : 0.0
Error Rate Postcondition : 0.0
FSCORE : 1.0
Iteration 3
Size I+ 3
Size I- 277
Time : 30.744
Syntactical distance : 0.0
Error Rate Precondition : 0.0
Error Rate Postcondition : 0.0
FSCORE : 1.0
Iteration 4
Size I+ 4
Size I- 366
Time : 47.666
Syntactical distance : 0.0
Error Rate Precondition : 0.0
Error Rate Postcondition : 0.0
FSCORE : 1.0
Iteration 5
Size I+ 5
Size I- 400
Time : 65.526
Syntactical distance : 0.0
Error Rate Precondition : 0.0
Error Rate Postcondition : 0.0
FSCORE : 1.0
Iteration 6
Size I+ 6
Size I- 455
Time : 90.99
Syntactical distance : 0.0
Error Rate Precondition : 0.0
Error Rate Postcondition : 0.0
FSCORE : 1.0
Iteration 7
Size I+ 7
Size I- 486
Time : 117.745
Syntactical distance : 0.0
Error Rate Precondition : 0.0
Error Rate Postcondition : 0.0
FSCORE : 1.0
Iteration 8
Size I+ 8
Size I- 546
Time : 147.539
Syntactical distance : 0.0
Error Rate Precondition : 0.0
Error Rate Postcondition : 0.0
FSCORE : 1.0
Iteration 9
Size I+ 9
Size I- 613
Time : 161.279
Syntactical distance : 0.0
Error Rate Precondition : 0.0
Error Rate Postcondition : 0.0
FSCORE : 1.0
Iteration 10
Size I+ 10
Size I- 646
Time : 175.836
Syntactical distance : 0.0
Error Rate Precondition : 0.0
Error Rate Postcondition : 0.0
FSCORE : 1.0
Iteration 11
Size I+ 11
Size I- 711
Time : 190.612
Syntactical distance : 0.0
Error Rate Precondition : 0.0
Error Rate Postcondition : 0.0
FSCORE : 1.0
Iteration 12
Size I+ 12
Size I- 751
Time : 207.124
Syntactical distance : 0.0
Error Rate Precondition : 0.0
Error Rate Postcondition : 0.0
FSCORE : 1.0
Iteration 13
Size I+ 13
Size I- 814
Time : 225.526
Syntactical distance : 0.0
Error Rate Precondition : 0.0
Error Rate Postcondition : 0.0
FSCORE : 1.0
Iteration 14
Size I+ 14
Size I- 866
Time : 243.396
Syntactical distance : 0.0
Error Rate Precondition : 0.0
Error Rate Postcondition : 0.0
FSCORE : 1.0
Iteration 15
Size I+ 15
Size I- 955
Time : 265.038
Syntactical distance : 0.0
Error Rate Precondition : 0.0
Error Rate Postcondition : 0.0
FSCORE : 1.0
Iteration 16
Size I+ 16
Size I- 1005
Time : 289.384
Syntactical distance : 0.0
Error Rate Precondition : 0.0
Error Rate Postcondition : 0.0
FSCORE : 1.0
Iteration 17
Size I+ 17
Size I- 1088
Time : 311.921
Syntactical distance : 0.0
Error Rate Precondition : 0.0
Error Rate Postcondition : 0.0
FSCORE : 1.0
Iteration 18
Size I+ 18
Size I- 1137
Time : 338.356
Syntactical distance : 0.0
Error Rate Precondition : 0.0
Error Rate Postcondition : 0.0
FSCORE : 1.0
Iteration 19
Size I+ 19
Size I- 1157
Time : 362.388
Syntactical distance : 0.0
Error Rate Precondition : 0.0
Error Rate Postcondition : 0.0
FSCORE : 1.0
Iteration 20
Size I+ 20
Size I- 1231
Time : 393.937
Syntactical distance : 0.0
Error Rate Precondition : 0.0
Error Rate Postcondition : 0.0
FSCORE : 1.0
Iteration 21
Size I+ 21
Size I- 1282
Time : 426.289
Syntactical distance : 0.0
Error Rate Precondition : 0.0
Error Rate Postcondition : 0.0
FSCORE : 1.0
Iteration 22
Size I+ 22
Size I- 1366
Time : 460.431
Syntactical distance : 0.0
Error Rate Precondition : 0.0
Error Rate Postcondition : 0.0
FSCORE : 1.0
Iteration 23
Size I+ 23
Size I- 1433
Time : 496.389
Syntactical distance : 0.0
Error Rate Precondition : 0.0
Error Rate Postcondition : 0.0
FSCORE : 1.0
Iteration 24
Size I+ 24
Size I- 1522
Time : 534.951
Syntactical distance : 0.0
Error Rate Precondition : 0.0
Error Rate Postcondition : 0.0
FSCORE : 1.0
Iteration 25
Size I+ 25
Size I- 1590
Time : 576.031
Syntactical distance : 0.0
Error Rate Precondition : 0.0
Error Rate Postcondition : 0.0
FSCORE : 1.0
Iteration 26
Size I+ 26
Size I- 1654
Time : 610.513
Syntactical distance : 0.0
Error Rate Precondition : 0.0
Error Rate Postcondition : 0.0
FSCORE : 1.0
Iteration 27
Size I+ 27
Size I- 1736
Time : 646.757
Syntactical distance : 0.0
Error Rate Precondition : 0.0
Error Rate Postcondition : 0.0
FSCORE : 1.0
Iteration 28
Size I+ 28
Size I- 1798
Time : 694.773
Syntactical distance : 0.0
Error Rate Precondition : 0.0
Error Rate Postcondition : 0.0
FSCORE : 1.0
Iteration 29
Size I+ 29
Size I- 1850
Time : 733.133
Syntactical distance : 0.0
Error Rate Precondition : 0.0
Error Rate Postcondition : 0.0
FSCORE : 1.0
Iteration 30
Size I+ 30
Size I- 1894
Time : 783.967
Syntactical distance : 0.0
Error Rate Precondition : 0.0
Error Rate Postcondition : 0.0
FSCORE : 1.0

*** Noise = 20.0% ***
Iteration 1
Time : 11.841
Syntactical distance : 0.16435185
Error Rate Precondition : 0.19392593
Error Rate Postcondition : 0.17385347
FSCORE : 0.19379845
Iteration 2
Size I+ 2
Size I- 220
Time : 15.207
Syntactical distance : 0.22685187
Error Rate Precondition : 0.19849296
Error Rate Postcondition : 0.15128925
FSCORE : 0.01980198
Iteration 3
Size I+ 3
Size I- 277
Time : 25.594
Syntactical distance : 0.074074075
Error Rate Precondition : 0.119949915
Error Rate Postcondition : 0.09519025
FSCORE : 0.01980198
Iteration 4
Size I+ 4
Size I- 366
Time : 42.333
Syntactical distance : 0.027777778
Error Rate Precondition : 0.023311896
Error Rate Postcondition : 0.05711376
FSCORE : 0.1981982
Iteration 5
Size I+ 5
Size I- 400
Time : 61.255
Syntactical distance : 0.027777778
Error Rate Precondition : 0.023311896
Error Rate Postcondition : 0.05711376
FSCORE : 0.1981982
Iteration 6
Size I+ 6
Size I- 455
Time : 85.939
Syntactical distance : 0.027777778
Error Rate Precondition : 0.04100188
Error Rate Postcondition : 0.05711376
FSCORE : 0.1981982
Iteration 7
Size I+ 7
Size I- 486
Time : 106.252
Syntactical distance : 0.037037037
Error Rate Precondition : 0.087735385
Error Rate Postcondition : 0.030293567
FSCORE : 0.01980198
Iteration 8
Size I+ 8
Size I- 546
Time : 144.993
Syntactical distance : 0.027777778
Error Rate Precondition : 0.042736612
Error Rate Postcondition : 0.05711376
FSCORE : 0.1981982
Iteration 9
Size I+ 9
Size I- 613
Time : 169.604
Syntactical distance : 0.0462963
Error Rate Precondition : 0.08712399
Error Rate Postcondition : 0.030293567
FSCORE : 0.01980198
Iteration 10
Size I+ 10
Size I- 646
Time : 186.62
Syntactical distance : 0.0462963
Error Rate Precondition : 0.08712399
Error Rate Postcondition : 0.030293567
FSCORE : 0.01980198
Iteration 11
Size I+ 11
Size I- 711
Time : 202.109
Syntactical distance : 0.0462963
Error Rate Precondition : 0.08712399
Error Rate Postcondition : 0.027499216
FSCORE : 0.01980198
Iteration 12
Size I+ 12
Size I- 751
Time : 209.88
Syntactical distance : 0.037037037
Error Rate Precondition : 0.069203265
Error Rate Postcondition : 0.030293567
FSCORE : 0.01980198
Iteration 13
Size I+ 13
Size I- 814
Time : 226.395
Syntactical distance : 0.037037037
Error Rate Precondition : 0.06627537
Error Rate Postcondition : 0.030293567
FSCORE : 0.01980198
Iteration 14
Size I+ 14
Size I- 866
Time : 242.639
Syntactical distance : 0.037037037
Error Rate Precondition : 0.06627537
Error Rate Postcondition : 0.030293567
FSCORE : 0.01980198
Iteration 15
Size I+ 15
Size I- 955
Time : 264.422
Syntactical distance : 0.0462963
Error Rate Precondition : 0.08358752
Error Rate Postcondition : 0.030293567
FSCORE : 0.01980198
Iteration 16
Size I+ 16
Size I- 1005
Time : 286.138
Syntactical distance : 0.037037037
Error Rate Precondition : 0.08358752
Error Rate Postcondition : 0.0
FSCORE : 0.01980198
Iteration 17
Size I+ 17
Size I- 1088
Time : 295.868
Syntactical distance : 0.037037037
Error Rate Precondition : 0.06627537
Error Rate Postcondition : 0.030293567
FSCORE : 0.01980198
Iteration 18
Size I+ 18
Size I- 1137
Time : 318.555
Syntactical distance : 0.037037037
Error Rate Precondition : 0.0841741
Error Rate Postcondition : 0.030293567
FSCORE : 0.01980198
Iteration 19
Size I+ 19
Size I- 1157
Time : 339.085
Syntactical distance : 0.037037037
Error Rate Precondition : 0.06627537
Error Rate Postcondition : 0.030293567
FSCORE : 0.01980198
Iteration 20
Size I+ 20
Size I- 1231
Time : 367.213
Syntactical distance : 0.0462963
Error Rate Precondition : 0.08358752
Error Rate Postcondition : 0.030293567
FSCORE : 0.01980198
Iteration 21
Size I+ 21
Size I- 1282
Time : 396.29
Syntactical distance : 0.037037037
Error Rate Precondition : 0.06627537
Error Rate Postcondition : 0.030293567
FSCORE : 0.01980198
Iteration 22
Size I+ 22
Size I- 1366
Time : 430.505
Syntactical distance : 0.037037037
Error Rate Precondition : 0.0841741
Error Rate Postcondition : 0.030293567
FSCORE : 0.01980198
Iteration 23
Size I+ 23
Size I- 1433
Time : 471.114
Syntactical distance : 0.0462963
Error Rate Precondition : 0.0841741
Error Rate Postcondition : 0.054
FSCORE : 0.01980198
Iteration 24
Size I+ 24
Size I- 1522
Time : 514.655
Syntactical distance : 0.037037037
Error Rate Precondition : 0.06627537
Error Rate Postcondition : 0.026715763
FSCORE : 0.01980198
Iteration 25
Size I+ 25
Size I- 1590
Time : 537.45
Syntactical distance : 0.037037037
Error Rate Precondition : 0.06627537
Error Rate Postcondition : 0.026715763
FSCORE : 0.01980198
Iteration 26
Size I+ 26
Size I- 1654
Time : 553.066
Syntactical distance : 0.037037037
Error Rate Precondition : 0.08358752
Error Rate Postcondition : 0.0
FSCORE : 0.01980198
Iteration 27
Size I+ 27
Size I- 1736
Time : 569.285
Syntactical distance : 0.037037037
Error Rate Precondition : 0.08358752
Error Rate Postcondition : 0.0
FSCORE : 0.01980198
Iteration 28
Size I+ 28
Size I- 1798
Time : 596.318
Syntactical distance : 0.037037037
Error Rate Precondition : 0.0841741
Error Rate Postcondition : 0.026715763
FSCORE : 0.01980198
Iteration 29
Size I+ 29
Size I- 1850
Time : 613.23
Syntactical distance : 0.027777778
Error Rate Precondition : 0.0841741
Error Rate Postcondition : 0.0
FSCORE : 0.01980198
Iteration 30
Size I+ 30
Size I- 1894
Time : 642.297
Syntactical distance : 0.027777778
Error Rate Precondition : 0.0841741
Error Rate Postcondition : 0.0
FSCORE : 0.01980198
############################################
### Fluent = 100.0% ###

*** Noise = 0.0% ***
Iteration 1
Time : 2.264
Syntactical distance : 0.0
Error Rate Precondition : 0.0
Error Rate Postcondition : 0.0
FSCORE : 1.0
Iteration 2
Size I+ 2
Size I- 189
Time : 6.866
Syntactical distance : 0.0
Error Rate Precondition : 0.0
Error Rate Postcondition : 0.0
FSCORE : 1.0
Iteration 3
Size I+ 3
Size I- 301
Time : 13.511
Syntactical distance : 0.0
Error Rate Precondition : 0.0
Error Rate Postcondition : 0.0
FSCORE : 1.0
Iteration 4
Size I+ 4
Size I- 423
Time : 23.095
Syntactical distance : 0.0
Error Rate Precondition : 0.0
Error Rate Postcondition : 0.0
FSCORE : 1.0
Iteration 5
Size I+ 5
Size I- 475
Time : 33.357
Syntactical distance : 0.0
Error Rate Precondition : 0.0
Error Rate Postcondition : 0.0
FSCORE : 1.0
Iteration 6
Size I+ 6
Size I- 529
Time : 44.91
Syntactical distance : 0.0
Error Rate Precondition : 0.0
Error Rate Postcondition : 0.0
FSCORE : 1.0
Iteration 7
Size I+ 7
Size I- 608
Time : 58.211
Syntactical distance : 0.0
Error Rate Precondition : 0.0
Error Rate Postcondition : 0.0
FSCORE : 1.0
Iteration 8
Size I+ 8
Size I- 628
Time : 71.954
Syntactical distance : 0.0
Error Rate Precondition : 0.0
Error Rate Postcondition : 0.0
FSCORE : 1.0
Iteration 9
Size I+ 9
Size I- 716
Time : 87.594
Syntactical distance : 0.0
Error Rate Precondition : 0.0
Error Rate Postcondition : 0.0
FSCORE : 1.0
Iteration 10
Size I+ 10
Size I- 787
Time : 104.788
Syntactical distance : 0.0
Error Rate Precondition : 0.0
Error Rate Postcondition : 0.0
FSCORE : 1.0
Iteration 11
Size I+ 11
Size I- 852
Time : 124.096
Syntactical distance : 0.0
Error Rate Precondition : 0.0
Error Rate Postcondition : 0.0
FSCORE : 1.0
Iteration 12
Size I+ 12
Size I- 888
Time : 143.506
Syntactical distance : 0.0
Error Rate Precondition : 0.0
Error Rate Postcondition : 0.0
FSCORE : 1.0
Iteration 13
Size I+ 13
Size I- 944
Time : 163.243
Syntactical distance : 0.0
Error Rate Precondition : 0.0
Error Rate Postcondition : 0.0
FSCORE : 1.0
Iteration 14
Size I+ 14
Size I- 987
Time : 183.784
Syntactical distance : 0.0
Error Rate Precondition : 0.0
Error Rate Postcondition : 0.0
FSCORE : 1.0
Iteration 15
Size I+ 15
Size I- 1006
Time : 205.147
Syntactical distance : 0.0
Error Rate Precondition : 0.0
Error Rate Postcondition : 0.0
FSCORE : 1.0
Iteration 16
Size I+ 16
Size I- 1057
Time : 227.365
Syntactical distance : 0.0
Error Rate Precondition : 0.0
Error Rate Postcondition : 0.0
FSCORE : 1.0
Iteration 17
Size I+ 17
Size I- 1109
Time : 250.721
Syntactical distance : 0.0
Error Rate Precondition : 0.0
Error Rate Postcondition : 0.0
FSCORE : 1.0
Iteration 18
Size I+ 18
Size I- 1148
Time : 274.807
Syntactical distance : 0.0
Error Rate Precondition : 0.0
Error Rate Postcondition : 0.0
FSCORE : 1.0
Iteration 19
Size I+ 19
Size I- 1187
Time : 299.632
Syntactical distance : 0.0
Error Rate Precondition : 0.0
Error Rate Postcondition : 0.0
FSCORE : 1.0
Iteration 20
Size I+ 20
Size I- 1215
Time : 324.996
Syntactical distance : 0.0
Error Rate Precondition : 0.0
Error Rate Postcondition : 0.0
FSCORE : 1.0
Iteration 21
Size I+ 21
Size I- 1258
Time : 351.028
Syntactical distance : 0.0
Error Rate Precondition : 0.0
Error Rate Postcondition : 0.0
FSCORE : 1.0
Iteration 22
Size I+ 22
Size I- 1301
Time : 377.847
Syntactical distance : 0.0
Error Rate Precondition : 0.0
Error Rate Postcondition : 0.0
FSCORE : 1.0
Iteration 23
Size I+ 23
Size I- 1355
Time : 405.75
Syntactical distance : 0.0
Error Rate Precondition : 0.0
Error Rate Postcondition : 0.0
FSCORE : 1.0
Iteration 24
Size I+ 24
Size I- 1440
Time : 435.748
Syntactical distance : 0.0
Error Rate Precondition : 0.0
Error Rate Postcondition : 0.0
FSCORE : 1.0
Iteration 25
Size I+ 25
Size I- 1512
Time : 467.34
Syntactical distance : 0.0
Error Rate Precondition : 0.0
Error Rate Postcondition : 0.0
FSCORE : 1.0
Iteration 26
Size I+ 26
Size I- 1582
Time : 500.701
Syntactical distance : 0.0
Error Rate Precondition : 0.0
Error Rate Postcondition : 0.0
FSCORE : 1.0
Iteration 27
Size I+ 27
Size I- 1611
Time : 534.44
Syntactical distance : 0.0
Error Rate Precondition : 0.0
Error Rate Postcondition : 0.0
FSCORE : 1.0
Iteration 28
Size I+ 28
Size I- 1661
Time : 569.049
Syntactical distance : 0.0
Error Rate Precondition : 0.0
Error Rate Postcondition : 0.0
FSCORE : 1.0
Iteration 29
Size I+ 29
Size I- 1702
Time : 605.383
Syntactical distance : 0.0
Error Rate Precondition : 0.0
Error Rate Postcondition : 0.0
FSCORE : 1.0
Iteration 30
Size I+ 30
Size I- 1726
Time : 641.306
Syntactical distance : 0.0
Error Rate Precondition : 0.0
Error Rate Postcondition : 0.0
FSCORE : 1.0

*** Noise = 20.0% ***
Iteration 1
Time : 14.879
Syntactical distance : 0.097222224
Error Rate Precondition : 0.05337447
Error Rate Postcondition : 0.071546614
FSCORE : 0.12547052
Iteration 2
Size I+ 2
Size I- 189
Time : 34.609
Syntactical distance : 0.074074075
Error Rate Precondition : 0.12159784
Error Rate Postcondition : 0.103720404
FSCORE : 0.19379845
Iteration 3
Size I+ 3
Size I- 301
Time : 49.124
Syntactical distance : 0.074074075
Error Rate Precondition : 0.12159784
Error Rate Postcondition : 0.103720404
FSCORE : 0.19379845
Iteration 4
Size I+ 4
Size I- 423
Time : 67.353
Syntactical distance : 0.07638889
Error Rate Precondition : 0.09438826
Error Rate Postcondition : 0.10473815
FSCORE : 0.31496063
Iteration 5
Size I+ 5
Size I- 475
Time : 77.468
Syntactical distance : 0.07638889
Error Rate Precondition : 0.09438826
Error Rate Postcondition : 0.10473815
FSCORE : 0.31496063
Iteration 6
Size I+ 6
Size I- 529
Time : 99.042
Syntactical distance : 0.07638889
Error Rate Precondition : 0.09438826
Error Rate Postcondition : 0.10473815
FSCORE : 0.31496063
Iteration 7
Size I+ 7
Size I- 608
Time : 123.699
Syntactical distance : 0.07638889
Error Rate Precondition : 0.09438826
Error Rate Postcondition : 0.10473815
FSCORE : 0.31496063
Iteration 8
Size I+ 8
Size I- 628
Time : 187.924
Syntactical distance : 0.027777778
Error Rate Precondition : 0.044302177
Error Rate Postcondition : 0.057662174
FSCORE : 1.0
Iteration 9
Size I+ 9
Size I- 716
Time : 203.447
Syntactical distance : 0.027777778
Error Rate Precondition : 0.044302177
Error Rate Postcondition : 0.057662174
FSCORE : 1.0
Iteration 10
Size I+ 10
Size I- 787
Time : 220.564
Syntactical distance : 0.027777778
Error Rate Precondition : 0.044302177
Error Rate Postcondition : 0.057662174
FSCORE : 1.0
Iteration 11
Size I+ 11
Size I- 852
Time : 256.572
Syntactical distance : 0.0
Error Rate Precondition : 0.0
Error Rate Postcondition : 0.0
FSCORE : 1.0
Iteration 12
Size I+ 12
Size I- 888
Time : 298.614
Syntactical distance : 0.0
Error Rate Precondition : 0.0
Error Rate Postcondition : 0.0
FSCORE : 1.0
Iteration 13
Size I+ 13
Size I- 944
Time : 342.77
Syntactical distance : 0.0
Error Rate Precondition : 0.0
Error Rate Postcondition : 0.0
FSCORE : 1.0
Iteration 14
Size I+ 14
Size I- 987
Time : 390.898
Syntactical distance : 0.0
Error Rate Precondition : 0.0
Error Rate Postcondition : 0.0
FSCORE : 1.0
Iteration 15
Size I+ 15
Size I- 1006
Time : 442.384
Syntactical distance : 0.0
Error Rate Precondition : 0.0
Error Rate Postcondition : 0.0
FSCORE : 1.0
Iteration 16
Size I+ 16
Size I- 1057
Time : 503.104
Syntactical distance : 0.0
Error Rate Precondition : 0.0
Error Rate Postcondition : 0.0
FSCORE : 1.0
Iteration 17
Size I+ 17
Size I- 1109
Time : 584.939
Syntactical distance : 0.0
Error Rate Precondition : 0.0
Error Rate Postcondition : 0.0
FSCORE : 1.0
Iteration 18
Size I+ 18
Size I- 1148
Time : 669.089
Syntactical distance : 0.0
Error Rate Precondition : 0.0
Error Rate Postcondition : 0.0
FSCORE : 1.0
Iteration 19
Size I+ 19
Size I- 1187
Time : 758.304
Syntactical distance : 0.0
Error Rate Precondition : 0.0
Error Rate Postcondition : 0.0
FSCORE : 1.0
Iteration 20
Size I+ 20
Size I- 1215
Time : 847.129
Syntactical distance : 0.0
Error Rate Precondition : 0.0
Error Rate Postcondition : 0.0
FSCORE : 1.0
Iteration 21
Size I+ 21
Size I- 1258
Time : 938.507
Syntactical distance : 0.0
Error Rate Precondition : 0.0
Error Rate Postcondition : 0.0
FSCORE : 1.0
Iteration 22
Size I+ 22
Size I- 1301
Time : 1032.743
Syntactical distance : 0.0
Error Rate Precondition : 0.0
Error Rate Postcondition : 0.0
FSCORE : 1.0
Iteration 23
Size I+ 23
Size I- 1355
Time : 1130.905
Syntactical distance : 0.0
Error Rate Precondition : 0.0
Error Rate Postcondition : 0.0
FSCORE : 1.0
Iteration 24
Size I+ 24
Size I- 1440
Time : 1236.428
Syntactical distance : 0.0
Error Rate Precondition : 0.0
Error Rate Postcondition : 0.0
FSCORE : 1.0
Iteration 25
Size I+ 25
Size I- 1512
Time : 1347.772
Syntactical distance : 0.0
Error Rate Precondition : 0.0
Error Rate Postcondition : 0.0
FSCORE : 1.0
Iteration 26
Size I+ 26
Size I- 1582
Time : 1465.321
Syntactical distance : 0.0
Error Rate Precondition : 0.0
Error Rate Postcondition : 0.0
FSCORE : 1.0
Iteration 27
Size I+ 27
Size I- 1611
Time : 1584.397
Syntactical distance : 0.0
Error Rate Precondition : 0.0
Error Rate Postcondition : 0.0
FSCORE : 1.0
Iteration 28
Size I+ 28
Size I- 1661
Time : 1693.977
Syntactical distance : 0.0
Error Rate Precondition : 0.0
Error Rate Postcondition : 0.0
FSCORE : 1.0
Iteration 29
Size I+ 29
Size I- 1702
Time : 1812.691
Syntactical distance : 0.0
Error Rate Precondition : 0.0
Error Rate Postcondition : 0.0
FSCORE : 1.0
Iteration 30
Size I+ 30
Size I- 1726
Time : 1932.212
Syntactical distance : 0.0
Error Rate Precondition : 0.0
Error Rate Postcondition : 0.0
FSCORE : 1.0
E+ size : 100
E- size : 27580
e+ mean size : 52.15
e- mean size : 34.231472
############################################
### Fluent = 25.0% ###

*** Noise = 0.0% ***
Iteration 1
Time : 4.223
Syntactical distance : 0.0462963
Error Rate Precondition : 0.025326341
Error Rate Postcondition : 0.030897498
FSCORE : 0.16993463
Iteration 2
Size I+ 2
Size I- 121
Time : 10.296
Syntactical distance : 0.055555556
Error Rate Precondition : 0.06456197
Error Rate Postcondition : 0.033094555
FSCORE : 0.14814813
Iteration 3
Size I+ 3
Size I- 190
Time : 19.813
Syntactical distance : 0.018518519
Error Rate Precondition : 0.0
Error Rate Postcondition : 0.05154562
FSCORE : 0.18390805
Iteration 4
Size I+ 4
Size I- 256
Time : 29.388
Syntactical distance : 0.0
Error Rate Precondition : 0.0
Error Rate Postcondition : 0.0
FSCORE : 1.0
Iteration 5
Size I+ 5
Size I- 301
Time : 35.165
Syntactical distance : 0.0
Error Rate Precondition : 0.0
Error Rate Postcondition : 0.0
FSCORE : 1.0
Iteration 6
Size I+ 6
Size I- 389
Time : 43.472
Syntactical distance : 0.0
Error Rate Precondition : 0.0
Error Rate Postcondition : 0.0
FSCORE : 1.0
Iteration 7
Size I+ 7
Size I- 472
Time : 54.236
Syntactical distance : 0.0
Error Rate Precondition : 0.0
Error Rate Postcondition : 0.0
FSCORE : 1.0
Iteration 8
Size I+ 8
Size I- 521
Time : 65.465
Syntactical distance : 0.0
Error Rate Precondition : 0.0
Error Rate Postcondition : 0.0
FSCORE : 1.0
Iteration 9
Size I+ 9
Size I- 569
Time : 78.065
Syntactical distance : 0.0
Error Rate Precondition : 0.0
Error Rate Postcondition : 0.0
FSCORE : 1.0
Iteration 10
Size I+ 10
Size I- 660
Time : 92.391
Syntactical distance : 0.0
Error Rate Precondition : 0.0
Error Rate Postcondition : 0.0
FSCORE : 1.0
Iteration 11
Size I+ 11
Size I- 698
Time : 107.165
Syntactical distance : 0.0
Error Rate Precondition : 0.0
Error Rate Postcondition : 0.0
FSCORE : 1.0
Iteration 12
Size I+ 12
Size I- 768
Time : 123.114
Syntactical distance : 0.0
Error Rate Precondition : 0.0
Error Rate Postcondition : 0.0
FSCORE : 1.0
Iteration 13
Size I+ 13
Size I- 817
Time : 140.083
Syntactical distance : 0.0
Error Rate Precondition : 0.0
Error Rate Postcondition : 0.0
FSCORE : 1.0
Iteration 14
Size I+ 14
Size I- 839
Time : 157.038
Syntactical distance : 0.0
Error Rate Precondition : 0.0
Error Rate Postcondition : 0.0
FSCORE : 1.0
Iteration 15
Size I+ 15
Size I- 878
Time : 174.786
Syntactical distance : 0.0
Error Rate Precondition : 0.0
Error Rate Postcondition : 0.0
FSCORE : 1.0
Iteration 16
Size I+ 16
Size I- 907
Time : 194.343
Syntactical distance : 0.0
Error Rate Precondition : 0.0
Error Rate Postcondition : 0.0
FSCORE : 1.0
Iteration 17
Size I+ 17
Size I- 1015
Time : 215.039
Syntactical distance : 0.0
Error Rate Precondition : 0.0
Error Rate Postcondition : 0.0
FSCORE : 1.0
Iteration 18
Size I+ 18
Size I- 1083
Time : 238.226
Syntactical distance : 0.0
Error Rate Precondition : 0.0
Error Rate Postcondition : 0.0
FSCORE : 1.0
Iteration 19
Size I+ 19
Size I- 1181
Time : 264.393
Syntactical distance : 0.0
Error Rate Precondition : 0.0
Error Rate Postcondition : 0.0
FSCORE : 1.0
Iteration 20
Size I+ 20
Size I- 1232
Time : 289.766
Syntactical distance : 0.0
Error Rate Precondition : 0.0
Error Rate Postcondition : 0.0
FSCORE : 1.0
Iteration 21
Size I+ 21
Size I- 1266
Time : 315.861
Syntactical distance : 0.0
Error Rate Precondition : 0.0
Error Rate Postcondition : 0.0
FSCORE : 1.0
Iteration 22
Size I+ 22
Size I- 1342
Time : 344.037
Syntactical distance : 0.0
Error Rate Precondition : 0.0
Error Rate Postcondition : 0.0
FSCORE : 1.0
Iteration 23
Size I+ 23
Size I- 1430
Time : 374.164
Syntactical distance : 0.0
Error Rate Precondition : 0.0
Error Rate Postcondition : 0.0
FSCORE : 1.0
Iteration 24
Size I+ 24
Size I- 1500
Time : 405.669
Syntactical distance : 0.0
Error Rate Precondition : 0.0
Error Rate Postcondition : 0.0
FSCORE : 1.0
Iteration 25
Size I+ 25
Size I- 1578
Time : 439.749
Syntactical distance : 0.0
Error Rate Precondition : 0.0
Error Rate Postcondition : 0.0
FSCORE : 1.0
Iteration 26
Size I+ 26
Size I- 1654
Time : 474.584
Syntactical distance : 0.0
Error Rate Precondition : 0.0
Error Rate Postcondition : 0.0
FSCORE : 1.0
Iteration 27
Size I+ 27
Size I- 1732
Time : 511.428
Syntactical distance : 0.0
Error Rate Precondition : 0.0
Error Rate Postcondition : 0.0
FSCORE : 1.0
Iteration 28
Size I+ 28
Size I- 1802
Time : 549.692
Syntactical distance : 0.0
Error Rate Precondition : 0.0
Error Rate Postcondition : 0.0
FSCORE : 1.0
Iteration 29
Size I+ 29
Size I- 1879
Time : 589.66
Syntactical distance : 0.0
Error Rate Precondition : 0.0
Error Rate Postcondition : 0.0
FSCORE : 1.0
Iteration 30
Size I+ 30
Size I- 1942
Time : 630.875
Syntactical distance : 0.0
Error Rate Precondition : 0.0
Error Rate Postcondition : 0.0
FSCORE : 1.0

*** Noise = 20.0% ***
Iteration 1
Time : 5.176
Syntactical distance : 0.13425925
Error Rate Precondition : 0.08516484
Error Rate Postcondition : 0.044069953
FSCORE : 0.043360434
Iteration 2
Size I+ 2
Size I- 121
Time : 15.697
Syntactical distance : 0.10416667
Error Rate Precondition : 0.07265544
Error Rate Postcondition : 0.09293894
FSCORE : 0.14814813
Iteration 3
Size I+ 3
Size I- 190
Time : 20.72
Syntactical distance : 0.06481482
Error Rate Precondition : 0.11847942
Error Rate Postcondition : 0.02584278
FSCORE : 0.058252428
Iteration 4
Size I+ 4
Size I- 256
Time : 27.28
Syntactical distance : 0.05555556
Error Rate Precondition : 0.10805942
Error Rate Postcondition : 0.024552701
FSCORE : 0.058252428
Iteration 5
Size I+ 5
Size I- 301
Time : 36.015
Syntactical distance : 0.05555556
Error Rate Precondition : 0.10805942
Error Rate Postcondition : 0.024552701
FSCORE : 0.058252428
Iteration 6
Size I+ 6
Size I- 389
Time : 58.285
Syntactical distance : 0.027777778
Error Rate Precondition : 0.04341797
Error Rate Postcondition : 0.055859845
FSCORE : 1.0
Iteration 7
Size I+ 7
Size I- 472
Time : 72.283
Syntactical distance : 0.074074075
Error Rate Precondition : 0.16588402
Error Rate Postcondition : 0.023385301
FSCORE : 0.058252428
Iteration 8
Size I+ 8
Size I- 521
Time : 85.182
Syntactical distance : 0.074074075
Error Rate Precondition : 0.1496707
Error Rate Postcondition : 0.023385301
FSCORE : 0.058252428
Iteration 9
Size I+ 9
Size I- 569
Time : 100.187
Syntactical distance : 0.05555556
Error Rate Precondition : 0.12602545
Error Rate Postcondition : 0.024552701
FSCORE : 0.058252428
Iteration 10
Size I+ 10
Size I- 660
Time : 129.952
Syntactical distance : 0.05555556
Error Rate Precondition : 0.12602545
Error Rate Postcondition : 0.024552701
FSCORE : 0.058252428
Iteration 11
Size I+ 11
Size I- 698
Time : 154.397
Syntactical distance : 0.037037037
Error Rate Precondition : 0.06408553
Error Rate Postcondition : 0.025920108
FSCORE : 0.058252428
Iteration 12
Size I+ 12
Size I- 768
Time : 196.426
Syntactical distance : 0.0
Error Rate Precondition : 0.0
Error Rate Postcondition : 0.0
FSCORE : 1.0
Iteration 13
Size I+ 13
Size I- 817
Time : 213.562
Syntactical distance : 0.0
Error Rate Precondition : 0.0
Error Rate Postcondition : 0.0
FSCORE : 1.0
Iteration 14
Size I+ 14
Size I- 839
Time : 230.798
Syntactical distance : 0.0
Error Rate Precondition : 0.0
Error Rate Postcondition : 0.0
FSCORE : 1.0
Iteration 15
Size I+ 15
Size I- 878
Time : 248.759
Syntactical distance : 0.0
Error Rate Precondition : 0.0
Error Rate Postcondition : 0.0
FSCORE : 1.0
Iteration 16
Size I+ 16
Size I- 907
Time : 287.823
Syntactical distance : 0.0462963
Error Rate Precondition : 0.078727014
Error Rate Postcondition : 0.055859845
FSCORE : 0.19493178
Iteration 17
Size I+ 17
Size I- 1015
Time : 381.426
Syntactical distance : 0.0462963
Error Rate Precondition : 0.078727014
Error Rate Postcondition : 0.055859845
FSCORE : 0.19493178
Iteration 18
Size I+ 18
Size I- 1083
Time : 383.896
Syntactical distance : 0.1388889
Error Rate Precondition : 0.1401214
Error Rate Postcondition : 0.12658753
FSCORE : 0.006535948
Iteration 19
Size I+ 19
Size I- 1181
Time : 478.046
Syntactical distance : 0.0
Error Rate Precondition : 0.0
Error Rate Postcondition : 0.0
FSCORE : 1.0
Iteration 20
Size I+ 20
Size I- 1232
Time : 503.492
Syntactical distance : 0.0
Error Rate Precondition : 0.0
Error Rate Postcondition : 0.0
FSCORE : 1.0
Iteration 21
Size I+ 21
Size I- 1266
Time : 529.696
Syntactical distance : 0.0
Error Rate Precondition : 0.0
Error Rate Postcondition : 0.0
FSCORE : 1.0
Iteration 22
Size I+ 22
Size I- 1342
Time : 627.224
Syntactical distance : 0.0
Error Rate Precondition : 0.0
Error Rate Postcondition : 0.0
FSCORE : 1.0
Iteration 23
Size I+ 23
Size I- 1430
Time : 730.213
Syntactical distance : 0.0
Error Rate Precondition : 0.0
Error Rate Postcondition : 0.0
FSCORE : 1.0
Iteration 24
Size I+ 24
Size I- 1500
Time : 837.984
Syntactical distance : 0.0
Error Rate Precondition : 0.0
Error Rate Postcondition : 0.0
FSCORE : 1.0
Iteration 25
Size I+ 25
Size I- 1578
Time : 942.391
Syntactical distance : 0.0
Error Rate Precondition : 0.0
Error Rate Postcondition : 0.0
FSCORE : 1.0
Iteration 26
Size I+ 26
Size I- 1654
Time : 1061.553
Syntactical distance : 0.0
Error Rate Precondition : 0.0
Error Rate Postcondition : 0.0
FSCORE : 1.0
Iteration 27
Size I+ 27
Size I- 1732
Time : 1098.437
Syntactical distance : 0.0
Error Rate Precondition : 0.0
Error Rate Postcondition : 0.0
FSCORE : 1.0
Iteration 28
Size I+ 28
Size I- 1802
Time : 1136.824
Syntactical distance : 0.0
Error Rate Precondition : 0.0
Error Rate Postcondition : 0.0
FSCORE : 1.0
Iteration 29
Size I+ 29
Size I- 1879
Time : 1176.872
Syntactical distance : 0.0
Error Rate Precondition : 0.0
Error Rate Postcondition : 0.0
FSCORE : 1.0
Iteration 30
Size I+ 30
Size I- 1942
Time : 1322.563
Syntactical distance : 0.0
Error Rate Precondition : 0.0
Error Rate Postcondition : 0.0
FSCORE : 1.0
############################################
### Fluent = 100.0% ###

*** Noise = 0.0% ***
Iteration 1
Time : 1.547
Syntactical distance : 0.018518519
Error Rate Precondition : 0.038868457
Error Rate Postcondition : 0.0
FSCORE : 0.18181819
Iteration 2
Size I+ 2
Size I- 131
Time : 4.33
Syntactical distance : 0.018518519
Error Rate Precondition : 0.038868457
Error Rate Postcondition : 0.0
FSCORE : 0.18181819
Iteration 3
Size I+ 3
Size I- 187
Time : 8.015
Syntactical distance : 0.018518519
Error Rate Precondition : 0.038868457
Error Rate Postcondition : 0.0
FSCORE : 0.18181819
Iteration 4
Size I+ 4
Size I- 274
Time : 17.967
Syntactical distance : 0.018518519
Error Rate Precondition : 0.020111633
Error Rate Postcondition : 0.027448805
FSCORE : 0.18390805
Iteration 5
Size I+ 5
Size I- 313
Time : 23.904
Syntactical distance : 0.0
Error Rate Precondition : 0.0
Error Rate Postcondition : 0.0
FSCORE : 1.0
Iteration 6
Size I+ 6
Size I- 339
Time : 30.64
Syntactical distance : 0.0
Error Rate Precondition : 0.0
Error Rate Postcondition : 0.0
FSCORE : 1.0
Iteration 7
Size I+ 7
Size I- 406
Time : 38.517
Syntactical distance : 0.0
Error Rate Precondition : 0.0
Error Rate Postcondition : 0.0
FSCORE : 1.0
Iteration 8
Size I+ 8
Size I- 472
Time : 47.702
Syntactical distance : 0.0
Error Rate Precondition : 0.0
Error Rate Postcondition : 0.0
FSCORE : 1.0
Iteration 9
Size I+ 9
Size I- 566
Time : 58.591
Syntactical distance : 0.0
Error Rate Precondition : 0.0
Error Rate Postcondition : 0.0
FSCORE : 1.0
Iteration 10
Size I+ 10
Size I- 623
Time : 70.901
Syntactical distance : 0.0
Error Rate Precondition : 0.0
Error Rate Postcondition : 0.0
FSCORE : 1.0
Iteration 11
Size I+ 11
Size I- 694
Time : 84.363
Syntactical distance : 0.0
Error Rate Precondition : 0.0
Error Rate Postcondition : 0.0
FSCORE : 1.0
Iteration 12
Size I+ 12
Size I- 778
Time : 99.06
Syntactical distance : 0.0
Error Rate Precondition : 0.0
Error Rate Postcondition : 0.0
FSCORE : 1.0
Iteration 13
Size I+ 13
Size I- 891
Time : 117.544
Syntactical distance : 0.0
Error Rate Precondition : 0.0
Error Rate Postcondition : 0.0
FSCORE : 1.0
Iteration 14
Size I+ 14
Size I- 922
Time : 135.737
Syntactical distance : 0.0
Error Rate Precondition : 0.0
Error Rate Postcondition : 0.0
FSCORE : 1.0
Iteration 15
Size I+ 15
Size I- 1023
Time : 157.263
Syntactical distance : 0.0
Error Rate Precondition : 0.0
Error Rate Postcondition : 0.0
FSCORE : 1.0
Iteration 16
Size I+ 16
Size I- 1093
Time : 178.549
Syntactical distance : 0.0
Error Rate Precondition : 0.0
Error Rate Postcondition : 0.0
FSCORE : 1.0
Iteration 17
Size I+ 17
Size I- 1166
Time : 202.138
Syntactical distance : 0.0
Error Rate Precondition : 0.0
Error Rate Postcondition : 0.0
FSCORE : 1.0
Iteration 18
Size I+ 18
Size I- 1237
Time : 228.899
Syntactical distance : 0.0
Error Rate Precondition : 0.0
Error Rate Postcondition : 0.0
FSCORE : 1.0
Iteration 19
Size I+ 19
Size I- 1269
Time : 253.644
Syntactical distance : 0.0
Error Rate Precondition : 0.0
Error Rate Postcondition : 0.0
FSCORE : 1.0
Iteration 20
Size I+ 20
Size I- 1329
Time : 279.715
Syntactical distance : 0.0
Error Rate Precondition : 0.0
Error Rate Postcondition : 0.0
FSCORE : 1.0
Iteration 21
Size I+ 21
Size I- 1395
Time : 308.676
Syntactical distance : 0.0
Error Rate Precondition : 0.0
Error Rate Postcondition : 0.0
FSCORE : 1.0
Iteration 22
Size I+ 22
Size I- 1448
Time : 339.703
Syntactical distance : 0.0
Error Rate Precondition : 0.0
Error Rate Postcondition : 0.0
FSCORE : 1.0
Iteration 23
Size I+ 23
Size I- 1534
Time : 372.884
Syntactical distance : 0.0
Error Rate Precondition : 0.0
Error Rate Postcondition : 0.0
FSCORE : 1.0
Iteration 24
Size I+ 24
Size I- 1591
Time : 404.105
Syntactical distance : 0.0
Error Rate Precondition : 0.0
Error Rate Postcondition : 0.0
FSCORE : 1.0
Iteration 25
Size I+ 25
Size I- 1664
Time : 436.703
Syntactical distance : 0.0
Error Rate Precondition : 0.0
Error Rate Postcondition : 0.0
FSCORE : 1.0
Iteration 26
Size I+ 26
Size I- 1701
Time : 469.871
Syntactical distance : 0.0
Error Rate Precondition : 0.0
Error Rate Postcondition : 0.0
FSCORE : 1.0
Iteration 27
Size I+ 27
Size I- 1799
Time : 505.282
Syntactical distance : 0.0
Error Rate Precondition : 0.0
Error Rate Postcondition : 0.0
FSCORE : 1.0
Iteration 28
Size I+ 28
Size I- 1899
Time : 543.12
Syntactical distance : 0.0
Error Rate Precondition : 0.0
Error Rate Postcondition : 0.0
FSCORE : 1.0
Iteration 29
Size I+ 29
Size I- 1976
Time : 582.69
Syntactical distance : 0.0
Error Rate Precondition : 0.0
Error Rate Postcondition : 0.0
FSCORE : 1.0
Iteration 30
Size I+ 30
Size I- 2013
Time : 622.818
Syntactical distance : 0.0
Error Rate Precondition : 0.0
Error Rate Postcondition : 0.0
FSCORE : 1.0

*** Noise = 20.0% ***
Iteration 1
Time : 7.093
Syntactical distance : 0.074074075
Error Rate Precondition : 0.11197219
Error Rate Postcondition : 0.08622403
FSCORE : 0.18181819
Iteration 2
Size I+ 2
Size I- 131
Time : 16.542
Syntactical distance : 0.074074075
Error Rate Precondition : 0.08575743
Error Rate Postcondition : 0.06267363
FSCORE : 0.18181819
Iteration 3
Size I+ 3
Size I- 187
Time : 33.189
Syntactical distance : 0.0462963
Error Rate Precondition : 0.078727014
Error Rate Postcondition : 0.055859845
FSCORE : 0.19493178
Iteration 4
Size I+ 4
Size I- 274
Time : 62.393
Syntactical distance : 0.0462963
Error Rate Precondition : 0.078727014
Error Rate Postcondition : 0.055859845
FSCORE : 0.19493178
Iteration 5
Size I+ 5
Size I- 313
Time : 78.485
Syntactical distance : 0.0462963
Error Rate Precondition : 0.078727014
Error Rate Postcondition : 0.055859845
FSCORE : 0.19493178
Iteration 6
Size I+ 6
Size I- 339
Time : 96.628
Syntactical distance : 0.037037037
Error Rate Precondition : 0.061931
Error Rate Postcondition : 0.055859845
FSCORE : 0.19493178
Iteration 7
Size I+ 7
Size I- 406
Time : 132.427
Syntactical distance : 0.037037037
Error Rate Precondition : 0.061931
Error Rate Postcondition : 0.055859845
FSCORE : 0.19493178
Iteration 8
Size I+ 8
Size I- 472
Time : 166.787
Syntactical distance : 0.037037037
Error Rate Precondition : 0.061931
Error Rate Postcondition : 0.055859845
FSCORE : 0.19493178
Iteration 9
Size I+ 9
Size I- 566
Time : 177.576
Syntactical distance : 0.037037037
Error Rate Precondition : 0.061931
Error Rate Postcondition : 0.055859845
FSCORE : 0.19493178
Iteration 10
Size I+ 10
Size I- 623
Time : 217.508
Syntactical distance : 0.027777778
Error Rate Precondition : 0.04341797
Error Rate Postcondition : 0.055859845
FSCORE : 1.0
Iteration 11
Size I+ 11
Size I- 694
Time : 230.88
Syntactical distance : 0.027777778
Error Rate Precondition : 0.04341797
Error Rate Postcondition : 0.055859845
FSCORE : 1.0
Iteration 12
Size I+ 12
Size I- 778
Time : 268.174
Syntactical distance : 0.0
Error Rate Precondition : 0.0
Error Rate Postcondition : 0.0
FSCORE : 1.0
Iteration 13
Size I+ 13
Size I- 891
Time : 286.595
Syntactical distance : 0.027777778
Error Rate Precondition : 0.04341797
Error Rate Postcondition : 0.055859845
FSCORE : 1.0
Iteration 14
Size I+ 14
Size I- 922
Time : 304.761
Syntactical distance : 0.027777778
Error Rate Precondition : 0.04341797
Error Rate Postcondition : 0.055859845
FSCORE : 1.0
Iteration 15
Size I+ 15
Size I- 1023
Time : 375.079
Syntactical distance : 0.037037037
Error Rate Precondition : 0.061931
Error Rate Postcondition : 0.055859845
FSCORE : 0.19493178
Iteration 16
Size I+ 16
Size I- 1093
Time : 425.497
Syntactical distance : 0.037037037
Error Rate Precondition : 0.061931
Error Rate Postcondition : 0.055859845
FSCORE : 0.19493178
Iteration 17
Size I+ 17
Size I- 1166
Time : 482.457
Syntactical distance : 0.037037037
Error Rate Precondition : 0.061931
Error Rate Postcondition : 0.055859845
FSCORE : 0.19493178
Iteration 18
Size I+ 18
Size I- 1237
Time : 583.861
Syntactical distance : 0.037037037
Error Rate Precondition : 0.061931
Error Rate Postcondition : 0.055859845
FSCORE : 0.19493178
Iteration 19
Size I+ 19
Size I- 1269
Time : 695.381
Syntactical distance : 0.037037037
Error Rate Precondition : 0.061931
Error Rate Postcondition : 0.055859845
FSCORE : 0.19493178
Iteration 20
Size I+ 20
Size I- 1329
Time : 817.485
Syntactical distance : 0.037037037
Error Rate Precondition : 0.061931
Error Rate Postcondition : 0.055859845
FSCORE : 0.19493178
Iteration 21
Size I+ 21
Size I- 1395
Time : 949.733
Syntactical distance : 0.037037037
Error Rate Precondition : 0.061931
Error Rate Postcondition : 0.055859845
FSCORE : 0.19493178
Iteration 22
Size I+ 22
Size I- 1448
Time : 1073.412
Syntactical distance : 0.0
Error Rate Precondition : 0.0
Error Rate Postcondition : 0.0
FSCORE : 1.0
Iteration 23
Size I+ 23
Size I- 1534
Time : 1205.306
Syntactical distance : 0.0
Error Rate Precondition : 0.0
Error Rate Postcondition : 0.0
FSCORE : 1.0
Iteration 24
Size I+ 24
Size I- 1591
Time : 1352.025
Syntactical distance : 0.0
Error Rate Precondition : 0.0
Error Rate Postcondition : 0.0
FSCORE : 1.0
Iteration 25
Size I+ 25
Size I- 1664
Time : 1504.75
Syntactical distance : 0.0
Error Rate Precondition : 0.0
Error Rate Postcondition : 0.0
FSCORE : 1.0
Iteration 26
Size I+ 26
Size I- 1701
Time : 1661.009
Syntactical distance : 0.0
Error Rate Precondition : 0.0
Error Rate Postcondition : 0.0
FSCORE : 1.0
Iteration 27
Size I+ 27
Size I- 1799
Time : 1827.287
Syntactical distance : 0.0
Error Rate Precondition : 0.0
Error Rate Postcondition : 0.0
FSCORE : 1.0
Iteration 28
Size I+ 28
Size I- 1899
Time : 2005.181
Syntactical distance : 0.0
Error Rate Precondition : 0.0
Error Rate Postcondition : 0.0
FSCORE : 1.0
Iteration 29
Size I+ 29
Size I- 1976
Time : 2191.872
Syntactical distance : 0.0
Error Rate Precondition : 0.0
Error Rate Postcondition : 0.0
FSCORE : 1.0
Iteration 30
Size I+ 30
Size I- 2013
Time : 2380.84
Syntactical distance : 0.0
Error Rate Precondition : 0.0
Error Rate Postcondition : 0.0
FSCORE : 1.0
