Initial states 1
run 0
### Fluent = 25 ###

*** Noise = 0 ***
20 problems
20 solved problems
20 correctly solved problems
*** Noise = 20 ***
20 problems
19 solved problems
19 correctly solved problems
### Fluent = 100 ###

*** Noise = 0 ***
20 problems
20 solved problems
20 correctly solved problems
*** Noise = 20 ***
20 problems
20 solved problems
20 correctly solved problems
run 1
### Fluent = 25 ###

*** Noise = 0 ***
20 problems
20 solved problems
20 correctly solved problems
*** Noise = 20 ***
20 problems
20 solved problems
20 correctly solved problems
### Fluent = 100 ###

*** Noise = 0 ***
20 problems
20 solved problems
20 correctly solved problems
*** Noise = 20 ***
20 problems
20 solved problems
20 correctly solved problems
run 2
### Fluent = 25 ###

*** Noise = 0 ***
20 problems
20 solved problems
20 correctly solved problems
*** Noise = 20 ***
20 problems
20 solved problems
20 correctly solved problems
### Fluent = 100 ###

*** Noise = 0 ***
20 problems
20 solved problems
20 correctly solved problems
*** Noise = 20 ***
20 problems
20 solved problems
20 correctly solved problems
run 3
### Fluent = 25 ###

*** Noise = 0 ***
20 problems
20 solved problems
20 correctly solved problems
*** Noise = 20 ***
20 problems
20 solved problems
20 correctly solved problems
### Fluent = 100 ###

*** Noise = 0 ***
20 problems
20 solved problems
20 correctly solved problems
*** Noise = 20 ***
20 problems
20 solved problems
20 correctly solved problems
run 4
### Fluent = 25 ###

*** Noise = 0 ***
20 problems
20 solved problems
20 correctly solved problems
*** Noise = 20 ***
20 problems
0 solved problems
0 correctly solved problems
### Fluent = 100 ###

*** Noise = 0 ***
20 problems
20 solved problems
20 correctly solved problems
*** Noise = 20 ***
20 problems
19 solved problems
19 correctly solved problems
Initial states 2
run 0
### Fluent = 25 ###

*** Noise = 0 ***
20 problems
19 solved problems
19 correctly solved problems
*** Noise = 20 ***
20 problems
0 solved problems
0 correctly solved problems
### Fluent = 100 ###

*** Noise = 0 ***
20 problems
20 solved problems
20 correctly solved problems
*** Noise = 20 ***
20 problems
20 solved problems
20 correctly solved problems
run 1
### Fluent = 25 ###

*** Noise = 0 ***
20 problems
19 solved problems
19 correctly solved problems
*** Noise = 20 ***
20 problems
16 solved problems
0 correctly solved problems
### Fluent = 100 ###

*** Noise = 0 ***
20 problems
20 solved problems
20 correctly solved problems
*** Noise = 20 ***
20 problems
18 solved problems
15 correctly solved problems
run 2
### Fluent = 25 ###

*** Noise = 0 ***
20 problems
20 solved problems
20 correctly solved problems
*** Noise = 20 ***
20 problems
0 solved problems
0 correctly solved problems
### Fluent = 100 ###

*** Noise = 0 ***
20 problems
20 solved problems
20 correctly solved problems
*** Noise = 20 ***
20 problems
20 solved problems
20 correctly solved problems
run 3
### Fluent = 25 ###

*** Noise = 0 ***
20 problems
20 solved problems
20 correctly solved problems
*** Noise = 20 ***
20 problems
20 solved problems
20 correctly solved problems
### Fluent = 100 ###

*** Noise = 0 ***
20 problems
20 solved problems
20 correctly solved problems
*** Noise = 20 ***
20 problems
20 solved problems
15 correctly solved problems
run 4
### Fluent = 25 ###

*** Noise = 0 ***
20 problems
20 solved problems
20 correctly solved problems
*** Noise = 20 ***
20 problems
20 solved problems
8 correctly solved problems
### Fluent = 100 ###

*** Noise = 0 ***
20 problems
20 solved problems
20 correctly solved problems
*** Noise = 20 ***
20 problems
20 solved problems
20 correctly solved problems
Initial states 3
run 0
### Fluent = 25 ###

*** Noise = 0 ***
20 problems
20 solved problems
20 correctly solved problems
*** Noise = 20 ***
20 problems
20 solved problems
20 correctly solved problems
### Fluent = 100 ###

*** Noise = 0 ***
20 problems
20 solved problems
20 correctly solved problems
*** Noise = 20 ***
20 problems
20 solved problems
20 correctly solved problems
run 1
### Fluent = 25 ###

*** Noise = 0 ***
20 problems
20 solved problems
20 correctly solved problems
*** Noise = 20 ***
20 problems
20 solved problems
20 correctly solved problems
### Fluent = 100 ###

*** Noise = 0 ***
20 problems
20 solved problems
20 correctly solved problems
*** Noise = 20 ***
20 problems
20 solved problems
20 correctly solved problems
run 2
### Fluent = 25 ###

*** Noise = 0 ***
20 problems
20 solved problems
20 correctly solved problems
*** Noise = 20 ***
20 problems
20 solved problems
17 correctly solved problems
### Fluent = 100 ###

*** Noise = 0 ***
20 problems
20 solved problems
20 correctly solved problems
*** Noise = 20 ***
20 problems
20 solved problems
20 correctly solved problems
run 3
### Fluent = 25 ###

*** Noise = 0 ***
20 problems
20 solved problems
20 correctly solved problems
*** Noise = 20 ***
20 problems
20 solved problems
0 correctly solved problems
### Fluent = 100 ###

*** Noise = 0 ***
20 problems
20 solved problems
20 correctly solved problems
*** Noise = 20 ***
20 problems
20 solved problems
20 correctly solved problems
run 4
### Fluent = 25 ###

*** Noise = 0 ***
20 problems
20 solved problems
20 correctly solved problems
*** Noise = 20 ***
20 problems
20 solved problems
20 correctly solved problems
### Fluent = 100 ###

*** Noise = 0 ***
20 problems
20 solved problems
20 correctly solved problems
*** Noise = 20 ***
20 problems
20 solved problems
20 correctly solved problems
