# actions 8
# predicate 13
Initial state : pddl/NegElevator/initial_states/initial3.pddl
pddl/NegElevator/domain.pddl
E+ size : 100
E- size : 13146
e+ mean size : 52.3
e- mean size : 35.592422
############################################
### Fluent = 25.0% ###

*** Noise = 0.0% ***
Iteration 1
Time : 1.178
Syntactical distance : 0.016666668
Error Rate Precondition : 0.0
Error Rate Postcondition : 0.0
FSCORE : 0.17714792
Iteration 2
Size I+ 2
Size I- 69
Time : 4.077
Syntactical distance : 0.0
Error Rate Precondition : 0.0
Error Rate Postcondition : 0.0
FSCORE : 1.0
Iteration 3
Size I+ 3
Size I- 101
Time : 6.528
Syntactical distance : 0.0
Error Rate Precondition : 0.0
Error Rate Postcondition : 0.0
FSCORE : 1.0
Iteration 4
Size I+ 4
Size I- 138
Time : 11.513
Syntactical distance : 0.0
Error Rate Precondition : 0.0
Error Rate Postcondition : 0.0
FSCORE : 1.0
Iteration 5
Size I+ 5
Size I- 166
Time : 16.235
Syntactical distance : 0.0
Error Rate Precondition : 0.0
Error Rate Postcondition : 0.0
FSCORE : 1.0
Iteration 6
Size I+ 6
Size I- 194
Time : 23.956
Syntactical distance : 0.0
Error Rate Precondition : 0.0
Error Rate Postcondition : 0.0
FSCORE : 1.0
Iteration 7
Size I+ 7
Size I- 239
Time : 31.506
Syntactical distance : 0.0
Error Rate Precondition : 0.0
Error Rate Postcondition : 0.0
FSCORE : 1.0
Iteration 8
Size I+ 8
Size I- 253
Time : 38.589
Syntactical distance : 0.0
Error Rate Precondition : 0.0
Error Rate Postcondition : 0.0
FSCORE : 1.0
Iteration 9
Size I+ 9
Size I- 287
Time : 46.939
Syntactical distance : 0.0
Error Rate Precondition : 0.0
Error Rate Postcondition : 0.0
FSCORE : 1.0
Iteration 10
Size I+ 10
Size I- 314
Time : 56.706
Syntactical distance : 0.0
Error Rate Precondition : 0.0
Error Rate Postcondition : 0.0
FSCORE : 1.0
Iteration 11
Size I+ 11
Size I- 343
Time : 66.617
Syntactical distance : 0.0
Error Rate Precondition : 0.0
Error Rate Postcondition : 0.0
FSCORE : 1.0
Iteration 12
Size I+ 12
Size I- 385
Time : 77.579
Syntactical distance : 0.0
Error Rate Precondition : 0.0
Error Rate Postcondition : 0.0
FSCORE : 1.0
Iteration 13
Size I+ 13
Size I- 402
Time : 89.974
Syntactical distance : 0.0
Error Rate Precondition : 0.0
Error Rate Postcondition : 0.0
FSCORE : 1.0
Iteration 14
Size I+ 14
Size I- 411
Time : 99.956
Syntactical distance : 0.0
Error Rate Precondition : 0.0
Error Rate Postcondition : 0.0
FSCORE : 1.0
Iteration 15
Size I+ 15
Size I- 435
Time : 114.995
Syntactical distance : 0.0
Error Rate Precondition : 0.0
Error Rate Postcondition : 0.0
FSCORE : 1.0
Iteration 16
Size I+ 16
Size I- 469
Time : 130.017
Syntactical distance : 0.0
Error Rate Precondition : 0.0
Error Rate Postcondition : 0.0
FSCORE : 1.0
Iteration 17
Size I+ 17
Size I- 492
Time : 141.914
Syntactical distance : 0.0
Error Rate Precondition : 0.0
Error Rate Postcondition : 0.0
FSCORE : 1.0
Iteration 18
Size I+ 18
Size I- 516
Time : 169.175
Syntactical distance : 0.0
Error Rate Precondition : 0.0
Error Rate Postcondition : 0.0
FSCORE : 1.0
Iteration 19
Size I+ 19
Size I- 527
Time : 187.371
Syntactical distance : 0.0
Error Rate Precondition : 0.0
Error Rate Postcondition : 0.0
FSCORE : 1.0
Iteration 20
Size I+ 20
Size I- 553
Time : 224.4
Syntactical distance : 0.0
Error Rate Precondition : 0.0
Error Rate Postcondition : 0.0
FSCORE : 1.0
Iteration 21
Size I+ 21
Size I- 569
Time : 256.043
Syntactical distance : 0.0
Error Rate Precondition : 0.0
Error Rate Postcondition : 0.0
FSCORE : 1.0
Iteration 22
Size I+ 22
Size I- 597
Time : 278.53
Syntactical distance : 0.0
Error Rate Precondition : 0.0
Error Rate Postcondition : 0.0
FSCORE : 1.0
Iteration 23
Size I+ 23
Size I- 613
Time : 293.346
Syntactical distance : 0.0
Error Rate Precondition : 0.0
Error Rate Postcondition : 0.0
FSCORE : 1.0
Iteration 24
Size I+ 24
Size I- 635
Time : 314.672
Syntactical distance : 0.0
Error Rate Precondition : 0.0
Error Rate Postcondition : 0.0
FSCORE : 1.0
Iteration 25
Size I+ 25
Size I- 661
Time : 339.324
Syntactical distance : 0.0
Error Rate Precondition : 0.0
Error Rate Postcondition : 0.0
FSCORE : 1.0
Iteration 26
Size I+ 26
Size I- 685
Time : 366.585
Syntactical distance : 0.0
Error Rate Precondition : 0.0
Error Rate Postcondition : 0.0
FSCORE : 1.0
Iteration 27
Size I+ 27
Size I- 706
Time : 422.85
Syntactical distance : 0.0
Error Rate Precondition : 0.0
Error Rate Postcondition : 0.0
FSCORE : 1.0
Iteration 28
Size I+ 28
Size I- 725
Time : 439.569
Syntactical distance : 0.0
Error Rate Precondition : 0.0
Error Rate Postcondition : 0.0
FSCORE : 1.0
Iteration 29
Size I+ 29
Size I- 746
Time : 467.428
Syntactical distance : 0.0
Error Rate Precondition : 0.0
Error Rate Postcondition : 0.0
FSCORE : 1.0
Iteration 30
Size I+ 30
Size I- 777
Time : 562.613
Syntactical distance : 0.0
Error Rate Precondition : 0.0
Error Rate Postcondition : 0.0
FSCORE : 1.0

*** Noise = 20.0% ***
Iteration 1
Time : 0.827
Syntactical distance : 0.016666668
Error Rate Precondition : 0.0
Error Rate Postcondition : 0.0
FSCORE : 0.17714792
Iteration 2
Size I+ 2
Size I- 69
Time : 3.039
Syntactical distance : 0.0
Error Rate Precondition : 0.0
Error Rate Postcondition : 0.0
FSCORE : 1.0
Iteration 3
Size I+ 3
Size I- 101
Time : 4.614
Syntactical distance : 0.0
Error Rate Precondition : 0.0
Error Rate Postcondition : 0.0
FSCORE : 1.0
Iteration 4
Size I+ 4
Size I- 138
Time : 8.159
Syntactical distance : 0.0
Error Rate Precondition : 0.0
Error Rate Postcondition : 0.0
FSCORE : 1.0
Iteration 5
Size I+ 5
Size I- 166
Time : 12.544
Syntactical distance : 0.016666668
Error Rate Precondition : 0.0
Error Rate Postcondition : 0.017782027
FSCORE : 1.0
Iteration 6
Size I+ 6
Size I- 194
Time : 17.832
Syntactical distance : 0.016666668
Error Rate Precondition : 0.0
Error Rate Postcondition : 0.017782027
FSCORE : 1.0
Iteration 7
Size I+ 7
Size I- 239
Time : 25.135
Syntactical distance : 0.016666668
Error Rate Precondition : 0.0
Error Rate Postcondition : 0.017782027
FSCORE : 1.0
Iteration 8
Size I+ 8
Size I- 253
Time : 32.218
Syntactical distance : 0.016666668
Error Rate Precondition : 0.0
Error Rate Postcondition : 0.017782027
FSCORE : 1.0
Iteration 9
Size I+ 9
Size I- 287
Time : 41.242
Syntactical distance : 0.016666668
Error Rate Precondition : 0.0
Error Rate Postcondition : 0.017782027
FSCORE : 1.0
Iteration 10
Size I+ 10
Size I- 314
Time : 51.696
Syntactical distance : 0.016666668
Error Rate Precondition : 0.0
Error Rate Postcondition : 0.017782027
FSCORE : 1.0
Iteration 11
Size I+ 11
Size I- 343
Time : 62.036
Syntactical distance : 0.016666668
Error Rate Precondition : 0.0
Error Rate Postcondition : 0.017782027
FSCORE : 1.0
Iteration 12
Size I+ 12
Size I- 385
Time : 73.029
Syntactical distance : 0.016666668
Error Rate Precondition : 0.0
Error Rate Postcondition : 0.017782027
FSCORE : 1.0
Iteration 13
Size I+ 13
Size I- 402
Time : 86.975
Syntactical distance : 0.016666668
Error Rate Precondition : 0.0
Error Rate Postcondition : 0.017782027
FSCORE : 1.0
Iteration 14
Size I+ 14
Size I- 411
Time : 99.062
Syntactical distance : 0.016666668
Error Rate Precondition : 0.0
Error Rate Postcondition : 0.017782027
FSCORE : 1.0
Iteration 15
Size I+ 15
Size I- 435
Time : 115.75
Syntactical distance : 0.016666668
Error Rate Precondition : 0.0
Error Rate Postcondition : 0.017782027
FSCORE : 1.0
Iteration 16
Size I+ 16
Size I- 469
Time : 131.061
Syntactical distance : 0.016666668
Error Rate Precondition : 0.0
Error Rate Postcondition : 0.017782027
FSCORE : 1.0
Iteration 17
Size I+ 17
Size I- 492
Time : 142.927
Syntactical distance : 0.016666668
Error Rate Precondition : 0.0
Error Rate Postcondition : 0.017782027
FSCORE : 1.0
Iteration 18
Size I+ 18
Size I- 516
Time : 169.902
Syntactical distance : 0.016666668
Error Rate Precondition : 0.0
Error Rate Postcondition : 0.017782027
FSCORE : 1.0
Iteration 19
Size I+ 19
Size I- 527
Time : 189.133
Syntactical distance : 0.016666668
Error Rate Precondition : 0.0
Error Rate Postcondition : 0.017782027
FSCORE : 1.0
Iteration 20
Size I+ 20
Size I- 553
Time : 227.345
Syntactical distance : 0.016666668
Error Rate Precondition : 0.0
Error Rate Postcondition : 0.017782027
FSCORE : 1.0
Iteration 21
Size I+ 21
Size I- 569
Time : 259.489
Syntactical distance : 0.0
Error Rate Precondition : 0.0
Error Rate Postcondition : 0.0
FSCORE : 1.0
Iteration 22
Size I+ 22
Size I- 597
Time : 283.591
Syntactical distance : 0.016666668
Error Rate Precondition : 0.0
Error Rate Postcondition : 0.017782027
FSCORE : 1.0
Iteration 23
Size I+ 23
Size I- 613
Time : 298.972
Syntactical distance : 0.0
Error Rate Precondition : 0.0
Error Rate Postcondition : 0.0
FSCORE : 1.0
Iteration 24
Size I+ 24
Size I- 635
Time : 320.458
Syntactical distance : 0.016666668
Error Rate Precondition : 0.0
Error Rate Postcondition : 0.017782027
FSCORE : 1.0
Iteration 25
Size I+ 25
Size I- 661
Time : 345.667
Syntactical distance : 0.0
Error Rate Precondition : 0.0
Error Rate Postcondition : 0.0
FSCORE : 1.0
Iteration 26
Size I+ 26
Size I- 685
Time : 373.862
Syntactical distance : 0.0
Error Rate Precondition : 0.0
Error Rate Postcondition : 0.0
FSCORE : 1.0
Iteration 27
Size I+ 27
Size I- 706
Time : 431.648
Syntactical distance : 0.0
Error Rate Precondition : 0.0
Error Rate Postcondition : 0.0
FSCORE : 1.0
Iteration 28
Size I+ 28
Size I- 725
Time : 449.216
Syntactical distance : 0.0
Error Rate Precondition : 0.0
Error Rate Postcondition : 0.0
FSCORE : 1.0
Iteration 29
Size I+ 29
Size I- 746
Time : 486.356
Syntactical distance : 0.0
Error Rate Precondition : 0.0
Error Rate Postcondition : 0.0
FSCORE : 1.0
Iteration 30
Size I+ 30
Size I- 777
Time : 591.612
Syntactical distance : 0.0
Error Rate Precondition : 0.0
Error Rate Postcondition : 0.0
FSCORE : 1.0
############################################
### Fluent = 100.0% ###

*** Noise = 0.0% ***
Iteration 1
Time : 0.298
Syntactical distance : 0.0
Error Rate Precondition : 0.0
Error Rate Postcondition : 0.0
FSCORE : 1.0
Iteration 2
Size I+ 2
Size I- 71
Time : 1.501
Syntactical distance : 0.0
Error Rate Precondition : 0.0
Error Rate Postcondition : 0.0
FSCORE : 1.0
Iteration 3
Size I+ 3
Size I- 104
Time : 3.057
Syntactical distance : 0.0
Error Rate Precondition : 0.0
Error Rate Postcondition : 0.0
FSCORE : 1.0
Iteration 4
Size I+ 4
Size I- 149
Time : 5.205
Syntactical distance : 0.0
Error Rate Precondition : 0.0
Error Rate Postcondition : 0.0
FSCORE : 1.0
Iteration 5
Size I+ 5
Size I- 176
Time : 7.897
Syntactical distance : 0.0
Error Rate Precondition : 0.0
Error Rate Postcondition : 0.0
FSCORE : 1.0
Iteration 6
Size I+ 6
Size I- 215
Time : 11.569
Syntactical distance : 0.0
Error Rate Precondition : 0.0
Error Rate Postcondition : 0.0
FSCORE : 1.0
Iteration 7
Size I+ 7
Size I- 249
Time : 15.428
Syntactical distance : 0.0
Error Rate Precondition : 0.0
Error Rate Postcondition : 0.0
FSCORE : 1.0
Iteration 8
Size I+ 8
Size I- 282
Time : 19.765
Syntactical distance : 0.0
Error Rate Precondition : 0.0
Error Rate Postcondition : 0.0
FSCORE : 1.0
Iteration 9
Size I+ 9
Size I- 299
Time : 24.379
Syntactical distance : 0.0
Error Rate Precondition : 0.0
Error Rate Postcondition : 0.0
FSCORE : 1.0
Iteration 10
Size I+ 10
Size I- 304
Time : 29.464
Syntactical distance : 0.0
Error Rate Precondition : 0.0
Error Rate Postcondition : 0.0
FSCORE : 1.0
Iteration 11
Size I+ 11
Size I- 324
Time : 34.722
Syntactical distance : 0.0
Error Rate Precondition : 0.0
Error Rate Postcondition : 0.0
FSCORE : 1.0
Iteration 12
Size I+ 12
Size I- 330
Time : 38.778
Syntactical distance : 0.0
Error Rate Precondition : 0.0
Error Rate Postcondition : 0.0
FSCORE : 1.0
Iteration 13
Size I+ 13
Size I- 349
Time : 44.886
Syntactical distance : 0.0
Error Rate Precondition : 0.0
Error Rate Postcondition : 0.0
FSCORE : 1.0
Iteration 14
Size I+ 14
Size I- 361
Time : 49.368
Syntactical distance : 0.0
Error Rate Precondition : 0.0
Error Rate Postcondition : 0.0
FSCORE : 1.0
Iteration 15
Size I+ 15
Size I- 389
Time : 56.749
Syntactical distance : 0.0
Error Rate Precondition : 0.0
Error Rate Postcondition : 0.0
FSCORE : 1.0
Iteration 16
Size I+ 16
Size I- 401
Time : 61.728
Syntactical distance : 0.0
Error Rate Precondition : 0.0
Error Rate Postcondition : 0.0
FSCORE : 1.0
Iteration 17
Size I+ 17
Size I- 418
Time : 70.361
Syntactical distance : 0.0
Error Rate Precondition : 0.0
Error Rate Postcondition : 0.0
FSCORE : 1.0
Iteration 18
Size I+ 18
Size I- 445
Time : 78.21
Syntactical distance : 0.0
Error Rate Precondition : 0.0
Error Rate Postcondition : 0.0
FSCORE : 1.0
Iteration 19
Size I+ 19
Size I- 464
Time : 86.637
Syntactical distance : 0.0
Error Rate Precondition : 0.0
Error Rate Postcondition : 0.0
FSCORE : 1.0
Iteration 20
Size I+ 20
Size I- 494
Time : 95.636
Syntactical distance : 0.0
Error Rate Precondition : 0.0
Error Rate Postcondition : 0.0
FSCORE : 1.0
Iteration 21
Size I+ 21
Size I- 524
Time : 112.581
Syntactical distance : 0.0
Error Rate Precondition : 0.0
Error Rate Postcondition : 0.0
FSCORE : 1.0
Iteration 22
Size I+ 22
Size I- 539
Time : 119.049
Syntactical distance : 0.0
Error Rate Precondition : 0.0
Error Rate Postcondition : 0.0
FSCORE : 1.0
Iteration 23
Size I+ 23
Size I- 562
Time : 130.316
Syntactical distance : 0.0
Error Rate Precondition : 0.0
Error Rate Postcondition : 0.0
FSCORE : 1.0
Iteration 24
Size I+ 24
Size I- 575
Time : 137.198
Syntactical distance : 0.0
Error Rate Precondition : 0.0
Error Rate Postcondition : 0.0
FSCORE : 1.0
Iteration 25
Size I+ 25
Size I- 604
Time : 151.766
Syntactical distance : 0.0
Error Rate Precondition : 0.0
Error Rate Postcondition : 0.0
FSCORE : 1.0
Iteration 26
Size I+ 26
Size I- 616
Time : 159.051
Syntactical distance : 0.0
Error Rate Precondition : 0.0
Error Rate Postcondition : 0.0
FSCORE : 1.0
Iteration 27
Size I+ 27
Size I- 636
Time : 166.534
Syntactical distance : 0.0
Error Rate Precondition : 0.0
Error Rate Postcondition : 0.0
FSCORE : 1.0
Iteration 28
Size I+ 28
Size I- 676
Time : 183.232
Syntactical distance : 0.0
Error Rate Precondition : 0.0
Error Rate Postcondition : 0.0
FSCORE : 1.0
Iteration 29
Size I+ 29
Size I- 716
Time : 191.581
Syntactical distance : 0.0
Error Rate Precondition : 0.0
Error Rate Postcondition : 0.0
FSCORE : 1.0
Iteration 30
Size I+ 30
Size I- 729
Time : 200.209
Syntactical distance : 0.0
Error Rate Precondition : 0.0
Error Rate Postcondition : 0.0
FSCORE : 1.0

*** Noise = 20.0% ***
Iteration 1
Time : 0.705
Syntactical distance : 0.06666667
Error Rate Precondition : 0.013128112
Error Rate Postcondition : 0.018415842
FSCORE : 0.07054674
Iteration 2
Size I+ 2
Size I- 71
Time : 3.198
Syntactical distance : 0.116666675
Error Rate Precondition : 0.021682244
Error Rate Postcondition : 0.035643563
FSCORE : 1.0
Iteration 3
Size I+ 3
Size I- 104
Time : 7.61
Syntactical distance : 0.016666668
Error Rate Precondition : 0.0
Error Rate Postcondition : 0.0
FSCORE : 1.0
Iteration 4
Size I+ 4
Size I- 149
Time : 11.521
Syntactical distance : 0.0
Error Rate Precondition : 0.0
Error Rate Postcondition : 0.0
FSCORE : 1.0
Iteration 5
Size I+ 5
Size I- 176
Time : 16.142
Syntactical distance : 0.016666668
Error Rate Precondition : 0.0
Error Rate Postcondition : 0.0
FSCORE : 1.0
Iteration 6
Size I+ 6
Size I- 215
Time : 19.819
Syntactical distance : 0.016666668
Error Rate Precondition : 0.0
Error Rate Postcondition : 0.0
FSCORE : 1.0
Iteration 7
Size I+ 7
Size I- 249
Time : 23.811
Syntactical distance : 0.016666668
Error Rate Precondition : 0.0
Error Rate Postcondition : 0.0
FSCORE : 1.0
Iteration 8
Size I+ 8
Size I- 282
Time : 28.192
Syntactical distance : 0.016666668
Error Rate Precondition : 0.0
Error Rate Postcondition : 0.0
FSCORE : 1.0
Iteration 9
Size I+ 9
Size I- 299
Time : 32.851
Syntactical distance : 0.016666668
Error Rate Precondition : 0.0
Error Rate Postcondition : 0.0
FSCORE : 1.0
Iteration 10
Size I+ 10
Size I- 304
Time : 37.978
Syntactical distance : 0.016666668
Error Rate Precondition : 0.0
Error Rate Postcondition : 0.0
FSCORE : 1.0
Iteration 11
Size I+ 11
Size I- 324
Time : 49.124
Syntactical distance : 0.016666668
Error Rate Precondition : 0.0
Error Rate Postcondition : 0.0
FSCORE : 1.0
Iteration 12
Size I+ 12
Size I- 330
Time : 59.098
Syntactical distance : 0.016666668
Error Rate Precondition : 0.0
Error Rate Postcondition : 0.0
FSCORE : 1.0
Iteration 13
Size I+ 13
Size I- 349
Time : 65.179
Syntactical distance : 0.016666668
Error Rate Precondition : 0.0
Error Rate Postcondition : 0.0
FSCORE : 1.0
Iteration 14
Size I+ 14
Size I- 361
Time : 69.613
Syntactical distance : 0.016666668
Error Rate Precondition : 0.0
Error Rate Postcondition : 0.0
FSCORE : 1.0
Iteration 15
Size I+ 15
Size I- 389
Time : 86.206
Syntactical distance : 0.0
Error Rate Precondition : 0.0
Error Rate Postcondition : 0.0
FSCORE : 1.0
Iteration 16
Size I+ 16
Size I- 401
Time : 100.595
Syntactical distance : 0.0
Error Rate Precondition : 0.0
Error Rate Postcondition : 0.0
FSCORE : 1.0
Iteration 17
Size I+ 17
Size I- 418
Time : 109.152
Syntactical distance : 0.0
Error Rate Precondition : 0.0
Error Rate Postcondition : 0.0
FSCORE : 1.0
Iteration 18
Size I+ 18
Size I- 445
Time : 121.843
Syntactical distance : 0.0
Error Rate Precondition : 0.0
Error Rate Postcondition : 0.0
FSCORE : 1.0
Iteration 19
Size I+ 19
Size I- 464
Time : 140.357
Syntactical distance : 0.0
Error Rate Precondition : 0.0
Error Rate Postcondition : 0.0
FSCORE : 1.0
Iteration 20
Size I+ 20
Size I- 494
Time : 161.187
Syntactical distance : 0.0
Error Rate Precondition : 0.0
Error Rate Postcondition : 0.0
FSCORE : 1.0
Iteration 21
Size I+ 21
Size I- 524
Time : 190.276
Syntactical distance : 0.0
Error Rate Precondition : 0.0
Error Rate Postcondition : 0.0
FSCORE : 1.0
Iteration 22
Size I+ 22
Size I- 539
Time : 209.468
Syntactical distance : 0.0
Error Rate Precondition : 0.0
Error Rate Postcondition : 0.0
FSCORE : 1.0
Iteration 23
Size I+ 23
Size I- 562
Time : 234.844
Syntactical distance : 0.0
Error Rate Precondition : 0.0
Error Rate Postcondition : 0.0
FSCORE : 1.0
Iteration 24
Size I+ 24
Size I- 575
Time : 255.933
Syntactical distance : 0.0
Error Rate Precondition : 0.0
Error Rate Postcondition : 0.0
FSCORE : 1.0
Iteration 25
Size I+ 25
Size I- 604
Time : 285.727
Syntactical distance : 0.0
Error Rate Precondition : 0.0
Error Rate Postcondition : 0.0
FSCORE : 1.0
Iteration 26
Size I+ 26
Size I- 616
Time : 308.298
Syntactical distance : 0.0
Error Rate Precondition : 0.0
Error Rate Postcondition : 0.0
FSCORE : 1.0
Iteration 27
Size I+ 27
Size I- 636
Time : 325.053
Syntactical distance : 0.0
Error Rate Precondition : 0.0
Error Rate Postcondition : 0.0
FSCORE : 1.0
Iteration 28
Size I+ 28
Size I- 676
Time : 352.577
Syntactical distance : 0.0
Error Rate Precondition : 0.0
Error Rate Postcondition : 0.0
FSCORE : 1.0
Iteration 29
Size I+ 29
Size I- 716
Time : 372.609
Syntactical distance : 0.0
Error Rate Precondition : 0.0
Error Rate Postcondition : 0.0
FSCORE : 1.0
Iteration 30
Size I+ 30
Size I- 729
Time : 392.975
Syntactical distance : 0.0
Error Rate Precondition : 0.0
Error Rate Postcondition : 0.0
FSCORE : 1.0
E+ size : 100
E- size : 11995
e+ mean size : 47.51
e- mean size : 35.519382
############################################
### Fluent = 25.0% ###

*** Noise = 0.0% ***
Iteration 1
Time : 1.283
Syntactical distance : 0.0
Error Rate Precondition : 0.0
Error Rate Postcondition : 0.0
FSCORE : 1.0
Iteration 2
Size I+ 2
Size I- 82
Time : 3.759
Syntactical distance : 0.0
Error Rate Precondition : 0.0
Error Rate Postcondition : 0.0
FSCORE : 1.0
Iteration 3
Size I+ 3
Size I- 97
Time : 6.459
Syntactical distance : 0.0
Error Rate Precondition : 0.0
Error Rate Postcondition : 0.0
FSCORE : 1.0
Iteration 4
Size I+ 4
Size I- 128
Time : 9.67
Syntactical distance : 0.0
Error Rate Precondition : 0.0
Error Rate Postcondition : 0.0
FSCORE : 1.0
Iteration 5
Size I+ 5
Size I- 160
Time : 13.557
Syntactical distance : 0.0
Error Rate Precondition : 0.0
Error Rate Postcondition : 0.0
FSCORE : 1.0
Iteration 6
Size I+ 6
Size I- 190
Time : 16.236
Syntactical distance : 0.0
Error Rate Precondition : 0.0
Error Rate Postcondition : 0.0
FSCORE : 1.0
Iteration 7
Size I+ 7
Size I- 202
Time : 18.998
Syntactical distance : 0.0
Error Rate Precondition : 0.0
Error Rate Postcondition : 0.0
FSCORE : 1.0
Iteration 8
Size I+ 8
Size I- 231
Time : 22.221
Syntactical distance : 0.0
Error Rate Precondition : 0.0
Error Rate Postcondition : 0.0
FSCORE : 1.0
Iteration 9
Size I+ 9
Size I- 249
Time : 25.158
Syntactical distance : 0.0
Error Rate Precondition : 0.0
Error Rate Postcondition : 0.0
FSCORE : 1.0
Iteration 10
Size I+ 10
Size I- 291
Time : 29.509
Syntactical distance : 0.0
Error Rate Precondition : 0.0
Error Rate Postcondition : 0.0
FSCORE : 1.0
Iteration 11
Size I+ 11
Size I- 324
Time : 35.764
Syntactical distance : 0.0
Error Rate Precondition : 0.0
Error Rate Postcondition : 0.0
FSCORE : 1.0
Iteration 12
Size I+ 12
Size I- 340
Time : 39.8
Syntactical distance : 0.0
Error Rate Precondition : 0.0
Error Rate Postcondition : 0.0
FSCORE : 1.0
Iteration 13
Size I+ 13
Size I- 383
Time : 50.772
Syntactical distance : 0.0
Error Rate Precondition : 0.0
Error Rate Postcondition : 0.0
FSCORE : 1.0
Iteration 14
Size I+ 14
Size I- 420
Time : 63.048
Syntactical distance : 0.0
Error Rate Precondition : 0.0
Error Rate Postcondition : 0.0
FSCORE : 1.0
Iteration 15
Size I+ 15
Size I- 436
Time : 75.332
Syntactical distance : 0.0
Error Rate Precondition : 0.0
Error Rate Postcondition : 0.0
FSCORE : 1.0
Iteration 16
Size I+ 16
Size I- 479
Time : 84.249
Syntactical distance : 0.0
Error Rate Precondition : 0.0
Error Rate Postcondition : 0.0
FSCORE : 1.0
Iteration 17
Size I+ 17
Size I- 501
Time : 97.671
Syntactical distance : 0.0
Error Rate Precondition : 0.0
Error Rate Postcondition : 0.0
FSCORE : 1.0
Iteration 18
Size I+ 18
Size I- 515
Time : 103.727
Syntactical distance : 0.0
Error Rate Precondition : 0.0
Error Rate Postcondition : 0.0
FSCORE : 1.0
Iteration 19
Size I+ 19
Size I- 539
Time : 121.355
Syntactical distance : 0.0
Error Rate Precondition : 0.0
Error Rate Postcondition : 0.0
FSCORE : 1.0
Iteration 20
Size I+ 20
Size I- 564
Time : 133.425
Syntactical distance : 0.0
Error Rate Precondition : 0.0
Error Rate Postcondition : 0.0
FSCORE : 1.0
Iteration 21
Size I+ 21
Size I- 585
Time : 146.262
Syntactical distance : 0.0
Error Rate Precondition : 0.0
Error Rate Postcondition : 0.0
FSCORE : 1.0
Iteration 22
Size I+ 22
Size I- 616
Time : 160.259
Syntactical distance : 0.0
Error Rate Precondition : 0.0
Error Rate Postcondition : 0.0
FSCORE : 1.0
Iteration 23
Size I+ 23
Size I- 652
Time : 173.974
Syntactical distance : 0.0
Error Rate Precondition : 0.0
Error Rate Postcondition : 0.0
FSCORE : 1.0
Iteration 24
Size I+ 24
Size I- 671
Time : 189.202
Syntactical distance : 0.0
Error Rate Precondition : 0.0
Error Rate Postcondition : 0.0
FSCORE : 1.0
Iteration 25
Size I+ 25
Size I- 677
Time : 197.206
Syntactical distance : 0.0
Error Rate Precondition : 0.0
Error Rate Postcondition : 0.0
FSCORE : 1.0
Iteration 26
Size I+ 26
Size I- 719
Time : 214.665
Syntactical distance : 0.0
Error Rate Precondition : 0.0
Error Rate Postcondition : 0.0
FSCORE : 1.0
Iteration 27
Size I+ 27
Size I- 730
Time : 234.003
Syntactical distance : 0.0
Error Rate Precondition : 0.0
Error Rate Postcondition : 0.0
FSCORE : 1.0
Iteration 28
Size I+ 28
Size I- 734
Time : 242.797
Syntactical distance : 0.0
Error Rate Precondition : 0.0
Error Rate Postcondition : 0.0
FSCORE : 1.0
Iteration 29
Size I+ 29
Size I- 769
Time : 265.111
Syntactical distance : 0.0
Error Rate Precondition : 0.0
Error Rate Postcondition : 0.0
FSCORE : 1.0
Iteration 30
Size I+ 30
Size I- 792
Time : 288.079
Syntactical distance : 0.0
Error Rate Precondition : 0.0
Error Rate Postcondition : 0.0
FSCORE : 1.0

*** Noise = 20.0% ***
Iteration 1
Time : 1.288
Syntactical distance : 0.0
Error Rate Precondition : 0.0
Error Rate Postcondition : 0.0
FSCORE : 1.0
Iteration 2
Size I+ 2
Size I- 82
Time : 3.911
Syntactical distance : 0.033333335
Error Rate Precondition : 0.0
Error Rate Postcondition : 0.0
FSCORE : 0.46296299
Iteration 3
Size I+ 3
Size I- 97
Time : 7.497
Syntactical distance : 0.0
Error Rate Precondition : 0.0
Error Rate Postcondition : 0.0
FSCORE : 1.0
Iteration 4
Size I+ 4
Size I- 128
Time : 9.692
Syntactical distance : 0.10000001
Error Rate Precondition : 0.023924788
Error Rate Postcondition : 0.0
FSCORE : 0.14814813
Iteration 5
Size I+ 5
Size I- 160
Time : 13.975
Syntactical distance : 0.0
Error Rate Precondition : 0.0
Error Rate Postcondition : 0.0
FSCORE : 1.0
Iteration 6
Size I+ 6
Size I- 190
Time : 16.95
Syntactical distance : 0.06666667
Error Rate Precondition : 0.0121976575
Error Rate Postcondition : 0.0
FSCORE : 0.14814813
Iteration 7
Size I+ 7
Size I- 202
Time : 19.941
Syntactical distance : 0.06666667
Error Rate Precondition : 0.0121976575
Error Rate Postcondition : 0.0
FSCORE : 0.14814813
Iteration 8
Size I+ 8
Size I- 231
Time : 22.981
Syntactical distance : 0.10000001
Error Rate Precondition : 0.034671783
Error Rate Postcondition : 0.0
FSCORE : 0.14814813
Iteration 9
Size I+ 9
Size I- 249
Time : 25.895
Syntactical distance : 0.10000001
Error Rate Precondition : 0.034671783
Error Rate Postcondition : 0.0
FSCORE : 0.14814813
Iteration 10
Size I+ 10
Size I- 291
Time : 34.339
Syntactical distance : 0.0
Error Rate Precondition : 0.0
Error Rate Postcondition : 0.0
FSCORE : 1.0
Iteration 11
Size I+ 11
Size I- 324
Time : 44.35
Syntactical distance : 0.0
Error Rate Precondition : 0.0
Error Rate Postcondition : 0.0
FSCORE : 1.0
Iteration 12
Size I+ 12
Size I- 340
Time : 52.365
Syntactical distance : 0.0
Error Rate Precondition : 0.0
Error Rate Postcondition : 0.0
FSCORE : 1.0
Iteration 13
Size I+ 13
Size I- 383
Time : 63.248
Syntactical distance : 0.0
Error Rate Precondition : 0.0
Error Rate Postcondition : 0.0
FSCORE : 1.0
Iteration 14
Size I+ 14
Size I- 420
Time : 78.808
Syntactical distance : 0.0
Error Rate Precondition : 0.0
Error Rate Postcondition : 0.0
FSCORE : 1.0
Iteration 15
Size I+ 15
Size I- 436
Time : 86.119
Syntactical distance : 0.06666667
Error Rate Precondition : 0.0121976575
Error Rate Postcondition : 0.0
FSCORE : 0.14814813
Iteration 16
Size I+ 16
Size I- 479
Time : 102.632
Syntactical distance : 0.0
Error Rate Precondition : 0.0
Error Rate Postcondition : 0.0
FSCORE : 1.0
Iteration 17
Size I+ 17
Size I- 501
Time : 115.945
Syntactical distance : 0.0
Error Rate Precondition : 0.0
Error Rate Postcondition : 0.0
FSCORE : 1.0
Iteration 18
Size I+ 18
Size I- 515
Time : 122.086
Syntactical distance : 0.0
Error Rate Precondition : 0.0
Error Rate Postcondition : 0.0
FSCORE : 1.0
Iteration 19
Size I+ 19
Size I- 539
Time : 139.68
Syntactical distance : 0.0
Error Rate Precondition : 0.0
Error Rate Postcondition : 0.0
FSCORE : 1.0
Iteration 20
Size I+ 20
Size I- 564
Time : 151.804
Syntactical distance : 0.0
Error Rate Precondition : 0.0
Error Rate Postcondition : 0.0
FSCORE : 1.0
Iteration 21
Size I+ 21
Size I- 585
Time : 164.583
Syntactical distance : 0.0
Error Rate Precondition : 0.0
Error Rate Postcondition : 0.0
FSCORE : 1.0
Iteration 22
Size I+ 22
Size I- 616
Time : 178.521
Syntactical distance : 0.0
Error Rate Precondition : 0.0
Error Rate Postcondition : 0.0
FSCORE : 1.0
Iteration 23
Size I+ 23
Size I- 652
Time : 207.238
Syntactical distance : 0.0
Error Rate Precondition : 0.0
Error Rate Postcondition : 0.0
FSCORE : 1.0
Iteration 24
Size I+ 24
Size I- 671
Time : 237.917
Syntactical distance : 0.0
Error Rate Precondition : 0.0
Error Rate Postcondition : 0.0
FSCORE : 1.0
Iteration 25
Size I+ 25
Size I- 677
Time : 259.57
Syntactical distance : 0.0
Error Rate Precondition : 0.0
Error Rate Postcondition : 0.0
FSCORE : 1.0
Iteration 26
Size I+ 26
Size I- 719
Time : 291.645
Syntactical distance : 0.0
Error Rate Precondition : 0.0
Error Rate Postcondition : 0.0
FSCORE : 1.0
Iteration 27
Size I+ 27
Size I- 730
Time : 329.456
Syntactical distance : 0.0
Error Rate Precondition : 0.0
Error Rate Postcondition : 0.0
FSCORE : 1.0
Iteration 28
Size I+ 28
Size I- 734
Time : 356.56
Syntactical distance : 0.0
Error Rate Precondition : 0.0
Error Rate Postcondition : 0.0
FSCORE : 1.0
Iteration 29
Size I+ 29
Size I- 769
Time : 378.669
Syntactical distance : 0.0
Error Rate Precondition : 0.0
Error Rate Postcondition : 0.0
FSCORE : 1.0
Iteration 30
Size I+ 30
Size I- 792
Time : 401.703
Syntactical distance : 0.0
Error Rate Precondition : 0.0
Error Rate Postcondition : 0.0
FSCORE : 1.0
############################################
### Fluent = 100.0% ###

*** Noise = 0.0% ***
Iteration 1
Time : 0.346
Syntactical distance : 0.0
Error Rate Precondition : 0.0
Error Rate Postcondition : 0.0
FSCORE : 1.0
Iteration 2
Size I+ 2
Size I- 56
Time : 1.196
Syntactical distance : 0.0
Error Rate Precondition : 0.0
Error Rate Postcondition : 0.0
FSCORE : 1.0
Iteration 3
Size I+ 3
Size I- 75
Time : 2.261
Syntactical distance : 0.0
Error Rate Precondition : 0.0
Error Rate Postcondition : 0.0
FSCORE : 1.0
Iteration 4
Size I+ 4
Size I- 91
Time : 3.502
Syntactical distance : 0.0
Error Rate Precondition : 0.0
Error Rate Postcondition : 0.0
FSCORE : 1.0
Iteration 5
Size I+ 5
Size I- 127
Time : 5.286
Syntactical distance : 0.0
Error Rate Precondition : 0.0
Error Rate Postcondition : 0.0
FSCORE : 1.0
Iteration 6
Size I+ 6
Size I- 158
Time : 7.608
Syntactical distance : 0.0
Error Rate Precondition : 0.0
Error Rate Postcondition : 0.0
FSCORE : 1.0
Iteration 7
Size I+ 7
Size I- 193
Time : 10.517
Syntactical distance : 0.0
Error Rate Precondition : 0.0
Error Rate Postcondition : 0.0
FSCORE : 1.0
Iteration 8
Size I+ 8
Size I- 209
Time : 13.647
Syntactical distance : 0.0
Error Rate Precondition : 0.0
Error Rate Postcondition : 0.0
FSCORE : 1.0
Iteration 9
Size I+ 9
Size I- 233
Time : 17.308
Syntactical distance : 0.0
Error Rate Precondition : 0.0
Error Rate Postcondition : 0.0
FSCORE : 1.0
Iteration 10
Size I+ 10
Size I- 250
Time : 21.414
Syntactical distance : 0.0
Error Rate Precondition : 0.0
Error Rate Postcondition : 0.0
FSCORE : 1.0
Iteration 11
Size I+ 11
Size I- 272
Time : 25.917
Syntactical distance : 0.0
Error Rate Precondition : 0.0
Error Rate Postcondition : 0.0
FSCORE : 1.0
Iteration 12
Size I+ 12
Size I- 321
Time : 31.424
Syntactical distance : 0.0
Error Rate Precondition : 0.0
Error Rate Postcondition : 0.0
FSCORE : 1.0
Iteration 13
Size I+ 13
Size I- 353
Time : 38.46
Syntactical distance : 0.0
Error Rate Precondition : 0.0
Error Rate Postcondition : 0.0
FSCORE : 1.0
Iteration 14
Size I+ 14
Size I- 376
Time : 45.908
Syntactical distance : 0.0
Error Rate Precondition : 0.0
Error Rate Postcondition : 0.0
FSCORE : 1.0
Iteration 15
Size I+ 15
Size I- 396
Time : 53.849
Syntactical distance : 0.0
Error Rate Precondition : 0.0
Error Rate Postcondition : 0.0
FSCORE : 1.0
Iteration 16
Size I+ 16
Size I- 407
Time : 62.039
Syntactical distance : 0.0
Error Rate Precondition : 0.0
Error Rate Postcondition : 0.0
FSCORE : 1.0
Iteration 17
Size I+ 17
Size I- 426
Time : 70.856
Syntactical distance : 0.0
Error Rate Precondition : 0.0
Error Rate Postcondition : 0.0
FSCORE : 1.0
Iteration 18
Size I+ 18
Size I- 451
Time : 81.615
Syntactical distance : 0.0
Error Rate Precondition : 0.0
Error Rate Postcondition : 0.0
FSCORE : 1.0
Iteration 19
Size I+ 19
Size I- 459
Time : 92.037
Syntactical distance : 0.0
Error Rate Precondition : 0.0
Error Rate Postcondition : 0.0
FSCORE : 1.0
Iteration 20
Size I+ 20
Size I- 464
Time : 103.743
Syntactical distance : 0.0
Error Rate Precondition : 0.0
Error Rate Postcondition : 0.0
FSCORE : 1.0
Iteration 21
Size I+ 21
Size I- 474
Time : 112.943
Syntactical distance : 0.0
Error Rate Precondition : 0.0
Error Rate Postcondition : 0.0
FSCORE : 1.0
Iteration 22
Size I+ 22
Size I- 507
Time : 125.595
Syntactical distance : 0.0
Error Rate Precondition : 0.0
Error Rate Postcondition : 0.0
FSCORE : 1.0
Iteration 23
Size I+ 23
Size I- 526
Time : 140.49
Syntactical distance : 0.0
Error Rate Precondition : 0.0
Error Rate Postcondition : 0.0
FSCORE : 1.0
Iteration 24
Size I+ 24
Size I- 537
Time : 155.28
Syntactical distance : 0.0
Error Rate Precondition : 0.0
Error Rate Postcondition : 0.0
FSCORE : 1.0
Iteration 25
Size I+ 25
Size I- 563
Time : 171.298
Syntactical distance : 0.0
Error Rate Precondition : 0.0
Error Rate Postcondition : 0.0
FSCORE : 1.0
Iteration 26
Size I+ 26
Size I- 596
Time : 191.928
Syntactical distance : 0.0
Error Rate Precondition : 0.0
Error Rate Postcondition : 0.0
FSCORE : 1.0
Iteration 27
Size I+ 27
Size I- 618
Time : 214.484
Syntactical distance : 0.0
Error Rate Precondition : 0.0
Error Rate Postcondition : 0.0
FSCORE : 1.0
Iteration 28
Size I+ 28
Size I- 634
Time : 238.443
Syntactical distance : 0.0
Error Rate Precondition : 0.0
Error Rate Postcondition : 0.0
FSCORE : 1.0
Iteration 29
Size I+ 29
Size I- 656
Time : 264.641
Syntactical distance : 0.0
Error Rate Precondition : 0.0
Error Rate Postcondition : 0.0
FSCORE : 1.0
Iteration 30
Size I+ 30
Size I- 681
Time : 298.538
Syntactical distance : 0.0
Error Rate Precondition : 0.0
Error Rate Postcondition : 0.0
FSCORE : 1.0

*** Noise = 20.0% ***
Iteration 1
Time : 0.447
Syntactical distance : 0.083333336
Error Rate Precondition : 0.023365768
Error Rate Postcondition : 0.017364765
FSCORE : 0.14814813
Iteration 2
Size I+ 2
Size I- 56
Time : 1.736
Syntactical distance : 0.0
Error Rate Precondition : 0.0
Error Rate Postcondition : 0.0
FSCORE : 1.0
Iteration 3
Size I+ 3
Size I- 75
Time : 2.791
Syntactical distance : 0.0
Error Rate Precondition : 0.0
Error Rate Postcondition : 0.0
FSCORE : 1.0
Iteration 4
Size I+ 4
Size I- 91
Time : 4.017
Syntactical distance : 0.0
Error Rate Precondition : 0.0
Error Rate Postcondition : 0.0
FSCORE : 1.0
Iteration 5
Size I+ 5
Size I- 127
Time : 7.125
Syntactical distance : 0.0
Error Rate Precondition : 0.0
Error Rate Postcondition : 0.0
FSCORE : 1.0
Iteration 6
Size I+ 6
Size I- 158
Time : 11.254
Syntactical distance : 0.0
Error Rate Precondition : 0.0
Error Rate Postcondition : 0.0
FSCORE : 1.0
Iteration 7
Size I+ 7
Size I- 193
Time : 16.598
Syntactical distance : 0.0
Error Rate Precondition : 0.0
Error Rate Postcondition : 0.0
FSCORE : 1.0
Iteration 8
Size I+ 8
Size I- 209
Time : 21.992
Syntactical distance : 0.0
Error Rate Precondition : 0.0
Error Rate Postcondition : 0.0
FSCORE : 1.0
Iteration 9
Size I+ 9
Size I- 233
Time : 28.189
Syntactical distance : 0.0
Error Rate Precondition : 0.0
Error Rate Postcondition : 0.0
FSCORE : 1.0
Iteration 10
Size I+ 10
Size I- 250
Time : 32.336
Syntactical distance : 0.0
Error Rate Precondition : 0.0
Error Rate Postcondition : 0.0
FSCORE : 1.0
Iteration 11
Size I+ 11
Size I- 272
Time : 36.868
Syntactical distance : 0.0
Error Rate Precondition : 0.0
Error Rate Postcondition : 0.0
FSCORE : 1.0
Iteration 12
Size I+ 12
Size I- 321
Time : 42.35
Syntactical distance : 0.0
Error Rate Precondition : 0.0
Error Rate Postcondition : 0.0
FSCORE : 1.0
Iteration 13
Size I+ 13
Size I- 353
Time : 49.413
Syntactical distance : 0.0
Error Rate Precondition : 0.0
Error Rate Postcondition : 0.0
FSCORE : 1.0
Iteration 14
Size I+ 14
Size I- 376
Time : 56.834
Syntactical distance : 0.0
Error Rate Precondition : 0.0
Error Rate Postcondition : 0.0
FSCORE : 1.0
Iteration 15
Size I+ 15
Size I- 396
Time : 64.709
Syntactical distance : 0.0
Error Rate Precondition : 0.0
Error Rate Postcondition : 0.0
FSCORE : 1.0
Iteration 16
Size I+ 16
Size I- 407
Time : 72.872
Syntactical distance : 0.0
Error Rate Precondition : 0.0
Error Rate Postcondition : 0.0
FSCORE : 1.0
Iteration 17
Size I+ 17
Size I- 426
Time : 81.637
Syntactical distance : 0.0
Error Rate Precondition : 0.0
Error Rate Postcondition : 0.0
FSCORE : 1.0
Iteration 18
Size I+ 18
Size I- 451
Time : 92.322
Syntactical distance : 0.0
Error Rate Precondition : 0.0
Error Rate Postcondition : 0.0
FSCORE : 1.0
Iteration 19
Size I+ 19
Size I- 459
Time : 102.642
Syntactical distance : 0.0
Error Rate Precondition : 0.0
Error Rate Postcondition : 0.0
FSCORE : 1.0
Iteration 20
Size I+ 20
Size I- 464
Time : 114.347
Syntactical distance : 0.0
Error Rate Precondition : 0.0
Error Rate Postcondition : 0.0
FSCORE : 1.0
Iteration 21
Size I+ 21
Size I- 474
Time : 123.637
Syntactical distance : 0.0
Error Rate Precondition : 0.0
Error Rate Postcondition : 0.0
FSCORE : 1.0
Iteration 22
Size I+ 22
Size I- 507
Time : 136.35
Syntactical distance : 0.0
Error Rate Precondition : 0.0
Error Rate Postcondition : 0.0
FSCORE : 1.0
Iteration 23
Size I+ 23
Size I- 526
Time : 151.32
Syntactical distance : 0.0
Error Rate Precondition : 0.0
Error Rate Postcondition : 0.0
FSCORE : 1.0
Iteration 24
Size I+ 24
Size I- 537
Time : 166.136
Syntactical distance : 0.0
Error Rate Precondition : 0.0
Error Rate Postcondition : 0.0
FSCORE : 1.0
Iteration 25
Size I+ 25
Size I- 563
Time : 182.243
Syntactical distance : 0.0
Error Rate Precondition : 0.0
Error Rate Postcondition : 0.0
FSCORE : 1.0
Iteration 26
Size I+ 26
Size I- 596
Time : 202.58
Syntactical distance : 0.0
Error Rate Precondition : 0.0
Error Rate Postcondition : 0.0
FSCORE : 1.0
Iteration 27
Size I+ 27
Size I- 618
Time : 224.854
Syntactical distance : 0.0
Error Rate Precondition : 0.0
Error Rate Postcondition : 0.0
FSCORE : 1.0
Iteration 28
Size I+ 28
Size I- 634
Time : 255.395
Syntactical distance : 0.0
Error Rate Precondition : 0.0
Error Rate Postcondition : 0.0
FSCORE : 1.0
Iteration 29
Size I+ 29
Size I- 656
Time : 281.72
Syntactical distance : 0.0
Error Rate Precondition : 0.0
Error Rate Postcondition : 0.0
FSCORE : 1.0
Iteration 30
Size I+ 30
Size I- 681
Time : 315.691
Syntactical distance : 0.0
Error Rate Precondition : 0.0
Error Rate Postcondition : 0.0
FSCORE : 1.0
E+ size : 100
E- size : 13935
e+ mean size : 54.49
e- mean size : 38.91353
############################################
### Fluent = 25.0% ###

*** Noise = 0.0% ***
Iteration 1
Time : 0.982
Syntactical distance : 0.10000001
Error Rate Precondition : 0.02094431
Error Rate Postcondition : 0.017746914
FSCORE : 0.11320755
Iteration 2
Size I+ 2
Size I- 59
Time : 3.229
Syntactical distance : 0.0
Error Rate Precondition : 0.0
Error Rate Postcondition : 0.0
FSCORE : 1.0
Iteration 3
Size I+ 3
Size I- 96
Time : 5.842
Syntactical distance : 0.0
Error Rate Precondition : 0.0
Error Rate Postcondition : 0.0
FSCORE : 1.0
Iteration 4
Size I+ 4
Size I- 148
Time : 9.809
Syntactical distance : 0.0
Error Rate Precondition : 0.0
Error Rate Postcondition : 0.0
FSCORE : 1.0
Iteration 5
Size I+ 5
Size I- 171
Time : 14.289
Syntactical distance : 0.0
Error Rate Precondition : 0.0
Error Rate Postcondition : 0.0
FSCORE : 1.0
Iteration 6
Size I+ 6
Size I- 199
Time : 19.517
Syntactical distance : 0.0
Error Rate Precondition : 0.0
Error Rate Postcondition : 0.0
FSCORE : 1.0
Iteration 7
Size I+ 7
Size I- 213
Time : 24.982
Syntactical distance : 0.0
Error Rate Precondition : 0.0
Error Rate Postcondition : 0.0
FSCORE : 1.0
Iteration 8
Size I+ 8
Size I- 226
Time : 30.43
Syntactical distance : 0.0
Error Rate Precondition : 0.0
Error Rate Postcondition : 0.0
FSCORE : 1.0
Iteration 9
Size I+ 9
Size I- 264
Time : 34.022
Syntactical distance : 0.0
Error Rate Precondition : 0.0
Error Rate Postcondition : 0.0
FSCORE : 1.0
Iteration 10
Size I+ 10
Size I- 293
Time : 38.415
Syntactical distance : 0.0
Error Rate Precondition : 0.0
Error Rate Postcondition : 0.0
FSCORE : 1.0
Iteration 11
Size I+ 11
Size I- 310
Time : 42.15
Syntactical distance : 0.0
Error Rate Precondition : 0.0
Error Rate Postcondition : 0.0
FSCORE : 1.0
Iteration 12
Size I+ 12
Size I- 326
Time : 47.049
Syntactical distance : 0.0
Error Rate Precondition : 0.0
Error Rate Postcondition : 0.0
FSCORE : 1.0
Iteration 13
Size I+ 13
Size I- 348
Time : 52.108
Syntactical distance : 0.0
Error Rate Precondition : 0.0
Error Rate Postcondition : 0.0
FSCORE : 1.0
Iteration 14
Size I+ 14
Size I- 383
Time : 58.32
Syntactical distance : 0.0
Error Rate Precondition : 0.0
Error Rate Postcondition : 0.0
FSCORE : 1.0
Iteration 15
Size I+ 15
Size I- 421
Time : 65.36
Syntactical distance : 0.0
Error Rate Precondition : 0.0
Error Rate Postcondition : 0.0
FSCORE : 1.0
Iteration 16
Size I+ 16
Size I- 448
Time : 74.879
Syntactical distance : 0.0
Error Rate Precondition : 0.0
Error Rate Postcondition : 0.0
FSCORE : 1.0
Iteration 17
Size I+ 17
Size I- 469
Time : 83.164
Syntactical distance : 0.0
Error Rate Precondition : 0.0
Error Rate Postcondition : 0.0
FSCORE : 1.0
Iteration 18
Size I+ 18
Size I- 478
Time : 88.898
Syntactical distance : 0.0
Error Rate Precondition : 0.0
Error Rate Postcondition : 0.0
FSCORE : 1.0
Iteration 19
Size I+ 19
Size I- 500
Time : 94.914
Syntactical distance : 0.0
Error Rate Precondition : 0.0
Error Rate Postcondition : 0.0
FSCORE : 1.0
Iteration 20
Size I+ 20
Size I- 534
Time : 104.334
Syntactical distance : 0.0
Error Rate Precondition : 0.0
Error Rate Postcondition : 0.0
FSCORE : 1.0
Iteration 21
Size I+ 21
Size I- 557
Time : 115.696
Syntactical distance : 0.0
Error Rate Precondition : 0.0
Error Rate Postcondition : 0.0
FSCORE : 1.0
Iteration 22
Size I+ 22
Size I- 591
Time : 127.617
Syntactical distance : 0.0
Error Rate Precondition : 0.0
Error Rate Postcondition : 0.0
FSCORE : 1.0
Iteration 23
Size I+ 23
Size I- 624
Time : 142.099
Syntactical distance : 0.0
Error Rate Precondition : 0.0
Error Rate Postcondition : 0.0
FSCORE : 1.0
Iteration 24
Size I+ 24
Size I- 638
Time : 157.674
Syntactical distance : 0.0
Error Rate Precondition : 0.0
Error Rate Postcondition : 0.0
FSCORE : 1.0
Iteration 25
Size I+ 25
Size I- 669
Time : 175.187
Syntactical distance : 0.0
Error Rate Precondition : 0.0
Error Rate Postcondition : 0.0
FSCORE : 1.0
Iteration 26
Size I+ 26
Size I- 698
Time : 195.17
Syntactical distance : 0.0
Error Rate Precondition : 0.0
Error Rate Postcondition : 0.0
FSCORE : 1.0
Iteration 27
Size I+ 27
Size I- 734
Time : 273.474
Syntactical distance : 0.0
Error Rate Precondition : 0.0
Error Rate Postcondition : 0.0
FSCORE : 1.0
Iteration 28
Size I+ 28
Size I- 753
Time : 296.459
Syntactical distance : 0.0
Error Rate Precondition : 0.0
Error Rate Postcondition : 0.0
FSCORE : 1.0
Iteration 29
Size I+ 29
Size I- 763
Time : 320.386
Syntactical distance : 0.0
Error Rate Precondition : 0.0
Error Rate Postcondition : 0.0
FSCORE : 1.0
Iteration 30
Size I+ 30
Size I- 784
Time : 418.926
Syntactical distance : 0.0
Error Rate Precondition : 0.0
Error Rate Postcondition : 0.0
FSCORE : 1.0

*** Noise = 20.0% ***
Iteration 1
Time : 0.991
Syntactical distance : 0.10000001
Error Rate Precondition : 0.02094431
Error Rate Postcondition : 0.017746914
FSCORE : 0.11320755
Iteration 2
Size I+ 2
Size I- 59
Time : 3.301
Syntactical distance : 0.0
Error Rate Precondition : 0.0
Error Rate Postcondition : 0.0
FSCORE : 1.0
Iteration 3
Size I+ 3
Size I- 96
Time : 5.114
Syntactical distance : 0.05
Error Rate Precondition : 0.011015326
Error Rate Postcondition : 0.016603502
FSCORE : 0.058252428
Iteration 4
Size I+ 4
Size I- 148
Time : 9.394
Syntactical distance : 0.0
Error Rate Precondition : 0.0
Error Rate Postcondition : 0.0
FSCORE : 1.0
Iteration 5
Size I+ 5
Size I- 171
Time : 15.598
Syntactical distance : 0.0
Error Rate Precondition : 0.0
Error Rate Postcondition : 0.0
FSCORE : 1.0
Iteration 6
Size I+ 6
Size I- 199
Time : 21.47
Syntactical distance : 0.0
Error Rate Precondition : 0.0
Error Rate Postcondition : 0.0
FSCORE : 1.0
Iteration 7
Size I+ 7
Size I- 213
Time : 27.806
Syntactical distance : 0.0
Error Rate Precondition : 0.0
Error Rate Postcondition : 0.0
FSCORE : 1.0
Iteration 8
Size I+ 8
Size I- 226
Time : 31.331
Syntactical distance : 0.116666675
Error Rate Precondition : 0.011255888
Error Rate Postcondition : 0.0
FSCORE : 0.058252428
Iteration 9
Size I+ 9
Size I- 264
Time : 41.197
Syntactical distance : 0.0
Error Rate Precondition : 0.0
Error Rate Postcondition : 0.0
FSCORE : 1.0
Iteration 10
Size I+ 10
Size I- 293
Time : 49.697
Syntactical distance : 0.0
Error Rate Precondition : 0.0
Error Rate Postcondition : 0.0
FSCORE : 1.0
Iteration 11
Size I+ 11
Size I- 310
Time : 58.333
Syntactical distance : 0.0
Error Rate Precondition : 0.0
Error Rate Postcondition : 0.0
FSCORE : 1.0
Iteration 12
Size I+ 12
Size I- 326
Time : 68.465
Syntactical distance : 0.0
Error Rate Precondition : 0.0
Error Rate Postcondition : 0.0
FSCORE : 1.0
Iteration 13
Size I+ 13
Size I- 348
Time : 74.733
Syntactical distance : 0.083333336
Error Rate Precondition : 0.0111380145
Error Rate Postcondition : 0.0
FSCORE : 0.058252428
Iteration 14
Size I+ 14
Size I- 383
Time : 81.79
Syntactical distance : 0.083333336
Error Rate Precondition : 0.011255888
Error Rate Postcondition : 0.0
FSCORE : 0.058252428
Iteration 15
Size I+ 15
Size I- 421
Time : 97.436
Syntactical distance : 0.0
Error Rate Precondition : 0.0
Error Rate Postcondition : 0.0
FSCORE : 1.0
Iteration 16
Size I+ 16
Size I- 448
Time : 115.657
Syntactical distance : 0.0
Error Rate Precondition : 0.0
Error Rate Postcondition : 0.0
FSCORE : 1.0
Iteration 17
Size I+ 17
Size I- 469
Time : 132.197
Syntactical distance : 0.0
Error Rate Precondition : 0.0
Error Rate Postcondition : 0.0
FSCORE : 1.0
Iteration 18
Size I+ 18
Size I- 478
Time : 145.918
Syntactical distance : 0.0
Error Rate Precondition : 0.0
Error Rate Postcondition : 0.0
FSCORE : 1.0
Iteration 19
Size I+ 19
Size I- 500
Time : 161.336
Syntactical distance : 0.0
Error Rate Precondition : 0.0
Error Rate Postcondition : 0.0
FSCORE : 1.0
Iteration 20
Size I+ 20
Size I- 534
Time : 176.901
Syntactical distance : 0.0
Error Rate Precondition : 0.0
Error Rate Postcondition : 0.0
FSCORE : 1.0
Iteration 21
Size I+ 21
Size I- 557
Time : 198.142
Syntactical distance : 0.0
Error Rate Precondition : 0.0
Error Rate Postcondition : 0.0
FSCORE : 1.0
Iteration 22
Size I+ 22
Size I- 591
Time : 210.041
Syntactical distance : 0.0
Error Rate Precondition : 0.0
Error Rate Postcondition : 0.0
FSCORE : 1.0
Iteration 23
Size I+ 23
Size I- 624
Time : 224.577
Syntactical distance : 0.0
Error Rate Precondition : 0.0
Error Rate Postcondition : 0.0
FSCORE : 1.0
Iteration 24
Size I+ 24
Size I- 638
Time : 240.761
Syntactical distance : 0.0
Error Rate Precondition : 0.0
Error Rate Postcondition : 0.0
FSCORE : 1.0
Iteration 25
Size I+ 25
Size I- 669
Time : 258.065
Syntactical distance : 0.0
Error Rate Precondition : 0.0
Error Rate Postcondition : 0.0
FSCORE : 1.0
Iteration 26
Size I+ 26
Size I- 698
Time : 277.909
Syntactical distance : 0.0
Error Rate Precondition : 0.0
Error Rate Postcondition : 0.0
FSCORE : 1.0
Iteration 27
Size I+ 27
Size I- 734
Time : 356.655
Syntactical distance : 0.0
Error Rate Precondition : 0.0
Error Rate Postcondition : 0.0
FSCORE : 1.0
Iteration 28
Size I+ 28
Size I- 753
Time : 392.324
Syntactical distance : 0.0
Error Rate Precondition : 0.0
Error Rate Postcondition : 0.0
FSCORE : 1.0
Iteration 29
Size I+ 29
Size I- 763
Time : 417.071
Syntactical distance : 0.0
Error Rate Precondition : 0.0
Error Rate Postcondition : 0.0
FSCORE : 1.0
Iteration 30
Size I+ 30
Size I- 784
Time : 515.144
Syntactical distance : 0.0
Error Rate Precondition : 0.0
Error Rate Postcondition : 0.0
FSCORE : 1.0
############################################
### Fluent = 100.0% ###

*** Noise = 0.0% ***
Iteration 1
Time : 0.361
Syntactical distance : 0.0
Error Rate Precondition : 0.0
Error Rate Postcondition : 0.0
FSCORE : 1.0
Iteration 2
Size I+ 2
Size I- 56
Time : 1.314
Syntactical distance : 0.0
Error Rate Precondition : 0.0
Error Rate Postcondition : 0.0
FSCORE : 1.0
Iteration 3
Size I+ 3
Size I- 83
Time : 2.444
Syntactical distance : 0.0
Error Rate Precondition : 0.0
Error Rate Postcondition : 0.0
FSCORE : 1.0
Iteration 4
Size I+ 4
Size I- 109
Time : 3.802
Syntactical distance : 0.0
Error Rate Precondition : 0.0
Error Rate Postcondition : 0.0
FSCORE : 1.0
Iteration 5
Size I+ 5
Size I- 147
Time : 5.644
Syntactical distance : 0.0
Error Rate Precondition : 0.0
Error Rate Postcondition : 0.0
FSCORE : 1.0
Iteration 6
Size I+ 6
Size I- 173
Time : 7.71
Syntactical distance : 0.0
Error Rate Precondition : 0.0
Error Rate Postcondition : 0.0
FSCORE : 1.0
Iteration 7
Size I+ 7
Size I- 205
Time : 10.254
Syntactical distance : 0.0
Error Rate Precondition : 0.0
Error Rate Postcondition : 0.0
FSCORE : 1.0
Iteration 8
Size I+ 8
Size I- 243
Time : 13.733
Syntactical distance : 0.0
Error Rate Precondition : 0.0
Error Rate Postcondition : 0.0
FSCORE : 1.0
Iteration 9
Size I+ 9
Size I- 259
Time : 16.897
Syntactical distance : 0.0
Error Rate Precondition : 0.0
Error Rate Postcondition : 0.0
FSCORE : 1.0
Iteration 10
Size I+ 10
Size I- 280
Time : 20.809
Syntactical distance : 0.0
Error Rate Precondition : 0.0
Error Rate Postcondition : 0.0
FSCORE : 1.0
Iteration 11
Size I+ 11
Size I- 322
Time : 25.49
Syntactical distance : 0.0
Error Rate Precondition : 0.0
Error Rate Postcondition : 0.0
FSCORE : 1.0
Iteration 12
Size I+ 12
Size I- 338
Time : 30.576
Syntactical distance : 0.0
Error Rate Precondition : 0.0
Error Rate Postcondition : 0.0
FSCORE : 1.0
Iteration 13
Size I+ 13
Size I- 376
Time : 36.525
Syntactical distance : 0.0
Error Rate Precondition : 0.0
Error Rate Postcondition : 0.0
FSCORE : 1.0
Iteration 14
Size I+ 14
Size I- 399
Time : 41.245
Syntactical distance : 0.0
Error Rate Precondition : 0.0
Error Rate Postcondition : 0.0
FSCORE : 1.0
Iteration 15
Size I+ 15
Size I- 429
Time : 48.716
Syntactical distance : 0.0
Error Rate Precondition : 0.0
Error Rate Postcondition : 0.0
FSCORE : 1.0
Iteration 16
Size I+ 16
Size I- 474
Time : 56.706
Syntactical distance : 0.0
Error Rate Precondition : 0.0
Error Rate Postcondition : 0.0
FSCORE : 1.0
Iteration 17
Size I+ 17
Size I- 495
Time : 62.505
Syntactical distance : 0.0
Error Rate Precondition : 0.0
Error Rate Postcondition : 0.0
FSCORE : 1.0
Iteration 18
Size I+ 18
Size I- 506
Time : 70.837
Syntactical distance : 0.0
Error Rate Precondition : 0.0
Error Rate Postcondition : 0.0
FSCORE : 1.0
Iteration 19
Size I+ 19
Size I- 546
Time : 77.286
Syntactical distance : 0.0
Error Rate Precondition : 0.0
Error Rate Postcondition : 0.0
FSCORE : 1.0
Iteration 20
Size I+ 20
Size I- 576
Time : 84.021
Syntactical distance : 0.0
Error Rate Precondition : 0.0
Error Rate Postcondition : 0.0
FSCORE : 1.0
Iteration 21
Size I+ 21
Size I- 601
Time : 91.675
Syntactical distance : 0.0
Error Rate Precondition : 0.0
Error Rate Postcondition : 0.0
FSCORE : 1.0
Iteration 22
Size I+ 22
Size I- 637
Time : 103.817
Syntactical distance : 0.0
Error Rate Precondition : 0.0
Error Rate Postcondition : 0.0
FSCORE : 1.0
Iteration 23
Size I+ 23
Size I- 666
Time : 123.47
Syntactical distance : 0.0
Error Rate Precondition : 0.0
Error Rate Postcondition : 0.0
FSCORE : 1.0
Iteration 24
Size I+ 24
Size I- 686
Time : 131.48
Syntactical distance : 0.0
Error Rate Precondition : 0.0
Error Rate Postcondition : 0.0
FSCORE : 1.0
Iteration 25
Size I+ 25
Size I- 710
Time : 147.101
Syntactical distance : 0.0
Error Rate Precondition : 0.0
Error Rate Postcondition : 0.0
FSCORE : 1.0
Iteration 26
Size I+ 26
Size I- 738
Time : 155.942
Syntactical distance : 0.0
Error Rate Precondition : 0.0
Error Rate Postcondition : 0.0
FSCORE : 1.0
Iteration 27
Size I+ 27
Size I- 738
Time : 164.749
Syntactical distance : 0.0
Error Rate Precondition : 0.0
Error Rate Postcondition : 0.0
FSCORE : 1.0
Iteration 28
Size I+ 28
Size I- 759
Time : 173.859
Syntactical distance : 0.0
Error Rate Precondition : 0.0
Error Rate Postcondition : 0.0
FSCORE : 1.0
Iteration 29
Size I+ 29
Size I- 796
Time : 183.341
Syntactical distance : 0.0
Error Rate Precondition : 0.0
Error Rate Postcondition : 0.0
FSCORE : 1.0
Iteration 30
Size I+ 30
Size I- 809
Time : 202.507
Syntactical distance : 0.0
Error Rate Precondition : 0.0
Error Rate Postcondition : 0.0
FSCORE : 1.0

*** Noise = 20.0% ***
Iteration 1
Time : 0.948
Syntactical distance : 0.016666668
Error Rate Precondition : 0.0
Error Rate Postcondition : 0.016883831
FSCORE : 1.0
Iteration 2
Size I+ 2
Size I- 56
Time : 3.01
Syntactical distance : 0.0
Error Rate Precondition : 0.0
Error Rate Postcondition : 0.0
FSCORE : 1.0
Iteration 3
Size I+ 3
Size I- 83
Time : 4.148
Syntactical distance : 0.0
Error Rate Precondition : 0.0
Error Rate Postcondition : 0.0
FSCORE : 1.0
Iteration 4
Size I+ 4
Size I- 109
Time : 5.512
Syntactical distance : 0.0
Error Rate Precondition : 0.0
Error Rate Postcondition : 0.0
FSCORE : 1.0
Iteration 5
Size I+ 5
Size I- 147
Time : 10.149
Syntactical distance : 0.016666668
Error Rate Precondition : 0.0
Error Rate Postcondition : 0.0
FSCORE : 0.17182131
Iteration 6
Size I+ 6
Size I- 173
Time : 15.76
Syntactical distance : 0.016666668
Error Rate Precondition : 0.0
Error Rate Postcondition : 0.0
FSCORE : 0.17182131
Iteration 7
Size I+ 7
Size I- 205
Time : 21.084
Syntactical distance : 0.0
Error Rate Precondition : 0.0
Error Rate Postcondition : 0.0
FSCORE : 1.0
Iteration 8
Size I+ 8
Size I- 243
Time : 27.525
Syntactical distance : 0.0
Error Rate Precondition : 0.0
Error Rate Postcondition : 0.0
FSCORE : 1.0
Iteration 9
Size I+ 9
Size I- 259
Time : 33.682
Syntactical distance : 0.0
Error Rate Precondition : 0.0
Error Rate Postcondition : 0.0
FSCORE : 1.0
Iteration 10
Size I+ 10
Size I- 280
Time : 40.835
Syntactical distance : 0.0
Error Rate Precondition : 0.0
Error Rate Postcondition : 0.0
FSCORE : 1.0
Iteration 11
Size I+ 11
Size I- 322
Time : 49.308
Syntactical distance : 0.0
Error Rate Precondition : 0.0
Error Rate Postcondition : 0.0
FSCORE : 1.0
Iteration 12
Size I+ 12
Size I- 338
Time : 58.356
Syntactical distance : 0.0
Error Rate Precondition : 0.0
Error Rate Postcondition : 0.0
FSCORE : 1.0
Iteration 13
Size I+ 13
Size I- 376
Time : 64.275
Syntactical distance : 0.0
Error Rate Precondition : 0.0
Error Rate Postcondition : 0.0
FSCORE : 1.0
Iteration 14
Size I+ 14
Size I- 399
Time : 73.316
Syntactical distance : 0.0
Error Rate Precondition : 0.0
Error Rate Postcondition : 0.0
FSCORE : 1.0
Iteration 15
Size I+ 15
Size I- 429
Time : 80.755
Syntactical distance : 0.0
Error Rate Precondition : 0.0
Error Rate Postcondition : 0.0
FSCORE : 1.0
Iteration 16
Size I+ 16
Size I- 474
Time : 88.825
Syntactical distance : 0.0
Error Rate Precondition : 0.0
Error Rate Postcondition : 0.0
FSCORE : 1.0
Iteration 17
Size I+ 17
Size I- 495
Time : 94.724
Syntactical distance : 0.0
Error Rate Precondition : 0.0
Error Rate Postcondition : 0.0
FSCORE : 1.0
Iteration 18
Size I+ 18
Size I- 506
Time : 103.136
Syntactical distance : 0.0
Error Rate Precondition : 0.0
Error Rate Postcondition : 0.0
FSCORE : 1.0
Iteration 19
Size I+ 19
Size I- 546
Time : 109.608
Syntactical distance : 0.0
Error Rate Precondition : 0.0
Error Rate Postcondition : 0.0
FSCORE : 1.0
Iteration 20
Size I+ 20
Size I- 576
Time : 116.395
Syntactical distance : 0.0
Error Rate Precondition : 0.0
Error Rate Postcondition : 0.0
FSCORE : 1.0
Iteration 21
Size I+ 21
Size I- 601
Time : 123.607
Syntactical distance : 0.0
Error Rate Precondition : 0.0
Error Rate Postcondition : 0.0
FSCORE : 1.0
Iteration 22
Size I+ 22
Size I- 637
Time : 135.719
Syntactical distance : 0.0
Error Rate Precondition : 0.0
Error Rate Postcondition : 0.0
FSCORE : 1.0
Iteration 23
Size I+ 23
Size I- 666
Time : 156.163
Syntactical distance : 0.0
Error Rate Precondition : 0.0
Error Rate Postcondition : 0.0
FSCORE : 1.0
Iteration 24
Size I+ 24
Size I- 686
Time : 164.39
Syntactical distance : 0.0
Error Rate Precondition : 0.0
Error Rate Postcondition : 0.0
FSCORE : 1.0
Iteration 25
Size I+ 25
Size I- 710
Time : 179.111
Syntactical distance : 0.0
Error Rate Precondition : 0.0
Error Rate Postcondition : 0.0
FSCORE : 1.0
Iteration 26
Size I+ 26
Size I- 738
Time : 188.013
Syntactical distance : 0.0
Error Rate Precondition : 0.0
Error Rate Postcondition : 0.0
FSCORE : 1.0
Iteration 27
Size I+ 27
Size I- 738
Time : 197.373
Syntactical distance : 0.0
Error Rate Precondition : 0.0
Error Rate Postcondition : 0.0
FSCORE : 1.0
Iteration 28
Size I+ 28
Size I- 759
Time : 206.776
Syntactical distance : 0.0
Error Rate Precondition : 0.0
Error Rate Postcondition : 0.0
FSCORE : 1.0
Iteration 29
Size I+ 29
Size I- 796
Time : 216.375
Syntactical distance : 0.0
Error Rate Precondition : 0.0
Error Rate Postcondition : 0.0
FSCORE : 1.0
Iteration 30
Size I+ 30
Size I- 809
Time : 251.188
Syntactical distance : 0.0
Error Rate Precondition : 0.0
Error Rate Postcondition : 0.0
FSCORE : 1.0
E+ size : 100
E- size : 13148
e+ mean size : 50.71
e- mean size : 35.437557
############################################
### Fluent = 25.0% ###

*** Noise = 0.0% ***
Iteration 1
Time : 1.098
Syntactical distance : 0.016666668
Error Rate Precondition : 0.0
Error Rate Postcondition : 0.0
FSCORE : 1.0
Iteration 2
Size I+ 2
Size I- 46
Time : 2.604
Syntactical distance : 0.0
Error Rate Precondition : 0.0
Error Rate Postcondition : 0.0
FSCORE : 1.0
Iteration 3
Size I+ 3
Size I- 74
Time : 4.568
Syntactical distance : 0.016666668
Error Rate Precondition : 0.0
Error Rate Postcondition : 0.0
FSCORE : 1.0
Iteration 4
Size I+ 4
Size I- 102
Time : 6.916
Syntactical distance : 0.0
Error Rate Precondition : 0.0
Error Rate Postcondition : 0.0
FSCORE : 1.0
Iteration 5
Size I+ 5
Size I- 139
Time : 8.823
Syntactical distance : 0.0
Error Rate Precondition : 0.0
Error Rate Postcondition : 0.0
FSCORE : 1.0
Iteration 6
Size I+ 6
Size I- 164
Time : 12.73
Syntactical distance : 0.0
Error Rate Precondition : 0.0
Error Rate Postcondition : 0.0
FSCORE : 1.0
Iteration 7
Size I+ 7
Size I- 173
Time : 16.906
Syntactical distance : 0.0
Error Rate Precondition : 0.0
Error Rate Postcondition : 0.0
FSCORE : 1.0
Iteration 8
Size I+ 8
Size I- 205
Time : 22.431
Syntactical distance : 0.0
Error Rate Precondition : 0.0
Error Rate Postcondition : 0.0
FSCORE : 1.0
Iteration 9
Size I+ 9
Size I- 219
Time : 25.842
Syntactical distance : 0.0
Error Rate Precondition : 0.0
Error Rate Postcondition : 0.0
FSCORE : 1.0
Iteration 10
Size I+ 10
Size I- 261
Time : 30.065
Syntactical distance : 0.0
Error Rate Precondition : 0.0
Error Rate Postcondition : 0.0
FSCORE : 1.0
Iteration 11
Size I+ 11
Size I- 284
Time : 34.871
Syntactical distance : 0.0
Error Rate Precondition : 0.0
Error Rate Postcondition : 0.0
FSCORE : 1.0
Iteration 12
Size I+ 12
Size I- 313
Time : 43.679
Syntactical distance : 0.0
Error Rate Precondition : 0.0
Error Rate Postcondition : 0.0
FSCORE : 1.0
Iteration 13
Size I+ 13
Size I- 331
Time : 54.472
Syntactical distance : 0.0
Error Rate Precondition : 0.0
Error Rate Postcondition : 0.0
FSCORE : 1.0
Iteration 14
Size I+ 14
Size I- 353
Time : 62.58
Syntactical distance : 0.0
Error Rate Precondition : 0.0
Error Rate Postcondition : 0.0
FSCORE : 1.0
Iteration 15
Size I+ 15
Size I- 382
Time : 74.024
Syntactical distance : 0.0
Error Rate Precondition : 0.0
Error Rate Postcondition : 0.0
FSCORE : 1.0
Iteration 16
Size I+ 16
Size I- 412
Time : 86.773
Syntactical distance : 0.0
Error Rate Precondition : 0.0
Error Rate Postcondition : 0.0
FSCORE : 1.0
Iteration 17
Size I+ 17
Size I- 427
Time : 95.037
Syntactical distance : 0.0
Error Rate Precondition : 0.0
Error Rate Postcondition : 0.0
FSCORE : 1.0
Iteration 18
Size I+ 18
Size I- 456
Time : 105.197
Syntactical distance : 0.0
Error Rate Precondition : 0.0
Error Rate Postcondition : 0.0
FSCORE : 1.0
Iteration 19
Size I+ 19
Size I- 502
Time : 117.553
Syntactical distance : 0.0
Error Rate Precondition : 0.0
Error Rate Postcondition : 0.0
FSCORE : 1.0
Iteration 20
Size I+ 20
Size I- 539
Time : 129.5
Syntactical distance : 0.0
Error Rate Precondition : 0.0
Error Rate Postcondition : 0.0
FSCORE : 1.0
Iteration 21
Size I+ 21
Size I- 546
Time : 136.041
Syntactical distance : 0.0
Error Rate Precondition : 0.0
Error Rate Postcondition : 0.0
FSCORE : 1.0
Iteration 22
Size I+ 22
Size I- 573
Time : 148.726
Syntactical distance : 0.0
Error Rate Precondition : 0.0
Error Rate Postcondition : 0.0
FSCORE : 1.0
Iteration 23
Size I+ 23
Size I- 596
Time : 162.766
Syntactical distance : 0.0
Error Rate Precondition : 0.0
Error Rate Postcondition : 0.0
FSCORE : 1.0
Iteration 24
Size I+ 24
Size I- 620
Time : 177.818
Syntactical distance : 0.0
Error Rate Precondition : 0.0
Error Rate Postcondition : 0.0
FSCORE : 1.0
Iteration 25
Size I+ 25
Size I- 627
Time : 185.207
Syntactical distance : 0.0
Error Rate Precondition : 0.0
Error Rate Postcondition : 0.0
FSCORE : 1.0
Iteration 26
Size I+ 26
Size I- 643
Time : 193.077
Syntactical distance : 0.0
Error Rate Precondition : 0.0
Error Rate Postcondition : 0.0
FSCORE : 1.0
Iteration 27
Size I+ 27
Size I- 676
Time : 201.379
Syntactical distance : 0.0
Error Rate Precondition : 0.0
Error Rate Postcondition : 0.0
FSCORE : 1.0
Iteration 28
Size I+ 28
Size I- 709
Time : 221.814
Syntactical distance : 0.0
Error Rate Precondition : 0.0
Error Rate Postcondition : 0.0
FSCORE : 1.0
Iteration 29
Size I+ 29
Size I- 726
Time : 241.508
Syntactical distance : 0.0
Error Rate Precondition : 0.0
Error Rate Postcondition : 0.0
FSCORE : 1.0
Iteration 30
Size I+ 30
Size I- 757
Time : 263.656
Syntactical distance : 0.0
Error Rate Precondition : 0.0
Error Rate Postcondition : 0.0
FSCORE : 1.0

*** Noise = 20.0% ***
Iteration 1
Time : 1.37
Syntactical distance : 0.12916666
Error Rate Precondition : 0.17588201
Error Rate Postcondition : 0.0
FSCORE : 0.01980198
Iteration 2
Size I+ 2
Size I- 46
Time : 2.749
Syntactical distance : 0.083333336
Error Rate Precondition : 0.02691261
Error Rate Postcondition : 0.0175681
FSCORE : 0.02770083
Iteration 3
Size I+ 3
Size I- 74
Time : 6.58
Syntactical distance : 0.0
Error Rate Precondition : 0.0
Error Rate Postcondition : 0.0
FSCORE : 1.0
Iteration 4
Size I+ 4
Size I- 102
Time : 10.418
Syntactical distance : 0.06666667
Error Rate Precondition : 0.02691261
Error Rate Postcondition : 0.0
FSCORE : 0.02770083
Iteration 5
Size I+ 5
Size I- 139
Time : 15.023
Syntactical distance : 0.0
Error Rate Precondition : 0.0
Error Rate Postcondition : 0.0
FSCORE : 1.0
Iteration 6
Size I+ 6
Size I- 164
Time : 20.709
Syntactical distance : 0.0
Error Rate Precondition : 0.0
Error Rate Postcondition : 0.0
FSCORE : 1.0
Iteration 7
Size I+ 7
Size I- 173
Time : 23.112
Syntactical distance : 0.0
Error Rate Precondition : 0.0
Error Rate Postcondition : 0.0
FSCORE : 1.0
Iteration 8
Size I+ 8
Size I- 205
Time : 26.094
Syntactical distance : 0.0
Error Rate Precondition : 0.0
Error Rate Postcondition : 0.0
FSCORE : 1.0
Iteration 9
Size I+ 9
Size I- 219
Time : 31.381
Syntactical distance : 0.016666668
Error Rate Precondition : 0.0
Error Rate Postcondition : 0.0
FSCORE : 1.0
Iteration 10
Size I+ 10
Size I- 261
Time : 38.561
Syntactical distance : 0.0
Error Rate Precondition : 0.0
Error Rate Postcondition : 0.0
FSCORE : 1.0
Iteration 11
Size I+ 11
Size I- 284
Time : 46.832
Syntactical distance : 0.0
Error Rate Precondition : 0.0
Error Rate Postcondition : 0.0
FSCORE : 1.0
Iteration 12
Size I+ 12
Size I- 313
Time : 52.13
Syntactical distance : 0.0
Error Rate Precondition : 0.0
Error Rate Postcondition : 0.0
FSCORE : 1.0
Iteration 13
Size I+ 13
Size I- 331
Time : 59.233
Syntactical distance : 0.0
Error Rate Precondition : 0.0
Error Rate Postcondition : 0.0
FSCORE : 1.0
Iteration 14
Size I+ 14
Size I- 353
Time : 63.498
Syntactical distance : 0.0
Error Rate Precondition : 0.0
Error Rate Postcondition : 0.0
FSCORE : 1.0
Iteration 15
Size I+ 15
Size I- 382
Time : 75.026
Syntactical distance : 0.0
Error Rate Precondition : 0.0
Error Rate Postcondition : 0.0
FSCORE : 1.0
Iteration 16
Size I+ 16
Size I- 412
Time : 88.131
Syntactical distance : 0.0
Error Rate Precondition : 0.0
Error Rate Postcondition : 0.0
FSCORE : 1.0
Iteration 17
Size I+ 17
Size I- 427
Time : 96.599
Syntactical distance : 0.0
Error Rate Precondition : 0.0
Error Rate Postcondition : 0.0
FSCORE : 1.0
Iteration 18
Size I+ 18
Size I- 456
Time : 106.964
Syntactical distance : 0.0
Error Rate Precondition : 0.0
Error Rate Postcondition : 0.0
FSCORE : 1.0
Iteration 19
Size I+ 19
Size I- 502
Time : 119.618
Syntactical distance : 0.0
Error Rate Precondition : 0.0
Error Rate Postcondition : 0.0
FSCORE : 1.0
Iteration 20
Size I+ 20
Size I- 539
Time : 142.001
Syntactical distance : 0.0
Error Rate Precondition : 0.0
Error Rate Postcondition : 0.0
FSCORE : 1.0
Iteration 21
Size I+ 21
Size I- 546
Time : 158.083
Syntactical distance : 0.0
Error Rate Precondition : 0.0
Error Rate Postcondition : 0.0
FSCORE : 1.0
Iteration 22
Size I+ 22
Size I- 573
Time : 181.136
Syntactical distance : 0.0
Error Rate Precondition : 0.0
Error Rate Postcondition : 0.0
FSCORE : 1.0
Iteration 23
Size I+ 23
Size I- 596
Time : 205.624
Syntactical distance : 0.0
Error Rate Precondition : 0.0
Error Rate Postcondition : 0.0
FSCORE : 1.0
Iteration 24
Size I+ 24
Size I- 620
Time : 220.952
Syntactical distance : 0.06666667
Error Rate Precondition : 0.023493163
Error Rate Postcondition : 0.0
FSCORE : 0.039215688
Iteration 25
Size I+ 25
Size I- 627
Time : 228.397
Syntactical distance : 0.06666667
Error Rate Precondition : 0.023493163
Error Rate Postcondition : 0.0
FSCORE : 0.039215688
Iteration 26
Size I+ 26
Size I- 643
Time : 236.138
Syntactical distance : 0.06666667
Error Rate Precondition : 0.023493163
Error Rate Postcondition : 0.0
FSCORE : 0.039215688
Iteration 27
Size I+ 27
Size I- 676
Time : 262.529
Syntactical distance : 0.0
Error Rate Precondition : 0.0
Error Rate Postcondition : 0.0
FSCORE : 1.0
Iteration 28
Size I+ 28
Size I- 709
Time : 301.617
Syntactical distance : 0.0
Error Rate Precondition : 0.0
Error Rate Postcondition : 0.0
FSCORE : 1.0
Iteration 29
Size I+ 29
Size I- 726
Time : 334.703
Syntactical distance : 0.0
Error Rate Precondition : 0.0
Error Rate Postcondition : 0.0
FSCORE : 1.0
Iteration 30
Size I+ 30
Size I- 757
Time : 370.717
Syntactical distance : 0.0
Error Rate Precondition : 0.0
Error Rate Postcondition : 0.0
FSCORE : 1.0
############################################
### Fluent = 100.0% ###

*** Noise = 0.0% ***
Iteration 1
Time : 0.435
Syntactical distance : 0.0
Error Rate Precondition : 0.0
Error Rate Postcondition : 0.0
FSCORE : 1.0
Iteration 2
Size I+ 2
Size I- 61
Time : 1.558
Syntactical distance : 0.0
Error Rate Precondition : 0.0
Error Rate Postcondition : 0.0
FSCORE : 1.0
Iteration 3
Size I+ 3
Size I- 114
Time : 3.313
Syntactical distance : 0.0
Error Rate Precondition : 0.0
Error Rate Postcondition : 0.0
FSCORE : 1.0
Iteration 4
Size I+ 4
Size I- 154
Time : 5.57
Syntactical distance : 0.0
Error Rate Precondition : 0.0
Error Rate Postcondition : 0.0
FSCORE : 1.0
Iteration 5
Size I+ 5
Size I- 192
Time : 8.236
Syntactical distance : 0.0
Error Rate Precondition : 0.0
Error Rate Postcondition : 0.0
FSCORE : 1.0
Iteration 6
Size I+ 6
Size I- 230
Time : 11.537
Syntactical distance : 0.0
Error Rate Precondition : 0.0
Error Rate Postcondition : 0.0
FSCORE : 1.0
Iteration 7
Size I+ 7
Size I- 242
Time : 15.017
Syntactical distance : 0.0
Error Rate Precondition : 0.0
Error Rate Postcondition : 0.0
FSCORE : 1.0
Iteration 8
Size I+ 8
Size I- 260
Time : 18.197
Syntactical distance : 0.0
Error Rate Precondition : 0.0
Error Rate Postcondition : 0.0
FSCORE : 1.0
Iteration 9
Size I+ 9
Size I- 291
Time : 22.489
Syntactical distance : 0.0
Error Rate Precondition : 0.0
Error Rate Postcondition : 0.0
FSCORE : 1.0
Iteration 10
Size I+ 10
Size I- 319
Time : 27.073
Syntactical distance : 0.0
Error Rate Precondition : 0.0
Error Rate Postcondition : 0.0
FSCORE : 1.0
Iteration 11
Size I+ 11
Size I- 342
Time : 31.165
Syntactical distance : 0.0
Error Rate Precondition : 0.0
Error Rate Postcondition : 0.0
FSCORE : 1.0
Iteration 12
Size I+ 12
Size I- 359
Time : 35.453
Syntactical distance : 0.0
Error Rate Precondition : 0.0
Error Rate Postcondition : 0.0
FSCORE : 1.0
Iteration 13
Size I+ 13
Size I- 371
Time : 39.938
Syntactical distance : 0.0
Error Rate Precondition : 0.0
Error Rate Postcondition : 0.0
FSCORE : 1.0
Iteration 14
Size I+ 14
Size I- 390
Time : 45.847
Syntactical distance : 0.0
Error Rate Precondition : 0.0
Error Rate Postcondition : 0.0
FSCORE : 1.0
Iteration 15
Size I+ 15
Size I- 401
Time : 50.675
Syntactical distance : 0.0
Error Rate Precondition : 0.0
Error Rate Postcondition : 0.0
FSCORE : 1.0
Iteration 16
Size I+ 16
Size I- 422
Time : 58.028
Syntactical distance : 0.0
Error Rate Precondition : 0.0
Error Rate Postcondition : 0.0
FSCORE : 1.0
Iteration 17
Size I+ 17
Size I- 453
Time : 63.52
Syntactical distance : 0.0
Error Rate Precondition : 0.0
Error Rate Postcondition : 0.0
FSCORE : 1.0
Iteration 18
Size I+ 18
Size I- 465
Time : 69.146
Syntactical distance : 0.0
Error Rate Precondition : 0.0
Error Rate Postcondition : 0.0
FSCORE : 1.0
Iteration 19
Size I+ 19
Size I- 488
Time : 77.952
Syntactical distance : 0.0
Error Rate Precondition : 0.0
Error Rate Postcondition : 0.0
FSCORE : 1.0
Iteration 20
Size I+ 20
Size I- 517
Time : 87.488
Syntactical distance : 0.0
Error Rate Precondition : 0.0
Error Rate Postcondition : 0.0
FSCORE : 1.0
Iteration 21
Size I+ 21
Size I- 526
Time : 97.627
Syntactical distance : 0.0
Error Rate Precondition : 0.0
Error Rate Postcondition : 0.0
FSCORE : 1.0
Iteration 22
Size I+ 22
Size I- 556
Time : 110.418
Syntactical distance : 0.0
Error Rate Precondition : 0.0
Error Rate Postcondition : 0.0
FSCORE : 1.0
Iteration 23
Size I+ 23
Size I- 562
Time : 117.256
Syntactical distance : 0.0
Error Rate Precondition : 0.0
Error Rate Postcondition : 0.0
FSCORE : 1.0
Iteration 24
Size I+ 24
Size I- 608
Time : 148.222
Syntactical distance : 0.0
Error Rate Precondition : 0.0
Error Rate Postcondition : 0.0
FSCORE : 1.0
Iteration 25
Size I+ 25
Size I- 646
Time : 162.952
Syntactical distance : 0.0
Error Rate Precondition : 0.0
Error Rate Postcondition : 0.0
FSCORE : 1.0
Iteration 26
Size I+ 26
Size I- 668
Time : 179.472
Syntactical distance : 0.0
Error Rate Precondition : 0.0
Error Rate Postcondition : 0.0
FSCORE : 1.0
Iteration 27
Size I+ 27
Size I- 679
Time : 187.754
Syntactical distance : 0.0
Error Rate Precondition : 0.0
Error Rate Postcondition : 0.0
FSCORE : 1.0
Iteration 28
Size I+ 28
Size I- 692
Time : 196.08
Syntactical distance : 0.0
Error Rate Precondition : 0.0
Error Rate Postcondition : 0.0
FSCORE : 1.0
Iteration 29
Size I+ 29
Size I- 707
Time : 233.617
Syntactical distance : 0.0
Error Rate Precondition : 0.0
Error Rate Postcondition : 0.0
FSCORE : 1.0
Iteration 30
Size I+ 30
Size I- 720
Time : 253.052
Syntactical distance : 0.0
Error Rate Precondition : 0.0
Error Rate Postcondition : 0.0
FSCORE : 1.0

*** Noise = 20.0% ***
Iteration 1
Time : 1.009
Syntactical distance : 0.0
Error Rate Precondition : 0.0
Error Rate Postcondition : 0.0
FSCORE : 1.0
Iteration 2
Size I+ 2
Size I- 61
Time : 3.206
Syntactical distance : 0.0
Error Rate Precondition : 0.0
Error Rate Postcondition : 0.0
FSCORE : 0.18083182
Iteration 3
Size I+ 3
Size I- 114
Time : 6.306
Syntactical distance : 0.0
Error Rate Precondition : 0.0
Error Rate Postcondition : 0.0
FSCORE : 1.0
Iteration 4
Size I+ 4
Size I- 154
Time : 8.586
Syntactical distance : 0.0
Error Rate Precondition : 0.0
Error Rate Postcondition : 0.0
FSCORE : 1.0
Iteration 5
Size I+ 5
Size I- 192
Time : 11.269
Syntactical distance : 0.0
Error Rate Precondition : 0.0
Error Rate Postcondition : 0.0
FSCORE : 1.0
Iteration 6
Size I+ 6
Size I- 230
Time : 14.641
Syntactical distance : 0.0
Error Rate Precondition : 0.0
Error Rate Postcondition : 0.0
FSCORE : 1.0
Iteration 7
Size I+ 7
Size I- 242
Time : 18.208
Syntactical distance : 0.0
Error Rate Precondition : 0.0
Error Rate Postcondition : 0.0
FSCORE : 1.0
Iteration 8
Size I+ 8
Size I- 260
Time : 21.466
Syntactical distance : 0.0
Error Rate Precondition : 0.0
Error Rate Postcondition : 0.0
FSCORE : 1.0
Iteration 9
Size I+ 9
Size I- 291
Time : 25.834
Syntactical distance : 0.0
Error Rate Precondition : 0.0
Error Rate Postcondition : 0.0
FSCORE : 1.0
Iteration 10
Size I+ 10
Size I- 319
Time : 33.956
Syntactical distance : 0.0
Error Rate Precondition : 0.0
Error Rate Postcondition : 0.0
FSCORE : 1.0
Iteration 11
Size I+ 11
Size I- 342
Time : 41.9
Syntactical distance : 0.0
Error Rate Precondition : 0.0
Error Rate Postcondition : 0.0
FSCORE : 1.0
Iteration 12
Size I+ 12
Size I- 359
Time : 50.153
Syntactical distance : 0.0
Error Rate Precondition : 0.0
Error Rate Postcondition : 0.0
FSCORE : 1.0
Iteration 13
Size I+ 13
Size I- 371
Time : 61.126
Syntactical distance : 0.0
Error Rate Precondition : 0.0
Error Rate Postcondition : 0.0
FSCORE : 1.0
Iteration 14
Size I+ 14
Size I- 390
Time : 73.852
Syntactical distance : 0.0
Error Rate Precondition : 0.0
Error Rate Postcondition : 0.0
FSCORE : 1.0
Iteration 15
Size I+ 15
Size I- 401
Time : 86.154
Syntactical distance : 0.0
Error Rate Precondition : 0.0
Error Rate Postcondition : 0.0
FSCORE : 1.0
Iteration 16
Size I+ 16
Size I- 422
Time : 102.973
Syntactical distance : 0.0
Error Rate Precondition : 0.0
Error Rate Postcondition : 0.0
FSCORE : 1.0
Iteration 17
Size I+ 17
Size I- 453
Time : 118.426
Syntactical distance : 0.0
Error Rate Precondition : 0.0
Error Rate Postcondition : 0.0
FSCORE : 1.0
Iteration 18
Size I+ 18
Size I- 465
Time : 134.419
Syntactical distance : 0.0
Error Rate Precondition : 0.0
Error Rate Postcondition : 0.0
FSCORE : 1.0
Iteration 19
Size I+ 19
Size I- 488
Time : 153.94
Syntactical distance : 0.0
Error Rate Precondition : 0.0
Error Rate Postcondition : 0.0
FSCORE : 1.0
Iteration 20
Size I+ 20
Size I- 517
Time : 174.844
Syntactical distance : 0.0
Error Rate Precondition : 0.0
Error Rate Postcondition : 0.0
FSCORE : 1.0
Iteration 21
Size I+ 21
Size I- 526
Time : 195.385
Syntactical distance : 0.0
Error Rate Precondition : 0.0
Error Rate Postcondition : 0.0
FSCORE : 1.0
Iteration 22
Size I+ 22
Size I- 556
Time : 208.384
Syntactical distance : 0.0
Error Rate Precondition : 0.0
Error Rate Postcondition : 0.0
FSCORE : 1.0
Iteration 23
Size I+ 23
Size I- 562
Time : 215.262
Syntactical distance : 0.0
Error Rate Precondition : 0.0
Error Rate Postcondition : 0.0
FSCORE : 1.0
Iteration 24
Size I+ 24
Size I- 608
Time : 246.283
Syntactical distance : 0.0
Error Rate Precondition : 0.0
Error Rate Postcondition : 0.0
FSCORE : 1.0
Iteration 25
Size I+ 25
Size I- 646
Time : 273.012
Syntactical distance : 0.0
Error Rate Precondition : 0.0
Error Rate Postcondition : 0.0
FSCORE : 1.0
Iteration 26
Size I+ 26
Size I- 668
Time : 301.024
Syntactical distance : 0.0
Error Rate Precondition : 0.0
Error Rate Postcondition : 0.0
FSCORE : 1.0
Iteration 27
Size I+ 27
Size I- 679
Time : 321.254
Syntactical distance : 0.0
Error Rate Precondition : 0.0
Error Rate Postcondition : 0.0
FSCORE : 1.0
Iteration 28
Size I+ 28
Size I- 692
Time : 344.161
Syntactical distance : 0.0
Error Rate Precondition : 0.0
Error Rate Postcondition : 0.0
FSCORE : 1.0
Iteration 29
Size I+ 29
Size I- 707
Time : 382.228
Syntactical distance : 0.0
Error Rate Precondition : 0.0
Error Rate Postcondition : 0.0
FSCORE : 1.0
Iteration 30
Size I+ 30
Size I- 720
Time : 409.938
Syntactical distance : 0.0
Error Rate Precondition : 0.0
Error Rate Postcondition : 0.0
FSCORE : 1.0
E+ size : 100
E- size : 12410
e+ mean size : 49.6
e- mean size : 34.17325
############################################
### Fluent = 25.0% ###

*** Noise = 0.0% ***
Iteration 1
Time : 1.866
Syntactical distance : 0.0
Error Rate Precondition : 0.0
Error Rate Postcondition : 0.0
FSCORE : 1.0
Iteration 2
Size I+ 2
Size I- 62
Time : 3.987
Syntactical distance : 0.0
Error Rate Precondition : 0.0
Error Rate Postcondition : 0.0
FSCORE : 1.0
Iteration 3
Size I+ 3
Size I- 117
Time : 7.044
Syntactical distance : 0.0
Error Rate Precondition : 0.0
Error Rate Postcondition : 0.0
FSCORE : 1.0
Iteration 4
Size I+ 4
Size I- 145
Time : 10.864
Syntactical distance : 0.0
Error Rate Precondition : 0.0
Error Rate Postcondition : 0.0
FSCORE : 1.0
Iteration 5
Size I+ 5
Size I- 186
Time : 16.003
Syntactical distance : 0.0
Error Rate Precondition : 0.0
Error Rate Postcondition : 0.0
FSCORE : 1.0
Iteration 6
Size I+ 6
Size I- 207
Time : 22.037
Syntactical distance : 0.0
Error Rate Precondition : 0.0
Error Rate Postcondition : 0.0
FSCORE : 1.0
Iteration 7
Size I+ 7
Size I- 234
Time : 28.855
Syntactical distance : 0.0
Error Rate Precondition : 0.0
Error Rate Postcondition : 0.0
FSCORE : 1.0
Iteration 8
Size I+ 8
Size I- 252
Time : 36.156
Syntactical distance : 0.0
Error Rate Precondition : 0.0
Error Rate Postcondition : 0.0
FSCORE : 1.0
Iteration 9
Size I+ 9
Size I- 278
Time : 40.359
Syntactical distance : 0.0
Error Rate Precondition : 0.0
Error Rate Postcondition : 0.0
FSCORE : 1.0
Iteration 10
Size I+ 10
Size I- 308
Time : 45.487
Syntactical distance : 0.0
Error Rate Precondition : 0.0
Error Rate Postcondition : 0.0
FSCORE : 1.0
Iteration 11
Size I+ 11
Size I- 321
Time : 50.595
Syntactical distance : 0.0
Error Rate Precondition : 0.0
Error Rate Postcondition : 0.0
FSCORE : 1.0
Iteration 12
Size I+ 12
Size I- 348
Time : 60.277
Syntactical distance : 0.0
Error Rate Precondition : 0.0
Error Rate Postcondition : 0.0
FSCORE : 1.0
Iteration 13
Size I+ 13
Size I- 377
Time : 67.005
Syntactical distance : 0.0
Error Rate Precondition : 0.0
Error Rate Postcondition : 0.0
FSCORE : 1.0
Iteration 14
Size I+ 14
Size I- 389
Time : 78.805
Syntactical distance : 0.0
Error Rate Precondition : 0.0
Error Rate Postcondition : 0.0
FSCORE : 1.0
Iteration 15
Size I+ 15
Size I- 405
Time : 83.647
Syntactical distance : 0.0
Error Rate Precondition : 0.0
Error Rate Postcondition : 0.0
FSCORE : 1.0
Iteration 16
Size I+ 16
Size I- 453
Time : 93.103
Syntactical distance : 0.0
Error Rate Precondition : 0.0
Error Rate Postcondition : 0.0
FSCORE : 1.0
Iteration 17
Size I+ 17
Size I- 481
Time : 103.8
Syntactical distance : 0.0
Error Rate Precondition : 0.0
Error Rate Postcondition : 0.0
FSCORE : 1.0
Iteration 18
Size I+ 18
Size I- 504
Time : 116.349
Syntactical distance : 0.0
Error Rate Precondition : 0.0
Error Rate Postcondition : 0.0
FSCORE : 1.0
Iteration 19
Size I+ 19
Size I- 519
Time : 129.35
Syntactical distance : 0.0
Error Rate Precondition : 0.0
Error Rate Postcondition : 0.0
FSCORE : 1.0
Iteration 20
Size I+ 20
Size I- 522
Time : 135.704
Syntactical distance : 0.0
Error Rate Precondition : 0.0
Error Rate Postcondition : 0.0
FSCORE : 1.0
Iteration 21
Size I+ 21
Size I- 538
Time : 148.349
Syntactical distance : 0.0
Error Rate Precondition : 0.0
Error Rate Postcondition : 0.0
FSCORE : 1.0
Iteration 22
Size I+ 22
Size I- 563
Time : 162.102
Syntactical distance : 0.0
Error Rate Precondition : 0.0
Error Rate Postcondition : 0.0
FSCORE : 1.0
Iteration 23
Size I+ 23
Size I- 598
Time : 178.199
Syntactical distance : 0.0
Error Rate Precondition : 0.0
Error Rate Postcondition : 0.0
FSCORE : 1.0
Iteration 24
Size I+ 24
Size I- 615
Time : 185.669
Syntactical distance : 0.0
Error Rate Precondition : 0.0
Error Rate Postcondition : 0.0
FSCORE : 1.0
Iteration 25
Size I+ 25
Size I- 623
Time : 193.286
Syntactical distance : 0.0
Error Rate Precondition : 0.0
Error Rate Postcondition : 0.0
FSCORE : 1.0
Iteration 26
Size I+ 26
Size I- 637
Time : 224.808
Syntactical distance : 0.0
Error Rate Precondition : 0.0
Error Rate Postcondition : 0.0
FSCORE : 1.0
Iteration 27
Size I+ 27
Size I- 642
Time : 232.608
Syntactical distance : 0.0
Error Rate Precondition : 0.0
Error Rate Postcondition : 0.0
FSCORE : 1.0
Iteration 28
Size I+ 28
Size I- 656
Time : 251.05
Syntactical distance : 0.0
Error Rate Precondition : 0.0
Error Rate Postcondition : 0.0
FSCORE : 1.0
Iteration 29
Size I+ 29
Size I- 685
Time : 270.211
Syntactical distance : 0.0
Error Rate Precondition : 0.0
Error Rate Postcondition : 0.0
FSCORE : 1.0
Iteration 30
Size I+ 30
Size I- 731
Time : 292.454
Syntactical distance : 0.0
Error Rate Precondition : 0.0
Error Rate Postcondition : 0.0
FSCORE : 1.0

*** Noise = 20.0% ***
Iteration 1
Time : 2.632
Syntactical distance : 0.0
Error Rate Precondition : 0.0
Error Rate Postcondition : 0.0
FSCORE : 1.0
Iteration 2
Size I+ 2
Size I- 62
Time : 5.593
Syntactical distance : 0.016666668
Error Rate Precondition : 0.0
Error Rate Postcondition : 0.0
FSCORE : 1.0
Iteration 3
Size I+ 3
Size I- 117
Time : 7.143
Syntactical distance : 0.087500006
Error Rate Precondition : 0.0153174605
Error Rate Postcondition : 0.0
FSCORE : 0.0
Iteration 4
Size I+ 4
Size I- 145
Time : 11.7
Syntactical distance : 0.0
Error Rate Precondition : 0.0
Error Rate Postcondition : 0.0
FSCORE : 1.0
Iteration 5
Size I+ 5
Size I- 186
Time : 17.442
Syntactical distance : 0.0
Error Rate Precondition : 0.0
Error Rate Postcondition : 0.0
FSCORE : 1.0
Iteration 6
Size I+ 6
Size I- 207
Time : 21.733
Syntactical distance : 0.06666667
Error Rate Precondition : 0.011930514
Error Rate Postcondition : 0.019477243
FSCORE : 0.07692308
Iteration 7
Size I+ 7
Size I- 234
Time : 29.149
Syntactical distance : 0.0
Error Rate Precondition : 0.0
Error Rate Postcondition : 0.0
FSCORE : 1.0
Iteration 8
Size I+ 8
Size I- 252
Time : 36.634
Syntactical distance : 0.0
Error Rate Precondition : 0.0
Error Rate Postcondition : 0.0
FSCORE : 1.0
Iteration 9
Size I+ 9
Size I- 278
Time : 40.833
Syntactical distance : 0.0
Error Rate Precondition : 0.0
Error Rate Postcondition : 0.0
FSCORE : 1.0
Iteration 10
Size I+ 10
Size I- 308
Time : 49.4
Syntactical distance : 0.0
Error Rate Precondition : 0.0
Error Rate Postcondition : 0.0
FSCORE : 1.0
Iteration 11
Size I+ 11
Size I- 321
Time : 58.03
Syntactical distance : 0.0
Error Rate Precondition : 0.0
Error Rate Postcondition : 0.0
FSCORE : 1.0
Iteration 12
Size I+ 12
Size I- 348
Time : 73.514
Syntactical distance : 0.0
Error Rate Precondition : 0.0
Error Rate Postcondition : 0.0
FSCORE : 1.0
Iteration 13
Size I+ 13
Size I- 377
Time : 90.674
Syntactical distance : 0.0
Error Rate Precondition : 0.0
Error Rate Postcondition : 0.0
FSCORE : 1.0
Iteration 14
Size I+ 14
Size I- 389
Time : 109.156
Syntactical distance : 0.0
Error Rate Precondition : 0.0
Error Rate Postcondition : 0.0
FSCORE : 1.0
Iteration 15
Size I+ 15
Size I- 405
Time : 114.074
Syntactical distance : 0.083333336
Error Rate Precondition : 0.024582105
Error Rate Postcondition : 0.0
FSCORE : 0.0
Iteration 16
Size I+ 16
Size I- 453
Time : 132.755
Syntactical distance : 0.0
Error Rate Precondition : 0.0
Error Rate Postcondition : 0.0
FSCORE : 1.0
Iteration 17
Size I+ 17
Size I- 481
Time : 142.847
Syntactical distance : 0.0
Error Rate Precondition : 0.0
Error Rate Postcondition : 0.0
FSCORE : 1.0
Iteration 18
Size I+ 18
Size I- 504
Time : 154.264
Syntactical distance : 0.0
Error Rate Precondition : 0.0
Error Rate Postcondition : 0.0
FSCORE : 1.0
Iteration 19
Size I+ 19
Size I- 519
Time : 167.349
Syntactical distance : 0.0
Error Rate Precondition : 0.0
Error Rate Postcondition : 0.0
FSCORE : 1.0
Iteration 20
Size I+ 20
Size I- 522
Time : 173.683
Syntactical distance : 0.0
Error Rate Precondition : 0.0
Error Rate Postcondition : 0.0
FSCORE : 1.0
Iteration 21
Size I+ 21
Size I- 538
Time : 186.353
Syntactical distance : 0.0
Error Rate Precondition : 0.0
Error Rate Postcondition : 0.0
FSCORE : 1.0
Iteration 22
Size I+ 22
Size I- 563
Time : 199.902
Syntactical distance : 0.0
Error Rate Precondition : 0.0
Error Rate Postcondition : 0.0
FSCORE : 1.0
Iteration 23
Size I+ 23
Size I- 598
Time : 215.856
Syntactical distance : 0.0
Error Rate Precondition : 0.0
Error Rate Postcondition : 0.0
FSCORE : 1.0
Iteration 24
Size I+ 24
Size I- 615
Time : 223.373
Syntactical distance : 0.0
Error Rate Precondition : 0.0
Error Rate Postcondition : 0.0
FSCORE : 1.0
Iteration 25
Size I+ 25
Size I- 623
Time : 230.958
Syntactical distance : 0.0
Error Rate Precondition : 0.0
Error Rate Postcondition : 0.0
FSCORE : 1.0
Iteration 26
Size I+ 26
Size I- 637
Time : 262.198
Syntactical distance : 0.0
Error Rate Precondition : 0.0
Error Rate Postcondition : 0.0
FSCORE : 1.0
Iteration 27
Size I+ 27
Size I- 642
Time : 269.989
Syntactical distance : 0.0
Error Rate Precondition : 0.0
Error Rate Postcondition : 0.0
FSCORE : 1.0
Iteration 28
Size I+ 28
Size I- 656
Time : 288.512
Syntactical distance : 0.0
Error Rate Precondition : 0.0
Error Rate Postcondition : 0.0
FSCORE : 1.0
Iteration 29
Size I+ 29
Size I- 685
Time : 307.527
Syntactical distance : 0.0
Error Rate Precondition : 0.0
Error Rate Postcondition : 0.0
FSCORE : 1.0
Iteration 30
Size I+ 30
Size I- 731
Time : 329.717
Syntactical distance : 0.0
Error Rate Precondition : 0.0
Error Rate Postcondition : 0.0
FSCORE : 1.0
############################################
### Fluent = 100.0% ###

*** Noise = 0.0% ***
Iteration 1
Time : 0.404
Syntactical distance : 0.0
Error Rate Precondition : 0.0
Error Rate Postcondition : 0.0
FSCORE : 1.0
Iteration 2
Size I+ 2
Size I- 66
Time : 1.543
Syntactical distance : 0.0
Error Rate Precondition : 0.0
Error Rate Postcondition : 0.0
FSCORE : 1.0
Iteration 3
Size I+ 3
Size I- 98
Time : 3.138
Syntactical distance : 0.0
Error Rate Precondition : 0.0
Error Rate Postcondition : 0.0
FSCORE : 1.0
Iteration 4
Size I+ 4
Size I- 127
Time : 4.961
Syntactical distance : 0.0
Error Rate Precondition : 0.0
Error Rate Postcondition : 0.0
FSCORE : 1.0
Iteration 5
Size I+ 5
Size I- 145
Time : 6.999
Syntactical distance : 0.0
Error Rate Precondition : 0.0
Error Rate Postcondition : 0.0
FSCORE : 1.0
Iteration 6
Size I+ 6
Size I- 183
Time : 9.583
Syntactical distance : 0.0
Error Rate Precondition : 0.0
Error Rate Postcondition : 0.0
FSCORE : 1.0
Iteration 7
Size I+ 7
Size I- 228
Time : 13.19
Syntactical distance : 0.0
Error Rate Precondition : 0.0
Error Rate Postcondition : 0.0
FSCORE : 1.0
Iteration 8
Size I+ 8
Size I- 258
Time : 17.566
Syntactical distance : 0.0
Error Rate Precondition : 0.0
Error Rate Postcondition : 0.0
FSCORE : 1.0
Iteration 9
Size I+ 9
Size I- 271
Time : 22.23
Syntactical distance : 0.0
Error Rate Precondition : 0.0
Error Rate Postcondition : 0.0
FSCORE : 1.0
Iteration 10
Size I+ 10
Size I- 292
Time : 28.865
Syntactical distance : 0.0
Error Rate Precondition : 0.0
Error Rate Postcondition : 0.0
FSCORE : 1.0
Iteration 11
Size I+ 11
Size I- 323
Time : 34.586
Syntactical distance : 0.0
Error Rate Precondition : 0.0
Error Rate Postcondition : 0.0
FSCORE : 1.0
Iteration 12
Size I+ 12
Size I- 342
Time : 38.607
Syntactical distance : 0.0
Error Rate Precondition : 0.0
Error Rate Postcondition : 0.0
FSCORE : 1.0
Iteration 13
Size I+ 13
Size I- 374
Time : 45.668
Syntactical distance : 0.0
Error Rate Precondition : 0.0
Error Rate Postcondition : 0.0
FSCORE : 1.0
Iteration 14
Size I+ 14
Size I- 392
Time : 53.195
Syntactical distance : 0.0
Error Rate Precondition : 0.0
Error Rate Postcondition : 0.0
FSCORE : 1.0
Iteration 15
Size I+ 15
Size I- 406
Time : 61.289
Syntactical distance : 0.0
Error Rate Precondition : 0.0
Error Rate Postcondition : 0.0
FSCORE : 1.0
Iteration 16
Size I+ 16
Size I- 445
Time : 73.851
Syntactical distance : 0.0
Error Rate Precondition : 0.0
Error Rate Postcondition : 0.0
FSCORE : 1.0
Iteration 17
Size I+ 17
Size I- 490
Time : 83.938
Syntactical distance : 0.0
Error Rate Precondition : 0.0
Error Rate Postcondition : 0.0
FSCORE : 1.0
Iteration 18
Size I+ 18
Size I- 529
Time : 103.426
Syntactical distance : 0.0
Error Rate Precondition : 0.0
Error Rate Postcondition : 0.0
FSCORE : 1.0
Iteration 19
Size I+ 19
Size I- 573
Time : 116.307
Syntactical distance : 0.0
Error Rate Precondition : 0.0
Error Rate Postcondition : 0.0
FSCORE : 1.0
Iteration 20
Size I+ 20
Size I- 588
Time : 130.181
Syntactical distance : 0.0
Error Rate Precondition : 0.0
Error Rate Postcondition : 0.0
FSCORE : 1.0
Iteration 21
Size I+ 21
Size I- 604
Time : 146.227
Syntactical distance : 0.0
Error Rate Precondition : 0.0
Error Rate Postcondition : 0.0
FSCORE : 1.0
Iteration 22
Size I+ 22
Size I- 654
Time : 164.807
Syntactical distance : 0.0
Error Rate Precondition : 0.0
Error Rate Postcondition : 0.0
FSCORE : 1.0
Iteration 23
Size I+ 23
Size I- 676
Time : 172.711
Syntactical distance : 0.0
Error Rate Precondition : 0.0
Error Rate Postcondition : 0.0
FSCORE : 1.0
Iteration 24
Size I+ 24
Size I- 695
Time : 198.93
Syntactical distance : 0.0
Error Rate Precondition : 0.0
Error Rate Postcondition : 0.0
FSCORE : 1.0
Iteration 25
Size I+ 25
Size I- 715
Time : 239.699
Syntactical distance : 0.0
Error Rate Precondition : 0.0
Error Rate Postcondition : 0.0
FSCORE : 1.0
Iteration 26
Size I+ 26
Size I- 730
Time : 290.47
Syntactical distance : 0.0
Error Rate Precondition : 0.0
Error Rate Postcondition : 0.0
FSCORE : 1.0
Iteration 27
Size I+ 27
Size I- 772
Time : 325.974
Syntactical distance : 0.0
Error Rate Precondition : 0.0
Error Rate Postcondition : 0.0
FSCORE : 1.0
Iteration 28
Size I+ 28
Size I- 781
Time : 421.075
Syntactical distance : 0.0
Error Rate Precondition : 0.0
Error Rate Postcondition : 0.0
FSCORE : 1.0
Iteration 29
Size I+ 29
Size I- 800
Time : 498.783
Syntactical distance : 0.0
Error Rate Precondition : 0.0
Error Rate Postcondition : 0.0
FSCORE : 1.0
Iteration 30
Size I+ 30
Size I- 836
Time : 508.637
Syntactical distance : 0.0
Error Rate Precondition : 0.0
Error Rate Postcondition : 0.0
FSCORE : 1.0

*** Noise = 20.0% ***
Iteration 1
Time : 1.186
Syntactical distance : 0.0
Error Rate Precondition : 0.0
Error Rate Postcondition : 0.0
FSCORE : 1.0
Iteration 2
Size I+ 2
Size I- 66
Time : 3.121
Syntactical distance : 0.016666668
Error Rate Precondition : 0.0
Error Rate Postcondition : 0.0
FSCORE : 0.19417475
Iteration 3
Size I+ 3
Size I- 98
Time : 4.278
Syntactical distance : 0.050000004
Error Rate Precondition : 0.01265159
Error Rate Postcondition : 0.0
FSCORE : 0.0
Iteration 4
Size I+ 4
Size I- 127
Time : 7.799
Syntactical distance : 0.0
Error Rate Precondition : 0.0
Error Rate Postcondition : 0.0
FSCORE : 1.0
Iteration 5
Size I+ 5
Size I- 145
Time : 9.855
Syntactical distance : 0.0
Error Rate Precondition : 0.0
Error Rate Postcondition : 0.0
FSCORE : 1.0
Iteration 6
Size I+ 6
Size I- 183
Time : 12.467
Syntactical distance : 0.0
Error Rate Precondition : 0.0
Error Rate Postcondition : 0.0
FSCORE : 1.0
Iteration 7
Size I+ 7
Size I- 228
Time : 16.07
Syntactical distance : 0.0
Error Rate Precondition : 0.0
Error Rate Postcondition : 0.0
FSCORE : 1.0
Iteration 8
Size I+ 8
Size I- 258
Time : 20.408
Syntactical distance : 0.0
Error Rate Precondition : 0.0
Error Rate Postcondition : 0.0
FSCORE : 1.0
Iteration 9
Size I+ 9
Size I- 271
Time : 25.073
Syntactical distance : 0.0
Error Rate Precondition : 0.0
Error Rate Postcondition : 0.0
FSCORE : 1.0
Iteration 10
Size I+ 10
Size I- 292
Time : 31.694
Syntactical distance : 0.0
Error Rate Precondition : 0.0
Error Rate Postcondition : 0.0
FSCORE : 1.0
Iteration 11
Size I+ 11
Size I- 323
Time : 37.41
Syntactical distance : 0.0
Error Rate Precondition : 0.0
Error Rate Postcondition : 0.0
FSCORE : 1.0
Iteration 12
Size I+ 12
Size I- 342
Time : 41.46
Syntactical distance : 0.0
Error Rate Precondition : 0.0
Error Rate Postcondition : 0.0
FSCORE : 1.0
Iteration 13
Size I+ 13
Size I- 374
Time : 48.512
Syntactical distance : 0.0
Error Rate Precondition : 0.0
Error Rate Postcondition : 0.0
FSCORE : 1.0
Iteration 14
Size I+ 14
Size I- 392
Time : 56.109
Syntactical distance : 0.0
Error Rate Precondition : 0.0
Error Rate Postcondition : 0.0
FSCORE : 1.0
Iteration 15
Size I+ 15
Size I- 406
Time : 64.215
Syntactical distance : 0.0
Error Rate Precondition : 0.0
Error Rate Postcondition : 0.0
FSCORE : 1.0
Iteration 16
Size I+ 16
Size I- 445
Time : 76.74
Syntactical distance : 0.0
Error Rate Precondition : 0.0
Error Rate Postcondition : 0.0
FSCORE : 1.0
Iteration 17
Size I+ 17
Size I- 490
Time : 86.731
Syntactical distance : 0.0
Error Rate Precondition : 0.0
Error Rate Postcondition : 0.0
FSCORE : 1.0
Iteration 18
Size I+ 18
Size I- 529
Time : 106.251
Syntactical distance : 0.0
Error Rate Precondition : 0.0
Error Rate Postcondition : 0.0
FSCORE : 1.0
Iteration 19
Size I+ 19
Size I- 573
Time : 119.184
Syntactical distance : 0.0
Error Rate Precondition : 0.0
Error Rate Postcondition : 0.0
FSCORE : 1.0
Iteration 20
Size I+ 20
Size I- 588
Time : 133.199
Syntactical distance : 0.0
Error Rate Precondition : 0.0
Error Rate Postcondition : 0.0
FSCORE : 1.0
Iteration 21
Size I+ 21
Size I- 604
Time : 149.145
Syntactical distance : 0.0
Error Rate Precondition : 0.0
Error Rate Postcondition : 0.0
FSCORE : 1.0
Iteration 22
Size I+ 22
Size I- 654
Time : 167.983
Syntactical distance : 0.0
Error Rate Precondition : 0.0
Error Rate Postcondition : 0.0
FSCORE : 1.0
Iteration 23
Size I+ 23
Size I- 676
Time : 175.973
Syntactical distance : 0.0
Error Rate Precondition : 0.0
Error Rate Postcondition : 0.0
FSCORE : 1.0
Iteration 24
Size I+ 24
Size I- 695
Time : 202.038
Syntactical distance : 0.0
Error Rate Precondition : 0.0
Error Rate Postcondition : 0.0
FSCORE : 1.0
Iteration 25
Size I+ 25
Size I- 715
Time : 243.054
Syntactical distance : 0.0
Error Rate Precondition : 0.0
Error Rate Postcondition : 0.0
FSCORE : 1.0
Iteration 26
Size I+ 26
Size I- 730
Time : 293.925
Syntactical distance : 0.0
Error Rate Precondition : 0.0
Error Rate Postcondition : 0.0
FSCORE : 1.0
Iteration 27
Size I+ 27
Size I- 772
Time : 329.062
Syntactical distance : 0.0
Error Rate Precondition : 0.0
Error Rate Postcondition : 0.0
FSCORE : 1.0
Iteration 28
Size I+ 28
Size I- 781
Time : 424.135
Syntactical distance : 0.0
Error Rate Precondition : 0.0
Error Rate Postcondition : 0.0
FSCORE : 1.0
Iteration 29
Size I+ 29
Size I- 800
Time : 503.279
Syntactical distance : 0.0
Error Rate Precondition : 0.0
Error Rate Postcondition : 0.0
FSCORE : 1.0
Iteration 30
Size I+ 30
Size I- 836
Time : 513.299
Syntactical distance : 0.0
Error Rate Precondition : 0.0
Error Rate Postcondition : 0.0
FSCORE : 1.0
