Initial states 1
run 0
### Fluent = 25 ###

*** Noise = 0 ***
20 problems
20 solved problems
20 correctly solved problems
*** Noise = 20 ***
20 problems
20 solved problems
0 correctly solved problems
### Fluent = 100 ###

*** Noise = 0 ***
20 problems
20 solved problems
20 correctly solved problems
*** Noise = 20 ***
20 problems
20 solved problems
20 correctly solved problems
run 1
### Fluent = 25 ###

*** Noise = 0 ***
20 problems
16 solved problems
0 correctly solved problems
*** Noise = 20 ***
20 problems
20 solved problems
0 correctly solved problems
### Fluent = 100 ###

*** Noise = 0 ***
20 problems
16 solved problems
0 correctly solved problems
*** Noise = 20 ***
20 problems
20 solved problems
20 correctly solved problems
run 2
### Fluent = 25 ###

*** Noise = 0 ***
20 problems
0 solved problems
0 correctly solved problems
*** Noise = 20 ***
20 problems
20 solved problems
20 correctly solved problems
### Fluent = 100 ###

*** Noise = 0 ***
20 problems
0 solved problems
0 correctly solved problems
*** Noise = 20 ***
20 problems
20 solved problems
20 correctly solved problems
run 3
### Fluent = 25 ###

*** Noise = 0 ***
20 problems
10 solved problems
0 correctly solved problems
*** Noise = 20 ***
20 problems
20 solved problems
20 correctly solved problems
### Fluent = 100 ###

*** Noise = 0 ***
20 problems
10 solved problems
0 correctly solved problems
*** Noise = 20 ***
20 problems
20 solved problems
20 correctly solved problems
run 4
### Fluent = 25 ###

*** Noise = 0 ***
20 problems
0 solved problems
0 correctly solved problems
*** Noise = 20 ***
20 problems
0 solved problems
0 correctly solved problems
### Fluent = 100 ###

*** Noise = 0 ***
20 problems
0 solved problems
0 correctly solved problems
*** Noise = 20 ***
20 problems
0 solved problems
0 correctly solved problems
Initial states 2
run 0
### Fluent = 25 ###

*** Noise = 0 ***
20 problems
20 solved problems
20 correctly solved problems
*** Noise = 20 ***
20 problems
20 solved problems
20 correctly solved problems
### Fluent = 100 ###

*** Noise = 0 ***
20 problems
20 solved problems
20 correctly solved problems
*** Noise = 20 ***
20 problems
4 solved problems
0 correctly solved problems
run 1
### Fluent = 25 ###

*** Noise = 0 ***
20 problems
20 solved problems
20 correctly solved problems
*** Noise = 20 ***
20 problems
20 solved problems
20 correctly solved problems
### Fluent = 100 ###

*** Noise = 0 ***
20 problems
20 solved problems
20 correctly solved problems
*** Noise = 20 ***
20 problems
20 solved problems
20 correctly solved problems
run 2
### Fluent = 25 ###

*** Noise = 0 ***
20 problems
20 solved problems
20 correctly solved problems
*** Noise = 20 ***
20 problems
20 solved problems
20 correctly solved problems
### Fluent = 100 ###

*** Noise = 0 ***
20 problems
20 solved problems
20 correctly solved problems
*** Noise = 20 ***
20 problems
20 solved problems
20 correctly solved problems
run 3
### Fluent = 25 ###

*** Noise = 0 ***
20 problems
9 solved problems
0 correctly solved problems
*** Noise = 20 ***
20 problems
20 solved problems
0 correctly solved problems
### Fluent = 100 ###

*** Noise = 0 ***
20 problems
9 solved problems
0 correctly solved problems
*** Noise = 20 ***
20 problems
20 solved problems
20 correctly solved problems
run 4
### Fluent = 25 ###

*** Noise = 0 ***
20 problems
20 solved problems
0 correctly solved problems
*** Noise = 20 ***
20 problems
20 solved problems
20 correctly solved problems
### Fluent = 100 ###

*** Noise = 0 ***
20 problems
20 solved problems
20 correctly solved problems
*** Noise = 20 ***
20 problems
0 solved problems
0 correctly solved problems
Initial states 3
run 0
### Fluent = 25 ###

*** Noise = 0 ***
20 problems
20 solved problems
20 correctly solved problems
*** Noise = 20 ***
20 problems
20 solved problems
20 correctly solved problems
### Fluent = 100 ###

*** Noise = 0 ***
20 problems
20 solved problems
20 correctly solved problems
*** Noise = 20 ***
20 problems
20 solved problems
20 correctly solved problems
run 1
### Fluent = 25 ###

*** Noise = 0 ***
20 problems
13 solved problems
0 correctly solved problems
*** Noise = 20 ***
20 problems
20 solved problems
20 correctly solved problems
### Fluent = 100 ###

*** Noise = 0 ***
20 problems
13 solved problems
0 correctly solved problems
*** Noise = 20 ***
20 problems
20 solved problems
20 correctly solved problems
run 2
### Fluent = 25 ###

*** Noise = 0 ***
20 problems
11 solved problems
0 correctly solved problems
*** Noise = 20 ***
20 problems
20 solved problems
20 correctly solved problems
### Fluent = 100 ###

*** Noise = 0 ***
20 problems
11 solved problems
0 correctly solved problems
*** Noise = 20 ***
20 problems
20 solved problems
20 correctly solved problems
run 3
### Fluent = 25 ###

*** Noise = 0 ***
20 problems
14 solved problems
0 correctly solved problems
*** Noise = 20 ***
20 problems
20 solved problems
0 correctly solved problems
### Fluent = 100 ###

*** Noise = 0 ***
20 problems
14 solved problems
0 correctly solved problems
*** Noise = 20 ***
20 problems
0 solved problems
0 correctly solved problems
run 4
### Fluent = 25 ###

*** Noise = 0 ***
20 problems
14 solved problems
0 correctly solved problems
*** Noise = 20 ***
20 problems
20 solved problems
20 correctly solved problems
### Fluent = 100 ###

*** Noise = 0 ***
20 problems
14 solved problems
0 correctly solved problems
*** Noise = 20 ***
20 problems
20 solved problems
0 correctly solved problems
