# actions 24
# predicate 25
Initial state : pddl/hanoi/initial_states/initial3.pddl
pddl/hanoi/domain.pddl
E+ size : 100
E- size : 33107
e+ mean size : 49.13
e- mean size : 32.896305
############################################
### Fluent = 25.0% ###

*** Noise = 0.0% ***
Iteration 1
Time : 1.742
Syntactical distance : 0.17962962
Error Rate Precondition : 0.044593148
Error Rate Postcondition : 0.0
FSCORE : 0.043001506
Iteration 2
Size I+ 2
Size I- 208
Time : 12.281
Syntactical distance : 0.009259259
Error Rate Precondition : 0.0
Error Rate Postcondition : 0.0
FSCORE : 1.0
Iteration 3
Size I+ 3
Size I- 292
Time : 23.15
Syntactical distance : 0.009259259
Error Rate Precondition : 0.0
Error Rate Postcondition : 0.0
FSCORE : 1.0
Iteration 4
Size I+ 4
Size I- 348
Time : 34.495
Syntactical distance : 0.009259259
Error Rate Precondition : 0.0
Error Rate Postcondition : 0.0
FSCORE : 1.0
Iteration 5
Size I+ 5
Size I- 428
Time : 44.068
Syntactical distance : 0.009259259
Error Rate Precondition : 0.0
Error Rate Postcondition : 0.0
FSCORE : 1.0
Iteration 6
Size I+ 6
Size I- 478
Time : 54.158
Syntactical distance : 0.009259259
Error Rate Precondition : 0.0
Error Rate Postcondition : 0.0
FSCORE : 1.0
Iteration 7
Size I+ 7
Size I- 549
Time : 64.807
Syntactical distance : 0.009259259
Error Rate Precondition : 0.0
Error Rate Postcondition : 0.0
FSCORE : 1.0
Iteration 8
Size I+ 8
Size I- 590
Time : 75.518
Syntactical distance : 0.009259259
Error Rate Precondition : 0.0
Error Rate Postcondition : 0.0
FSCORE : 1.0
Iteration 9
Size I+ 9
Size I- 627
Time : 86.096
Syntactical distance : 0.009259259
Error Rate Precondition : 0.0
Error Rate Postcondition : 0.0
FSCORE : 1.0
Iteration 10
Size I+ 10
Size I- 714
Time : 97.455
Syntactical distance : 0.009259259
Error Rate Precondition : 0.0
Error Rate Postcondition : 0.0
FSCORE : 1.0
Iteration 11
Size I+ 11
Size I- 790
Time : 109.189
Syntactical distance : 0.009259259
Error Rate Precondition : 0.0
Error Rate Postcondition : 0.0
FSCORE : 1.0
Iteration 12
Size I+ 12
Size I- 879
Time : 120.818
Syntactical distance : 0.009259259
Error Rate Precondition : 0.0
Error Rate Postcondition : 0.0
FSCORE : 1.0
Iteration 13
Size I+ 13
Size I- 936
Time : 132.902
Syntactical distance : 0.009259259
Error Rate Precondition : 0.0
Error Rate Postcondition : 0.0
FSCORE : 1.0
Iteration 14
Size I+ 14
Size I- 1026
Time : 144.808
Syntactical distance : 0.009259259
Error Rate Precondition : 0.0
Error Rate Postcondition : 0.0
FSCORE : 1.0
Iteration 15
Size I+ 15
Size I- 1117
Time : 157.926
Syntactical distance : 0.009259259
Error Rate Precondition : 0.0
Error Rate Postcondition : 0.0
FSCORE : 1.0
Iteration 16
Size I+ 16
Size I- 1194
Time : 169.382
Syntactical distance : 0.009259259
Error Rate Precondition : 0.0
Error Rate Postcondition : 0.0
FSCORE : 1.0
Iteration 17
Size I+ 17
Size I- 1259
Time : 180.974
Syntactical distance : 0.009259259
Error Rate Precondition : 0.0
Error Rate Postcondition : 0.0
FSCORE : 1.0
Iteration 18
Size I+ 18
Size I- 1290
Time : 192.77
Syntactical distance : 0.009259259
Error Rate Precondition : 0.0
Error Rate Postcondition : 0.0
FSCORE : 1.0
Iteration 19
Size I+ 19
Size I- 1319
Time : 204.973
Syntactical distance : 0.009259259
Error Rate Precondition : 0.0
Error Rate Postcondition : 0.0
FSCORE : 1.0
Iteration 20
Size I+ 20
Size I- 1392
Time : 216.982
Syntactical distance : 0.009259259
Error Rate Precondition : 0.0
Error Rate Postcondition : 0.0
FSCORE : 1.0
Iteration 21
Size I+ 21
Size I- 1456
Time : 229.236
Syntactical distance : 0.009259259
Error Rate Precondition : 0.0
Error Rate Postcondition : 0.0
FSCORE : 1.0
Iteration 22
Size I+ 22
Size I- 1520
Time : 241.691
Syntactical distance : 0.009259259
Error Rate Precondition : 0.0
Error Rate Postcondition : 0.0
FSCORE : 1.0
Iteration 23
Size I+ 23
Size I- 1637
Time : 258.274
Syntactical distance : 0.009259259
Error Rate Precondition : 0.0
Error Rate Postcondition : 0.0
FSCORE : 1.0
Iteration 24
Size I+ 24
Size I- 1734
Time : 271.288
Syntactical distance : 0.009259259
Error Rate Precondition : 0.0
Error Rate Postcondition : 0.0
FSCORE : 1.0
Iteration 25
Size I+ 25
Size I- 1803
Time : 289.429
Syntactical distance : 0.009259259
Error Rate Precondition : 0.0
Error Rate Postcondition : 0.0
FSCORE : 1.0
Iteration 26
Size I+ 26
Size I- 1866
Time : 302.729
Syntactical distance : 0.009259259
Error Rate Precondition : 0.0
Error Rate Postcondition : 0.0
FSCORE : 1.0
Iteration 27
Size I+ 27
Size I- 1943
Time : 321.583
Syntactical distance : 0.009259259
Error Rate Precondition : 0.0
Error Rate Postcondition : 0.0
FSCORE : 1.0
Iteration 28
Size I+ 28
Size I- 2034
Time : 335.589
Syntactical distance : 0.009259259
Error Rate Precondition : 0.0
Error Rate Postcondition : 0.0
FSCORE : 1.0
Iteration 29
Size I+ 29
Size I- 2104
Time : 354.661
Syntactical distance : 0.009259259
Error Rate Precondition : 0.0
Error Rate Postcondition : 0.0
FSCORE : 1.0
Iteration 30
Size I+ 30
Size I- 2230
Time : 368.933
Syntactical distance : 0.009259259
Error Rate Precondition : 0.0
Error Rate Postcondition : 0.0
FSCORE : 1.0

*** Noise = 20.0% ***
Iteration 1
Time : 1.336
Syntactical distance : 0.22962964
Error Rate Precondition : 0.1932532
Error Rate Postcondition : 0.07340504
FSCORE : 0.036849927
Iteration 2
Size I+ 2
Size I- 208
Time : 9.591
Syntactical distance : 0.009259259
Error Rate Precondition : 0.0
Error Rate Postcondition : 0.0
FSCORE : 1.0
Iteration 3
Size I+ 3
Size I- 292
Time : 21.315
Syntactical distance : 0.009259259
Error Rate Precondition : 0.0
Error Rate Postcondition : 0.0
FSCORE : 1.0
Iteration 4
Size I+ 4
Size I- 348
Time : 33.564
Syntactical distance : 0.11481482
Error Rate Precondition : 0.09331443
Error Rate Postcondition : 0.08078021
FSCORE : 0.3058104
Iteration 5
Size I+ 5
Size I- 428
Time : 44.329
Syntactical distance : 0.009259259
Error Rate Precondition : 0.0
Error Rate Postcondition : 0.0
FSCORE : 1.0
Iteration 6
Size I+ 6
Size I- 478
Time : 56.427
Syntactical distance : 0.009259259
Error Rate Precondition : 0.0
Error Rate Postcondition : 0.0
FSCORE : 1.0
Iteration 7
Size I+ 7
Size I- 549
Time : 68.805
Syntactical distance : 0.009259259
Error Rate Precondition : 0.0
Error Rate Postcondition : 0.0
FSCORE : 1.0
Iteration 8
Size I+ 8
Size I- 590
Time : 81.967
Syntactical distance : 0.009259259
Error Rate Precondition : 0.0
Error Rate Postcondition : 0.0
FSCORE : 1.0
Iteration 9
Size I+ 9
Size I- 627
Time : 94.723
Syntactical distance : 0.0462963
Error Rate Precondition : 0.03168264
Error Rate Postcondition : 0.035199624
FSCORE : 0.3058104
Iteration 10
Size I+ 10
Size I- 714
Time : 108.581
Syntactical distance : 0.009259259
Error Rate Precondition : 0.0
Error Rate Postcondition : 0.0
FSCORE : 1.0
Iteration 11
Size I+ 11
Size I- 790
Time : 125.382
Syntactical distance : 0.009259259
Error Rate Precondition : 0.0
Error Rate Postcondition : 0.0
FSCORE : 1.0
Iteration 12
Size I+ 12
Size I- 879
Time : 142.712
Syntactical distance : 0.009259259
Error Rate Precondition : 0.0
Error Rate Postcondition : 0.0
FSCORE : 1.0
Iteration 13
Size I+ 13
Size I- 936
Time : 158.76
Syntactical distance : 0.009259259
Error Rate Precondition : 0.0
Error Rate Postcondition : 0.0
FSCORE : 1.0
Iteration 14
Size I+ 14
Size I- 1026
Time : 170.67
Syntactical distance : 0.009259259
Error Rate Precondition : 0.0
Error Rate Postcondition : 0.0
FSCORE : 1.0
Iteration 15
Size I+ 15
Size I- 1117
Time : 183.741
Syntactical distance : 0.009259259
Error Rate Precondition : 0.0
Error Rate Postcondition : 0.0
FSCORE : 1.0
Iteration 16
Size I+ 16
Size I- 1194
Time : 195.165
Syntactical distance : 0.009259259
Error Rate Precondition : 0.0
Error Rate Postcondition : 0.0
FSCORE : 1.0
Iteration 17
Size I+ 17
Size I- 1259
Time : 206.595
Syntactical distance : 0.009259259
Error Rate Precondition : 0.0
Error Rate Postcondition : 0.0
FSCORE : 1.0
Iteration 18
Size I+ 18
Size I- 1290
Time : 218.164
Syntactical distance : 0.009259259
Error Rate Precondition : 0.0
Error Rate Postcondition : 0.0
FSCORE : 1.0
Iteration 19
Size I+ 19
Size I- 1319
Time : 234.437
Syntactical distance : 0.009259259
Error Rate Precondition : 0.0
Error Rate Postcondition : 0.0
FSCORE : 1.0
Iteration 20
Size I+ 20
Size I- 1392
Time : 251.087
Syntactical distance : 0.009259259
Error Rate Precondition : 0.0
Error Rate Postcondition : 0.0
FSCORE : 1.0
Iteration 21
Size I+ 21
Size I- 1456
Time : 268.259
Syntactical distance : 0.009259259
Error Rate Precondition : 0.0
Error Rate Postcondition : 0.0
FSCORE : 1.0
Iteration 22
Size I+ 22
Size I- 1520
Time : 285.767
Syntactical distance : 0.009259259
Error Rate Precondition : 0.0
Error Rate Postcondition : 0.0
FSCORE : 1.0
Iteration 23
Size I+ 23
Size I- 1637
Time : 307.514
Syntactical distance : 0.009259259
Error Rate Precondition : 0.0
Error Rate Postcondition : 0.0
FSCORE : 1.0
Iteration 24
Size I+ 24
Size I- 1734
Time : 326.002
Syntactical distance : 0.009259259
Error Rate Precondition : 0.0
Error Rate Postcondition : 0.0
FSCORE : 1.0
Iteration 25
Size I+ 25
Size I- 1803
Time : 349.814
Syntactical distance : 0.009259259
Error Rate Precondition : 0.0
Error Rate Postcondition : 0.0
FSCORE : 1.0
Iteration 26
Size I+ 26
Size I- 1866
Time : 372.179
Syntactical distance : 0.0462963
Error Rate Precondition : 0.030640772
Error Rate Postcondition : 0.035199624
FSCORE : 1.0
Iteration 27
Size I+ 27
Size I- 1943
Time : 398.609
Syntactical distance : 0.009259259
Error Rate Precondition : 0.0
Error Rate Postcondition : 0.0
FSCORE : 1.0
Iteration 28
Size I+ 28
Size I- 2034
Time : 419.957
Syntactical distance : 0.009259259
Error Rate Precondition : 0.0
Error Rate Postcondition : 0.0
FSCORE : 1.0
Iteration 29
Size I+ 29
Size I- 2104
Time : 445.077
Syntactical distance : 0.0462963
Error Rate Precondition : 0.030640772
Error Rate Postcondition : 0.035199624
FSCORE : 1.0
Iteration 30
Size I+ 30
Size I- 2230
Time : 465.728
Syntactical distance : 0.0462963
Error Rate Precondition : 0.030640772
Error Rate Postcondition : 0.035199624
FSCORE : 1.0
############################################
### Fluent = 100.0% ###

*** Noise = 0.0% ***
Iteration 1
Time : 0.553
Syntactical distance : 0.009259259
Error Rate Precondition : 0.0
Error Rate Postcondition : 0.0
FSCORE : 1.0
Iteration 2
Size I+ 2
Size I- 175
Time : 9.322
Syntactical distance : 0.009259259
Error Rate Precondition : 0.0
Error Rate Postcondition : 0.0
FSCORE : 1.0
Iteration 3
Size I+ 3
Size I- 323
Time : 18.511
Syntactical distance : 0.009259259
Error Rate Precondition : 0.0
Error Rate Postcondition : 0.0
FSCORE : 1.0
Iteration 4
Size I+ 4
Size I- 446
Time : 28.141
Syntactical distance : 0.009259259
Error Rate Precondition : 0.0
Error Rate Postcondition : 0.0
FSCORE : 1.0
Iteration 5
Size I+ 5
Size I- 551
Time : 37.997
Syntactical distance : 0.009259259
Error Rate Precondition : 0.0
Error Rate Postcondition : 0.0
FSCORE : 1.0
Iteration 6
Size I+ 6
Size I- 665
Time : 48.413
Syntactical distance : 0.009259259
Error Rate Precondition : 0.0
Error Rate Postcondition : 0.0
FSCORE : 1.0
Iteration 7
Size I+ 7
Size I- 773
Time : 59.567
Syntactical distance : 0.009259259
Error Rate Precondition : 0.0
Error Rate Postcondition : 0.0
FSCORE : 1.0
Iteration 8
Size I+ 8
Size I- 895
Time : 70.843
Syntactical distance : 0.009259259
Error Rate Precondition : 0.0
Error Rate Postcondition : 0.0
FSCORE : 1.0
Iteration 9
Size I+ 9
Size I- 998
Time : 83.458
Syntactical distance : 0.009259259
Error Rate Precondition : 0.0
Error Rate Postcondition : 0.0
FSCORE : 1.0
Iteration 10
Size I+ 10
Size I- 1085
Time : 96.287
Syntactical distance : 0.009259259
Error Rate Precondition : 0.0
Error Rate Postcondition : 0.0
FSCORE : 1.0
Iteration 11
Size I+ 11
Size I- 1195
Time : 110.515
Syntactical distance : 0.009259259
Error Rate Precondition : 0.0
Error Rate Postcondition : 0.0
FSCORE : 1.0
Iteration 12
Size I+ 12
Size I- 1221
Time : 121.818
Syntactical distance : 0.009259259
Error Rate Precondition : 0.0
Error Rate Postcondition : 0.0
FSCORE : 1.0
Iteration 13
Size I+ 13
Size I- 1250
Time : 133.226
Syntactical distance : 0.009259259
Error Rate Precondition : 0.0
Error Rate Postcondition : 0.0
FSCORE : 1.0
Iteration 14
Size I+ 14
Size I- 1336
Time : 148.287
Syntactical distance : 0.009259259
Error Rate Precondition : 0.0
Error Rate Postcondition : 0.0
FSCORE : 1.0
Iteration 15
Size I+ 15
Size I- 1389
Time : 163.45
Syntactical distance : 0.009259259
Error Rate Precondition : 0.0
Error Rate Postcondition : 0.0
FSCORE : 1.0
Iteration 16
Size I+ 16
Size I- 1412
Time : 175.4
Syntactical distance : 0.009259259
Error Rate Precondition : 0.0
Error Rate Postcondition : 0.0
FSCORE : 1.0
Iteration 17
Size I+ 17
Size I- 1510
Time : 191.722
Syntactical distance : 0.009259259
Error Rate Precondition : 0.0
Error Rate Postcondition : 0.0
FSCORE : 1.0
Iteration 18
Size I+ 18
Size I- 1579
Time : 209.252
Syntactical distance : 0.009259259
Error Rate Precondition : 0.0
Error Rate Postcondition : 0.0
FSCORE : 1.0
Iteration 19
Size I+ 19
Size I- 1638
Time : 225.383
Syntactical distance : 0.009259259
Error Rate Precondition : 0.0
Error Rate Postcondition : 0.0
FSCORE : 1.0
Iteration 20
Size I+ 20
Size I- 1728
Time : 238.317
Syntactical distance : 0.009259259
Error Rate Precondition : 0.0
Error Rate Postcondition : 0.0
FSCORE : 1.0
Iteration 21
Size I+ 21
Size I- 1765
Time : 251.319
Syntactical distance : 0.009259259
Error Rate Precondition : 0.0
Error Rate Postcondition : 0.0
FSCORE : 1.0
Iteration 22
Size I+ 22
Size I- 1880
Time : 268.444
Syntactical distance : 0.009259259
Error Rate Precondition : 0.0
Error Rate Postcondition : 0.0
FSCORE : 1.0
Iteration 23
Size I+ 23
Size I- 1981
Time : 283.798
Syntactical distance : 0.009259259
Error Rate Precondition : 0.0
Error Rate Postcondition : 0.0
FSCORE : 1.0
Iteration 24
Size I+ 24
Size I- 2050
Time : 297.42
Syntactical distance : 0.009259259
Error Rate Precondition : 0.0
Error Rate Postcondition : 0.0
FSCORE : 1.0
Iteration 25
Size I+ 25
Size I- 2173
Time : 317.727
Syntactical distance : 0.009259259
Error Rate Precondition : 0.0
Error Rate Postcondition : 0.0
FSCORE : 1.0
Iteration 26
Size I+ 26
Size I- 2226
Time : 331.986
Syntactical distance : 0.009259259
Error Rate Precondition : 0.0
Error Rate Postcondition : 0.0
FSCORE : 1.0
Iteration 27
Size I+ 27
Size I- 2337
Time : 346.386
Syntactical distance : 0.009259259
Error Rate Precondition : 0.0
Error Rate Postcondition : 0.0
FSCORE : 1.0
Iteration 28
Size I+ 28
Size I- 2407
Time : 368.522
Syntactical distance : 0.009259259
Error Rate Precondition : 0.0
Error Rate Postcondition : 0.0
FSCORE : 1.0
Iteration 29
Size I+ 29
Size I- 2474
Time : 383.344
Syntactical distance : 0.009259259
Error Rate Precondition : 0.0
Error Rate Postcondition : 0.0
FSCORE : 1.0
Iteration 30
Size I+ 30
Size I- 2521
Time : 406.93
Syntactical distance : 0.009259259
Error Rate Precondition : 0.0
Error Rate Postcondition : 0.0
FSCORE : 1.0

*** Noise = 20.0% ***
Iteration 1
Time : 1.665
Syntactical distance : 0.118518524
Error Rate Precondition : 0.10288114
Error Rate Postcondition : 0.08437561
FSCORE : 0.07692308
Iteration 2
Size I+ 2
Size I- 175
Time : 5.09
Syntactical distance : 0.037037037
Error Rate Precondition : 0.0
Error Rate Postcondition : 0.0
FSCORE : 0.7261147
Iteration 3
Size I+ 3
Size I- 323
Time : 13.715
Syntactical distance : 0.009259259
Error Rate Precondition : 0.0
Error Rate Postcondition : 0.0
FSCORE : 1.0
Iteration 4
Size I+ 4
Size I- 446
Time : 27.851
Syntactical distance : 0.009259259
Error Rate Precondition : 0.0
Error Rate Postcondition : 0.0
FSCORE : 1.0
Iteration 5
Size I+ 5
Size I- 551
Time : 43.941
Syntactical distance : 0.009259259
Error Rate Precondition : 0.0
Error Rate Postcondition : 0.0
FSCORE : 1.0
Iteration 6
Size I+ 6
Size I- 665
Time : 54.367
Syntactical distance : 0.009259259
Error Rate Precondition : 0.0
Error Rate Postcondition : 0.0
FSCORE : 1.0
Iteration 7
Size I+ 7
Size I- 773
Time : 65.665
Syntactical distance : 0.037037037
Error Rate Precondition : 0.029729826
Error Rate Postcondition : 0.03400274
FSCORE : 0.3058104
Iteration 8
Size I+ 8
Size I- 895
Time : 79.258
Syntactical distance : 0.009259259
Error Rate Precondition : 0.0
Error Rate Postcondition : 0.0
FSCORE : 1.0
Iteration 9
Size I+ 9
Size I- 998
Time : 91.805
Syntactical distance : 0.009259259
Error Rate Precondition : 0.0
Error Rate Postcondition : 0.0
FSCORE : 1.0
Iteration 10
Size I+ 10
Size I- 1085
Time : 104.26
Syntactical distance : 0.009259259
Error Rate Precondition : 0.0
Error Rate Postcondition : 0.0
FSCORE : 1.0
Iteration 11
Size I+ 11
Size I- 1195
Time : 118.534
Syntactical distance : 0.009259259
Error Rate Precondition : 0.0
Error Rate Postcondition : 0.0
FSCORE : 1.0
Iteration 12
Size I+ 12
Size I- 1221
Time : 129.825
Syntactical distance : 0.009259259
Error Rate Precondition : 0.0
Error Rate Postcondition : 0.0
FSCORE : 1.0
Iteration 13
Size I+ 13
Size I- 1250
Time : 141.101
Syntactical distance : 0.009259259
Error Rate Precondition : 0.0
Error Rate Postcondition : 0.0
FSCORE : 1.0
Iteration 14
Size I+ 14
Size I- 1336
Time : 155.987
Syntactical distance : 0.009259259
Error Rate Precondition : 0.0
Error Rate Postcondition : 0.0
FSCORE : 1.0
Iteration 15
Size I+ 15
Size I- 1389
Time : 171.182
Syntactical distance : 0.009259259
Error Rate Precondition : 0.0
Error Rate Postcondition : 0.0
FSCORE : 1.0
Iteration 16
Size I+ 16
Size I- 1412
Time : 183.365
Syntactical distance : 0.009259259
Error Rate Precondition : 0.0
Error Rate Postcondition : 0.0
FSCORE : 1.0
Iteration 17
Size I+ 17
Size I- 1510
Time : 199.582
Syntactical distance : 0.009259259
Error Rate Precondition : 0.0
Error Rate Postcondition : 0.0
FSCORE : 1.0
Iteration 18
Size I+ 18
Size I- 1579
Time : 216.959
Syntactical distance : 0.009259259
Error Rate Precondition : 0.0
Error Rate Postcondition : 0.0
FSCORE : 1.0
Iteration 19
Size I+ 19
Size I- 1638
Time : 232.844
Syntactical distance : 0.009259259
Error Rate Precondition : 0.0
Error Rate Postcondition : 0.0
FSCORE : 1.0
Iteration 20
Size I+ 20
Size I- 1728
Time : 245.611
Syntactical distance : 0.009259259
Error Rate Precondition : 0.0
Error Rate Postcondition : 0.0
FSCORE : 1.0
Iteration 21
Size I+ 21
Size I- 1765
Time : 258.552
Syntactical distance : 0.009259259
Error Rate Precondition : 0.0
Error Rate Postcondition : 0.0
FSCORE : 1.0
Iteration 22
Size I+ 22
Size I- 1880
Time : 275.494
Syntactical distance : 0.009259259
Error Rate Precondition : 0.0
Error Rate Postcondition : 0.0
FSCORE : 1.0
Iteration 23
Size I+ 23
Size I- 1981
Time : 290.922
Syntactical distance : 0.009259259
Error Rate Precondition : 0.0
Error Rate Postcondition : 0.0
FSCORE : 1.0
Iteration 24
Size I+ 24
Size I- 2050
Time : 304.621
Syntactical distance : 0.009259259
Error Rate Precondition : 0.0
Error Rate Postcondition : 0.0
FSCORE : 1.0
Iteration 25
Size I+ 25
Size I- 2173
Time : 325.044
Syntactical distance : 0.009259259
Error Rate Precondition : 0.0
Error Rate Postcondition : 0.0
FSCORE : 1.0
Iteration 26
Size I+ 26
Size I- 2226
Time : 339.095
Syntactical distance : 0.009259259
Error Rate Precondition : 0.0
Error Rate Postcondition : 0.0
FSCORE : 1.0
Iteration 27
Size I+ 27
Size I- 2337
Time : 353.355
Syntactical distance : 0.009259259
Error Rate Precondition : 0.0
Error Rate Postcondition : 0.0
FSCORE : 1.0
Iteration 28
Size I+ 28
Size I- 2407
Time : 375.242
Syntactical distance : 0.009259259
Error Rate Precondition : 0.0
Error Rate Postcondition : 0.0
FSCORE : 1.0
Iteration 29
Size I+ 29
Size I- 2474
Time : 389.925
Syntactical distance : 0.009259259
Error Rate Precondition : 0.0
Error Rate Postcondition : 0.0
FSCORE : 1.0
Iteration 30
Size I+ 30
Size I- 2521
Time : 413.287
Syntactical distance : 0.009259259
Error Rate Precondition : 0.0
Error Rate Postcondition : 0.0
FSCORE : 1.0
E+ size : 100
E- size : 37215
e+ mean size : 55.09
e- mean size : 35.114094
############################################
### Fluent = 25.0% ###

*** Noise = 0.0% ***
Iteration 1
Time : 3.449
Syntactical distance : 0.21666667
Error Rate Precondition : 0.08104643
Error Rate Postcondition : 0.0
FSCORE : 0.01321004
Iteration 2
Size I+ 2
Size I- 173
Time : 8.246
Syntactical distance : 0.12037038
Error Rate Precondition : 0.06976997
Error Rate Postcondition : 0.043397106
FSCORE : 0.5714286
Iteration 3
Size I+ 3
Size I- 216
Time : 21.328
Syntactical distance : 0.009259259
Error Rate Precondition : 0.0
Error Rate Postcondition : 0.0
FSCORE : 1.0
Iteration 4
Size I+ 4
Size I- 267
Time : 36.038
Syntactical distance : 0.009259259
Error Rate Precondition : 0.0
Error Rate Postcondition : 0.0
FSCORE : 1.0
Iteration 5
Size I+ 5
Size I- 386
Time : 51.561
Syntactical distance : 0.009259259
Error Rate Precondition : 0.0
Error Rate Postcondition : 0.0
FSCORE : 1.0
Iteration 6
Size I+ 6
Size I- 446
Time : 64.938
Syntactical distance : 0.009259259
Error Rate Precondition : 0.0
Error Rate Postcondition : 0.0
FSCORE : 1.0
Iteration 7
Size I+ 7
Size I- 545
Time : 79.869
Syntactical distance : 0.009259259
Error Rate Precondition : 0.0
Error Rate Postcondition : 0.0
FSCORE : 1.0
Iteration 8
Size I+ 8
Size I- 651
Time : 95.061
Syntactical distance : 0.009259259
Error Rate Precondition : 0.0
Error Rate Postcondition : 0.0
FSCORE : 1.0
Iteration 9
Size I+ 9
Size I- 680
Time : 110.697
Syntactical distance : 0.009259259
Error Rate Precondition : 0.0
Error Rate Postcondition : 0.0
FSCORE : 1.0
Iteration 10
Size I+ 10
Size I- 735
Time : 126.414
Syntactical distance : 0.009259259
Error Rate Precondition : 0.0
Error Rate Postcondition : 0.0
FSCORE : 1.0
Iteration 11
Size I+ 11
Size I- 792
Time : 143.428
Syntactical distance : 0.009259259
Error Rate Precondition : 0.0
Error Rate Postcondition : 0.0
FSCORE : 1.0
Iteration 12
Size I+ 12
Size I- 878
Time : 160.86
Syntactical distance : 0.009259259
Error Rate Precondition : 0.0
Error Rate Postcondition : 0.0
FSCORE : 1.0
Iteration 13
Size I+ 13
Size I- 944
Time : 174.251
Syntactical distance : 0.009259259
Error Rate Precondition : 0.0
Error Rate Postcondition : 0.0
FSCORE : 1.0
Iteration 14
Size I+ 14
Size I- 1021
Time : 186.846
Syntactical distance : 0.009259259
Error Rate Precondition : 0.0
Error Rate Postcondition : 0.0
FSCORE : 1.0
Iteration 15
Size I+ 15
Size I- 1128
Time : 202.13
Syntactical distance : 0.009259259
Error Rate Precondition : 0.0
Error Rate Postcondition : 0.0
FSCORE : 1.0
Iteration 16
Size I+ 16
Size I- 1211
Time : 215.284
Syntactical distance : 0.009259259
Error Rate Precondition : 0.0
Error Rate Postcondition : 0.0
FSCORE : 1.0
Iteration 17
Size I+ 17
Size I- 1310
Time : 230.361
Syntactical distance : 0.009259259
Error Rate Precondition : 0.0
Error Rate Postcondition : 0.0
FSCORE : 1.0
Iteration 18
Size I+ 18
Size I- 1369
Time : 244.527
Syntactical distance : 0.009259259
Error Rate Precondition : 0.0
Error Rate Postcondition : 0.0
FSCORE : 1.0
Iteration 19
Size I+ 19
Size I- 1485
Time : 258.321
Syntactical distance : 0.009259259
Error Rate Precondition : 0.0
Error Rate Postcondition : 0.0
FSCORE : 1.0
Iteration 20
Size I+ 20
Size I- 1582
Time : 272.276
Syntactical distance : 0.009259259
Error Rate Precondition : 0.0
Error Rate Postcondition : 0.0
FSCORE : 1.0
Iteration 21
Size I+ 21
Size I- 1613
Time : 286.422
Syntactical distance : 0.009259259
Error Rate Precondition : 0.0
Error Rate Postcondition : 0.0
FSCORE : 1.0
Iteration 22
Size I+ 22
Size I- 1671
Time : 300.773
Syntactical distance : 0.009259259
Error Rate Precondition : 0.0
Error Rate Postcondition : 0.0
FSCORE : 1.0
Iteration 23
Size I+ 23
Size I- 1749
Time : 315.426
Syntactical distance : 0.009259259
Error Rate Precondition : 0.0
Error Rate Postcondition : 0.0
FSCORE : 1.0
Iteration 24
Size I+ 24
Size I- 1849
Time : 330.236
Syntactical distance : 0.009259259
Error Rate Precondition : 0.0
Error Rate Postcondition : 0.0
FSCORE : 1.0
Iteration 25
Size I+ 25
Size I- 1933
Time : 346.338
Syntactical distance : 0.009259259
Error Rate Precondition : 0.0
Error Rate Postcondition : 0.0
FSCORE : 1.0
Iteration 26
Size I+ 26
Size I- 2001
Time : 365.271
Syntactical distance : 0.009259259
Error Rate Precondition : 0.0
Error Rate Postcondition : 0.0
FSCORE : 1.0
Iteration 27
Size I+ 27
Size I- 2110
Time : 385.058
Syntactical distance : 0.009259259
Error Rate Precondition : 0.0
Error Rate Postcondition : 0.0
FSCORE : 1.0
Iteration 28
Size I+ 28
Size I- 2190
Time : 400.886
Syntactical distance : 0.009259259
Error Rate Precondition : 0.0
Error Rate Postcondition : 0.0
FSCORE : 1.0
Iteration 29
Size I+ 29
Size I- 2275
Time : 419.45
Syntactical distance : 0.009259259
Error Rate Precondition : 0.0
Error Rate Postcondition : 0.0
FSCORE : 1.0
Iteration 30
Size I+ 30
Size I- 2361
Time : 435.805
Syntactical distance : 0.009259259
Error Rate Precondition : 0.0
Error Rate Postcondition : 0.0
FSCORE : 1.0

*** Noise = 20.0% ***
Iteration 1
Time : 1.317
Syntactical distance : 0.38888893
Error Rate Precondition : 0.3062116
Error Rate Postcondition : 0.61748105
FSCORE : 0.0
Iteration 2
Size I+ 2
Size I- 173
Time : 3.983
Syntactical distance : 0.25555557
Error Rate Precondition : 0.18981932
Error Rate Postcondition : 0.16938925
FSCORE : 0.0
Iteration 3
Size I+ 3
Size I- 216
Time : 7.887
Syntactical distance : 0.15185186
Error Rate Precondition : 0.10067114
Error Rate Postcondition : 0.12043226
FSCORE : 0.044444446
Iteration 4
Size I+ 4
Size I- 267
Time : 14.452
Syntactical distance : 0.17037039
Error Rate Precondition : 0.15563306
Error Rate Postcondition : 0.051022444
FSCORE : 0.20564516
Iteration 5
Size I+ 5
Size I- 386
Time : 26.629
Syntactical distance : 0.19814815
Error Rate Precondition : 0.18229815
Error Rate Postcondition : 0.13654928
FSCORE : 0.6754967
Iteration 6
Size I+ 6
Size I- 446
Time : 39.0
Syntactical distance : 0.11481482
Error Rate Precondition : 0.090413466
Error Rate Postcondition : 0.04258596
FSCORE : 1.0
Iteration 7
Size I+ 7
Size I- 545
Time : 53.213
Syntactical distance : 0.009259259
Error Rate Precondition : 0.0
Error Rate Postcondition : 0.0
FSCORE : 1.0
Iteration 8
Size I+ 8
Size I- 651
Time : 71.555
Syntactical distance : 0.083333336
Error Rate Precondition : 0.065219596
Error Rate Postcondition : 0.038571753
FSCORE : 0.71794873
Iteration 9
Size I+ 9
Size I- 680
Time : 85.581
Syntactical distance : 0.0462963
Error Rate Precondition : 0.031517968
Error Rate Postcondition : 0.035884663
FSCORE : 1.0
Iteration 10
Size I+ 10
Size I- 735
Time : 100.956
Syntactical distance : 0.0462963
Error Rate Precondition : 0.031517968
Error Rate Postcondition : 0.035884663
FSCORE : 1.0
Iteration 11
Size I+ 11
Size I- 792
Time : 117.73
Syntactical distance : 0.0462963
Error Rate Precondition : 0.031517968
Error Rate Postcondition : 0.035884663
FSCORE : 1.0
Iteration 12
Size I+ 12
Size I- 878
Time : 138.357
Syntactical distance : 0.083333336
Error Rate Precondition : 0.065219596
Error Rate Postcondition : 0.038571753
FSCORE : 0.71794873
Iteration 13
Size I+ 13
Size I- 944
Time : 154.263
Syntactical distance : 0.0462963
Error Rate Precondition : 0.031517968
Error Rate Postcondition : 0.035884663
FSCORE : 1.0
Iteration 14
Size I+ 14
Size I- 1021
Time : 174.219
Syntactical distance : 0.0462963
Error Rate Precondition : 0.031517968
Error Rate Postcondition : 0.035884663
FSCORE : 1.0
Iteration 15
Size I+ 15
Size I- 1128
Time : 198.093
Syntactical distance : 0.0462963
Error Rate Precondition : 0.032543678
Error Rate Postcondition : 0.035884663
FSCORE : 0.7194244
Iteration 16
Size I+ 16
Size I- 1211
Time : 219.438
Syntactical distance : 0.0462963
Error Rate Precondition : 0.031517968
Error Rate Postcondition : 0.035884663
FSCORE : 1.0
Iteration 17
Size I+ 17
Size I- 1310
Time : 243.503
Syntactical distance : 0.0462963
Error Rate Precondition : 0.032543678
Error Rate Postcondition : 0.035884663
FSCORE : 0.7194244
Iteration 18
Size I+ 18
Size I- 1369
Time : 266.361
Syntactical distance : 0.0462963
Error Rate Precondition : 0.031517968
Error Rate Postcondition : 0.035884663
FSCORE : 1.0
Iteration 19
Size I+ 19
Size I- 1485
Time : 289.597
Syntactical distance : 0.0462963
Error Rate Precondition : 0.031517968
Error Rate Postcondition : 0.035884663
FSCORE : 1.0
Iteration 20
Size I+ 20
Size I- 1582
Time : 312.62
Syntactical distance : 0.0462963
Error Rate Precondition : 0.031517968
Error Rate Postcondition : 0.035884663
FSCORE : 1.0
Iteration 21
Size I+ 21
Size I- 1613
Time : 336.027
Syntactical distance : 0.0462963
Error Rate Precondition : 0.031517968
Error Rate Postcondition : 0.035884663
FSCORE : 1.0
Iteration 22
Size I+ 22
Size I- 1671
Time : 360.201
Syntactical distance : 0.0462963
Error Rate Precondition : 0.031517968
Error Rate Postcondition : 0.035884663
FSCORE : 1.0
Iteration 23
Size I+ 23
Size I- 1749
Time : 384.194
Syntactical distance : 0.0462963
Error Rate Precondition : 0.031517968
Error Rate Postcondition : 0.035884663
FSCORE : 1.0
Iteration 24
Size I+ 24
Size I- 1849
Time : 409.071
Syntactical distance : 0.009259259
Error Rate Precondition : 0.0
Error Rate Postcondition : 0.0
FSCORE : 1.0
Iteration 25
Size I+ 25
Size I- 1933
Time : 433.411
Syntactical distance : 0.009259259
Error Rate Precondition : 0.0
Error Rate Postcondition : 0.0
FSCORE : 1.0
Iteration 26
Size I+ 26
Size I- 2001
Time : 461.615
Syntactical distance : 0.009259259
Error Rate Precondition : 0.0
Error Rate Postcondition : 0.0
FSCORE : 1.0
Iteration 27
Size I+ 27
Size I- 2110
Time : 492.193
Syntactical distance : 0.009259259
Error Rate Precondition : 0.0
Error Rate Postcondition : 0.0
FSCORE : 1.0
Iteration 28
Size I+ 28
Size I- 2190
Time : 522.066
Syntactical distance : 0.009259259
Error Rate Precondition : 0.0
Error Rate Postcondition : 0.0
FSCORE : 1.0
Iteration 29
Size I+ 29
Size I- 2275
Time : 555.741
Syntactical distance : 0.009259259
Error Rate Precondition : 0.0
Error Rate Postcondition : 0.0
FSCORE : 1.0
Iteration 30
Size I+ 30
Size I- 2361
Time : 576.111
Syntactical distance : 0.027777778
Error Rate Precondition : 0.032458674
Error Rate Postcondition : 0.0
FSCORE : 0.058252428
############################################
### Fluent = 100.0% ###

*** Noise = 0.0% ***
Iteration 1
Time : 0.507
Syntactical distance : 0.009259259
Error Rate Precondition : 0.0
Error Rate Postcondition : 0.0
FSCORE : 1.0
Iteration 2
Size I+ 2
Size I- 137
Time : 11.012
Syntactical distance : 0.009259259
Error Rate Precondition : 0.0
Error Rate Postcondition : 0.0
FSCORE : 1.0
Iteration 3
Size I+ 3
Size I- 192
Time : 21.696
Syntactical distance : 0.009259259
Error Rate Precondition : 0.0
Error Rate Postcondition : 0.0
FSCORE : 1.0
Iteration 4
Size I+ 4
Size I- 270
Time : 32.586
Syntactical distance : 0.009259259
Error Rate Precondition : 0.0
Error Rate Postcondition : 0.0
FSCORE : 1.0
Iteration 5
Size I+ 5
Size I- 384
Time : 43.975
Syntactical distance : 0.009259259
Error Rate Precondition : 0.0
Error Rate Postcondition : 0.0
FSCORE : 1.0
Iteration 6
Size I+ 6
Size I- 476
Time : 55.709
Syntactical distance : 0.009259259
Error Rate Precondition : 0.0
Error Rate Postcondition : 0.0
FSCORE : 1.0
Iteration 7
Size I+ 7
Size I- 600
Time : 68.07
Syntactical distance : 0.009259259
Error Rate Precondition : 0.0
Error Rate Postcondition : 0.0
FSCORE : 1.0
Iteration 8
Size I+ 8
Size I- 623
Time : 80.734
Syntactical distance : 0.009259259
Error Rate Precondition : 0.0
Error Rate Postcondition : 0.0
FSCORE : 1.0
Iteration 9
Size I+ 9
Size I- 684
Time : 93.99
Syntactical distance : 0.009259259
Error Rate Precondition : 0.0
Error Rate Postcondition : 0.0
FSCORE : 1.0
Iteration 10
Size I+ 10
Size I- 784
Time : 107.597
Syntactical distance : 0.009259259
Error Rate Precondition : 0.0
Error Rate Postcondition : 0.0
FSCORE : 1.0
Iteration 11
Size I+ 11
Size I- 884
Time : 121.475
Syntactical distance : 0.009259259
Error Rate Precondition : 0.0
Error Rate Postcondition : 0.0
FSCORE : 1.0
Iteration 12
Size I+ 12
Size I- 984
Time : 135.17
Syntactical distance : 0.009259259
Error Rate Precondition : 0.0
Error Rate Postcondition : 0.0
FSCORE : 1.0
Iteration 13
Size I+ 13
Size I- 1095
Time : 149.701
Syntactical distance : 0.009259259
Error Rate Precondition : 0.0
Error Rate Postcondition : 0.0
FSCORE : 1.0
Iteration 14
Size I+ 14
Size I- 1227
Time : 164.649
Syntactical distance : 0.009259259
Error Rate Precondition : 0.0
Error Rate Postcondition : 0.0
FSCORE : 1.0
Iteration 15
Size I+ 15
Size I- 1276
Time : 182.303
Syntactical distance : 0.009259259
Error Rate Precondition : 0.0
Error Rate Postcondition : 0.0
FSCORE : 1.0
Iteration 16
Size I+ 16
Size I- 1333
Time : 195.74
Syntactical distance : 0.009259259
Error Rate Precondition : 0.0
Error Rate Postcondition : 0.0
FSCORE : 1.0
Iteration 17
Size I+ 17
Size I- 1357
Time : 209.229
Syntactical distance : 0.009259259
Error Rate Precondition : 0.0
Error Rate Postcondition : 0.0
FSCORE : 1.0
Iteration 18
Size I+ 18
Size I- 1401
Time : 222.893
Syntactical distance : 0.009259259
Error Rate Precondition : 0.0
Error Rate Postcondition : 0.0
FSCORE : 1.0
Iteration 19
Size I+ 19
Size I- 1504
Time : 242.339
Syntactical distance : 0.009259259
Error Rate Precondition : 0.0
Error Rate Postcondition : 0.0
FSCORE : 1.0
Iteration 20
Size I+ 20
Size I- 1595
Time : 263.257
Syntactical distance : 0.009259259
Error Rate Precondition : 0.0
Error Rate Postcondition : 0.0
FSCORE : 1.0
Iteration 21
Size I+ 21
Size I- 1716
Time : 287.12
Syntactical distance : 0.009259259
Error Rate Precondition : 0.0
Error Rate Postcondition : 0.0
FSCORE : 1.0
Iteration 22
Size I+ 22
Size I- 1753
Time : 311.189
Syntactical distance : 0.009259259
Error Rate Precondition : 0.0
Error Rate Postcondition : 0.0
FSCORE : 1.0
Iteration 23
Size I+ 23
Size I- 1816
Time : 326.233
Syntactical distance : 0.009259259
Error Rate Precondition : 0.0
Error Rate Postcondition : 0.0
FSCORE : 1.0
Iteration 24
Size I+ 24
Size I- 1907
Time : 353.243
Syntactical distance : 0.009259259
Error Rate Precondition : 0.0
Error Rate Postcondition : 0.0
FSCORE : 1.0
Iteration 25
Size I+ 25
Size I- 1978
Time : 368.686
Syntactical distance : 0.009259259
Error Rate Precondition : 0.0
Error Rate Postcondition : 0.0
FSCORE : 1.0
Iteration 26
Size I+ 26
Size I- 2075
Time : 384.334
Syntactical distance : 0.009259259
Error Rate Precondition : 0.0
Error Rate Postcondition : 0.0
FSCORE : 1.0
Iteration 27
Size I+ 27
Size I- 2126
Time : 410.065
Syntactical distance : 0.009259259
Error Rate Precondition : 0.0
Error Rate Postcondition : 0.0
FSCORE : 1.0
Iteration 28
Size I+ 28
Size I- 2198
Time : 435.751
Syntactical distance : 0.009259259
Error Rate Precondition : 0.0
Error Rate Postcondition : 0.0
FSCORE : 1.0
Iteration 29
Size I+ 29
Size I- 2263
Time : 451.891
Syntactical distance : 0.009259259
Error Rate Precondition : 0.0
Error Rate Postcondition : 0.0
FSCORE : 1.0
Iteration 30
Size I+ 30
Size I- 2314
Time : 487.451
Syntactical distance : 0.009259259
Error Rate Precondition : 0.0
Error Rate Postcondition : 0.0
FSCORE : 1.0

*** Noise = 20.0% ***
Iteration 1
Time : 2.731
Syntactical distance : 0.009259259
Error Rate Precondition : 0.0
Error Rate Postcondition : 0.0
FSCORE : 1.0
Iteration 2
Size I+ 2
Size I- 137
Time : 13.753
Syntactical distance : 0.009259259
Error Rate Precondition : 0.0
Error Rate Postcondition : 0.0
FSCORE : 1.0
Iteration 3
Size I+ 3
Size I- 192
Time : 25.987
Syntactical distance : 0.009259259
Error Rate Precondition : 0.0
Error Rate Postcondition : 0.0
FSCORE : 1.0
Iteration 4
Size I+ 4
Size I- 270
Time : 38.581
Syntactical distance : 0.009259259
Error Rate Precondition : 0.0
Error Rate Postcondition : 0.0
FSCORE : 1.0
Iteration 5
Size I+ 5
Size I- 384
Time : 49.935
Syntactical distance : 0.009259259
Error Rate Precondition : 0.0
Error Rate Postcondition : 0.0
FSCORE : 1.0
Iteration 6
Size I+ 6
Size I- 476
Time : 61.628
Syntactical distance : 0.009259259
Error Rate Precondition : 0.0
Error Rate Postcondition : 0.0
FSCORE : 1.0
Iteration 7
Size I+ 7
Size I- 600
Time : 75.602
Syntactical distance : 0.009259259
Error Rate Precondition : 0.0
Error Rate Postcondition : 0.0
FSCORE : 1.0
Iteration 8
Size I+ 8
Size I- 623
Time : 90.387
Syntactical distance : 0.009259259
Error Rate Precondition : 0.0
Error Rate Postcondition : 0.0
FSCORE : 1.0
Iteration 9
Size I+ 9
Size I- 684
Time : 105.867
Syntactical distance : 0.009259259
Error Rate Precondition : 0.0
Error Rate Postcondition : 0.0
FSCORE : 1.0
Iteration 10
Size I+ 10
Size I- 784
Time : 122.2
Syntactical distance : 0.009259259
Error Rate Precondition : 0.0
Error Rate Postcondition : 0.0
FSCORE : 1.0
Iteration 11
Size I+ 11
Size I- 884
Time : 138.816
Syntactical distance : 0.009259259
Error Rate Precondition : 0.0
Error Rate Postcondition : 0.0
FSCORE : 1.0
Iteration 12
Size I+ 12
Size I- 984
Time : 155.49
Syntactical distance : 0.009259259
Error Rate Precondition : 0.0
Error Rate Postcondition : 0.0
FSCORE : 1.0
Iteration 13
Size I+ 13
Size I- 1095
Time : 170.009
Syntactical distance : 0.009259259
Error Rate Precondition : 0.0
Error Rate Postcondition : 0.0
FSCORE : 1.0
Iteration 14
Size I+ 14
Size I- 1227
Time : 185.209
Syntactical distance : 0.009259259
Error Rate Precondition : 0.0
Error Rate Postcondition : 0.0
FSCORE : 1.0
Iteration 15
Size I+ 15
Size I- 1276
Time : 202.921
Syntactical distance : 0.009259259
Error Rate Precondition : 0.0
Error Rate Postcondition : 0.0
FSCORE : 1.0
Iteration 16
Size I+ 16
Size I- 1333
Time : 216.298
Syntactical distance : 0.009259259
Error Rate Precondition : 0.0
Error Rate Postcondition : 0.0
FSCORE : 1.0
Iteration 17
Size I+ 17
Size I- 1357
Time : 229.872
Syntactical distance : 0.009259259
Error Rate Precondition : 0.0
Error Rate Postcondition : 0.0
FSCORE : 1.0
Iteration 18
Size I+ 18
Size I- 1401
Time : 255.823
Syntactical distance : 0.009259259
Error Rate Precondition : 0.0
Error Rate Postcondition : 0.0
FSCORE : 1.0
Iteration 19
Size I+ 19
Size I- 1504
Time : 287.937
Syntactical distance : 0.009259259
Error Rate Precondition : 0.0
Error Rate Postcondition : 0.0
FSCORE : 1.0
Iteration 20
Size I+ 20
Size I- 1595
Time : 322.081
Syntactical distance : 0.009259259
Error Rate Precondition : 0.0
Error Rate Postcondition : 0.0
FSCORE : 1.0
Iteration 21
Size I+ 21
Size I- 1716
Time : 345.713
Syntactical distance : 0.009259259
Error Rate Precondition : 0.0
Error Rate Postcondition : 0.0
FSCORE : 1.0
Iteration 22
Size I+ 22
Size I- 1753
Time : 369.881
Syntactical distance : 0.009259259
Error Rate Precondition : 0.0
Error Rate Postcondition : 0.0
FSCORE : 1.0
Iteration 23
Size I+ 23
Size I- 1816
Time : 384.847
Syntactical distance : 0.009259259
Error Rate Precondition : 0.0
Error Rate Postcondition : 0.0
FSCORE : 1.0
Iteration 24
Size I+ 24
Size I- 1907
Time : 411.676
Syntactical distance : 0.009259259
Error Rate Precondition : 0.0
Error Rate Postcondition : 0.0
FSCORE : 1.0
Iteration 25
Size I+ 25
Size I- 1978
Time : 427.15
Syntactical distance : 0.009259259
Error Rate Precondition : 0.0
Error Rate Postcondition : 0.0
FSCORE : 1.0
Iteration 26
Size I+ 26
Size I- 2075
Time : 442.806
Syntactical distance : 0.009259259
Error Rate Precondition : 0.0
Error Rate Postcondition : 0.0
FSCORE : 1.0
Iteration 27
Size I+ 27
Size I- 2126
Time : 468.724
Syntactical distance : 0.009259259
Error Rate Precondition : 0.0
Error Rate Postcondition : 0.0
FSCORE : 1.0
Iteration 28
Size I+ 28
Size I- 2198
Time : 507.674
Syntactical distance : 0.009259259
Error Rate Precondition : 0.0
Error Rate Postcondition : 0.0
FSCORE : 1.0
Iteration 29
Size I+ 29
Size I- 2263
Time : 539.005
Syntactical distance : 0.009259259
Error Rate Precondition : 0.0
Error Rate Postcondition : 0.0
FSCORE : 1.0
Iteration 30
Size I+ 30
Size I- 2314
Time : 574.431
Syntactical distance : 0.009259259
Error Rate Precondition : 0.0
Error Rate Postcondition : 0.0
FSCORE : 1.0
E+ size : 100
E- size : 34186
e+ mean size : 50.21
e- mean size : 33.80232
############################################
### Fluent = 25.0% ###

*** Noise = 0.0% ***
Iteration 1
Time : 2.858
Syntactical distance : 0.10555556
Error Rate Precondition : 0.064107284
Error Rate Postcondition : 0.0
FSCORE : 0.31595576
Iteration 2
Size I+ 2
Size I- 147
Time : 12.031
Syntactical distance : 0.037037037
Error Rate Precondition : 0.030194204
Error Rate Postcondition : 0.0
FSCORE : 0.70967746
Iteration 3
Size I+ 3
Size I- 281
Time : 21.188
Syntactical distance : 0.009259259
Error Rate Precondition : 0.0
Error Rate Postcondition : 0.0
FSCORE : 1.0
Iteration 4
Size I+ 4
Size I- 407
Time : 31.497
Syntactical distance : 0.009259259
Error Rate Precondition : 0.0
Error Rate Postcondition : 0.0
FSCORE : 1.0
Iteration 5
Size I+ 5
Size I- 456
Time : 41.885
Syntactical distance : 0.009259259
Error Rate Precondition : 0.0
Error Rate Postcondition : 0.0
FSCORE : 1.0
Iteration 6
Size I+ 6
Size I- 598
Time : 52.397
Syntactical distance : 0.009259259
Error Rate Precondition : 0.0
Error Rate Postcondition : 0.0
FSCORE : 1.0
Iteration 7
Size I+ 7
Size I- 668
Time : 63.558
Syntactical distance : 0.009259259
Error Rate Precondition : 0.0
Error Rate Postcondition : 0.0
FSCORE : 1.0
Iteration 8
Size I+ 8
Size I- 770
Time : 75.071
Syntactical distance : 0.009259259
Error Rate Precondition : 0.0
Error Rate Postcondition : 0.0
FSCORE : 1.0
Iteration 9
Size I+ 9
Size I- 839
Time : 86.457
Syntactical distance : 0.009259259
Error Rate Precondition : 0.0
Error Rate Postcondition : 0.0
FSCORE : 1.0
Iteration 10
Size I+ 10
Size I- 901
Time : 98.669
Syntactical distance : 0.009259259
Error Rate Precondition : 0.0
Error Rate Postcondition : 0.0
FSCORE : 1.0
Iteration 11
Size I+ 11
Size I- 1009
Time : 110.738
Syntactical distance : 0.009259259
Error Rate Precondition : 0.0
Error Rate Postcondition : 0.0
FSCORE : 1.0
Iteration 12
Size I+ 12
Size I- 1084
Time : 122.774
Syntactical distance : 0.009259259
Error Rate Precondition : 0.0
Error Rate Postcondition : 0.0
FSCORE : 1.0
Iteration 13
Size I+ 13
Size I- 1161
Time : 134.391
Syntactical distance : 0.009259259
Error Rate Precondition : 0.0
Error Rate Postcondition : 0.0
FSCORE : 1.0
Iteration 14
Size I+ 14
Size I- 1226
Time : 146.725
Syntactical distance : 0.009259259
Error Rate Precondition : 0.0
Error Rate Postcondition : 0.0
FSCORE : 1.0
Iteration 15
Size I+ 15
Size I- 1315
Time : 159.391
Syntactical distance : 0.009259259
Error Rate Precondition : 0.0
Error Rate Postcondition : 0.0
FSCORE : 1.0
Iteration 16
Size I+ 16
Size I- 1377
Time : 171.664
Syntactical distance : 0.009259259
Error Rate Precondition : 0.0
Error Rate Postcondition : 0.0
FSCORE : 1.0
Iteration 17
Size I+ 17
Size I- 1484
Time : 186.512
Syntactical distance : 0.009259259
Error Rate Precondition : 0.0
Error Rate Postcondition : 0.0
FSCORE : 1.0
Iteration 18
Size I+ 18
Size I- 1585
Time : 199.259
Syntactical distance : 0.009259259
Error Rate Precondition : 0.0
Error Rate Postcondition : 0.0
FSCORE : 1.0
Iteration 19
Size I+ 19
Size I- 1698
Time : 212.214
Syntactical distance : 0.009259259
Error Rate Precondition : 0.0
Error Rate Postcondition : 0.0
FSCORE : 1.0
Iteration 20
Size I+ 20
Size I- 1807
Time : 226.755
Syntactical distance : 0.009259259
Error Rate Precondition : 0.0
Error Rate Postcondition : 0.0
FSCORE : 1.0
Iteration 21
Size I+ 21
Size I- 1920
Time : 244.795
Syntactical distance : 0.009259259
Error Rate Precondition : 0.0
Error Rate Postcondition : 0.0
FSCORE : 1.0
Iteration 22
Size I+ 22
Size I- 1982
Time : 260.823
Syntactical distance : 0.009259259
Error Rate Precondition : 0.0
Error Rate Postcondition : 0.0
FSCORE : 1.0
Iteration 23
Size I+ 23
Size I- 2080
Time : 275.095
Syntactical distance : 0.009259259
Error Rate Precondition : 0.0
Error Rate Postcondition : 0.0
FSCORE : 1.0
Iteration 24
Size I+ 24
Size I- 2137
Time : 291.68
Syntactical distance : 0.009259259
Error Rate Precondition : 0.0
Error Rate Postcondition : 0.0
FSCORE : 1.0
Iteration 25
Size I+ 25
Size I- 2189
Time : 306.085
Syntactical distance : 0.009259259
Error Rate Precondition : 0.0
Error Rate Postcondition : 0.0
FSCORE : 1.0
Iteration 26
Size I+ 26
Size I- 2308
Time : 320.784
Syntactical distance : 0.009259259
Error Rate Precondition : 0.0
Error Rate Postcondition : 0.0
FSCORE : 1.0
Iteration 27
Size I+ 27
Size I- 2374
Time : 335.658
Syntactical distance : 0.009259259
Error Rate Precondition : 0.0
Error Rate Postcondition : 0.0
FSCORE : 1.0
Iteration 28
Size I+ 28
Size I- 2477
Time : 353.607
Syntactical distance : 0.009259259
Error Rate Precondition : 0.0
Error Rate Postcondition : 0.0
FSCORE : 1.0
Iteration 29
Size I+ 29
Size I- 2562
Time : 369.019
Syntactical distance : 0.009259259
Error Rate Precondition : 0.0
Error Rate Postcondition : 0.0
FSCORE : 1.0
Iteration 30
Size I+ 30
Size I- 2697
Time : 392.187
Syntactical distance : 0.009259259
Error Rate Precondition : 0.0
Error Rate Postcondition : 0.0
FSCORE : 1.0

*** Noise = 20.0% ***
Iteration 1
Time : 2.503
Syntactical distance : 0.1777778
Error Rate Precondition : 0.11587165
Error Rate Postcondition : 0.047975857
FSCORE : 0.18885742
Iteration 2
Size I+ 2
Size I- 147
Time : 13.211
Syntactical distance : 0.20370372
Error Rate Precondition : 0.14660783
Error Rate Postcondition : 0.14615467
FSCORE : 0.07236842
Iteration 3
Size I+ 3
Size I- 281
Time : 21.943
Syntactical distance : 0.16666667
Error Rate Precondition : 0.14126363
Error Rate Postcondition : 0.05187644
FSCORE : 0.11668612
Iteration 4
Size I+ 4
Size I- 407
Time : 34.175
Syntactical distance : 0.055555556
Error Rate Precondition : 0.03419546
Error Rate Postcondition : 0.036725752
FSCORE : 1.0
Iteration 5
Size I+ 5
Size I- 456
Time : 47.307
Syntactical distance : 0.055555556
Error Rate Precondition : 0.03113428
Error Rate Postcondition : 0.036725752
FSCORE : 1.0
Iteration 6
Size I+ 6
Size I- 598
Time : 60.697
Syntactical distance : 0.037037037
Error Rate Precondition : 0.030194204
Error Rate Postcondition : 0.034284014
FSCORE : 0.28653297
Iteration 7
Size I+ 7
Size I- 668
Time : 75.238
Syntactical distance : 0.037037037
Error Rate Precondition : 0.030194204
Error Rate Postcondition : 0.034284014
FSCORE : 0.28653297
Iteration 8
Size I+ 8
Size I- 770
Time : 91.174
Syntactical distance : 0.037037037
Error Rate Precondition : 0.030194204
Error Rate Postcondition : 0.034284014
FSCORE : 0.28653297
Iteration 9
Size I+ 9
Size I- 839
Time : 108.082
Syntactical distance : 0.009259259
Error Rate Precondition : 0.0
Error Rate Postcondition : 0.0
FSCORE : 1.0
Iteration 10
Size I+ 10
Size I- 901
Time : 124.967
Syntactical distance : 0.009259259
Error Rate Precondition : 0.0
Error Rate Postcondition : 0.0
FSCORE : 1.0
Iteration 11
Size I+ 11
Size I- 1009
Time : 147.15
Syntactical distance : 0.009259259
Error Rate Precondition : 0.0
Error Rate Postcondition : 0.0
FSCORE : 1.0
Iteration 12
Size I+ 12
Size I- 1084
Time : 165.264
Syntactical distance : 0.009259259
Error Rate Precondition : 0.0
Error Rate Postcondition : 0.0
FSCORE : 1.0
Iteration 13
Size I+ 13
Size I- 1161
Time : 182.346
Syntactical distance : 0.009259259
Error Rate Precondition : 0.0
Error Rate Postcondition : 0.0
FSCORE : 1.0
Iteration 14
Size I+ 14
Size I- 1226
Time : 200.274
Syntactical distance : 0.009259259
Error Rate Precondition : 0.0
Error Rate Postcondition : 0.0
FSCORE : 1.0
Iteration 15
Size I+ 15
Size I- 1315
Time : 218.836
Syntactical distance : 0.009259259
Error Rate Precondition : 0.0
Error Rate Postcondition : 0.0
FSCORE : 1.0
Iteration 16
Size I+ 16
Size I- 1377
Time : 239.502
Syntactical distance : 0.009259259
Error Rate Precondition : 0.0
Error Rate Postcondition : 0.0
FSCORE : 1.0
Iteration 17
Size I+ 17
Size I- 1484
Time : 263.177
Syntactical distance : 0.009259259
Error Rate Precondition : 0.0
Error Rate Postcondition : 0.0
FSCORE : 1.0
Iteration 18
Size I+ 18
Size I- 1585
Time : 285.296
Syntactical distance : 0.009259259
Error Rate Precondition : 0.0
Error Rate Postcondition : 0.0
FSCORE : 1.0
Iteration 19
Size I+ 19
Size I- 1698
Time : 309.471
Syntactical distance : 0.009259259
Error Rate Precondition : 0.0
Error Rate Postcondition : 0.0
FSCORE : 1.0
Iteration 20
Size I+ 20
Size I- 1807
Time : 336.112
Syntactical distance : 0.009259259
Error Rate Precondition : 0.0
Error Rate Postcondition : 0.0
FSCORE : 1.0
Iteration 21
Size I+ 21
Size I- 1920
Time : 363.242
Syntactical distance : 0.009259259
Error Rate Precondition : 0.0
Error Rate Postcondition : 0.0
FSCORE : 1.0
Iteration 22
Size I+ 22
Size I- 1982
Time : 390.079
Syntactical distance : 0.009259259
Error Rate Precondition : 0.0
Error Rate Postcondition : 0.0
FSCORE : 1.0
Iteration 23
Size I+ 23
Size I- 2080
Time : 414.588
Syntactical distance : 0.009259259
Error Rate Precondition : 0.0
Error Rate Postcondition : 0.0
FSCORE : 1.0
Iteration 24
Size I+ 24
Size I- 2137
Time : 440.726
Syntactical distance : 0.0462963
Error Rate Precondition : 0.03113428
Error Rate Postcondition : 0.035501137
FSCORE : 1.0
Iteration 25
Size I+ 25
Size I- 2189
Time : 471.654
Syntactical distance : 0.0462963
Error Rate Precondition : 0.03113428
Error Rate Postcondition : 0.035501137
FSCORE : 1.0
Iteration 26
Size I+ 26
Size I- 2308
Time : 503.83
Syntactical distance : 0.0462963
Error Rate Precondition : 0.03113428
Error Rate Postcondition : 0.035501137
FSCORE : 1.0
Iteration 27
Size I+ 27
Size I- 2374
Time : 536.679
Syntactical distance : 0.0462963
Error Rate Precondition : 0.03113428
Error Rate Postcondition : 0.035501137
FSCORE : 1.0
Iteration 28
Size I+ 28
Size I- 2477
Time : 573.002
Syntactical distance : 0.0462963
Error Rate Precondition : 0.03113428
Error Rate Postcondition : 0.035501137
FSCORE : 1.0
Iteration 29
Size I+ 29
Size I- 2562
Time : 600.808
Syntactical distance : 0.0462963
Error Rate Precondition : 0.03113428
Error Rate Postcondition : 0.035501137
FSCORE : 1.0
Iteration 30
Size I+ 30
Size I- 2697
Time : 637.006
Syntactical distance : 0.0462963
Error Rate Precondition : 0.03113428
Error Rate Postcondition : 0.035501137
FSCORE : 1.0
############################################
### Fluent = 100.0% ###

*** Noise = 0.0% ***
Iteration 1
Time : 0.524
Syntactical distance : 0.009259259
Error Rate Precondition : 0.0
Error Rate Postcondition : 0.0
FSCORE : 1.0
Iteration 2
Size I+ 2
Size I- 139
Time : 9.896
Syntactical distance : 0.009259259
Error Rate Precondition : 0.0
Error Rate Postcondition : 0.0
FSCORE : 1.0
Iteration 3
Size I+ 3
Size I- 230
Time : 19.655
Syntactical distance : 0.009259259
Error Rate Precondition : 0.0
Error Rate Postcondition : 0.0
FSCORE : 1.0
Iteration 4
Size I+ 4
Size I- 305
Time : 29.71
Syntactical distance : 0.009259259
Error Rate Precondition : 0.0
Error Rate Postcondition : 0.0
FSCORE : 1.0
Iteration 5
Size I+ 5
Size I- 383
Time : 39.898
Syntactical distance : 0.009259259
Error Rate Precondition : 0.0
Error Rate Postcondition : 0.0
FSCORE : 1.0
Iteration 6
Size I+ 6
Size I- 498
Time : 50.726
Syntactical distance : 0.009259259
Error Rate Precondition : 0.0
Error Rate Postcondition : 0.0
FSCORE : 1.0
Iteration 7
Size I+ 7
Size I- 606
Time : 62.269
Syntactical distance : 0.009259259
Error Rate Precondition : 0.0
Error Rate Postcondition : 0.0
FSCORE : 1.0
Iteration 8
Size I+ 8
Size I- 672
Time : 74.037
Syntactical distance : 0.009259259
Error Rate Precondition : 0.0
Error Rate Postcondition : 0.0
FSCORE : 1.0
Iteration 9
Size I+ 9
Size I- 817
Time : 87.184
Syntactical distance : 0.009259259
Error Rate Precondition : 0.0
Error Rate Postcondition : 0.0
FSCORE : 1.0
Iteration 10
Size I+ 10
Size I- 856
Time : 101.161
Syntactical distance : 0.009259259
Error Rate Precondition : 0.0
Error Rate Postcondition : 0.0
FSCORE : 1.0
Iteration 11
Size I+ 11
Size I- 900
Time : 113.394
Syntactical distance : 0.009259259
Error Rate Precondition : 0.0
Error Rate Postcondition : 0.0
FSCORE : 1.0
Iteration 12
Size I+ 12
Size I- 958
Time : 125.235
Syntactical distance : 0.009259259
Error Rate Precondition : 0.0
Error Rate Postcondition : 0.0
FSCORE : 1.0
Iteration 13
Size I+ 13
Size I- 1011
Time : 136.847
Syntactical distance : 0.009259259
Error Rate Precondition : 0.0
Error Rate Postcondition : 0.0
FSCORE : 1.0
Iteration 14
Size I+ 14
Size I- 1172
Time : 148.809
Syntactical distance : 0.009259259
Error Rate Precondition : 0.0
Error Rate Postcondition : 0.0
FSCORE : 1.0
Iteration 15
Size I+ 15
Size I- 1306
Time : 162.476
Syntactical distance : 0.009259259
Error Rate Precondition : 0.0
Error Rate Postcondition : 0.0
FSCORE : 1.0
Iteration 16
Size I+ 16
Size I- 1454
Time : 174.892
Syntactical distance : 0.009259259
Error Rate Precondition : 0.0
Error Rate Postcondition : 0.0
FSCORE : 1.0
Iteration 17
Size I+ 17
Size I- 1516
Time : 188.245
Syntactical distance : 0.009259259
Error Rate Precondition : 0.0
Error Rate Postcondition : 0.0
FSCORE : 1.0
Iteration 18
Size I+ 18
Size I- 1619
Time : 201.146
Syntactical distance : 0.009259259
Error Rate Precondition : 0.0
Error Rate Postcondition : 0.0
FSCORE : 1.0
Iteration 19
Size I+ 19
Size I- 1640
Time : 214.247
Syntactical distance : 0.009259259
Error Rate Precondition : 0.0
Error Rate Postcondition : 0.0
FSCORE : 1.0
Iteration 20
Size I+ 20
Size I- 1717
Time : 227.524
Syntactical distance : 0.009259259
Error Rate Precondition : 0.0
Error Rate Postcondition : 0.0
FSCORE : 1.0
Iteration 21
Size I+ 21
Size I- 1819
Time : 241.079
Syntactical distance : 0.009259259
Error Rate Precondition : 0.0
Error Rate Postcondition : 0.0
FSCORE : 1.0
Iteration 22
Size I+ 22
Size I- 1894
Time : 254.826
Syntactical distance : 0.009259259
Error Rate Precondition : 0.0
Error Rate Postcondition : 0.0
FSCORE : 1.0
Iteration 23
Size I+ 23
Size I- 1961
Time : 268.742
Syntactical distance : 0.009259259
Error Rate Precondition : 0.0
Error Rate Postcondition : 0.0
FSCORE : 1.0
Iteration 24
Size I+ 24
Size I- 2051
Time : 286.061
Syntactical distance : 0.009259259
Error Rate Precondition : 0.0
Error Rate Postcondition : 0.0
FSCORE : 1.0
Iteration 25
Size I+ 25
Size I- 2083
Time : 300.465
Syntactical distance : 0.009259259
Error Rate Precondition : 0.0
Error Rate Postcondition : 0.0
FSCORE : 1.0
Iteration 26
Size I+ 26
Size I- 2195
Time : 316.102
Syntactical distance : 0.009259259
Error Rate Precondition : 0.0
Error Rate Postcondition : 0.0
FSCORE : 1.0
Iteration 27
Size I+ 27
Size I- 2267
Time : 335.055
Syntactical distance : 0.009259259
Error Rate Precondition : 0.0
Error Rate Postcondition : 0.0
FSCORE : 1.0
Iteration 28
Size I+ 28
Size I- 2333
Time : 350.135
Syntactical distance : 0.009259259
Error Rate Precondition : 0.0
Error Rate Postcondition : 0.0
FSCORE : 1.0
Iteration 29
Size I+ 29
Size I- 2357
Time : 365.315
Syntactical distance : 0.009259259
Error Rate Precondition : 0.0
Error Rate Postcondition : 0.0
FSCORE : 1.0
Iteration 30
Size I+ 30
Size I- 2484
Time : 380.752
Syntactical distance : 0.009259259
Error Rate Precondition : 0.0
Error Rate Postcondition : 0.0
FSCORE : 1.0

*** Noise = 20.0% ***
Iteration 1
Time : 1.733
Syntactical distance : 0.08703704
Error Rate Precondition : 0.0
Error Rate Postcondition : 0.0
FSCORE : 0.0148148155
Iteration 2
Size I+ 2
Size I- 139
Time : 4.968
Syntactical distance : 0.027777778
Error Rate Precondition : 0.0
Error Rate Postcondition : 0.0
FSCORE : 0.70967746
Iteration 3
Size I+ 3
Size I- 230
Time : 15.222
Syntactical distance : 0.027777778
Error Rate Precondition : 0.0
Error Rate Postcondition : 0.0
FSCORE : 0.70967746
Iteration 4
Size I+ 4
Size I- 305
Time : 22.861
Syntactical distance : 0.018518519
Error Rate Precondition : 0.0
Error Rate Postcondition : 0.0
FSCORE : 0.70967746
Iteration 5
Size I+ 5
Size I- 383
Time : 32.372
Syntactical distance : 0.009259259
Error Rate Precondition : 0.0
Error Rate Postcondition : 0.0
FSCORE : 1.0
Iteration 6
Size I+ 6
Size I- 498
Time : 42.8
Syntactical distance : 0.009259259
Error Rate Precondition : 0.0
Error Rate Postcondition : 0.0
FSCORE : 1.0
Iteration 7
Size I+ 7
Size I- 606
Time : 54.269
Syntactical distance : 0.009259259
Error Rate Precondition : 0.0
Error Rate Postcondition : 0.0
FSCORE : 1.0
Iteration 8
Size I+ 8
Size I- 672
Time : 66.007
Syntactical distance : 0.009259259
Error Rate Precondition : 0.0
Error Rate Postcondition : 0.0
FSCORE : 1.0
Iteration 9
Size I+ 9
Size I- 817
Time : 79.115
Syntactical distance : 0.009259259
Error Rate Precondition : 0.0
Error Rate Postcondition : 0.0
FSCORE : 1.0
Iteration 10
Size I+ 10
Size I- 856
Time : 93.032
Syntactical distance : 0.009259259
Error Rate Precondition : 0.0
Error Rate Postcondition : 0.0
FSCORE : 1.0
Iteration 11
Size I+ 11
Size I- 900
Time : 105.039
Syntactical distance : 0.009259259
Error Rate Precondition : 0.0
Error Rate Postcondition : 0.0
FSCORE : 1.0
Iteration 12
Size I+ 12
Size I- 958
Time : 116.68
Syntactical distance : 0.009259259
Error Rate Precondition : 0.0
Error Rate Postcondition : 0.0
FSCORE : 1.0
Iteration 13
Size I+ 13
Size I- 1011
Time : 128.341
Syntactical distance : 0.009259259
Error Rate Precondition : 0.0
Error Rate Postcondition : 0.0
FSCORE : 1.0
Iteration 14
Size I+ 14
Size I- 1172
Time : 140.198
Syntactical distance : 0.009259259
Error Rate Precondition : 0.0
Error Rate Postcondition : 0.0
FSCORE : 1.0
Iteration 15
Size I+ 15
Size I- 1306
Time : 157.082
Syntactical distance : 0.009259259
Error Rate Precondition : 0.0
Error Rate Postcondition : 0.0
FSCORE : 1.0
Iteration 16
Size I+ 16
Size I- 1454
Time : 173.143
Syntactical distance : 0.009259259
Error Rate Precondition : 0.0
Error Rate Postcondition : 0.0
FSCORE : 1.0
Iteration 17
Size I+ 17
Size I- 1516
Time : 190.391
Syntactical distance : 0.009259259
Error Rate Precondition : 0.0
Error Rate Postcondition : 0.0
FSCORE : 1.0
Iteration 18
Size I+ 18
Size I- 1619
Time : 207.362
Syntactical distance : 0.009259259
Error Rate Precondition : 0.0
Error Rate Postcondition : 0.0
FSCORE : 1.0
Iteration 19
Size I+ 19
Size I- 1640
Time : 225.021
Syntactical distance : 0.009259259
Error Rate Precondition : 0.0
Error Rate Postcondition : 0.0
FSCORE : 1.0
Iteration 20
Size I+ 20
Size I- 1717
Time : 242.706
Syntactical distance : 0.009259259
Error Rate Precondition : 0.0
Error Rate Postcondition : 0.0
FSCORE : 1.0
Iteration 21
Size I+ 21
Size I- 1819
Time : 261.412
Syntactical distance : 0.009259259
Error Rate Precondition : 0.0
Error Rate Postcondition : 0.0
FSCORE : 1.0
Iteration 22
Size I+ 22
Size I- 1894
Time : 280.397
Syntactical distance : 0.009259259
Error Rate Precondition : 0.0
Error Rate Postcondition : 0.0
FSCORE : 1.0
Iteration 23
Size I+ 23
Size I- 1961
Time : 299.332
Syntactical distance : 0.009259259
Error Rate Precondition : 0.0
Error Rate Postcondition : 0.0
FSCORE : 1.0
Iteration 24
Size I+ 24
Size I- 2051
Time : 330.648
Syntactical distance : 0.009259259
Error Rate Precondition : 0.0
Error Rate Postcondition : 0.0
FSCORE : 1.0
Iteration 25
Size I+ 25
Size I- 2083
Time : 359.483
Syntactical distance : 0.009259259
Error Rate Precondition : 0.0
Error Rate Postcondition : 0.0
FSCORE : 1.0
Iteration 26
Size I+ 26
Size I- 2195
Time : 390.186
Syntactical distance : 0.009259259
Error Rate Precondition : 0.0
Error Rate Postcondition : 0.0
FSCORE : 1.0
Iteration 27
Size I+ 27
Size I- 2267
Time : 423.432
Syntactical distance : 0.009259259
Error Rate Precondition : 0.0
Error Rate Postcondition : 0.0
FSCORE : 1.0
Iteration 28
Size I+ 28
Size I- 2333
Time : 453.221
Syntactical distance : 0.009259259
Error Rate Precondition : 0.0
Error Rate Postcondition : 0.0
FSCORE : 1.0
Iteration 29
Size I+ 29
Size I- 2357
Time : 483.191
Syntactical distance : 0.009259259
Error Rate Precondition : 0.0
Error Rate Postcondition : 0.0
FSCORE : 1.0
Iteration 30
Size I+ 30
Size I- 2484
Time : 514.262
Syntactical distance : 0.009259259
Error Rate Precondition : 0.0
Error Rate Postcondition : 0.0
FSCORE : 1.0
E+ size : 100
E- size : 33142
e+ mean size : 48.15
e- mean size : 33.94388
############################################
### Fluent = 25.0% ###

*** Noise = 0.0% ***
Iteration 1
Time : 2.374
Syntactical distance : 0.074074075
Error Rate Precondition : 0.0366517
Error Rate Postcondition : 0.0
FSCORE : 0.16116035
Iteration 2
Size I+ 2
Size I- 250
Time : 12.595
Syntactical distance : 0.0462963
Error Rate Precondition : 0.03278372
Error Rate Postcondition : 0.0
FSCORE : 0.22556391
Iteration 3
Size I+ 3
Size I- 331
Time : 18.005
Syntactical distance : 0.009259259
Error Rate Precondition : 0.0
Error Rate Postcondition : 0.0
FSCORE : 1.0
Iteration 4
Size I+ 4
Size I- 412
Time : 29.33
Syntactical distance : 0.009259259
Error Rate Precondition : 0.0
Error Rate Postcondition : 0.0
FSCORE : 1.0
Iteration 5
Size I+ 5
Size I- 512
Time : 41.057
Syntactical distance : 0.009259259
Error Rate Precondition : 0.0
Error Rate Postcondition : 0.0
FSCORE : 1.0
Iteration 6
Size I+ 6
Size I- 564
Time : 51.423
Syntactical distance : 0.009259259
Error Rate Precondition : 0.0
Error Rate Postcondition : 0.0
FSCORE : 1.0
Iteration 7
Size I+ 7
Size I- 657
Time : 62.457
Syntactical distance : 0.009259259
Error Rate Precondition : 0.0
Error Rate Postcondition : 0.0
FSCORE : 1.0
Iteration 8
Size I+ 8
Size I- 727
Time : 73.08
Syntactical distance : 0.009259259
Error Rate Precondition : 0.0
Error Rate Postcondition : 0.0
FSCORE : 1.0
Iteration 9
Size I+ 9
Size I- 812
Time : 84.26
Syntactical distance : 0.009259259
Error Rate Precondition : 0.0
Error Rate Postcondition : 0.0
FSCORE : 1.0
Iteration 10
Size I+ 10
Size I- 929
Time : 95.973
Syntactical distance : 0.009259259
Error Rate Precondition : 0.0
Error Rate Postcondition : 0.0
FSCORE : 1.0
Iteration 11
Size I+ 11
Size I- 1001
Time : 107.51
Syntactical distance : 0.009259259
Error Rate Precondition : 0.0
Error Rate Postcondition : 0.0
FSCORE : 1.0
Iteration 12
Size I+ 12
Size I- 1131
Time : 120.636
Syntactical distance : 0.009259259
Error Rate Precondition : 0.0
Error Rate Postcondition : 0.0
FSCORE : 1.0
Iteration 13
Size I+ 13
Size I- 1226
Time : 133.022
Syntactical distance : 0.009259259
Error Rate Precondition : 0.0
Error Rate Postcondition : 0.0
FSCORE : 1.0
Iteration 14
Size I+ 14
Size I- 1310
Time : 144.701
Syntactical distance : 0.009259259
Error Rate Precondition : 0.0
Error Rate Postcondition : 0.0
FSCORE : 1.0
Iteration 15
Size I+ 15
Size I- 1352
Time : 158.14
Syntactical distance : 0.009259259
Error Rate Precondition : 0.0
Error Rate Postcondition : 0.0
FSCORE : 1.0
Iteration 16
Size I+ 16
Size I- 1406
Time : 170.197
Syntactical distance : 0.009259259
Error Rate Precondition : 0.0
Error Rate Postcondition : 0.0
FSCORE : 1.0
Iteration 17
Size I+ 17
Size I- 1457
Time : 184.065
Syntactical distance : 0.009259259
Error Rate Precondition : 0.0
Error Rate Postcondition : 0.0
FSCORE : 1.0
Iteration 18
Size I+ 18
Size I- 1518
Time : 196.559
Syntactical distance : 0.009259259
Error Rate Precondition : 0.0
Error Rate Postcondition : 0.0
FSCORE : 1.0
Iteration 19
Size I+ 19
Size I- 1595
Time : 212.455
Syntactical distance : 0.009259259
Error Rate Precondition : 0.0
Error Rate Postcondition : 0.0
FSCORE : 1.0
Iteration 20
Size I+ 20
Size I- 1645
Time : 225.294
Syntactical distance : 0.009259259
Error Rate Precondition : 0.0
Error Rate Postcondition : 0.0
FSCORE : 1.0
Iteration 21
Size I+ 21
Size I- 1750
Time : 240.149
Syntactical distance : 0.009259259
Error Rate Precondition : 0.0
Error Rate Postcondition : 0.0
FSCORE : 1.0
Iteration 22
Size I+ 22
Size I- 1861
Time : 253.523
Syntactical distance : 0.009259259
Error Rate Precondition : 0.0
Error Rate Postcondition : 0.0
FSCORE : 1.0
Iteration 23
Size I+ 23
Size I- 1985
Time : 270.022
Syntactical distance : 0.009259259
Error Rate Precondition : 0.0
Error Rate Postcondition : 0.0
FSCORE : 1.0
Iteration 24
Size I+ 24
Size I- 2116
Time : 283.97
Syntactical distance : 0.009259259
Error Rate Precondition : 0.0
Error Rate Postcondition : 0.0
FSCORE : 1.0
Iteration 25
Size I+ 25
Size I- 2189
Time : 303.77
Syntactical distance : 0.009259259
Error Rate Precondition : 0.0
Error Rate Postcondition : 0.0
FSCORE : 1.0
Iteration 26
Size I+ 26
Size I- 2255
Time : 321.1
Syntactical distance : 0.009259259
Error Rate Precondition : 0.0
Error Rate Postcondition : 0.0
FSCORE : 1.0
Iteration 27
Size I+ 27
Size I- 2364
Time : 335.525
Syntactical distance : 0.009259259
Error Rate Precondition : 0.0
Error Rate Postcondition : 0.0
FSCORE : 1.0
Iteration 28
Size I+ 28
Size I- 2420
Time : 350.249
Syntactical distance : 0.009259259
Error Rate Precondition : 0.0
Error Rate Postcondition : 0.0
FSCORE : 1.0
Iteration 29
Size I+ 29
Size I- 2445
Time : 365.144
Syntactical distance : 0.009259259
Error Rate Precondition : 0.0
Error Rate Postcondition : 0.0
FSCORE : 1.0
Iteration 30
Size I+ 30
Size I- 2579
Time : 380.252
Syntactical distance : 0.009259259
Error Rate Precondition : 0.0
Error Rate Postcondition : 0.0
FSCORE : 1.0

*** Noise = 20.0% ***
Iteration 1
Time : 6.217
Syntactical distance : 0.105555564
Error Rate Precondition : 0.06805607
Error Rate Postcondition : 0.0
FSCORE : 0.037593987
Iteration 2
Size I+ 2
Size I- 250
Time : 13.966
Syntactical distance : 0.08703704
Error Rate Precondition : 0.0
Error Rate Postcondition : 0.0
FSCORE : 0.31595576
Iteration 3
Size I+ 3
Size I- 331
Time : 25.799
Syntactical distance : 0.08703704
Error Rate Precondition : 0.038749468
Error Rate Postcondition : 0.0
FSCORE : 0.31595576
Iteration 4
Size I+ 4
Size I- 412
Time : 39.503
Syntactical distance : 0.009259259
Error Rate Precondition : 0.0
Error Rate Postcondition : 0.0
FSCORE : 1.0
Iteration 5
Size I+ 5
Size I- 512
Time : 51.332
Syntactical distance : 0.009259259
Error Rate Precondition : 0.0
Error Rate Postcondition : 0.0
FSCORE : 1.0
Iteration 6
Size I+ 6
Size I- 564
Time : 64.429
Syntactical distance : 0.009259259
Error Rate Precondition : 0.0
Error Rate Postcondition : 0.0
FSCORE : 1.0
Iteration 7
Size I+ 7
Size I- 657
Time : 78.096
Syntactical distance : 0.009259259
Error Rate Precondition : 0.0
Error Rate Postcondition : 0.0
FSCORE : 1.0
Iteration 8
Size I+ 8
Size I- 727
Time : 91.642
Syntactical distance : 0.009259259
Error Rate Precondition : 0.0
Error Rate Postcondition : 0.0
FSCORE : 1.0
Iteration 9
Size I+ 9
Size I- 812
Time : 106.879
Syntactical distance : 0.009259259
Error Rate Precondition : 0.0
Error Rate Postcondition : 0.0
FSCORE : 1.0
Iteration 10
Size I+ 10
Size I- 929
Time : 123.956
Syntactical distance : 0.009259259
Error Rate Precondition : 0.0
Error Rate Postcondition : 0.0
FSCORE : 1.0
Iteration 11
Size I+ 11
Size I- 1001
Time : 140.129
Syntactical distance : 0.009259259
Error Rate Precondition : 0.0
Error Rate Postcondition : 0.0
FSCORE : 1.0
Iteration 12
Size I+ 12
Size I- 1131
Time : 160.026
Syntactical distance : 0.009259259
Error Rate Precondition : 0.0
Error Rate Postcondition : 0.0
FSCORE : 1.0
Iteration 13
Size I+ 13
Size I- 1226
Time : 181.069
Syntactical distance : 0.009259259
Error Rate Precondition : 0.0
Error Rate Postcondition : 0.0
FSCORE : 1.0
Iteration 14
Size I+ 14
Size I- 1310
Time : 202.177
Syntactical distance : 0.009259259
Error Rate Precondition : 0.0
Error Rate Postcondition : 0.0
FSCORE : 1.0
Iteration 15
Size I+ 15
Size I- 1352
Time : 225.283
Syntactical distance : 0.009259259
Error Rate Precondition : 0.0
Error Rate Postcondition : 0.0
FSCORE : 1.0
Iteration 16
Size I+ 16
Size I- 1406
Time : 246.991
Syntactical distance : 0.009259259
Error Rate Precondition : 0.0
Error Rate Postcondition : 0.0
FSCORE : 1.0
Iteration 17
Size I+ 17
Size I- 1457
Time : 273.665
Syntactical distance : 0.009259259
Error Rate Precondition : 0.0
Error Rate Postcondition : 0.0
FSCORE : 1.0
Iteration 18
Size I+ 18
Size I- 1518
Time : 299.534
Syntactical distance : 0.009259259
Error Rate Precondition : 0.0
Error Rate Postcondition : 0.0
FSCORE : 1.0
Iteration 19
Size I+ 19
Size I- 1595
Time : 329.614
Syntactical distance : 0.009259259
Error Rate Precondition : 0.0
Error Rate Postcondition : 0.0
FSCORE : 1.0
Iteration 20
Size I+ 20
Size I- 1645
Time : 356.817
Syntactical distance : 0.009259259
Error Rate Precondition : 0.0
Error Rate Postcondition : 0.0
FSCORE : 1.0
Iteration 21
Size I+ 21
Size I- 1750
Time : 386.834
Syntactical distance : 0.009259259
Error Rate Precondition : 0.0
Error Rate Postcondition : 0.0
FSCORE : 1.0
Iteration 22
Size I+ 22
Size I- 1861
Time : 414.642
Syntactical distance : 0.009259259
Error Rate Precondition : 0.0
Error Rate Postcondition : 0.0
FSCORE : 1.0
Iteration 23
Size I+ 23
Size I- 1985
Time : 446.398
Syntactical distance : 0.009259259
Error Rate Precondition : 0.0
Error Rate Postcondition : 0.0
FSCORE : 1.0
Iteration 24
Size I+ 24
Size I- 2116
Time : 476.322
Syntactical distance : 0.009259259
Error Rate Precondition : 0.0
Error Rate Postcondition : 0.0
FSCORE : 1.0
Iteration 25
Size I+ 25
Size I- 2189
Time : 515.001
Syntactical distance : 0.009259259
Error Rate Precondition : 0.0
Error Rate Postcondition : 0.0
FSCORE : 1.0
Iteration 26
Size I+ 26
Size I- 2255
Time : 551.708
Syntactical distance : 0.009259259
Error Rate Precondition : 0.0
Error Rate Postcondition : 0.0
FSCORE : 1.0
Iteration 27
Size I+ 27
Size I- 2364
Time : 586.143
Syntactical distance : 0.009259259
Error Rate Precondition : 0.0
Error Rate Postcondition : 0.0
FSCORE : 1.0
Iteration 28
Size I+ 28
Size I- 2420
Time : 621.147
Syntactical distance : 0.009259259
Error Rate Precondition : 0.0
Error Rate Postcondition : 0.0
FSCORE : 1.0
Iteration 29
Size I+ 29
Size I- 2445
Time : 656.897
Syntactical distance : 0.009259259
Error Rate Precondition : 0.0
Error Rate Postcondition : 0.0
FSCORE : 1.0
Iteration 30
Size I+ 30
Size I- 2579
Time : 693.59
Syntactical distance : 0.009259259
Error Rate Precondition : 0.0
Error Rate Postcondition : 0.0
FSCORE : 1.0
############################################
### Fluent = 100.0% ###

*** Noise = 0.0% ***
Iteration 1
Time : 0.624
Syntactical distance : 0.009259259
Error Rate Precondition : 0.0
Error Rate Postcondition : 0.0
FSCORE : 1.0
Iteration 2
Size I+ 2
Size I- 282
Time : 10.095
Syntactical distance : 0.009259259
Error Rate Precondition : 0.0
Error Rate Postcondition : 0.0
FSCORE : 1.0
Iteration 3
Size I+ 3
Size I- 423
Time : 19.792
Syntactical distance : 0.009259259
Error Rate Precondition : 0.0
Error Rate Postcondition : 0.0
FSCORE : 1.0
Iteration 4
Size I+ 4
Size I- 540
Time : 29.824
Syntactical distance : 0.009259259
Error Rate Precondition : 0.0
Error Rate Postcondition : 0.0
FSCORE : 1.0
Iteration 5
Size I+ 5
Size I- 671
Time : 40.303
Syntactical distance : 0.009259259
Error Rate Precondition : 0.0
Error Rate Postcondition : 0.0
FSCORE : 1.0
Iteration 6
Size I+ 6
Size I- 763
Time : 51.189
Syntactical distance : 0.009259259
Error Rate Precondition : 0.0
Error Rate Postcondition : 0.0
FSCORE : 1.0
Iteration 7
Size I+ 7
Size I- 907
Time : 62.67
Syntactical distance : 0.009259259
Error Rate Precondition : 0.0
Error Rate Postcondition : 0.0
FSCORE : 1.0
Iteration 8
Size I+ 8
Size I- 1007
Time : 73.706
Syntactical distance : 0.009259259
Error Rate Precondition : 0.0
Error Rate Postcondition : 0.0
FSCORE : 1.0
Iteration 9
Size I+ 9
Size I- 1097
Time : 86.093
Syntactical distance : 0.009259259
Error Rate Precondition : 0.0
Error Rate Postcondition : 0.0
FSCORE : 1.0
Iteration 10
Size I+ 10
Size I- 1225
Time : 98.259
Syntactical distance : 0.009259259
Error Rate Precondition : 0.0
Error Rate Postcondition : 0.0
FSCORE : 1.0
Iteration 11
Size I+ 11
Size I- 1301
Time : 110.866
Syntactical distance : 0.009259259
Error Rate Precondition : 0.0
Error Rate Postcondition : 0.0
FSCORE : 1.0
Iteration 12
Size I+ 12
Size I- 1409
Time : 122.767
Syntactical distance : 0.009259259
Error Rate Precondition : 0.0
Error Rate Postcondition : 0.0
FSCORE : 1.0
Iteration 13
Size I+ 13
Size I- 1470
Time : 134.919
Syntactical distance : 0.009259259
Error Rate Precondition : 0.0
Error Rate Postcondition : 0.0
FSCORE : 1.0
Iteration 14
Size I+ 14
Size I- 1517
Time : 147.244
Syntactical distance : 0.009259259
Error Rate Precondition : 0.0
Error Rate Postcondition : 0.0
FSCORE : 1.0
Iteration 15
Size I+ 15
Size I- 1585
Time : 160.52
Syntactical distance : 0.009259259
Error Rate Precondition : 0.0
Error Rate Postcondition : 0.0
FSCORE : 1.0
Iteration 16
Size I+ 16
Size I- 1624
Time : 174.373
Syntactical distance : 0.009259259
Error Rate Precondition : 0.0
Error Rate Postcondition : 0.0
FSCORE : 1.0
Iteration 17
Size I+ 17
Size I- 1685
Time : 187.15
Syntactical distance : 0.009259259
Error Rate Precondition : 0.0
Error Rate Postcondition : 0.0
FSCORE : 1.0
Iteration 18
Size I+ 18
Size I- 1778
Time : 200.227
Syntactical distance : 0.009259259
Error Rate Precondition : 0.0
Error Rate Postcondition : 0.0
FSCORE : 1.0
Iteration 19
Size I+ 19
Size I- 1825
Time : 214.843
Syntactical distance : 0.009259259
Error Rate Precondition : 0.0
Error Rate Postcondition : 0.0
FSCORE : 1.0
Iteration 20
Size I+ 20
Size I- 1906
Time : 230.821
Syntactical distance : 0.009259259
Error Rate Precondition : 0.0
Error Rate Postcondition : 0.0
FSCORE : 1.0
Iteration 21
Size I+ 21
Size I- 1953
Time : 244.391
Syntactical distance : 0.009259259
Error Rate Precondition : 0.0
Error Rate Postcondition : 0.0
FSCORE : 1.0
Iteration 22
Size I+ 22
Size I- 2041
Time : 261.662
Syntactical distance : 0.009259259
Error Rate Precondition : 0.0
Error Rate Postcondition : 0.0
FSCORE : 1.0
Iteration 23
Size I+ 23
Size I- 2148
Time : 275.681
Syntactical distance : 0.009259259
Error Rate Precondition : 0.0
Error Rate Postcondition : 0.0
FSCORE : 1.0
Iteration 24
Size I+ 24
Size I- 2190
Time : 289.866
Syntactical distance : 0.009259259
Error Rate Precondition : 0.0
Error Rate Postcondition : 0.0
FSCORE : 1.0
Iteration 25
Size I+ 25
Size I- 2268
Time : 304.253
Syntactical distance : 0.009259259
Error Rate Precondition : 0.0
Error Rate Postcondition : 0.0
FSCORE : 1.0
Iteration 26
Size I+ 26
Size I- 2376
Time : 318.887
Syntactical distance : 0.009259259
Error Rate Precondition : 0.0
Error Rate Postcondition : 0.0
FSCORE : 1.0
Iteration 27
Size I+ 27
Size I- 2439
Time : 333.902
Syntactical distance : 0.009259259
Error Rate Precondition : 0.0
Error Rate Postcondition : 0.0
FSCORE : 1.0
Iteration 28
Size I+ 28
Size I- 2487
Time : 349.019
Syntactical distance : 0.009259259
Error Rate Precondition : 0.0
Error Rate Postcondition : 0.0
FSCORE : 1.0
Iteration 29
Size I+ 29
Size I- 2564
Time : 364.345
Syntactical distance : 0.009259259
Error Rate Precondition : 0.0
Error Rate Postcondition : 0.0
FSCORE : 1.0
Iteration 30
Size I+ 30
Size I- 2639
Time : 387.155
Syntactical distance : 0.009259259
Error Rate Precondition : 0.0
Error Rate Postcondition : 0.0
FSCORE : 1.0

*** Noise = 20.0% ***
Iteration 1
Time : 2.726
Syntactical distance : 0.11111112
Error Rate Precondition : 0.12980613
Error Rate Postcondition : 0.07597997
FSCORE : 0.13084112
Iteration 2
Size I+ 2
Size I- 282
Time : 4.14
Syntactical distance : 0.072222225
Error Rate Precondition : 0.043467887
Error Rate Postcondition : 0.039146073
FSCORE : 0.13084112
Iteration 3
Size I+ 3
Size I- 423
Time : 10.28
Syntactical distance : 0.037037037
Error Rate Precondition : 0.030766442
Error Rate Postcondition : 0.0
FSCORE : 0.34542313
Iteration 4
Size I+ 4
Size I- 540
Time : 22.54
Syntactical distance : 0.06481482
Error Rate Precondition : 0.061532885
Error Rate Postcondition : 0.0
FSCORE : 0.71794873
Iteration 5
Size I+ 5
Size I- 671
Time : 34.513
Syntactical distance : 0.009259259
Error Rate Precondition : 0.0
Error Rate Postcondition : 0.0
FSCORE : 1.0
Iteration 6
Size I+ 6
Size I- 763
Time : 48.547
Syntactical distance : 0.009259259
Error Rate Precondition : 0.0
Error Rate Postcondition : 0.0
FSCORE : 1.0
Iteration 7
Size I+ 7
Size I- 907
Time : 62.878
Syntactical distance : 0.009259259
Error Rate Precondition : 0.0
Error Rate Postcondition : 0.0
FSCORE : 1.0
Iteration 8
Size I+ 8
Size I- 1007
Time : 76.979
Syntactical distance : 0.009259259
Error Rate Precondition : 0.0
Error Rate Postcondition : 0.0
FSCORE : 1.0
Iteration 9
Size I+ 9
Size I- 1097
Time : 95.705
Syntactical distance : 0.009259259
Error Rate Precondition : 0.0
Error Rate Postcondition : 0.0
FSCORE : 1.0
Iteration 10
Size I+ 10
Size I- 1225
Time : 117.4
Syntactical distance : 0.009259259
Error Rate Precondition : 0.0
Error Rate Postcondition : 0.0
FSCORE : 1.0
Iteration 11
Size I+ 11
Size I- 1301
Time : 142.222
Syntactical distance : 0.009259259
Error Rate Precondition : 0.0
Error Rate Postcondition : 0.0
FSCORE : 1.0
Iteration 12
Size I+ 12
Size I- 1409
Time : 167.716
Syntactical distance : 0.009259259
Error Rate Precondition : 0.0
Error Rate Postcondition : 0.0
FSCORE : 1.0
Iteration 13
Size I+ 13
Size I- 1470
Time : 191.705
Syntactical distance : 0.009259259
Error Rate Precondition : 0.0
Error Rate Postcondition : 0.0
FSCORE : 1.0
Iteration 14
Size I+ 14
Size I- 1517
Time : 216.108
Syntactical distance : 0.009259259
Error Rate Precondition : 0.0
Error Rate Postcondition : 0.0
FSCORE : 1.0
Iteration 15
Size I+ 15
Size I- 1585
Time : 236.202
Syntactical distance : 0.009259259
Error Rate Precondition : 0.0
Error Rate Postcondition : 0.0
FSCORE : 1.0
Iteration 16
Size I+ 16
Size I- 1624
Time : 256.788
Syntactical distance : 0.009259259
Error Rate Precondition : 0.0
Error Rate Postcondition : 0.0
FSCORE : 1.0
Iteration 17
Size I+ 17
Size I- 1685
Time : 276.671
Syntactical distance : 0.009259259
Error Rate Precondition : 0.0
Error Rate Postcondition : 0.0
FSCORE : 1.0
Iteration 18
Size I+ 18
Size I- 1778
Time : 296.335
Syntactical distance : 0.009259259
Error Rate Precondition : 0.0
Error Rate Postcondition : 0.0
FSCORE : 1.0
Iteration 19
Size I+ 19
Size I- 1825
Time : 319.67
Syntactical distance : 0.009259259
Error Rate Precondition : 0.0
Error Rate Postcondition : 0.0
FSCORE : 1.0
Iteration 20
Size I+ 20
Size I- 1906
Time : 343.723
Syntactical distance : 0.009259259
Error Rate Precondition : 0.0
Error Rate Postcondition : 0.0
FSCORE : 1.0
Iteration 21
Size I+ 21
Size I- 1953
Time : 365.759
Syntactical distance : 0.009259259
Error Rate Precondition : 0.0
Error Rate Postcondition : 0.0
FSCORE : 1.0
Iteration 22
Size I+ 22
Size I- 2041
Time : 392.75
Syntactical distance : 0.009259259
Error Rate Precondition : 0.0
Error Rate Postcondition : 0.0
FSCORE : 1.0
Iteration 23
Size I+ 23
Size I- 2148
Time : 416.955
Syntactical distance : 0.009259259
Error Rate Precondition : 0.0
Error Rate Postcondition : 0.0
FSCORE : 1.0
Iteration 24
Size I+ 24
Size I- 2190
Time : 441.649
Syntactical distance : 0.009259259
Error Rate Precondition : 0.0
Error Rate Postcondition : 0.0
FSCORE : 1.0
Iteration 25
Size I+ 25
Size I- 2268
Time : 466.846
Syntactical distance : 0.009259259
Error Rate Precondition : 0.0
Error Rate Postcondition : 0.0
FSCORE : 1.0
Iteration 26
Size I+ 26
Size I- 2376
Time : 492.783
Syntactical distance : 0.009259259
Error Rate Precondition : 0.0
Error Rate Postcondition : 0.0
FSCORE : 1.0
Iteration 27
Size I+ 27
Size I- 2439
Time : 519.195
Syntactical distance : 0.009259259
Error Rate Precondition : 0.0
Error Rate Postcondition : 0.0
FSCORE : 1.0
Iteration 28
Size I+ 28
Size I- 2487
Time : 546.376
Syntactical distance : 0.009259259
Error Rate Precondition : 0.0
Error Rate Postcondition : 0.0
FSCORE : 1.0
Iteration 29
Size I+ 29
Size I- 2564
Time : 574.299
Syntactical distance : 0.009259259
Error Rate Precondition : 0.0
Error Rate Postcondition : 0.0
FSCORE : 1.0
Iteration 30
Size I+ 30
Size I- 2639
Time : 609.046
Syntactical distance : 0.009259259
Error Rate Precondition : 0.0
Error Rate Postcondition : 0.0
FSCORE : 1.0
E+ size : 100
E- size : 33944
e+ mean size : 49.84
e- mean size : 32.84831
############################################
### Fluent = 25.0% ###

*** Noise = 0.0% ***
Iteration 1
Time : 1.893
Syntactical distance : 0.15185186
Error Rate Precondition : 0.0
Error Rate Postcondition : 0.0
FSCORE : 0.059082896
Iteration 2
Size I+ 2
Size I- 250
Time : 9.791
Syntactical distance : 0.009259259
Error Rate Precondition : 0.0
Error Rate Postcondition : 0.0
FSCORE : 1.0
Iteration 3
Size I+ 3
Size I- 317
Time : 20.54
Syntactical distance : 0.009259259
Error Rate Precondition : 0.0
Error Rate Postcondition : 0.0
FSCORE : 1.0
Iteration 4
Size I+ 4
Size I- 442
Time : 31.902
Syntactical distance : 0.009259259
Error Rate Precondition : 0.0
Error Rate Postcondition : 0.0
FSCORE : 1.0
Iteration 5
Size I+ 5
Size I- 519
Time : 44.359
Syntactical distance : 0.009259259
Error Rate Precondition : 0.0
Error Rate Postcondition : 0.0
FSCORE : 1.0
Iteration 6
Size I+ 6
Size I- 652
Time : 57.704
Syntactical distance : 0.009259259
Error Rate Precondition : 0.0
Error Rate Postcondition : 0.0
FSCORE : 1.0
Iteration 7
Size I+ 7
Size I- 731
Time : 71.26
Syntactical distance : 0.009259259
Error Rate Precondition : 0.0
Error Rate Postcondition : 0.0
FSCORE : 1.0
Iteration 8
Size I+ 8
Size I- 786
Time : 82.513
Syntactical distance : 0.009259259
Error Rate Precondition : 0.0
Error Rate Postcondition : 0.0
FSCORE : 1.0
Iteration 9
Size I+ 9
Size I- 912
Time : 94.439
Syntactical distance : 0.009259259
Error Rate Precondition : 0.0
Error Rate Postcondition : 0.0
FSCORE : 1.0
Iteration 10
Size I+ 10
Size I- 1048
Time : 106.362
Syntactical distance : 0.009259259
Error Rate Precondition : 0.0
Error Rate Postcondition : 0.0
FSCORE : 1.0
Iteration 11
Size I+ 11
Size I- 1114
Time : 118.511
Syntactical distance : 0.009259259
Error Rate Precondition : 0.0
Error Rate Postcondition : 0.0
FSCORE : 1.0
Iteration 12
Size I+ 12
Size I- 1210
Time : 131.459
Syntactical distance : 0.009259259
Error Rate Precondition : 0.0
Error Rate Postcondition : 0.0
FSCORE : 1.0
Iteration 13
Size I+ 13
Size I- 1268
Time : 144.474
Syntactical distance : 0.009259259
Error Rate Precondition : 0.0
Error Rate Postcondition : 0.0
FSCORE : 1.0
Iteration 14
Size I+ 14
Size I- 1346
Time : 157.559
Syntactical distance : 0.009259259
Error Rate Precondition : 0.0
Error Rate Postcondition : 0.0
FSCORE : 1.0
Iteration 15
Size I+ 15
Size I- 1475
Time : 172.069
Syntactical distance : 0.009259259
Error Rate Precondition : 0.0
Error Rate Postcondition : 0.0
FSCORE : 1.0
Iteration 16
Size I+ 16
Size I- 1560
Time : 183.989
Syntactical distance : 0.009259259
Error Rate Precondition : 0.0
Error Rate Postcondition : 0.0
FSCORE : 1.0
Iteration 17
Size I+ 17
Size I- 1635
Time : 196.068
Syntactical distance : 0.009259259
Error Rate Precondition : 0.0
Error Rate Postcondition : 0.0
FSCORE : 1.0
Iteration 18
Size I+ 18
Size I- 1710
Time : 210.333
Syntactical distance : 0.009259259
Error Rate Precondition : 0.0
Error Rate Postcondition : 0.0
FSCORE : 1.0
Iteration 19
Size I+ 19
Size I- 1830
Time : 224.795
Syntactical distance : 0.009259259
Error Rate Precondition : 0.0
Error Rate Postcondition : 0.0
FSCORE : 1.0
Iteration 20
Size I+ 20
Size I- 1930
Time : 239.767
Syntactical distance : 0.009259259
Error Rate Precondition : 0.0
Error Rate Postcondition : 0.0
FSCORE : 1.0
Iteration 21
Size I+ 21
Size I- 2044
Time : 254.834
Syntactical distance : 0.009259259
Error Rate Precondition : 0.0
Error Rate Postcondition : 0.0
FSCORE : 1.0
Iteration 22
Size I+ 22
Size I- 2147
Time : 268.152
Syntactical distance : 0.009259259
Error Rate Precondition : 0.0
Error Rate Postcondition : 0.0
FSCORE : 1.0
Iteration 23
Size I+ 23
Size I- 2178
Time : 281.653
Syntactical distance : 0.009259259
Error Rate Precondition : 0.0
Error Rate Postcondition : 0.0
FSCORE : 1.0
Iteration 24
Size I+ 24
Size I- 2243
Time : 298.062
Syntactical distance : 0.009259259
Error Rate Precondition : 0.0
Error Rate Postcondition : 0.0
FSCORE : 1.0
Iteration 25
Size I+ 25
Size I- 2310
Time : 312.046
Syntactical distance : 0.009259259
Error Rate Precondition : 0.0
Error Rate Postcondition : 0.0
FSCORE : 1.0
Iteration 26
Size I+ 26
Size I- 2393
Time : 326.251
Syntactical distance : 0.009259259
Error Rate Precondition : 0.0
Error Rate Postcondition : 0.0
FSCORE : 1.0
Iteration 27
Size I+ 27
Size I- 2456
Time : 347.792
Syntactical distance : 0.009259259
Error Rate Precondition : 0.0
Error Rate Postcondition : 0.0
FSCORE : 1.0
Iteration 28
Size I+ 28
Size I- 2515
Time : 362.287
Syntactical distance : 0.009259259
Error Rate Precondition : 0.0
Error Rate Postcondition : 0.0
FSCORE : 1.0
Iteration 29
Size I+ 29
Size I- 2549
Time : 376.942
Syntactical distance : 0.009259259
Error Rate Precondition : 0.0
Error Rate Postcondition : 0.0
FSCORE : 1.0
Iteration 30
Size I+ 30
Size I- 2590
Time : 391.78
Syntactical distance : 0.009259259
Error Rate Precondition : 0.0
Error Rate Postcondition : 0.0
FSCORE : 1.0

*** Noise = 20.0% ***
Iteration 1
Time : 2.0
Syntactical distance : 0.1962963
Error Rate Precondition : 0.041128024
Error Rate Postcondition : 0.06596486
FSCORE : 0.01997503
Iteration 2
Size I+ 2
Size I- 250
Time : 8.576
Syntactical distance : 0.062962964
Error Rate Precondition : 0.03870939
Error Rate Postcondition : 0.0
FSCORE : 0.13114755
Iteration 3
Size I+ 3
Size I- 317
Time : 18.914
Syntactical distance : 0.083333336
Error Rate Precondition : 0.09949207
Error Rate Postcondition : 0.0657206
FSCORE : 0.058252428
Iteration 4
Size I+ 4
Size I- 442
Time : 25.087
Syntactical distance : 0.062962964
Error Rate Precondition : 0.0
Error Rate Postcondition : 0.036859762
FSCORE : 0.13114755
Iteration 5
Size I+ 5
Size I- 519
Time : 39.5
Syntactical distance : 0.009259259
Error Rate Precondition : 0.0
Error Rate Postcondition : 0.0
FSCORE : 1.0
Iteration 6
Size I+ 6
Size I- 652
Time : 54.157
Syntactical distance : 0.053703703
Error Rate Precondition : 0.0
Error Rate Postcondition : 0.0
FSCORE : 0.13114755
Iteration 7
Size I+ 7
Size I- 731
Time : 69.111
Syntactical distance : 0.06481481
Error Rate Precondition : 0.03306581
Error Rate Postcondition : 0.0
FSCORE : 0.21052632
Iteration 8
Size I+ 8
Size I- 786
Time : 83.954
Syntactical distance : 0.10925926
Error Rate Precondition : 0.0
Error Rate Postcondition : 0.0
FSCORE : 0.0798722
Iteration 9
Size I+ 9
Size I- 912
Time : 99.65
Syntactical distance : 0.009259259
Error Rate Precondition : 0.0
Error Rate Postcondition : 0.0
FSCORE : 1.0
Iteration 10
Size I+ 10
Size I- 1048
Time : 121.851
Syntactical distance : 0.009259259
Error Rate Precondition : 0.0
Error Rate Postcondition : 0.0
FSCORE : 1.0
Iteration 11
Size I+ 11
Size I- 1114
Time : 144.488
Syntactical distance : 0.009259259
Error Rate Precondition : 0.0
Error Rate Postcondition : 0.0
FSCORE : 1.0
Iteration 12
Size I+ 12
Size I- 1210
Time : 159.456
Syntactical distance : 0.037037037
Error Rate Precondition : 0.030766513
Error Rate Postcondition : 0.0
FSCORE : 0.058252428
Iteration 13
Size I+ 13
Size I- 1268
Time : 168.973
Syntactical distance : 0.037037037
Error Rate Precondition : 0.030766513
Error Rate Postcondition : 0.0
FSCORE : 0.058252428
Iteration 14
Size I+ 14
Size I- 1346
Time : 178.823
Syntactical distance : 0.055555556
Error Rate Precondition : 0.059872836
Error Rate Postcondition : 0.0
FSCORE : 0.058252428
Iteration 15
Size I+ 15
Size I- 1475
Time : 190.554
Syntactical distance : 0.037037037
Error Rate Precondition : 0.030766513
Error Rate Postcondition : 0.0
FSCORE : 0.058252428
Iteration 16
Size I+ 16
Size I- 1560
Time : 199.716
Syntactical distance : 0.037037037
Error Rate Precondition : 0.030766513
Error Rate Postcondition : 0.0
FSCORE : 0.058252428
Iteration 17
Size I+ 17
Size I- 1635
Time : 209.245
Syntactical distance : 0.027777778
Error Rate Precondition : 0.030766513
Error Rate Postcondition : 0.0
FSCORE : 0.058252428
Iteration 18
Size I+ 18
Size I- 1710
Time : 218.299
Syntactical distance : 0.027777778
Error Rate Precondition : 0.030766513
Error Rate Postcondition : 0.0
FSCORE : 0.058252428
Iteration 19
Size I+ 19
Size I- 1830
Time : 228.034
Syntactical distance : 0.027777778
Error Rate Precondition : 0.030766513
Error Rate Postcondition : 0.0
FSCORE : 0.058252428
Iteration 20
Size I+ 20
Size I- 1930
Time : 238.328
Syntactical distance : 0.027777778
Error Rate Precondition : 0.030766513
Error Rate Postcondition : 0.0
FSCORE : 0.058252428
Iteration 21
Size I+ 21
Size I- 2044
Time : 257.462
Syntactical distance : 0.009259259
Error Rate Precondition : 0.0
Error Rate Postcondition : 0.0
FSCORE : 1.0
Iteration 22
Size I+ 22
Size I- 2147
Time : 280.03
Syntactical distance : 0.009259259
Error Rate Precondition : 0.0
Error Rate Postcondition : 0.0
FSCORE : 1.0
Iteration 23
Size I+ 23
Size I- 2178
Time : 302.833
Syntactical distance : 0.009259259
Error Rate Precondition : 0.0
Error Rate Postcondition : 0.0
FSCORE : 1.0
Iteration 24
Size I+ 24
Size I- 2243
Time : 329.039
Syntactical distance : 0.009259259
Error Rate Precondition : 0.0
Error Rate Postcondition : 0.0
FSCORE : 1.0
Iteration 25
Size I+ 25
Size I- 2310
Time : 353.229
Syntactical distance : 0.009259259
Error Rate Precondition : 0.0
Error Rate Postcondition : 0.0
FSCORE : 1.0
Iteration 26
Size I+ 26
Size I- 2393
Time : 375.99
Syntactical distance : 0.06481481
Error Rate Precondition : 0.030959984
Error Rate Postcondition : 0.0
FSCORE : 0.21052632
Iteration 27
Size I+ 27
Size I- 2456
Time : 405.335
Syntactical distance : 0.06481481
Error Rate Precondition : 0.0
Error Rate Postcondition : 0.0
FSCORE : 0.21052632
Iteration 28
Size I+ 28
Size I- 2515
Time : 426.378
Syntactical distance : 0.009259259
Error Rate Precondition : 0.0
Error Rate Postcondition : 0.0
FSCORE : 1.0
Iteration 29
Size I+ 29
Size I- 2549
Time : 442.45
Syntactical distance : 0.055555556
Error Rate Precondition : 0.0
Error Rate Postcondition : 0.0
FSCORE : 0.1807082
Iteration 30
Size I+ 30
Size I- 2590
Time : 471.976
Syntactical distance : 0.009259259
Error Rate Precondition : 0.0
Error Rate Postcondition : 0.0
FSCORE : 1.0
############################################
### Fluent = 100.0% ###

*** Noise = 0.0% ***
Iteration 1
Time : 0.608
Syntactical distance : 0.009259259
Error Rate Precondition : 0.0
Error Rate Postcondition : 0.0
FSCORE : 1.0
Iteration 2
Size I+ 2
Size I- 270
Time : 10.054
Syntactical distance : 0.009259259
Error Rate Precondition : 0.0
Error Rate Postcondition : 0.0
FSCORE : 1.0
Iteration 3
Size I+ 3
Size I- 358
Time : 19.607
Syntactical distance : 0.009259259
Error Rate Precondition : 0.0
Error Rate Postcondition : 0.0
FSCORE : 1.0
Iteration 4
Size I+ 4
Size I- 428
Time : 29.428
Syntactical distance : 0.009259259
Error Rate Precondition : 0.0
Error Rate Postcondition : 0.0
FSCORE : 1.0
Iteration 5
Size I+ 5
Size I- 527
Time : 39.506
Syntactical distance : 0.009259259
Error Rate Precondition : 0.0
Error Rate Postcondition : 0.0
FSCORE : 1.0
Iteration 6
Size I+ 6
Size I- 624
Time : 49.999
Syntactical distance : 0.009259259
Error Rate Precondition : 0.0
Error Rate Postcondition : 0.0
FSCORE : 1.0
Iteration 7
Size I+ 7
Size I- 720
Time : 60.621
Syntactical distance : 0.009259259
Error Rate Precondition : 0.0
Error Rate Postcondition : 0.0
FSCORE : 1.0
Iteration 8
Size I+ 8
Size I- 815
Time : 71.5
Syntactical distance : 0.009259259
Error Rate Precondition : 0.0
Error Rate Postcondition : 0.0
FSCORE : 1.0
Iteration 9
Size I+ 9
Size I- 934
Time : 82.294
Syntactical distance : 0.009259259
Error Rate Precondition : 0.0
Error Rate Postcondition : 0.0
FSCORE : 1.0
Iteration 10
Size I+ 10
Size I- 1037
Time : 93.204
Syntactical distance : 0.009259259
Error Rate Precondition : 0.0
Error Rate Postcondition : 0.0
FSCORE : 1.0
Iteration 11
Size I+ 11
Size I- 1150
Time : 104.841
Syntactical distance : 0.009259259
Error Rate Precondition : 0.0
Error Rate Postcondition : 0.0
FSCORE : 1.0
Iteration 12
Size I+ 12
Size I- 1231
Time : 117.769
Syntactical distance : 0.009259259
Error Rate Precondition : 0.0
Error Rate Postcondition : 0.0
FSCORE : 1.0
Iteration 13
Size I+ 13
Size I- 1285
Time : 129.329
Syntactical distance : 0.009259259
Error Rate Precondition : 0.0
Error Rate Postcondition : 0.0
FSCORE : 1.0
Iteration 14
Size I+ 14
Size I- 1400
Time : 143.829
Syntactical distance : 0.009259259
Error Rate Precondition : 0.0
Error Rate Postcondition : 0.0
FSCORE : 1.0
Iteration 15
Size I+ 15
Size I- 1454
Time : 157.808
Syntactical distance : 0.009259259
Error Rate Precondition : 0.0
Error Rate Postcondition : 0.0
FSCORE : 1.0
Iteration 16
Size I+ 16
Size I- 1571
Time : 174.059
Syntactical distance : 0.009259259
Error Rate Precondition : 0.0
Error Rate Postcondition : 0.0
FSCORE : 1.0
Iteration 17
Size I+ 17
Size I- 1632
Time : 186.547
Syntactical distance : 0.009259259
Error Rate Precondition : 0.0
Error Rate Postcondition : 0.0
FSCORE : 1.0
Iteration 18
Size I+ 18
Size I- 1744
Time : 203.878
Syntactical distance : 0.009259259
Error Rate Precondition : 0.0
Error Rate Postcondition : 0.0
FSCORE : 1.0
Iteration 19
Size I+ 19
Size I- 1839
Time : 219.262
Syntactical distance : 0.009259259
Error Rate Precondition : 0.0
Error Rate Postcondition : 0.0
FSCORE : 1.0
Iteration 20
Size I+ 20
Size I- 1870
Time : 232.346
Syntactical distance : 0.009259259
Error Rate Precondition : 0.0
Error Rate Postcondition : 0.0
FSCORE : 1.0
Iteration 21
Size I+ 21
Size I- 2005
Time : 251.969
Syntactical distance : 0.009259259
Error Rate Precondition : 0.0
Error Rate Postcondition : 0.0
FSCORE : 1.0
Iteration 22
Size I+ 22
Size I- 2082
Time : 265.539
Syntactical distance : 0.009259259
Error Rate Precondition : 0.0
Error Rate Postcondition : 0.0
FSCORE : 1.0
Iteration 23
Size I+ 23
Size I- 2142
Time : 279.307
Syntactical distance : 0.009259259
Error Rate Precondition : 0.0
Error Rate Postcondition : 0.0
FSCORE : 1.0
Iteration 24
Size I+ 24
Size I- 2221
Time : 293.489
Syntactical distance : 0.009259259
Error Rate Precondition : 0.0
Error Rate Postcondition : 0.0
FSCORE : 1.0
Iteration 25
Size I+ 25
Size I- 2357
Time : 311.895
Syntactical distance : 0.009259259
Error Rate Precondition : 0.0
Error Rate Postcondition : 0.0
FSCORE : 1.0
Iteration 26
Size I+ 26
Size I- 2452
Time : 336.375
Syntactical distance : 0.009259259
Error Rate Precondition : 0.0
Error Rate Postcondition : 0.0
FSCORE : 1.0
Iteration 27
Size I+ 27
Size I- 2589
Time : 362.127
Syntactical distance : 0.009259259
Error Rate Precondition : 0.0
Error Rate Postcondition : 0.0
FSCORE : 1.0
Iteration 28
Size I+ 28
Size I- 2625
Time : 377.136
Syntactical distance : 0.009259259
Error Rate Precondition : 0.0
Error Rate Postcondition : 0.0
FSCORE : 1.0
Iteration 29
Size I+ 29
Size I- 2661
Time : 403.615
Syntactical distance : 0.009259259
Error Rate Precondition : 0.0
Error Rate Postcondition : 0.0
FSCORE : 1.0
Iteration 30
Size I+ 30
Size I- 2718
Time : 419.555
Syntactical distance : 0.009259259
Error Rate Precondition : 0.0
Error Rate Postcondition : 0.0
FSCORE : 1.0

*** Noise = 20.0% ***
Iteration 1
Time : 2.114
Syntactical distance : 0.06851852
Error Rate Precondition : 0.0
Error Rate Postcondition : 0.0
FSCORE : 0.1108354
Iteration 2
Size I+ 2
Size I- 270
Time : 10.568
Syntactical distance : 0.009259259
Error Rate Precondition : 0.0
Error Rate Postcondition : 0.0
FSCORE : 1.0
Iteration 3
Size I+ 3
Size I- 358
Time : 20.077
Syntactical distance : 0.009259259
Error Rate Precondition : 0.0
Error Rate Postcondition : 0.0
FSCORE : 1.0
Iteration 4
Size I+ 4
Size I- 428
Time : 29.796
Syntactical distance : 0.009259259
Error Rate Precondition : 0.0
Error Rate Postcondition : 0.0
FSCORE : 1.0
Iteration 5
Size I+ 5
Size I- 527
Time : 44.655
Syntactical distance : 0.009259259
Error Rate Precondition : 0.0
Error Rate Postcondition : 0.0
FSCORE : 1.0
Iteration 6
Size I+ 6
Size I- 624
Time : 56.724
Syntactical distance : 0.009259259
Error Rate Precondition : 0.0
Error Rate Postcondition : 0.0
FSCORE : 1.0
Iteration 7
Size I+ 7
Size I- 720
Time : 74.538
Syntactical distance : 0.009259259
Error Rate Precondition : 0.0
Error Rate Postcondition : 0.0
FSCORE : 1.0
Iteration 8
Size I+ 8
Size I- 815
Time : 91.011
Syntactical distance : 0.009259259
Error Rate Precondition : 0.0
Error Rate Postcondition : 0.0
FSCORE : 1.0
Iteration 9
Size I+ 9
Size I- 934
Time : 107.755
Syntactical distance : 0.009259259
Error Rate Precondition : 0.0
Error Rate Postcondition : 0.0
FSCORE : 1.0
Iteration 10
Size I+ 10
Size I- 1037
Time : 125.082
Syntactical distance : 0.009259259
Error Rate Precondition : 0.0
Error Rate Postcondition : 0.0
FSCORE : 1.0
Iteration 11
Size I+ 11
Size I- 1150
Time : 143.126
Syntactical distance : 0.009259259
Error Rate Precondition : 0.0
Error Rate Postcondition : 0.0
FSCORE : 1.0
Iteration 12
Size I+ 12
Size I- 1231
Time : 159.555
Syntactical distance : 0.009259259
Error Rate Precondition : 0.0
Error Rate Postcondition : 0.0
FSCORE : 1.0
Iteration 13
Size I+ 13
Size I- 1285
Time : 174.674
Syntactical distance : 0.009259259
Error Rate Precondition : 0.0
Error Rate Postcondition : 0.0
FSCORE : 1.0
Iteration 14
Size I+ 14
Size I- 1400
Time : 189.104
Syntactical distance : 0.009259259
Error Rate Precondition : 0.0
Error Rate Postcondition : 0.0
FSCORE : 1.0
Iteration 15
Size I+ 15
Size I- 1454
Time : 207.231
Syntactical distance : 0.009259259
Error Rate Precondition : 0.0
Error Rate Postcondition : 0.0
FSCORE : 1.0
Iteration 16
Size I+ 16
Size I- 1571
Time : 223.451
Syntactical distance : 0.009259259
Error Rate Precondition : 0.0
Error Rate Postcondition : 0.0
FSCORE : 1.0
Iteration 17
Size I+ 17
Size I- 1632
Time : 235.791
Syntactical distance : 0.009259259
Error Rate Precondition : 0.0
Error Rate Postcondition : 0.0
FSCORE : 1.0
Iteration 18
Size I+ 18
Size I- 1744
Time : 252.888
Syntactical distance : 0.009259259
Error Rate Precondition : 0.0
Error Rate Postcondition : 0.0
FSCORE : 1.0
Iteration 19
Size I+ 19
Size I- 1839
Time : 268.169
Syntactical distance : 0.009259259
Error Rate Precondition : 0.0
Error Rate Postcondition : 0.0
FSCORE : 1.0
Iteration 20
Size I+ 20
Size I- 1870
Time : 281.176
Syntactical distance : 0.009259259
Error Rate Precondition : 0.0
Error Rate Postcondition : 0.0
FSCORE : 1.0
Iteration 21
Size I+ 21
Size I- 2005
Time : 300.639
Syntactical distance : 0.009259259
Error Rate Precondition : 0.0
Error Rate Postcondition : 0.0
FSCORE : 1.0
Iteration 22
Size I+ 22
Size I- 2082
Time : 313.996
Syntactical distance : 0.009259259
Error Rate Precondition : 0.0
Error Rate Postcondition : 0.0
FSCORE : 1.0
Iteration 23
Size I+ 23
Size I- 2142
Time : 327.693
Syntactical distance : 0.009259259
Error Rate Precondition : 0.0
Error Rate Postcondition : 0.0
FSCORE : 1.0
Iteration 24
Size I+ 24
Size I- 2221
Time : 341.754
Syntactical distance : 0.009259259
Error Rate Precondition : 0.0
Error Rate Postcondition : 0.0
FSCORE : 1.0
Iteration 25
Size I+ 25
Size I- 2357
Time : 359.924
Syntactical distance : 0.009259259
Error Rate Precondition : 0.0
Error Rate Postcondition : 0.0
FSCORE : 1.0
Iteration 26
Size I+ 26
Size I- 2452
Time : 384.211
Syntactical distance : 0.009259259
Error Rate Precondition : 0.0
Error Rate Postcondition : 0.0
FSCORE : 1.0
Iteration 27
Size I+ 27
Size I- 2589
Time : 409.922
Syntactical distance : 0.009259259
Error Rate Precondition : 0.0
Error Rate Postcondition : 0.0
FSCORE : 1.0
Iteration 28
Size I+ 28
Size I- 2625
Time : 424.987
Syntactical distance : 0.009259259
Error Rate Precondition : 0.0
Error Rate Postcondition : 0.0
FSCORE : 1.0
Iteration 29
Size I+ 29
Size I- 2661
Time : 451.357
Syntactical distance : 0.009259259
Error Rate Precondition : 0.0
Error Rate Postcondition : 0.0
FSCORE : 1.0
Iteration 30
Size I+ 30
Size I- 2718
Time : 466.586
Syntactical distance : 0.009259259
Error Rate Precondition : 0.0
Error Rate Postcondition : 0.0
FSCORE : 1.0
