# actions 18
# predicate 16
Initial state : pddl/blocksworld/initial_states/initial3.pddl
pddl/blocksworld/domain.pddl
E+ size : 100
E- size : 23864
e+ mean size : 45.41
e- mean size : 32.710526
############################################
### Fluent = 25.0% ###

*** Noise = 0.0% ***
Iteration 1
Time : 2.283
Syntactical distance : 0.11805556
Error Rate Precondition : 0.07721836
Error Rate Postcondition : 0.0
FSCORE : 0.16513762
Iteration 2
Size I+ 2
Size I- 137
Time : 6.106
Syntactical distance : 0.027777778
Error Rate Precondition : 0.019558316
Error Rate Postcondition : 0.05230849
FSCORE : 0.30508474
Iteration 3
Size I+ 3
Size I- 187
Time : 10.589
Syntactical distance : 0.0
Error Rate Precondition : 0.0
Error Rate Postcondition : 0.0
FSCORE : 1.0
Iteration 4
Size I+ 4
Size I- 264
Time : 18.228
Syntactical distance : 0.0
Error Rate Precondition : 0.0
Error Rate Postcondition : 0.0
FSCORE : 1.0
Iteration 5
Size I+ 5
Size I- 316
Time : 26.307
Syntactical distance : 0.0
Error Rate Precondition : 0.0
Error Rate Postcondition : 0.0
FSCORE : 1.0
Iteration 6
Size I+ 6
Size I- 355
Time : 35.018
Syntactical distance : 0.0
Error Rate Precondition : 0.0
Error Rate Postcondition : 0.0
FSCORE : 1.0
Iteration 7
Size I+ 7
Size I- 423
Time : 42.829
Syntactical distance : 0.0
Error Rate Precondition : 0.0
Error Rate Postcondition : 0.0
FSCORE : 1.0
Iteration 8
Size I+ 8
Size I- 487
Time : 51.205
Syntactical distance : 0.0
Error Rate Precondition : 0.0
Error Rate Postcondition : 0.0
FSCORE : 1.0
Iteration 9
Size I+ 9
Size I- 519
Time : 59.407
Syntactical distance : 0.0
Error Rate Precondition : 0.0
Error Rate Postcondition : 0.0
FSCORE : 1.0
Iteration 10
Size I+ 10
Size I- 569
Time : 68.478
Syntactical distance : 0.0
Error Rate Precondition : 0.0
Error Rate Postcondition : 0.0
FSCORE : 1.0
Iteration 11
Size I+ 11
Size I- 646
Time : 77.98
Syntactical distance : 0.0
Error Rate Precondition : 0.0
Error Rate Postcondition : 0.0
FSCORE : 1.0
Iteration 12
Size I+ 12
Size I- 721
Time : 88.585
Syntactical distance : 0.0
Error Rate Precondition : 0.0
Error Rate Postcondition : 0.0
FSCORE : 1.0
Iteration 13
Size I+ 13
Size I- 776
Time : 99.463
Syntactical distance : 0.0
Error Rate Precondition : 0.0
Error Rate Postcondition : 0.0
FSCORE : 1.0
Iteration 14
Size I+ 14
Size I- 849
Time : 113.972
Syntactical distance : 0.0
Error Rate Precondition : 0.0
Error Rate Postcondition : 0.0
FSCORE : 1.0
Iteration 15
Size I+ 15
Size I- 867
Time : 121.796
Syntactical distance : 0.0
Error Rate Precondition : 0.0
Error Rate Postcondition : 0.0
FSCORE : 1.0
Iteration 16
Size I+ 16
Size I- 933
Time : 135.167
Syntactical distance : 0.0
Error Rate Precondition : 0.0
Error Rate Postcondition : 0.0
FSCORE : 1.0
Iteration 17
Size I+ 17
Size I- 1055
Time : 149.252
Syntactical distance : 0.0
Error Rate Precondition : 0.0
Error Rate Postcondition : 0.0
FSCORE : 1.0
Iteration 18
Size I+ 18
Size I- 1111
Time : 163.821
Syntactical distance : 0.0
Error Rate Precondition : 0.0
Error Rate Postcondition : 0.0
FSCORE : 1.0
Iteration 19
Size I+ 19
Size I- 1150
Time : 183.36
Syntactical distance : 0.0
Error Rate Precondition : 0.0
Error Rate Postcondition : 0.0
FSCORE : 1.0
Iteration 20
Size I+ 20
Size I- 1180
Time : 192.293
Syntactical distance : 0.0
Error Rate Precondition : 0.0
Error Rate Postcondition : 0.0
FSCORE : 1.0
Iteration 21
Size I+ 21
Size I- 1262
Time : 218.037
Syntactical distance : 0.0
Error Rate Precondition : 0.0
Error Rate Postcondition : 0.0
FSCORE : 1.0
Iteration 22
Size I+ 22
Size I- 1333
Time : 227.252
Syntactical distance : 0.0
Error Rate Precondition : 0.0
Error Rate Postcondition : 0.0
FSCORE : 1.0
Iteration 23
Size I+ 23
Size I- 1394
Time : 245.792
Syntactical distance : 0.0
Error Rate Precondition : 0.0
Error Rate Postcondition : 0.0
FSCORE : 1.0
Iteration 24
Size I+ 24
Size I- 1444
Time : 267.477
Syntactical distance : 0.0
Error Rate Precondition : 0.0
Error Rate Postcondition : 0.0
FSCORE : 1.0
Iteration 25
Size I+ 25
Size I- 1537
Time : 294.945
Syntactical distance : 0.0
Error Rate Precondition : 0.0
Error Rate Postcondition : 0.0
FSCORE : 1.0
Iteration 26
Size I+ 26
Size I- 1566
Time : 317.023
Syntactical distance : 0.0
Error Rate Precondition : 0.0
Error Rate Postcondition : 0.0
FSCORE : 1.0
Iteration 27
Size I+ 27
Size I- 1614
Time : 340.983
Syntactical distance : 0.0
Error Rate Precondition : 0.0
Error Rate Postcondition : 0.0
FSCORE : 1.0
Iteration 28
Size I+ 28
Size I- 1689
Time : 351.221
Syntactical distance : 0.0
Error Rate Precondition : 0.0
Error Rate Postcondition : 0.0
FSCORE : 1.0
Iteration 29
Size I+ 29
Size I- 1757
Time : 397.106
Syntactical distance : 0.0
Error Rate Precondition : 0.0
Error Rate Postcondition : 0.0
FSCORE : 1.0
Iteration 30
Size I+ 30
Size I- 1848
Time : 428.532
Syntactical distance : 0.0
Error Rate Precondition : 0.0
Error Rate Postcondition : 0.0
FSCORE : 1.0

*** Noise = 20.0% ***
Iteration 1
Time : 2.132
Syntactical distance : 0.13657407
Error Rate Precondition : 0.14016415
Error Rate Postcondition : 0.086317904
FSCORE : 0.16513762
Iteration 2
Size I+ 2
Size I- 137
Time : 5.642
Syntactical distance : 0.074074075
Error Rate Precondition : 0.11617185
Error Rate Postcondition : 0.0
FSCORE : 0.17486338
Iteration 3
Size I+ 3
Size I- 187
Time : 9.932
Syntactical distance : 0.027777778
Error Rate Precondition : 0.046728607
Error Rate Postcondition : 0.0
FSCORE : 1.0
Iteration 4
Size I+ 4
Size I- 264
Time : 19.593
Syntactical distance : 0.055555556
Error Rate Precondition : 0.07573488
Error Rate Postcondition : 0.08635219
FSCORE : 1.0
Iteration 5
Size I+ 5
Size I- 316
Time : 31.304
Syntactical distance : 0.027777778
Error Rate Precondition : 0.046728607
Error Rate Postcondition : 0.0
FSCORE : 1.0
Iteration 6
Size I+ 6
Size I- 355
Time : 40.651
Syntactical distance : 0.083333336
Error Rate Precondition : 0.12644129
Error Rate Postcondition : 0.10579966
FSCORE : 0.6289308
Iteration 7
Size I+ 7
Size I- 423
Time : 51.72
Syntactical distance : 0.083333336
Error Rate Precondition : 0.12644129
Error Rate Postcondition : 0.10579966
FSCORE : 0.6289308
Iteration 8
Size I+ 8
Size I- 487
Time : 63.546
Syntactical distance : 0.074074075
Error Rate Precondition : 0.12644129
Error Rate Postcondition : 0.06233049
FSCORE : 1.0
Iteration 9
Size I+ 9
Size I- 519
Time : 74.787
Syntactical distance : 0.074074075
Error Rate Precondition : 0.12644129
Error Rate Postcondition : 0.06233049
FSCORE : 1.0
Iteration 10
Size I+ 10
Size I- 569
Time : 87.827
Syntactical distance : 0.074074075
Error Rate Precondition : 0.12644129
Error Rate Postcondition : 0.06233049
FSCORE : 1.0
Iteration 11
Size I+ 11
Size I- 646
Time : 101.589
Syntactical distance : 0.074074075
Error Rate Precondition : 0.12644129
Error Rate Postcondition : 0.06233049
FSCORE : 1.0
Iteration 12
Size I+ 12
Size I- 721
Time : 121.051
Syntactical distance : 0.0462963
Error Rate Precondition : 0.0801715
Error Rate Postcondition : 0.055637214
FSCORE : 0.22962113
Iteration 13
Size I+ 13
Size I- 776
Time : 142.491
Syntactical distance : 0.0462963
Error Rate Precondition : 0.0801715
Error Rate Postcondition : 0.055637214
FSCORE : 0.22962113
Iteration 14
Size I+ 14
Size I- 849
Time : 161.305
Syntactical distance : 0.06481481
Error Rate Precondition : 0.08757388
Error Rate Postcondition : 0.06233049
FSCORE : 1.0
Iteration 15
Size I+ 15
Size I- 867
Time : 173.213
Syntactical distance : 0.06481481
Error Rate Precondition : 0.08757388
Error Rate Postcondition : 0.06233049
FSCORE : 1.0
Iteration 16
Size I+ 16
Size I- 933
Time : 190.466
Syntactical distance : 0.06481481
Error Rate Precondition : 0.08757388
Error Rate Postcondition : 0.06233049
FSCORE : 1.0
Iteration 17
Size I+ 17
Size I- 1055
Time : 208.441
Syntactical distance : 0.06481481
Error Rate Precondition : 0.08757388
Error Rate Postcondition : 0.06233049
FSCORE : 1.0
Iteration 18
Size I+ 18
Size I- 1111
Time : 227.25
Syntactical distance : 0.06481481
Error Rate Precondition : 0.08757388
Error Rate Postcondition : 0.06233049
FSCORE : 1.0
Iteration 19
Size I+ 19
Size I- 1150
Time : 250.773
Syntactical distance : 0.06481481
Error Rate Precondition : 0.08757388
Error Rate Postcondition : 0.06233049
FSCORE : 1.0
Iteration 20
Size I+ 20
Size I- 1180
Time : 264.008
Syntactical distance : 0.06481481
Error Rate Precondition : 0.08757388
Error Rate Postcondition : 0.06233049
FSCORE : 1.0
Iteration 21
Size I+ 21
Size I- 1262
Time : 290.333
Syntactical distance : 0.06481481
Error Rate Precondition : 0.08757388
Error Rate Postcondition : 0.06233049
FSCORE : 1.0
Iteration 22
Size I+ 22
Size I- 1333
Time : 299.863
Syntactical distance : 0.055555556
Error Rate Precondition : 0.08757388
Error Rate Postcondition : 0.058915082
FSCORE : 1.0
Iteration 23
Size I+ 23
Size I- 1394
Time : 318.842
Syntactical distance : 0.055555556
Error Rate Precondition : 0.08757388
Error Rate Postcondition : 0.058915082
FSCORE : 1.0
Iteration 24
Size I+ 24
Size I- 1444
Time : 340.938
Syntactical distance : 0.055555556
Error Rate Precondition : 0.08757388
Error Rate Postcondition : 0.058915082
FSCORE : 1.0
Iteration 25
Size I+ 25
Size I- 1537
Time : 374.971
Syntactical distance : 0.0
Error Rate Precondition : 0.0
Error Rate Postcondition : 0.0
FSCORE : 1.0
Iteration 26
Size I+ 26
Size I- 1566
Time : 397.072
Syntactical distance : 0.0
Error Rate Precondition : 0.0
Error Rate Postcondition : 0.0
FSCORE : 1.0
Iteration 27
Size I+ 27
Size I- 1614
Time : 421.407
Syntactical distance : 0.0
Error Rate Precondition : 0.0
Error Rate Postcondition : 0.0
FSCORE : 1.0
Iteration 28
Size I+ 28
Size I- 1689
Time : 431.771
Syntactical distance : 0.0
Error Rate Precondition : 0.0
Error Rate Postcondition : 0.0
FSCORE : 1.0
Iteration 29
Size I+ 29
Size I- 1757
Time : 477.9
Syntactical distance : 0.0
Error Rate Precondition : 0.0
Error Rate Postcondition : 0.0
FSCORE : 1.0
Iteration 30
Size I+ 30
Size I- 1848
Time : 509.408
Syntactical distance : 0.0
Error Rate Precondition : 0.0
Error Rate Postcondition : 0.0
FSCORE : 1.0
############################################
### Fluent = 100.0% ###

*** Noise = 0.0% ***
Iteration 1
Time : 0.452
Syntactical distance : 0.0
Error Rate Precondition : 0.021299109
Error Rate Postcondition : 0.0
FSCORE : 0.16513762
Iteration 2
Size I+ 2
Size I- 146
Time : 2.247
Syntactical distance : 0.0
Error Rate Precondition : 0.0
Error Rate Postcondition : 0.0
FSCORE : 1.0
Iteration 3
Size I+ 3
Size I- 277
Time : 8.338
Syntactical distance : 0.0
Error Rate Precondition : 0.0
Error Rate Postcondition : 0.0
FSCORE : 1.0
Iteration 4
Size I+ 4
Size I- 328
Time : 14.725
Syntactical distance : 0.0
Error Rate Precondition : 0.0
Error Rate Postcondition : 0.0
FSCORE : 1.0
Iteration 5
Size I+ 5
Size I- 415
Time : 21.437
Syntactical distance : 0.0
Error Rate Precondition : 0.0
Error Rate Postcondition : 0.0
FSCORE : 1.0
Iteration 6
Size I+ 6
Size I- 466
Time : 28.363
Syntactical distance : 0.0
Error Rate Precondition : 0.0
Error Rate Postcondition : 0.0
FSCORE : 1.0
Iteration 7
Size I+ 7
Size I- 503
Time : 36.252
Syntactical distance : 0.0
Error Rate Precondition : 0.0
Error Rate Postcondition : 0.0
FSCORE : 1.0
Iteration 8
Size I+ 8
Size I- 542
Time : 44.237
Syntactical distance : 0.0
Error Rate Precondition : 0.0
Error Rate Postcondition : 0.0
FSCORE : 1.0
Iteration 9
Size I+ 9
Size I- 637
Time : 52.813
Syntactical distance : 0.0
Error Rate Precondition : 0.0
Error Rate Postcondition : 0.0
FSCORE : 1.0
Iteration 10
Size I+ 10
Size I- 710
Time : 61.498
Syntactical distance : 0.0
Error Rate Precondition : 0.0
Error Rate Postcondition : 0.0
FSCORE : 1.0
Iteration 11
Size I+ 11
Size I- 783
Time : 71.307
Syntactical distance : 0.0
Error Rate Precondition : 0.0
Error Rate Postcondition : 0.0
FSCORE : 1.0
Iteration 12
Size I+ 12
Size I- 833
Time : 82.185
Syntactical distance : 0.0
Error Rate Precondition : 0.0
Error Rate Postcondition : 0.0
FSCORE : 1.0
Iteration 13
Size I+ 13
Size I- 870
Time : 93.625
Syntactical distance : 0.0
Error Rate Precondition : 0.0
Error Rate Postcondition : 0.0
FSCORE : 1.0
Iteration 14
Size I+ 14
Size I- 960
Time : 106.596
Syntactical distance : 0.0
Error Rate Precondition : 0.0
Error Rate Postcondition : 0.0
FSCORE : 1.0
Iteration 15
Size I+ 15
Size I- 1017
Time : 120.621
Syntactical distance : 0.0
Error Rate Precondition : 0.0
Error Rate Postcondition : 0.0
FSCORE : 1.0
Iteration 16
Size I+ 16
Size I- 1065
Time : 134.55
Syntactical distance : 0.0
Error Rate Precondition : 0.0
Error Rate Postcondition : 0.0
FSCORE : 1.0
Iteration 17
Size I+ 17
Size I- 1122
Time : 143.202
Syntactical distance : 0.0
Error Rate Precondition : 0.0
Error Rate Postcondition : 0.0
FSCORE : 1.0
Iteration 18
Size I+ 18
Size I- 1209
Time : 159.08
Syntactical distance : 0.0
Error Rate Precondition : 0.0
Error Rate Postcondition : 0.0
FSCORE : 1.0
Iteration 19
Size I+ 19
Size I- 1260
Time : 174.357
Syntactical distance : 0.0
Error Rate Precondition : 0.0
Error Rate Postcondition : 0.0
FSCORE : 1.0
Iteration 20
Size I+ 20
Size I- 1311
Time : 190.524
Syntactical distance : 0.0
Error Rate Precondition : 0.0
Error Rate Postcondition : 0.0
FSCORE : 1.0
Iteration 21
Size I+ 21
Size I- 1357
Time : 199.758
Syntactical distance : 0.0
Error Rate Precondition : 0.0
Error Rate Postcondition : 0.0
FSCORE : 1.0
Iteration 22
Size I+ 22
Size I- 1422
Time : 217.177
Syntactical distance : 0.0
Error Rate Precondition : 0.0
Error Rate Postcondition : 0.0
FSCORE : 1.0
Iteration 23
Size I+ 23
Size I- 1456
Time : 226.749
Syntactical distance : 0.0
Error Rate Precondition : 0.0
Error Rate Postcondition : 0.0
FSCORE : 1.0
Iteration 24
Size I+ 24
Size I- 1476
Time : 236.284
Syntactical distance : 0.0
Error Rate Precondition : 0.0
Error Rate Postcondition : 0.0
FSCORE : 1.0
Iteration 25
Size I+ 25
Size I- 1527
Time : 254.197
Syntactical distance : 0.0
Error Rate Precondition : 0.0
Error Rate Postcondition : 0.0
FSCORE : 1.0
Iteration 26
Size I+ 26
Size I- 1581
Time : 264.236
Syntactical distance : 0.0
Error Rate Precondition : 0.0
Error Rate Postcondition : 0.0
FSCORE : 1.0
Iteration 27
Size I+ 27
Size I- 1641
Time : 282.057
Syntactical distance : 0.0
Error Rate Precondition : 0.0
Error Rate Postcondition : 0.0
FSCORE : 1.0
Iteration 28
Size I+ 28
Size I- 1723
Time : 292.616
Syntactical distance : 0.0
Error Rate Precondition : 0.0
Error Rate Postcondition : 0.0
FSCORE : 1.0
Iteration 29
Size I+ 29
Size I- 1769
Time : 303.469
Syntactical distance : 0.0
Error Rate Precondition : 0.0
Error Rate Postcondition : 0.0
FSCORE : 1.0
Iteration 30
Size I+ 30
Size I- 1894
Time : 320.665
Syntactical distance : 0.0
Error Rate Precondition : 0.0
Error Rate Postcondition : 0.0
FSCORE : 1.0

*** Noise = 20.0% ***
Iteration 1
Time : 1.642
Syntactical distance : 0.055555556
Error Rate Precondition : 0.024359776
Error Rate Postcondition : 0.0
FSCORE : 0.073469386
Iteration 2
Size I+ 2
Size I- 146
Time : 4.311
Syntactical distance : 0.0
Error Rate Precondition : 0.0
Error Rate Postcondition : 0.0
FSCORE : 1.0
Iteration 3
Size I+ 3
Size I- 277
Time : 12.051
Syntactical distance : 0.027777778
Error Rate Precondition : 0.081644
Error Rate Postcondition : 0.0
FSCORE : 0.01980198
Iteration 4
Size I+ 4
Size I- 328
Time : 16.644
Syntactical distance : 0.0
Error Rate Precondition : 0.0
Error Rate Postcondition : 0.0
FSCORE : 1.0
Iteration 5
Size I+ 5
Size I- 415
Time : 25.373
Syntactical distance : 0.0
Error Rate Precondition : 0.0
Error Rate Postcondition : 0.0
FSCORE : 1.0
Iteration 6
Size I+ 6
Size I- 466
Time : 34.752
Syntactical distance : 0.0
Error Rate Precondition : 0.0
Error Rate Postcondition : 0.0
FSCORE : 1.0
Iteration 7
Size I+ 7
Size I- 503
Time : 44.608
Syntactical distance : 0.0
Error Rate Precondition : 0.0
Error Rate Postcondition : 0.0
FSCORE : 1.0
Iteration 8
Size I+ 8
Size I- 542
Time : 54.716
Syntactical distance : 0.0
Error Rate Precondition : 0.0
Error Rate Postcondition : 0.0
FSCORE : 1.0
Iteration 9
Size I+ 9
Size I- 637
Time : 65.793
Syntactical distance : 0.0
Error Rate Precondition : 0.0
Error Rate Postcondition : 0.0
FSCORE : 1.0
Iteration 10
Size I+ 10
Size I- 710
Time : 77.003
Syntactical distance : 0.0462963
Error Rate Precondition : 0.07703374
Error Rate Postcondition : 0.055637214
FSCORE : 0.22962113
Iteration 11
Size I+ 11
Size I- 783
Time : 90.005
Syntactical distance : 0.0
Error Rate Precondition : 0.0
Error Rate Postcondition : 0.0
FSCORE : 1.0
Iteration 12
Size I+ 12
Size I- 833
Time : 101.119
Syntactical distance : 0.0
Error Rate Precondition : 0.0
Error Rate Postcondition : 0.0
FSCORE : 1.0
Iteration 13
Size I+ 13
Size I- 870
Time : 112.697
Syntactical distance : 0.0
Error Rate Precondition : 0.0
Error Rate Postcondition : 0.0
FSCORE : 1.0
Iteration 14
Size I+ 14
Size I- 960
Time : 125.574
Syntactical distance : 0.0
Error Rate Precondition : 0.0
Error Rate Postcondition : 0.0
FSCORE : 1.0
Iteration 15
Size I+ 15
Size I- 1017
Time : 139.564
Syntactical distance : 0.0
Error Rate Precondition : 0.0
Error Rate Postcondition : 0.0
FSCORE : 1.0
Iteration 16
Size I+ 16
Size I- 1065
Time : 156.599
Syntactical distance : 0.0462963
Error Rate Precondition : 0.07703374
Error Rate Postcondition : 0.055637214
FSCORE : 0.22962113
Iteration 17
Size I+ 17
Size I- 1122
Time : 169.018
Syntactical distance : 0.0462963
Error Rate Precondition : 0.07703374
Error Rate Postcondition : 0.055637214
FSCORE : 0.22962113
Iteration 18
Size I+ 18
Size I- 1209
Time : 189.121
Syntactical distance : 0.0462963
Error Rate Precondition : 0.07703374
Error Rate Postcondition : 0.055637214
FSCORE : 0.22962113
Iteration 19
Size I+ 19
Size I- 1260
Time : 214.204
Syntactical distance : 0.0
Error Rate Precondition : 0.0
Error Rate Postcondition : 0.0
FSCORE : 1.0
Iteration 20
Size I+ 20
Size I- 1311
Time : 230.608
Syntactical distance : 0.0
Error Rate Precondition : 0.0
Error Rate Postcondition : 0.0
FSCORE : 1.0
Iteration 21
Size I+ 21
Size I- 1357
Time : 239.93
Syntactical distance : 0.0
Error Rate Precondition : 0.0
Error Rate Postcondition : 0.0
FSCORE : 1.0
Iteration 22
Size I+ 22
Size I- 1422
Time : 257.839
Syntactical distance : 0.0
Error Rate Precondition : 0.0
Error Rate Postcondition : 0.0
FSCORE : 1.0
Iteration 23
Size I+ 23
Size I- 1456
Time : 267.528
Syntactical distance : 0.0
Error Rate Precondition : 0.0
Error Rate Postcondition : 0.0
FSCORE : 1.0
Iteration 24
Size I+ 24
Size I- 1476
Time : 277.267
Syntactical distance : 0.0
Error Rate Precondition : 0.0
Error Rate Postcondition : 0.0
FSCORE : 1.0
Iteration 25
Size I+ 25
Size I- 1527
Time : 306.458
Syntactical distance : 0.0
Error Rate Precondition : 0.0
Error Rate Postcondition : 0.0
FSCORE : 1.0
Iteration 26
Size I+ 26
Size I- 1581
Time : 327.817
Syntactical distance : 0.0
Error Rate Precondition : 0.0
Error Rate Postcondition : 0.0
FSCORE : 1.0
Iteration 27
Size I+ 27
Size I- 1641
Time : 362.173
Syntactical distance : 0.0
Error Rate Precondition : 0.0
Error Rate Postcondition : 0.0
FSCORE : 1.0
Iteration 28
Size I+ 28
Size I- 1723
Time : 388.24
Syntactical distance : 0.0
Error Rate Precondition : 0.0
Error Rate Postcondition : 0.0
FSCORE : 1.0
Iteration 29
Size I+ 29
Size I- 1769
Time : 415.125
Syntactical distance : 0.0
Error Rate Precondition : 0.0
Error Rate Postcondition : 0.0
FSCORE : 1.0
Iteration 30
Size I+ 30
Size I- 1894
Time : 459.349
Syntactical distance : 0.0
Error Rate Precondition : 0.0
Error Rate Postcondition : 0.0
FSCORE : 1.0
E+ size : 100
E- size : 28025
e+ mean size : 54.08
e- mean size : 37.01067
############################################
### Fluent = 25.0% ###

*** Noise = 0.0% ***
Iteration 1
Time : 1.307
Syntactical distance : 0.1898148
Error Rate Precondition : 0.10006347
Error Rate Postcondition : 0.06545242
FSCORE : 0.056603774
Iteration 2
Size I+ 2
Size I- 101
Time : 3.687
Syntactical distance : 0.0462963
Error Rate Precondition : 0.020379044
Error Rate Postcondition : 0.028988007
FSCORE : 0.14615385
Iteration 3
Size I+ 3
Size I- 165
Time : 8.97
Syntactical distance : 0.0462963
Error Rate Precondition : 0.07618374
Error Rate Postcondition : 0.0
FSCORE : 0.23008849
Iteration 4
Size I+ 4
Size I- 273
Time : 13.542
Syntactical distance : 0.0
Error Rate Precondition : 0.0
Error Rate Postcondition : 0.0
FSCORE : 1.0
Iteration 5
Size I+ 5
Size I- 317
Time : 23.323
Syntactical distance : 0.0
Error Rate Precondition : 0.0
Error Rate Postcondition : 0.0
FSCORE : 1.0
Iteration 6
Size I+ 6
Size I- 343
Time : 33.674
Syntactical distance : 0.0
Error Rate Precondition : 0.0
Error Rate Postcondition : 0.0
FSCORE : 1.0
Iteration 7
Size I+ 7
Size I- 390
Time : 44.356
Syntactical distance : 0.0
Error Rate Precondition : 0.0
Error Rate Postcondition : 0.0
FSCORE : 1.0
Iteration 8
Size I+ 8
Size I- 449
Time : 55.519
Syntactical distance : 0.018518519
Error Rate Precondition : 0.018676976
Error Rate Postcondition : 0.025647877
FSCORE : 0.2317073
Iteration 9
Size I+ 9
Size I- 519
Time : 63.177
Syntactical distance : 0.018518519
Error Rate Precondition : 0.018676976
Error Rate Postcondition : 0.025647877
FSCORE : 0.2317073
Iteration 10
Size I+ 10
Size I- 608
Time : 69.48
Syntactical distance : 0.0
Error Rate Precondition : 0.0
Error Rate Postcondition : 0.0
FSCORE : 1.0
Iteration 11
Size I+ 11
Size I- 694
Time : 79.106
Syntactical distance : 0.0
Error Rate Precondition : 0.0
Error Rate Postcondition : 0.0
FSCORE : 1.0
Iteration 12
Size I+ 12
Size I- 779
Time : 89.058
Syntactical distance : 0.0
Error Rate Precondition : 0.0
Error Rate Postcondition : 0.0
FSCORE : 1.0
Iteration 13
Size I+ 13
Size I- 893
Time : 98.498
Syntactical distance : 0.0
Error Rate Precondition : 0.0
Error Rate Postcondition : 0.0
FSCORE : 1.0
Iteration 14
Size I+ 14
Size I- 1011
Time : 108.939
Syntactical distance : 0.0
Error Rate Precondition : 0.0
Error Rate Postcondition : 0.0
FSCORE : 1.0
Iteration 15
Size I+ 15
Size I- 1116
Time : 120.638
Syntactical distance : 0.0
Error Rate Precondition : 0.0
Error Rate Postcondition : 0.0
FSCORE : 1.0
Iteration 16
Size I+ 16
Size I- 1167
Time : 130.758
Syntactical distance : 0.0
Error Rate Precondition : 0.0
Error Rate Postcondition : 0.0
FSCORE : 1.0
Iteration 17
Size I+ 17
Size I- 1226
Time : 145.679
Syntactical distance : 0.0
Error Rate Precondition : 0.0
Error Rate Postcondition : 0.0
FSCORE : 1.0
Iteration 18
Size I+ 18
Size I- 1253
Time : 156.099
Syntactical distance : 0.0
Error Rate Precondition : 0.0
Error Rate Postcondition : 0.0
FSCORE : 1.0
Iteration 19
Size I+ 19
Size I- 1301
Time : 166.582
Syntactical distance : 0.0
Error Rate Precondition : 0.0
Error Rate Postcondition : 0.0
FSCORE : 1.0
Iteration 20
Size I+ 20
Size I- 1345
Time : 177.28
Syntactical distance : 0.0
Error Rate Precondition : 0.0
Error Rate Postcondition : 0.0
FSCORE : 1.0
Iteration 21
Size I+ 21
Size I- 1441
Time : 193.865
Syntactical distance : 0.0
Error Rate Precondition : 0.0
Error Rate Postcondition : 0.0
FSCORE : 1.0
Iteration 22
Size I+ 22
Size I- 1493
Time : 212.331
Syntactical distance : 0.0
Error Rate Precondition : 0.0
Error Rate Postcondition : 0.0
FSCORE : 1.0
Iteration 23
Size I+ 23
Size I- 1567
Time : 230.894
Syntactical distance : 0.0
Error Rate Precondition : 0.0
Error Rate Postcondition : 0.0
FSCORE : 1.0
Iteration 24
Size I+ 24
Size I- 1608
Time : 242.214
Syntactical distance : 0.0
Error Rate Precondition : 0.0
Error Rate Postcondition : 0.0
FSCORE : 1.0
Iteration 25
Size I+ 25
Size I- 1676
Time : 253.804
Syntactical distance : 0.0
Error Rate Precondition : 0.0
Error Rate Postcondition : 0.0
FSCORE : 1.0
Iteration 26
Size I+ 26
Size I- 1723
Time : 269.695
Syntactical distance : 0.0
Error Rate Precondition : 0.0
Error Rate Postcondition : 0.0
FSCORE : 1.0
Iteration 27
Size I+ 27
Size I- 1763
Time : 281.634
Syntactical distance : 0.0
Error Rate Precondition : 0.0
Error Rate Postcondition : 0.0
FSCORE : 1.0
Iteration 28
Size I+ 28
Size I- 1800
Time : 293.871
Syntactical distance : 0.0
Error Rate Precondition : 0.0
Error Rate Postcondition : 0.0
FSCORE : 1.0
Iteration 29
Size I+ 29
Size I- 1858
Time : 306.018
Syntactical distance : 0.0
Error Rate Precondition : 0.0
Error Rate Postcondition : 0.0
FSCORE : 1.0
Iteration 30
Size I+ 30
Size I- 1880
Time : 318.242
Syntactical distance : 0.0
Error Rate Precondition : 0.0
Error Rate Postcondition : 0.0
FSCORE : 1.0

*** Noise = 20.0% ***
Iteration 1
Time : 1.677
Syntactical distance : 0.18981482
Error Rate Precondition : 0.09817616
Error Rate Postcondition : 0.16114707
FSCORE : 0.051612906
Iteration 2
Size I+ 2
Size I- 101
Time : 5.19
Syntactical distance : 0.074074075
Error Rate Precondition : 0.06833156
Error Rate Postcondition : 0.033328373
FSCORE : 0.23008849
Iteration 3
Size I+ 3
Size I- 165
Time : 10.282
Syntactical distance : 0.08796297
Error Rate Precondition : 0.06773679
Error Rate Postcondition : 0.0
FSCORE : 0.17500001
Iteration 4
Size I+ 4
Size I- 273
Time : 12.639
Syntactical distance : 0.17129631
Error Rate Precondition : 0.06362629
Error Rate Postcondition : 0.1419737
FSCORE : 0.055813953
Iteration 5
Size I+ 5
Size I- 317
Time : 19.444
Syntactical distance : 0.0
Error Rate Precondition : 0.0
Error Rate Postcondition : 0.0
FSCORE : 1.0
Iteration 6
Size I+ 6
Size I- 343
Time : 30.696
Syntactical distance : 0.0
Error Rate Precondition : 0.0
Error Rate Postcondition : 0.0
FSCORE : 1.0
Iteration 7
Size I+ 7
Size I- 390
Time : 41.965
Syntactical distance : 0.0
Error Rate Precondition : 0.0
Error Rate Postcondition : 0.0
FSCORE : 1.0
Iteration 8
Size I+ 8
Size I- 449
Time : 53.428
Syntactical distance : 0.0
Error Rate Precondition : 0.0
Error Rate Postcondition : 0.0
FSCORE : 1.0
Iteration 9
Size I+ 9
Size I- 519
Time : 65.988
Syntactical distance : 0.0
Error Rate Precondition : 0.0
Error Rate Postcondition : 0.0
FSCORE : 1.0
Iteration 10
Size I+ 10
Size I- 608
Time : 75.726
Syntactical distance : 0.0
Error Rate Precondition : 0.0
Error Rate Postcondition : 0.0
FSCORE : 1.0
Iteration 11
Size I+ 11
Size I- 694
Time : 87.255
Syntactical distance : 0.0462963
Error Rate Precondition : 0.06273986
Error Rate Postcondition : 0.050787132
FSCORE : 0.039215688
Iteration 12
Size I+ 12
Size I- 779
Time : 95.359
Syntactical distance : 0.0462963
Error Rate Precondition : 0.08399815
Error Rate Postcondition : 0.050787132
FSCORE : 0.039215688
Iteration 13
Size I+ 13
Size I- 893
Time : 102.295
Syntactical distance : 0.0462963
Error Rate Precondition : 0.06273986
Error Rate Postcondition : 0.050787132
FSCORE : 0.039215688
Iteration 14
Size I+ 14
Size I- 1011
Time : 112.352
Syntactical distance : 0.0462963
Error Rate Precondition : 0.08399815
Error Rate Postcondition : 0.050787132
FSCORE : 0.039215688
Iteration 15
Size I+ 15
Size I- 1116
Time : 128.804
Syntactical distance : 0.0
Error Rate Precondition : 0.0
Error Rate Postcondition : 0.0
FSCORE : 1.0
Iteration 16
Size I+ 16
Size I- 1167
Time : 147.427
Syntactical distance : 0.0
Error Rate Precondition : 0.0
Error Rate Postcondition : 0.0
FSCORE : 1.0
Iteration 17
Size I+ 17
Size I- 1226
Time : 170.953
Syntactical distance : 0.0
Error Rate Precondition : 0.0
Error Rate Postcondition : 0.0
FSCORE : 1.0
Iteration 18
Size I+ 18
Size I- 1253
Time : 190.477
Syntactical distance : 0.0
Error Rate Precondition : 0.0
Error Rate Postcondition : 0.0
FSCORE : 1.0
Iteration 19
Size I+ 19
Size I- 1301
Time : 213.355
Syntactical distance : 0.0
Error Rate Precondition : 0.0
Error Rate Postcondition : 0.0
FSCORE : 1.0
Iteration 20
Size I+ 20
Size I- 1345
Time : 239.506
Syntactical distance : 0.0
Error Rate Precondition : 0.0
Error Rate Postcondition : 0.0
FSCORE : 1.0
Iteration 21
Size I+ 21
Size I- 1441
Time : 270.652
Syntactical distance : 0.0
Error Rate Precondition : 0.0
Error Rate Postcondition : 0.0
FSCORE : 1.0
Iteration 22
Size I+ 22
Size I- 1493
Time : 302.584
Syntactical distance : 0.0462963
Error Rate Precondition : 0.060437217
Error Rate Postcondition : 0.07604381
FSCORE : 0.19493178
Iteration 23
Size I+ 23
Size I- 1567
Time : 330.977
Syntactical distance : 0.0
Error Rate Precondition : 0.0
Error Rate Postcondition : 0.0
FSCORE : 1.0
Iteration 24
Size I+ 24
Size I- 1608
Time : 350.845
Syntactical distance : 0.0
Error Rate Precondition : 0.0
Error Rate Postcondition : 0.0
FSCORE : 1.0
Iteration 25
Size I+ 25
Size I- 1676
Time : 371.201
Syntactical distance : 0.0
Error Rate Precondition : 0.0
Error Rate Postcondition : 0.0
FSCORE : 1.0
Iteration 26
Size I+ 26
Size I- 1723
Time : 392.283
Syntactical distance : 0.0462963
Error Rate Precondition : 0.060437217
Error Rate Postcondition : 0.07604381
FSCORE : 0.19493178
Iteration 27
Size I+ 27
Size I- 1763
Time : 415.414
Syntactical distance : 0.055555556
Error Rate Precondition : 0.06927563
Error Rate Postcondition : 0.08030358
FSCORE : 1.0
Iteration 28
Size I+ 28
Size I- 1800
Time : 433.57
Syntactical distance : 0.055555556
Error Rate Precondition : 0.06927563
Error Rate Postcondition : 0.08030358
FSCORE : 1.0
Iteration 29
Size I+ 29
Size I- 1858
Time : 452.085
Syntactical distance : 0.055555556
Error Rate Precondition : 0.06927563
Error Rate Postcondition : 0.08030358
FSCORE : 1.0
Iteration 30
Size I+ 30
Size I- 1880
Time : 470.716
Syntactical distance : 0.055555556
Error Rate Precondition : 0.06927563
Error Rate Postcondition : 0.08030358
FSCORE : 1.0
############################################
### Fluent = 100.0% ###

*** Noise = 0.0% ***
Iteration 1
Time : 0.428
Syntactical distance : 0.018518519
Error Rate Precondition : 0.036185913
Error Rate Postcondition : 0.0
FSCORE : 0.23008849
Iteration 2
Size I+ 2
Size I- 119
Time : 3.153
Syntactical distance : 0.0
Error Rate Precondition : 0.0
Error Rate Postcondition : 0.0
FSCORE : 1.0
Iteration 3
Size I+ 3
Size I- 201
Time : 10.946
Syntactical distance : 0.0
Error Rate Precondition : 0.0
Error Rate Postcondition : 0.0
FSCORE : 1.0
Iteration 4
Size I+ 4
Size I- 281
Time : 18.811
Syntactical distance : 0.0
Error Rate Precondition : 0.0
Error Rate Postcondition : 0.0
FSCORE : 1.0
Iteration 5
Size I+ 5
Size I- 333
Time : 27.04
Syntactical distance : 0.0
Error Rate Precondition : 0.0
Error Rate Postcondition : 0.0
FSCORE : 1.0
Iteration 6
Size I+ 6
Size I- 394
Time : 35.589
Syntactical distance : 0.0
Error Rate Precondition : 0.0
Error Rate Postcondition : 0.0
FSCORE : 1.0
Iteration 7
Size I+ 7
Size I- 453
Time : 44.359
Syntactical distance : 0.0
Error Rate Precondition : 0.0
Error Rate Postcondition : 0.0
FSCORE : 1.0
Iteration 8
Size I+ 8
Size I- 517
Time : 53.323
Syntactical distance : 0.0
Error Rate Precondition : 0.0
Error Rate Postcondition : 0.0
FSCORE : 1.0
Iteration 9
Size I+ 9
Size I- 587
Time : 63.334
Syntactical distance : 0.0
Error Rate Precondition : 0.0
Error Rate Postcondition : 0.0
FSCORE : 1.0
Iteration 10
Size I+ 10
Size I- 627
Time : 72.985
Syntactical distance : 0.0
Error Rate Precondition : 0.0
Error Rate Postcondition : 0.0
FSCORE : 1.0
Iteration 11
Size I+ 11
Size I- 729
Time : 83.551
Syntactical distance : 0.0
Error Rate Precondition : 0.0
Error Rate Postcondition : 0.0
FSCORE : 1.0
Iteration 12
Size I+ 12
Size I- 762
Time : 93.487
Syntactical distance : 0.0
Error Rate Precondition : 0.0
Error Rate Postcondition : 0.0
FSCORE : 1.0
Iteration 13
Size I+ 13
Size I- 877
Time : 104.348
Syntactical distance : 0.0
Error Rate Precondition : 0.0
Error Rate Postcondition : 0.0
FSCORE : 1.0
Iteration 14
Size I+ 14
Size I- 961
Time : 117.112
Syntactical distance : 0.0
Error Rate Precondition : 0.0
Error Rate Postcondition : 0.0
FSCORE : 1.0
Iteration 15
Size I+ 15
Size I- 1100
Time : 130.97
Syntactical distance : 0.0
Error Rate Precondition : 0.0
Error Rate Postcondition : 0.0
FSCORE : 1.0
Iteration 16
Size I+ 16
Size I- 1192
Time : 145.443
Syntactical distance : 0.0
Error Rate Precondition : 0.0
Error Rate Postcondition : 0.0
FSCORE : 1.0
Iteration 17
Size I+ 17
Size I- 1218
Time : 160.4
Syntactical distance : 0.0
Error Rate Precondition : 0.0
Error Rate Postcondition : 0.0
FSCORE : 1.0
Iteration 18
Size I+ 18
Size I- 1289
Time : 174.744
Syntactical distance : 0.0
Error Rate Precondition : 0.0
Error Rate Postcondition : 0.0
FSCORE : 1.0
Iteration 19
Size I+ 19
Size I- 1360
Time : 190.734
Syntactical distance : 0.0
Error Rate Precondition : 0.0
Error Rate Postcondition : 0.0
FSCORE : 1.0
Iteration 20
Size I+ 20
Size I- 1416
Time : 201.693
Syntactical distance : 0.0
Error Rate Precondition : 0.0
Error Rate Postcondition : 0.0
FSCORE : 1.0
Iteration 21
Size I+ 21
Size I- 1445
Time : 212.59
Syntactical distance : 0.0
Error Rate Precondition : 0.0
Error Rate Postcondition : 0.0
FSCORE : 1.0
Iteration 22
Size I+ 22
Size I- 1508
Time : 223.786
Syntactical distance : 0.0
Error Rate Precondition : 0.0
Error Rate Postcondition : 0.0
FSCORE : 1.0
Iteration 23
Size I+ 23
Size I- 1564
Time : 235.172
Syntactical distance : 0.0
Error Rate Precondition : 0.0
Error Rate Postcondition : 0.0
FSCORE : 1.0
Iteration 24
Size I+ 24
Size I- 1631
Time : 247.265
Syntactical distance : 0.0
Error Rate Precondition : 0.0
Error Rate Postcondition : 0.0
FSCORE : 1.0
Iteration 25
Size I+ 25
Size I- 1719
Time : 258.969
Syntactical distance : 0.0
Error Rate Precondition : 0.0
Error Rate Postcondition : 0.0
FSCORE : 1.0
Iteration 26
Size I+ 26
Size I- 1792
Time : 279.726
Syntactical distance : 0.0
Error Rate Precondition : 0.0
Error Rate Postcondition : 0.0
FSCORE : 1.0
Iteration 27
Size I+ 27
Size I- 1877
Time : 296.237
Syntactical distance : 0.0
Error Rate Precondition : 0.0
Error Rate Postcondition : 0.0
FSCORE : 1.0
Iteration 28
Size I+ 28
Size I- 1971
Time : 318.793
Syntactical distance : 0.0
Error Rate Precondition : 0.0
Error Rate Postcondition : 0.0
FSCORE : 1.0
Iteration 29
Size I+ 29
Size I- 2009
Time : 334.516
Syntactical distance : 0.0
Error Rate Precondition : 0.0
Error Rate Postcondition : 0.0
FSCORE : 1.0
Iteration 30
Size I+ 30
Size I- 2090
Time : 347.377
Syntactical distance : 0.0
Error Rate Precondition : 0.0
Error Rate Postcondition : 0.0
FSCORE : 1.0

*** Noise = 20.0% ***
Iteration 1
Time : 1.025
Syntactical distance : 0.22222222
Error Rate Precondition : 0.14110488
Error Rate Postcondition : 0.0
FSCORE : 0.043290045
Iteration 2
Size I+ 2
Size I- 119
Time : 3.459
Syntactical distance : 0.097222224
Error Rate Precondition : 0.087497875
Error Rate Postcondition : 0.030185968
FSCORE : 0.039215688
Iteration 3
Size I+ 3
Size I- 201
Time : 6.549
Syntactical distance : 0.018518519
Error Rate Precondition : 0.0
Error Rate Postcondition : 0.0
FSCORE : 1.0
Iteration 4
Size I+ 4
Size I- 281
Time : 15.822
Syntactical distance : 0.0
Error Rate Precondition : 0.0
Error Rate Postcondition : 0.0
FSCORE : 1.0
Iteration 5
Size I+ 5
Size I- 333
Time : 25.682
Syntactical distance : 0.0
Error Rate Precondition : 0.0
Error Rate Postcondition : 0.0
FSCORE : 1.0
Iteration 6
Size I+ 6
Size I- 394
Time : 37.505
Syntactical distance : 0.0
Error Rate Precondition : 0.0
Error Rate Postcondition : 0.0
FSCORE : 1.0
Iteration 7
Size I+ 7
Size I- 453
Time : 50.365
Syntactical distance : 0.0
Error Rate Precondition : 0.0
Error Rate Postcondition : 0.0
FSCORE : 1.0
Iteration 8
Size I+ 8
Size I- 517
Time : 64.142
Syntactical distance : 0.0
Error Rate Precondition : 0.0
Error Rate Postcondition : 0.0
FSCORE : 1.0
Iteration 9
Size I+ 9
Size I- 587
Time : 74.044
Syntactical distance : 0.0
Error Rate Precondition : 0.0
Error Rate Postcondition : 0.0
FSCORE : 1.0
Iteration 10
Size I+ 10
Size I- 627
Time : 83.591
Syntactical distance : 0.0
Error Rate Precondition : 0.0
Error Rate Postcondition : 0.0
FSCORE : 1.0
Iteration 11
Size I+ 11
Size I- 729
Time : 94.072
Syntactical distance : 0.0
Error Rate Precondition : 0.0
Error Rate Postcondition : 0.0
FSCORE : 1.0
Iteration 12
Size I+ 12
Size I- 762
Time : 103.907
Syntactical distance : 0.0
Error Rate Precondition : 0.0
Error Rate Postcondition : 0.0
FSCORE : 1.0
Iteration 13
Size I+ 13
Size I- 877
Time : 114.598
Syntactical distance : 0.0
Error Rate Precondition : 0.0
Error Rate Postcondition : 0.0
FSCORE : 1.0
Iteration 14
Size I+ 14
Size I- 961
Time : 127.357
Syntactical distance : 0.0
Error Rate Precondition : 0.0
Error Rate Postcondition : 0.0
FSCORE : 1.0
Iteration 15
Size I+ 15
Size I- 1100
Time : 141.243
Syntactical distance : 0.0
Error Rate Precondition : 0.0
Error Rate Postcondition : 0.0
FSCORE : 1.0
Iteration 16
Size I+ 16
Size I- 1192
Time : 155.714
Syntactical distance : 0.0
Error Rate Precondition : 0.0
Error Rate Postcondition : 0.0
FSCORE : 1.0
Iteration 17
Size I+ 17
Size I- 1218
Time : 170.534
Syntactical distance : 0.0
Error Rate Precondition : 0.0
Error Rate Postcondition : 0.0
FSCORE : 1.0
Iteration 18
Size I+ 18
Size I- 1289
Time : 191.318
Syntactical distance : 0.0
Error Rate Precondition : 0.0
Error Rate Postcondition : 0.0
FSCORE : 1.0
Iteration 19
Size I+ 19
Size I- 1360
Time : 220.154
Syntactical distance : 0.0
Error Rate Precondition : 0.0
Error Rate Postcondition : 0.0
FSCORE : 1.0
Iteration 20
Size I+ 20
Size I- 1416
Time : 244.682
Syntactical distance : 0.0
Error Rate Precondition : 0.0
Error Rate Postcondition : 0.0
FSCORE : 1.0
Iteration 21
Size I+ 21
Size I- 1445
Time : 268.453
Syntactical distance : 0.0
Error Rate Precondition : 0.0
Error Rate Postcondition : 0.0
FSCORE : 1.0
Iteration 22
Size I+ 22
Size I- 1508
Time : 293.24
Syntactical distance : 0.0
Error Rate Precondition : 0.0
Error Rate Postcondition : 0.0
FSCORE : 1.0
Iteration 23
Size I+ 23
Size I- 1564
Time : 318.665
Syntactical distance : 0.0
Error Rate Precondition : 0.0
Error Rate Postcondition : 0.0
FSCORE : 1.0
Iteration 24
Size I+ 24
Size I- 1631
Time : 344.037
Syntactical distance : 0.0
Error Rate Precondition : 0.0
Error Rate Postcondition : 0.0
FSCORE : 1.0
Iteration 25
Size I+ 25
Size I- 1719
Time : 370.321
Syntactical distance : 0.0
Error Rate Precondition : 0.0
Error Rate Postcondition : 0.0
FSCORE : 1.0
Iteration 26
Size I+ 26
Size I- 1792
Time : 406.35
Syntactical distance : 0.0
Error Rate Precondition : 0.0
Error Rate Postcondition : 0.0
FSCORE : 1.0
Iteration 27
Size I+ 27
Size I- 1877
Time : 438.231
Syntactical distance : 0.0
Error Rate Precondition : 0.0
Error Rate Postcondition : 0.0
FSCORE : 1.0
Iteration 28
Size I+ 28
Size I- 1971
Time : 477.251
Syntactical distance : 0.0
Error Rate Precondition : 0.0
Error Rate Postcondition : 0.0
FSCORE : 1.0
Iteration 29
Size I+ 29
Size I- 2009
Time : 511.362
Syntactical distance : 0.0
Error Rate Precondition : 0.0
Error Rate Postcondition : 0.0
FSCORE : 1.0
Iteration 30
Size I+ 30
Size I- 2090
Time : 540.476
Syntactical distance : 0.0
Error Rate Precondition : 0.0
Error Rate Postcondition : 0.0
FSCORE : 1.0
E+ size : 100
E- size : 24581
e+ mean size : 47.66
e- mean size : 33.426712
############################################
### Fluent = 25.0% ###

*** Noise = 0.0% ***
Iteration 1
Time : 2.364
Syntactical distance : 0.19444445
Error Rate Precondition : 0.21056595
Error Rate Postcondition : 0.23215686
FSCORE : 0.06477732
Iteration 2
Size I+ 2
Size I- 158
Time : 4.792
Syntactical distance : 0.055555556
Error Rate Precondition : 0.06577619
Error Rate Postcondition : 0.0
FSCORE : 0.07114625
Iteration 3
Size I+ 3
Size I- 235
Time : 8.143
Syntactical distance : 0.0
Error Rate Precondition : 0.0
Error Rate Postcondition : 0.0
FSCORE : 1.0
Iteration 4
Size I+ 4
Size I- 301
Time : 15.677
Syntactical distance : 0.037037037
Error Rate Precondition : 0.022044558
Error Rate Postcondition : 0.0
FSCORE : 0.23008849
Iteration 5
Size I+ 5
Size I- 334
Time : 18.613
Syntactical distance : 0.0
Error Rate Precondition : 0.0
Error Rate Postcondition : 0.0
FSCORE : 1.0
Iteration 6
Size I+ 6
Size I- 425
Time : 25.723
Syntactical distance : 0.0
Error Rate Precondition : 0.0
Error Rate Postcondition : 0.0
FSCORE : 1.0
Iteration 7
Size I+ 7
Size I- 491
Time : 32.966
Syntactical distance : 0.0
Error Rate Precondition : 0.0
Error Rate Postcondition : 0.0
FSCORE : 1.0
Iteration 8
Size I+ 8
Size I- 563
Time : 40.789
Syntactical distance : 0.0
Error Rate Precondition : 0.0
Error Rate Postcondition : 0.0
FSCORE : 1.0
Iteration 9
Size I+ 9
Size I- 600
Time : 48.22
Syntactical distance : 0.0
Error Rate Precondition : 0.0
Error Rate Postcondition : 0.0
FSCORE : 1.0
Iteration 10
Size I+ 10
Size I- 657
Time : 56.593
Syntactical distance : 0.0
Error Rate Precondition : 0.0
Error Rate Postcondition : 0.0
FSCORE : 1.0
Iteration 11
Size I+ 11
Size I- 744
Time : 65.353
Syntactical distance : 0.0
Error Rate Precondition : 0.0
Error Rate Postcondition : 0.0
FSCORE : 1.0
Iteration 12
Size I+ 12
Size I- 819
Time : 76.119
Syntactical distance : 0.0
Error Rate Precondition : 0.0
Error Rate Postcondition : 0.0
FSCORE : 1.0
Iteration 13
Size I+ 13
Size I- 907
Time : 87.505
Syntactical distance : 0.0
Error Rate Precondition : 0.0
Error Rate Postcondition : 0.0
FSCORE : 1.0
Iteration 14
Size I+ 14
Size I- 975
Time : 100.481
Syntactical distance : 0.0
Error Rate Precondition : 0.0
Error Rate Postcondition : 0.0
FSCORE : 1.0
Iteration 15
Size I+ 15
Size I- 1028
Time : 116.352
Syntactical distance : 0.0
Error Rate Precondition : 0.0
Error Rate Postcondition : 0.0
FSCORE : 1.0
Iteration 16
Size I+ 16
Size I- 1057
Time : 124.904
Syntactical distance : 0.0
Error Rate Precondition : 0.0
Error Rate Postcondition : 0.0
FSCORE : 1.0
Iteration 17
Size I+ 17
Size I- 1108
Time : 140.131
Syntactical distance : 0.0
Error Rate Precondition : 0.0
Error Rate Postcondition : 0.0
FSCORE : 1.0
Iteration 18
Size I+ 18
Size I- 1177
Time : 148.932
Syntactical distance : 0.0
Error Rate Precondition : 0.0
Error Rate Postcondition : 0.0
FSCORE : 1.0
Iteration 19
Size I+ 19
Size I- 1236
Time : 167.139
Syntactical distance : 0.0
Error Rate Precondition : 0.0
Error Rate Postcondition : 0.0
FSCORE : 1.0
Iteration 20
Size I+ 20
Size I- 1281
Time : 183.099
Syntactical distance : 0.0
Error Rate Precondition : 0.0
Error Rate Postcondition : 0.0
FSCORE : 1.0
Iteration 21
Size I+ 21
Size I- 1331
Time : 198.906
Syntactical distance : 0.0
Error Rate Precondition : 0.0
Error Rate Postcondition : 0.0
FSCORE : 1.0
Iteration 22
Size I+ 22
Size I- 1379
Time : 218.436
Syntactical distance : 0.0
Error Rate Precondition : 0.0
Error Rate Postcondition : 0.0
FSCORE : 1.0
Iteration 23
Size I+ 23
Size I- 1420
Time : 228.234
Syntactical distance : 0.0
Error Rate Precondition : 0.0
Error Rate Postcondition : 0.0
FSCORE : 1.0
Iteration 24
Size I+ 24
Size I- 1445
Time : 247.706
Syntactical distance : 0.0
Error Rate Precondition : 0.0
Error Rate Postcondition : 0.0
FSCORE : 1.0
Iteration 25
Size I+ 25
Size I- 1504
Time : 257.792
Syntactical distance : 0.0
Error Rate Precondition : 0.0
Error Rate Postcondition : 0.0
FSCORE : 1.0
Iteration 26
Size I+ 26
Size I- 1583
Time : 280.313
Syntactical distance : 0.0
Error Rate Precondition : 0.0
Error Rate Postcondition : 0.0
FSCORE : 1.0
Iteration 27
Size I+ 27
Size I- 1614
Time : 290.512
Syntactical distance : 0.0
Error Rate Precondition : 0.0
Error Rate Postcondition : 0.0
FSCORE : 1.0
Iteration 28
Size I+ 28
Size I- 1711
Time : 310.07
Syntactical distance : 0.0
Error Rate Precondition : 0.0
Error Rate Postcondition : 0.0
FSCORE : 1.0
Iteration 29
Size I+ 29
Size I- 1811
Time : 325.941
Syntactical distance : 0.0
Error Rate Precondition : 0.0
Error Rate Postcondition : 0.0
FSCORE : 1.0
Iteration 30
Size I+ 30
Size I- 1868
Time : 336.842
Syntactical distance : 0.0
Error Rate Precondition : 0.0
Error Rate Postcondition : 0.0
FSCORE : 1.0

*** Noise = 20.0% ***
Iteration 1
Time : 2.165
Syntactical distance : 0.2175926
Error Rate Precondition : 0.30194253
Error Rate Postcondition : 0.119834
FSCORE : 0.08235294
Iteration 2
Size I+ 2
Size I- 158
Time : 2.848
Syntactical distance : 0.25925928
Error Rate Precondition : 0.26066276
Error Rate Postcondition : 0.24509321
FSCORE : 0.020202022
Iteration 3
Size I+ 3
Size I- 235
Time : 6.364
Syntactical distance : 0.083333336
Error Rate Precondition : 0.12581973
Error Rate Postcondition : 0.13902308
FSCORE : 0.20833333
Iteration 4
Size I+ 4
Size I- 301
Time : 16.236
Syntactical distance : 0.083333336
Error Rate Precondition : 0.12581973
Error Rate Postcondition : 0.13902308
FSCORE : 0.20833333
Iteration 5
Size I+ 5
Size I- 334
Time : 26.75
Syntactical distance : 0.10185185
Error Rate Precondition : 0.1461499
Error Rate Postcondition : 0.15439758
FSCORE : 0.20833333
Iteration 6
Size I+ 6
Size I- 425
Time : 36.901
Syntactical distance : 0.11111111
Error Rate Precondition : 0.15992002
Error Rate Postcondition : 0.16159748
FSCORE : 0.61728394
Iteration 7
Size I+ 7
Size I- 491
Time : 47.098
Syntactical distance : 0.083333336
Error Rate Precondition : 0.11978095
Error Rate Postcondition : 0.12638704
FSCORE : 1.0
Iteration 8
Size I+ 8
Size I- 563
Time : 57.436
Syntactical distance : 0.083333336
Error Rate Precondition : 0.11978095
Error Rate Postcondition : 0.12638704
FSCORE : 1.0
Iteration 9
Size I+ 9
Size I- 600
Time : 67.315
Syntactical distance : 0.083333336
Error Rate Precondition : 0.11978095
Error Rate Postcondition : 0.12638704
FSCORE : 1.0
Iteration 10
Size I+ 10
Size I- 657
Time : 78.512
Syntactical distance : 0.083333336
Error Rate Precondition : 0.11978095
Error Rate Postcondition : 0.12638704
FSCORE : 1.0
Iteration 11
Size I+ 11
Size I- 744
Time : 90.105
Syntactical distance : 0.083333336
Error Rate Precondition : 0.11978095
Error Rate Postcondition : 0.12638704
FSCORE : 1.0
Iteration 12
Size I+ 12
Size I- 819
Time : 103.807
Syntactical distance : 0.083333336
Error Rate Precondition : 0.11978095
Error Rate Postcondition : 0.12638704
FSCORE : 1.0
Iteration 13
Size I+ 13
Size I- 907
Time : 118.11
Syntactical distance : 0.083333336
Error Rate Precondition : 0.11964457
Error Rate Postcondition : 0.12650247
FSCORE : 1.0
Iteration 14
Size I+ 14
Size I- 975
Time : 134.418
Syntactical distance : 0.083333336
Error Rate Precondition : 0.10068934
Error Rate Postcondition : 0.14341004
FSCORE : 1.0
Iteration 15
Size I+ 15
Size I- 1028
Time : 153.486
Syntactical distance : 0.083333336
Error Rate Precondition : 0.10068934
Error Rate Postcondition : 0.14341004
FSCORE : 1.0
Iteration 16
Size I+ 16
Size I- 1057
Time : 165.747
Syntactical distance : 0.083333336
Error Rate Precondition : 0.10068934
Error Rate Postcondition : 0.14341004
FSCORE : 1.0
Iteration 17
Size I+ 17
Size I- 1108
Time : 191.34
Syntactical distance : 0.055555556
Error Rate Precondition : 0.08722491
Error Rate Postcondition : 0.10220485
FSCORE : 1.0
Iteration 18
Size I+ 18
Size I- 1177
Time : 200.598
Syntactical distance : 0.055555556
Error Rate Precondition : 0.08722491
Error Rate Postcondition : 0.10220485
FSCORE : 1.0
Iteration 19
Size I+ 19
Size I- 1236
Time : 219.037
Syntactical distance : 0.055555556
Error Rate Precondition : 0.08722491
Error Rate Postcondition : 0.10220485
FSCORE : 1.0
Iteration 20
Size I+ 20
Size I- 1281
Time : 239.981
Syntactical distance : 0.10185185
Error Rate Precondition : 0.1461499
Error Rate Postcondition : 0.15439758
FSCORE : 0.20833333
Iteration 21
Size I+ 21
Size I- 1331
Time : 264.129
Syntactical distance : 0.083333336
Error Rate Precondition : 0.11978095
Error Rate Postcondition : 0.12638704
FSCORE : 1.0
Iteration 22
Size I+ 22
Size I- 1379
Time : 288.375
Syntactical distance : 0.083333336
Error Rate Precondition : 0.13694401
Error Rate Postcondition : 0.10770904
FSCORE : 1.0
Iteration 23
Size I+ 23
Size I- 1420
Time : 294.29
Syntactical distance : 0.13425927
Error Rate Precondition : 0.18556194
Error Rate Postcondition : 0.20119676
FSCORE : 0.11320755
Iteration 24
Size I+ 24
Size I- 1445
Time : 320.911
Syntactical distance : 0.027777778
Error Rate Precondition : 0.043612454
Error Rate Postcondition : 0.056719594
FSCORE : 1.0
Iteration 25
Size I+ 25
Size I- 1504
Time : 336.349
Syntactical distance : 0.07638889
Error Rate Precondition : 0.09315392
Error Rate Postcondition : 0.103244156
FSCORE : 1.0
Iteration 26
Size I+ 26
Size I- 1583
Time : 368.784
Syntactical distance : 0.07638889
Error Rate Precondition : 0.09315392
Error Rate Postcondition : 0.103244156
FSCORE : 1.0
Iteration 27
Size I+ 27
Size I- 1614
Time : 389.0
Syntactical distance : 0.07638889
Error Rate Precondition : 0.09315392
Error Rate Postcondition : 0.103244156
FSCORE : 1.0
Iteration 28
Size I+ 28
Size I- 1711
Time : 419.144
Syntactical distance : 0.07638889
Error Rate Precondition : 0.09315392
Error Rate Postcondition : 0.103244156
FSCORE : 1.0
Iteration 29
Size I+ 29
Size I- 1811
Time : 449.649
Syntactical distance : 0.027777778
Error Rate Precondition : 0.043612454
Error Rate Postcondition : 0.056719594
FSCORE : 1.0
Iteration 30
Size I+ 30
Size I- 1868
Time : 466.387
Syntactical distance : 0.0
Error Rate Precondition : 0.0
Error Rate Postcondition : 0.0
FSCORE : 1.0
############################################
### Fluent = 100.0% ###

*** Noise = 0.0% ***
Iteration 1
Time : 0.458
Syntactical distance : 0.0
Error Rate Precondition : 0.0
Error Rate Postcondition : 0.0
FSCORE : 1.0
Iteration 2
Size I+ 2
Size I- 105
Time : 6.572
Syntactical distance : 0.0
Error Rate Precondition : 0.0
Error Rate Postcondition : 0.0
FSCORE : 1.0
Iteration 3
Size I+ 3
Size I- 231
Time : 12.939
Syntactical distance : 0.0
Error Rate Precondition : 0.0
Error Rate Postcondition : 0.0
FSCORE : 1.0
Iteration 4
Size I+ 4
Size I- 303
Time : 19.668
Syntactical distance : 0.0
Error Rate Precondition : 0.0
Error Rate Postcondition : 0.0
FSCORE : 1.0
Iteration 5
Size I+ 5
Size I- 338
Time : 26.471
Syntactical distance : 0.0
Error Rate Precondition : 0.0
Error Rate Postcondition : 0.0
FSCORE : 1.0
Iteration 6
Size I+ 6
Size I- 399
Time : 33.745
Syntactical distance : 0.0
Error Rate Precondition : 0.0
Error Rate Postcondition : 0.0
FSCORE : 1.0
Iteration 7
Size I+ 7
Size I- 461
Time : 41.351
Syntactical distance : 0.0
Error Rate Precondition : 0.0
Error Rate Postcondition : 0.0
FSCORE : 1.0
Iteration 8
Size I+ 8
Size I- 510
Time : 48.922
Syntactical distance : 0.0
Error Rate Precondition : 0.0
Error Rate Postcondition : 0.0
FSCORE : 1.0
Iteration 9
Size I+ 9
Size I- 576
Time : 56.953
Syntactical distance : 0.0
Error Rate Precondition : 0.0
Error Rate Postcondition : 0.0
FSCORE : 1.0
Iteration 10
Size I+ 10
Size I- 651
Time : 65.608
Syntactical distance : 0.0
Error Rate Precondition : 0.0
Error Rate Postcondition : 0.0
FSCORE : 1.0
Iteration 11
Size I+ 11
Size I- 748
Time : 74.506
Syntactical distance : 0.0
Error Rate Precondition : 0.0
Error Rate Postcondition : 0.0
FSCORE : 1.0
Iteration 12
Size I+ 12
Size I- 800
Time : 84.094
Syntactical distance : 0.0
Error Rate Precondition : 0.0
Error Rate Postcondition : 0.0
FSCORE : 1.0
Iteration 13
Size I+ 13
Size I- 881
Time : 94.532
Syntactical distance : 0.0
Error Rate Precondition : 0.0
Error Rate Postcondition : 0.0
FSCORE : 1.0
Iteration 14
Size I+ 14
Size I- 949
Time : 104.411
Syntactical distance : 0.0
Error Rate Precondition : 0.0
Error Rate Postcondition : 0.0
FSCORE : 1.0
Iteration 15
Size I+ 15
Size I- 1012
Time : 115.393
Syntactical distance : 0.0
Error Rate Precondition : 0.0
Error Rate Postcondition : 0.0
FSCORE : 1.0
Iteration 16
Size I+ 16
Size I- 1082
Time : 124.312
Syntactical distance : 0.0
Error Rate Precondition : 0.0
Error Rate Postcondition : 0.0
FSCORE : 1.0
Iteration 17
Size I+ 17
Size I- 1155
Time : 134.01
Syntactical distance : 0.0
Error Rate Precondition : 0.0
Error Rate Postcondition : 0.0
FSCORE : 1.0
Iteration 18
Size I+ 18
Size I- 1250
Time : 146.942
Syntactical distance : 0.0
Error Rate Precondition : 0.0
Error Rate Postcondition : 0.0
FSCORE : 1.0
Iteration 19
Size I+ 19
Size I- 1309
Time : 160.436
Syntactical distance : 0.0
Error Rate Precondition : 0.0
Error Rate Postcondition : 0.0
FSCORE : 1.0
Iteration 20
Size I+ 20
Size I- 1362
Time : 173.362
Syntactical distance : 0.0
Error Rate Precondition : 0.0
Error Rate Postcondition : 0.0
FSCORE : 1.0
Iteration 21
Size I+ 21
Size I- 1422
Time : 186.554
Syntactical distance : 0.0
Error Rate Precondition : 0.0
Error Rate Postcondition : 0.0
FSCORE : 1.0
Iteration 22
Size I+ 22
Size I- 1496
Time : 197.829
Syntactical distance : 0.0
Error Rate Precondition : 0.0
Error Rate Postcondition : 0.0
FSCORE : 1.0
Iteration 23
Size I+ 23
Size I- 1617
Time : 208.158
Syntactical distance : 0.0
Error Rate Precondition : 0.0
Error Rate Postcondition : 0.0
FSCORE : 1.0
Iteration 24
Size I+ 24
Size I- 1641
Time : 218.447
Syntactical distance : 0.0
Error Rate Precondition : 0.0
Error Rate Postcondition : 0.0
FSCORE : 1.0
Iteration 25
Size I+ 25
Size I- 1730
Time : 228.88
Syntactical distance : 0.0
Error Rate Precondition : 0.0
Error Rate Postcondition : 0.0
FSCORE : 1.0
Iteration 26
Size I+ 26
Size I- 1783
Time : 239.461
Syntactical distance : 0.0
Error Rate Precondition : 0.0
Error Rate Postcondition : 0.0
FSCORE : 1.0
Iteration 27
Size I+ 27
Size I- 1801
Time : 250.243
Syntactical distance : 0.0
Error Rate Precondition : 0.0
Error Rate Postcondition : 0.0
FSCORE : 1.0
Iteration 28
Size I+ 28
Size I- 1851
Time : 261.232
Syntactical distance : 0.0
Error Rate Precondition : 0.0
Error Rate Postcondition : 0.0
FSCORE : 1.0
Iteration 29
Size I+ 29
Size I- 1883
Time : 272.337
Syntactical distance : 0.0
Error Rate Precondition : 0.0
Error Rate Postcondition : 0.0
FSCORE : 1.0
Iteration 30
Size I+ 30
Size I- 1908
Time : 283.36
Syntactical distance : 0.0
Error Rate Precondition : 0.0
Error Rate Postcondition : 0.0
FSCORE : 1.0

*** Noise = 20.0% ***
Iteration 1
Time : 2.02
Syntactical distance : 0.037037037
Error Rate Precondition : 0.05338809
Error Rate Postcondition : 0.05990664
FSCORE : 0.09473685
Iteration 2
Size I+ 2
Size I- 105
Time : 4.588
Syntactical distance : 0.06481481
Error Rate Precondition : 0.09011004
Error Rate Postcondition : 0.10401983
FSCORE : 0.058252428
Iteration 3
Size I+ 3
Size I- 231
Time : 7.166
Syntactical distance : 0.0462963
Error Rate Precondition : 0.12519234
Error Rate Postcondition : 0.05367516
FSCORE : 0.058252428
Iteration 4
Size I+ 4
Size I- 303
Time : 9.322
Syntactical distance : 0.055555556
Error Rate Precondition : 0.10707857
Error Rate Postcondition : 0.05367516
FSCORE : 0.058252428
Iteration 5
Size I+ 5
Size I- 338
Time : 14.674
Syntactical distance : 0.0462963
Error Rate Precondition : 0.08013787
Error Rate Postcondition : 0.056719594
FSCORE : 0.20833333
Iteration 6
Size I+ 6
Size I- 399
Time : 25.251
Syntactical distance : 0.0462963
Error Rate Precondition : 0.08013787
Error Rate Postcondition : 0.056719594
FSCORE : 0.20833333
Iteration 7
Size I+ 7
Size I- 461
Time : 36.406
Syntactical distance : 0.0462963
Error Rate Precondition : 0.08013787
Error Rate Postcondition : 0.056719594
FSCORE : 0.20833333
Iteration 8
Size I+ 8
Size I- 510
Time : 47.872
Syntactical distance : 0.0462963
Error Rate Precondition : 0.08013787
Error Rate Postcondition : 0.056719594
FSCORE : 0.20833333
Iteration 9
Size I+ 9
Size I- 576
Time : 58.902
Syntactical distance : 0.0462963
Error Rate Precondition : 0.08013787
Error Rate Postcondition : 0.056719594
FSCORE : 0.20833333
Iteration 10
Size I+ 10
Size I- 651
Time : 73.036
Syntactical distance : 0.0462963
Error Rate Precondition : 0.08013787
Error Rate Postcondition : 0.056719594
FSCORE : 0.20833333
Iteration 11
Size I+ 11
Size I- 748
Time : 88.05
Syntactical distance : 0.0462963
Error Rate Precondition : 0.08013787
Error Rate Postcondition : 0.056719594
FSCORE : 0.20833333
Iteration 12
Size I+ 12
Size I- 800
Time : 104.193
Syntactical distance : 0.0462963
Error Rate Precondition : 0.08013787
Error Rate Postcondition : 0.056719594
FSCORE : 0.20833333
Iteration 13
Size I+ 13
Size I- 881
Time : 122.018
Syntactical distance : 0.0462963
Error Rate Precondition : 0.08013787
Error Rate Postcondition : 0.056719594
FSCORE : 0.20833333
Iteration 14
Size I+ 14
Size I- 949
Time : 140.434
Syntactical distance : 0.0462963
Error Rate Precondition : 0.08013787
Error Rate Postcondition : 0.056719594
FSCORE : 0.20833333
Iteration 15
Size I+ 15
Size I- 1012
Time : 165.386
Syntactical distance : 0.0
Error Rate Precondition : 0.0
Error Rate Postcondition : 0.0
FSCORE : 1.0
Iteration 16
Size I+ 16
Size I- 1082
Time : 189.193
Syntactical distance : 0.0
Error Rate Precondition : 0.0
Error Rate Postcondition : 0.0
FSCORE : 1.0
Iteration 17
Size I+ 17
Size I- 1155
Time : 214.529
Syntactical distance : 0.0
Error Rate Precondition : 0.0
Error Rate Postcondition : 0.0
FSCORE : 1.0
Iteration 18
Size I+ 18
Size I- 1250
Time : 227.272
Syntactical distance : 0.0
Error Rate Precondition : 0.0
Error Rate Postcondition : 0.0
FSCORE : 1.0
Iteration 19
Size I+ 19
Size I- 1309
Time : 255.147
Syntactical distance : 0.0
Error Rate Precondition : 0.0
Error Rate Postcondition : 0.0
FSCORE : 1.0
Iteration 20
Size I+ 20
Size I- 1362
Time : 281.419
Syntactical distance : 0.0
Error Rate Precondition : 0.0
Error Rate Postcondition : 0.0
FSCORE : 1.0
Iteration 21
Size I+ 21
Size I- 1422
Time : 306.845
Syntactical distance : 0.0
Error Rate Precondition : 0.0
Error Rate Postcondition : 0.0
FSCORE : 1.0
Iteration 22
Size I+ 22
Size I- 1496
Time : 332.586
Syntactical distance : 0.0
Error Rate Precondition : 0.0
Error Rate Postcondition : 0.0
FSCORE : 1.0
Iteration 23
Size I+ 23
Size I- 1617
Time : 358.416
Syntactical distance : 0.0
Error Rate Precondition : 0.0
Error Rate Postcondition : 0.0
FSCORE : 1.0
Iteration 24
Size I+ 24
Size I- 1641
Time : 384.211
Syntactical distance : 0.0
Error Rate Precondition : 0.0
Error Rate Postcondition : 0.0
FSCORE : 1.0
Iteration 25
Size I+ 25
Size I- 1730
Time : 411.253
Syntactical distance : 0.0
Error Rate Precondition : 0.0
Error Rate Postcondition : 0.0
FSCORE : 1.0
Iteration 26
Size I+ 26
Size I- 1783
Time : 438.882
Syntactical distance : 0.0
Error Rate Precondition : 0.0
Error Rate Postcondition : 0.0
FSCORE : 1.0
Iteration 27
Size I+ 27
Size I- 1801
Time : 467.482
Syntactical distance : 0.0
Error Rate Precondition : 0.0
Error Rate Postcondition : 0.0
FSCORE : 1.0
Iteration 28
Size I+ 28
Size I- 1851
Time : 496.381
Syntactical distance : 0.0
Error Rate Precondition : 0.0
Error Rate Postcondition : 0.0
FSCORE : 1.0
Iteration 29
Size I+ 29
Size I- 1883
Time : 526.055
Syntactical distance : 0.0
Error Rate Precondition : 0.0
Error Rate Postcondition : 0.0
FSCORE : 1.0
Iteration 30
Size I+ 30
Size I- 1908
Time : 555.488
Syntactical distance : 0.0
Error Rate Precondition : 0.0
Error Rate Postcondition : 0.0
FSCORE : 1.0
E+ size : 100
E- size : 26402
e+ mean size : 49.54
e- mean size : 35.303234
############################################
### Fluent = 25.0% ###

*** Noise = 0.0% ***
Iteration 1
Time : 2.269
Syntactical distance : 0.11805556
Error Rate Precondition : 0.1505593
Error Rate Postcondition : 0.0
FSCORE : 0.01980198
Iteration 2
Size I+ 2
Size I- 220
Time : 4.704
Syntactical distance : 0.0
Error Rate Precondition : 0.0
Error Rate Postcondition : 0.0
FSCORE : 1.0
Iteration 3
Size I+ 3
Size I- 277
Time : 12.885
Syntactical distance : 0.0
Error Rate Precondition : 0.0
Error Rate Postcondition : 0.0
FSCORE : 1.0
Iteration 4
Size I+ 4
Size I- 366
Time : 21.868
Syntactical distance : 0.0
Error Rate Precondition : 0.0
Error Rate Postcondition : 0.0
FSCORE : 1.0
Iteration 5
Size I+ 5
Size I- 400
Time : 30.921
Syntactical distance : 0.0
Error Rate Precondition : 0.0
Error Rate Postcondition : 0.0
FSCORE : 1.0
Iteration 6
Size I+ 6
Size I- 455
Time : 41.706
Syntactical distance : 0.0
Error Rate Precondition : 0.0
Error Rate Postcondition : 0.0
FSCORE : 1.0
Iteration 7
Size I+ 7
Size I- 486
Time : 52.585
Syntactical distance : 0.0
Error Rate Precondition : 0.0
Error Rate Postcondition : 0.0
FSCORE : 1.0
Iteration 8
Size I+ 8
Size I- 546
Time : 64.034
Syntactical distance : 0.0
Error Rate Precondition : 0.0
Error Rate Postcondition : 0.0
FSCORE : 1.0
Iteration 9
Size I+ 9
Size I- 613
Time : 72.97
Syntactical distance : 0.0
Error Rate Precondition : 0.0
Error Rate Postcondition : 0.0
FSCORE : 1.0
Iteration 10
Size I+ 10
Size I- 646
Time : 82.303
Syntactical distance : 0.0
Error Rate Precondition : 0.0
Error Rate Postcondition : 0.0
FSCORE : 1.0
Iteration 11
Size I+ 11
Size I- 711
Time : 90.91
Syntactical distance : 0.0
Error Rate Precondition : 0.0
Error Rate Postcondition : 0.0
FSCORE : 1.0
Iteration 12
Size I+ 12
Size I- 751
Time : 100.488
Syntactical distance : 0.0
Error Rate Precondition : 0.0
Error Rate Postcondition : 0.0
FSCORE : 1.0
Iteration 13
Size I+ 13
Size I- 814
Time : 110.902
Syntactical distance : 0.0
Error Rate Precondition : 0.0
Error Rate Postcondition : 0.0
FSCORE : 1.0
Iteration 14
Size I+ 14
Size I- 866
Time : 119.761
Syntactical distance : 0.0
Error Rate Precondition : 0.0
Error Rate Postcondition : 0.0
FSCORE : 1.0
Iteration 15
Size I+ 15
Size I- 955
Time : 131.076
Syntactical distance : 0.0
Error Rate Precondition : 0.0
Error Rate Postcondition : 0.0
FSCORE : 1.0
Iteration 16
Size I+ 16
Size I- 1005
Time : 144.253
Syntactical distance : 0.0
Error Rate Precondition : 0.0
Error Rate Postcondition : 0.0
FSCORE : 1.0
Iteration 17
Size I+ 17
Size I- 1088
Time : 153.552
Syntactical distance : 0.0
Error Rate Precondition : 0.0
Error Rate Postcondition : 0.0
FSCORE : 1.0
Iteration 18
Size I+ 18
Size I- 1137
Time : 166.111
Syntactical distance : 0.0
Error Rate Precondition : 0.0
Error Rate Postcondition : 0.0
FSCORE : 1.0
Iteration 19
Size I+ 19
Size I- 1157
Time : 175.801
Syntactical distance : 0.0
Error Rate Precondition : 0.0
Error Rate Postcondition : 0.0
FSCORE : 1.0
Iteration 20
Size I+ 20
Size I- 1231
Time : 192.832
Syntactical distance : 0.0
Error Rate Precondition : 0.0
Error Rate Postcondition : 0.0
FSCORE : 1.0
Iteration 21
Size I+ 21
Size I- 1282
Time : 209.566
Syntactical distance : 0.0
Error Rate Precondition : 0.0
Error Rate Postcondition : 0.0
FSCORE : 1.0
Iteration 22
Size I+ 22
Size I- 1366
Time : 226.455
Syntactical distance : 0.0
Error Rate Precondition : 0.0
Error Rate Postcondition : 0.0
FSCORE : 1.0
Iteration 23
Size I+ 23
Size I- 1433
Time : 243.984
Syntactical distance : 0.0
Error Rate Precondition : 0.0
Error Rate Postcondition : 0.0
FSCORE : 1.0
Iteration 24
Size I+ 24
Size I- 1522
Time : 262.449
Syntactical distance : 0.0
Error Rate Precondition : 0.0
Error Rate Postcondition : 0.0
FSCORE : 1.0
Iteration 25
Size I+ 25
Size I- 1590
Time : 282.668
Syntactical distance : 0.0
Error Rate Precondition : 0.0
Error Rate Postcondition : 0.0
FSCORE : 1.0
Iteration 26
Size I+ 26
Size I- 1654
Time : 293.742
Syntactical distance : 0.0
Error Rate Precondition : 0.0
Error Rate Postcondition : 0.0
FSCORE : 1.0
Iteration 27
Size I+ 27
Size I- 1736
Time : 304.957
Syntactical distance : 0.0
Error Rate Precondition : 0.0
Error Rate Postcondition : 0.0
FSCORE : 1.0
Iteration 28
Size I+ 28
Size I- 1798
Time : 328.305
Syntactical distance : 0.0
Error Rate Precondition : 0.0
Error Rate Postcondition : 0.0
FSCORE : 1.0
Iteration 29
Size I+ 29
Size I- 1850
Time : 339.69
Syntactical distance : 0.0
Error Rate Precondition : 0.0
Error Rate Postcondition : 0.0
FSCORE : 1.0
Iteration 30
Size I+ 30
Size I- 1894
Time : 364.634
Syntactical distance : 0.0
Error Rate Precondition : 0.0
Error Rate Postcondition : 0.0
FSCORE : 1.0

*** Noise = 20.0% ***
Iteration 1
Time : 3.102
Syntactical distance : 0.16435185
Error Rate Precondition : 0.19392593
Error Rate Postcondition : 0.17385347
FSCORE : 0.19379845
Iteration 2
Size I+ 2
Size I- 220
Time : 9.862
Syntactical distance : 0.22685187
Error Rate Precondition : 0.19849296
Error Rate Postcondition : 0.15128925
FSCORE : 0.01980198
Iteration 3
Size I+ 3
Size I- 277
Time : 13.972
Syntactical distance : 0.074074075
Error Rate Precondition : 0.119949915
Error Rate Postcondition : 0.09519025
FSCORE : 0.01980198
Iteration 4
Size I+ 4
Size I- 366
Time : 19.147
Syntactical distance : 0.027777778
Error Rate Precondition : 0.023311896
Error Rate Postcondition : 0.05711376
FSCORE : 0.1981982
Iteration 5
Size I+ 5
Size I- 400
Time : 26.116
Syntactical distance : 0.027777778
Error Rate Precondition : 0.023311896
Error Rate Postcondition : 0.05711376
FSCORE : 0.1981982
Iteration 6
Size I+ 6
Size I- 455
Time : 34.196
Syntactical distance : 0.027777778
Error Rate Precondition : 0.04100188
Error Rate Postcondition : 0.05711376
FSCORE : 0.1981982
Iteration 7
Size I+ 7
Size I- 486
Time : 42.825
Syntactical distance : 0.037037037
Error Rate Precondition : 0.087735385
Error Rate Postcondition : 0.030293567
FSCORE : 0.01980198
Iteration 8
Size I+ 8
Size I- 546
Time : 53.276
Syntactical distance : 0.027777778
Error Rate Precondition : 0.042736612
Error Rate Postcondition : 0.05711376
FSCORE : 0.1981982
Iteration 9
Size I+ 9
Size I- 613
Time : 63.3
Syntactical distance : 0.0462963
Error Rate Precondition : 0.08712399
Error Rate Postcondition : 0.030293567
FSCORE : 0.01980198
Iteration 10
Size I+ 10
Size I- 646
Time : 69.644
Syntactical distance : 0.0462963
Error Rate Precondition : 0.08712399
Error Rate Postcondition : 0.030293567
FSCORE : 0.01980198
Iteration 11
Size I+ 11
Size I- 711
Time : 74.804
Syntactical distance : 0.0462963
Error Rate Precondition : 0.08712399
Error Rate Postcondition : 0.027499216
FSCORE : 0.01980198
Iteration 12
Size I+ 12
Size I- 751
Time : 78.452
Syntactical distance : 0.037037037
Error Rate Precondition : 0.069203265
Error Rate Postcondition : 0.030293567
FSCORE : 0.01980198
Iteration 13
Size I+ 13
Size I- 814
Time : 85.388
Syntactical distance : 0.037037037
Error Rate Precondition : 0.06627537
Error Rate Postcondition : 0.030293567
FSCORE : 0.01980198
Iteration 14
Size I+ 14
Size I- 866
Time : 91.033
Syntactical distance : 0.037037037
Error Rate Precondition : 0.06627537
Error Rate Postcondition : 0.030293567
FSCORE : 0.01980198
Iteration 15
Size I+ 15
Size I- 955
Time : 99.887
Syntactical distance : 0.0462963
Error Rate Precondition : 0.08358752
Error Rate Postcondition : 0.030293567
FSCORE : 0.01980198
Iteration 16
Size I+ 16
Size I- 1005
Time : 110.08
Syntactical distance : 0.037037037
Error Rate Precondition : 0.08358752
Error Rate Postcondition : 0.0
FSCORE : 0.01980198
Iteration 17
Size I+ 17
Size I- 1088
Time : 113.412
Syntactical distance : 0.037037037
Error Rate Precondition : 0.06627537
Error Rate Postcondition : 0.030293567
FSCORE : 0.01980198
Iteration 18
Size I+ 18
Size I- 1137
Time : 123.34
Syntactical distance : 0.037037037
Error Rate Precondition : 0.0841741
Error Rate Postcondition : 0.030293567
FSCORE : 0.01980198
Iteration 19
Size I+ 19
Size I- 1157
Time : 130.376
Syntactical distance : 0.037037037
Error Rate Precondition : 0.06627537
Error Rate Postcondition : 0.030293567
FSCORE : 0.01980198
Iteration 20
Size I+ 20
Size I- 1231
Time : 144.655
Syntactical distance : 0.0462963
Error Rate Precondition : 0.08358752
Error Rate Postcondition : 0.030293567
FSCORE : 0.01980198
Iteration 21
Size I+ 21
Size I- 1282
Time : 158.963
Syntactical distance : 0.037037037
Error Rate Precondition : 0.06627537
Error Rate Postcondition : 0.030293567
FSCORE : 0.01980198
Iteration 22
Size I+ 22
Size I- 1366
Time : 174.348
Syntactical distance : 0.037037037
Error Rate Precondition : 0.0841741
Error Rate Postcondition : 0.030293567
FSCORE : 0.01980198
Iteration 23
Size I+ 23
Size I- 1433
Time : 191.978
Syntactical distance : 0.0462963
Error Rate Precondition : 0.0841741
Error Rate Postcondition : 0.054
FSCORE : 0.01980198
Iteration 24
Size I+ 24
Size I- 1522
Time : 210.88
Syntactical distance : 0.037037037
Error Rate Precondition : 0.06627537
Error Rate Postcondition : 0.026715763
FSCORE : 0.01980198
Iteration 25
Size I+ 25
Size I- 1590
Time : 224.69
Syntactical distance : 0.037037037
Error Rate Precondition : 0.06627537
Error Rate Postcondition : 0.026715763
FSCORE : 0.01980198
Iteration 26
Size I+ 26
Size I- 1654
Time : 229.48
Syntactical distance : 0.037037037
Error Rate Precondition : 0.08358752
Error Rate Postcondition : 0.0
FSCORE : 0.01980198
Iteration 27
Size I+ 27
Size I- 1736
Time : 234.393
Syntactical distance : 0.037037037
Error Rate Precondition : 0.08358752
Error Rate Postcondition : 0.0
FSCORE : 0.01980198
Iteration 28
Size I+ 28
Size I- 1798
Time : 251.228
Syntactical distance : 0.037037037
Error Rate Precondition : 0.0841741
Error Rate Postcondition : 0.026715763
FSCORE : 0.01980198
Iteration 29
Size I+ 29
Size I- 1850
Time : 256.404
Syntactical distance : 0.027777778
Error Rate Precondition : 0.0841741
Error Rate Postcondition : 0.0
FSCORE : 0.01980198
Iteration 30
Size I+ 30
Size I- 1894
Time : 274.945
Syntactical distance : 0.027777778
Error Rate Precondition : 0.0841741
Error Rate Postcondition : 0.0
FSCORE : 0.01980198
############################################
### Fluent = 100.0% ###

*** Noise = 0.0% ***
Iteration 1
Time : 0.525
Syntactical distance : 0.0
Error Rate Precondition : 0.0
Error Rate Postcondition : 0.0
FSCORE : 1.0
Iteration 2
Size I+ 2
Size I- 189
Time : 7.548
Syntactical distance : 0.0
Error Rate Precondition : 0.0
Error Rate Postcondition : 0.0
FSCORE : 1.0
Iteration 3
Size I+ 3
Size I- 301
Time : 14.897
Syntactical distance : 0.0
Error Rate Precondition : 0.0
Error Rate Postcondition : 0.0
FSCORE : 1.0
Iteration 4
Size I+ 4
Size I- 423
Time : 22.889
Syntactical distance : 0.0
Error Rate Precondition : 0.0
Error Rate Postcondition : 0.0
FSCORE : 1.0
Iteration 5
Size I+ 5
Size I- 475
Time : 30.971
Syntactical distance : 0.0
Error Rate Precondition : 0.0
Error Rate Postcondition : 0.0
FSCORE : 1.0
Iteration 6
Size I+ 6
Size I- 529
Time : 39.357
Syntactical distance : 0.0
Error Rate Precondition : 0.0
Error Rate Postcondition : 0.0
FSCORE : 1.0
Iteration 7
Size I+ 7
Size I- 608
Time : 48.346
Syntactical distance : 0.0
Error Rate Precondition : 0.0
Error Rate Postcondition : 0.0
FSCORE : 1.0
Iteration 8
Size I+ 8
Size I- 628
Time : 57.564
Syntactical distance : 0.0
Error Rate Precondition : 0.0
Error Rate Postcondition : 0.0
FSCORE : 1.0
Iteration 9
Size I+ 9
Size I- 716
Time : 67.031
Syntactical distance : 0.0
Error Rate Precondition : 0.0
Error Rate Postcondition : 0.0
FSCORE : 1.0
Iteration 10
Size I+ 10
Size I- 787
Time : 76.771
Syntactical distance : 0.0
Error Rate Precondition : 0.0
Error Rate Postcondition : 0.0
FSCORE : 1.0
Iteration 11
Size I+ 11
Size I- 852
Time : 87.451
Syntactical distance : 0.0
Error Rate Precondition : 0.0
Error Rate Postcondition : 0.0
FSCORE : 1.0
Iteration 12
Size I+ 12
Size I- 888
Time : 97.541
Syntactical distance : 0.0
Error Rate Precondition : 0.0
Error Rate Postcondition : 0.0
FSCORE : 1.0
Iteration 13
Size I+ 13
Size I- 944
Time : 106.629
Syntactical distance : 0.0
Error Rate Precondition : 0.0
Error Rate Postcondition : 0.0
FSCORE : 1.0
Iteration 14
Size I+ 14
Size I- 987
Time : 115.82
Syntactical distance : 0.0
Error Rate Precondition : 0.0
Error Rate Postcondition : 0.0
FSCORE : 1.0
Iteration 15
Size I+ 15
Size I- 1006
Time : 125.75
Syntactical distance : 0.0
Error Rate Precondition : 0.0
Error Rate Postcondition : 0.0
FSCORE : 1.0
Iteration 16
Size I+ 16
Size I- 1057
Time : 135.387
Syntactical distance : 0.0
Error Rate Precondition : 0.0
Error Rate Postcondition : 0.0
FSCORE : 1.0
Iteration 17
Size I+ 17
Size I- 1109
Time : 145.202
Syntactical distance : 0.0
Error Rate Precondition : 0.0
Error Rate Postcondition : 0.0
FSCORE : 1.0
Iteration 18
Size I+ 18
Size I- 1148
Time : 155.149
Syntactical distance : 0.0
Error Rate Precondition : 0.0
Error Rate Postcondition : 0.0
FSCORE : 1.0
Iteration 19
Size I+ 19
Size I- 1187
Time : 165.352
Syntactical distance : 0.0
Error Rate Precondition : 0.0
Error Rate Postcondition : 0.0
FSCORE : 1.0
Iteration 20
Size I+ 20
Size I- 1215
Time : 175.522
Syntactical distance : 0.0
Error Rate Precondition : 0.0
Error Rate Postcondition : 0.0
FSCORE : 1.0
Iteration 21
Size I+ 21
Size I- 1258
Time : 185.865
Syntactical distance : 0.0
Error Rate Precondition : 0.0
Error Rate Postcondition : 0.0
FSCORE : 1.0
Iteration 22
Size I+ 22
Size I- 1301
Time : 196.373
Syntactical distance : 0.0
Error Rate Precondition : 0.0
Error Rate Postcondition : 0.0
FSCORE : 1.0
Iteration 23
Size I+ 23
Size I- 1355
Time : 207.06
Syntactical distance : 0.0
Error Rate Precondition : 0.0
Error Rate Postcondition : 0.0
FSCORE : 1.0
Iteration 24
Size I+ 24
Size I- 1440
Time : 218.065
Syntactical distance : 0.0
Error Rate Precondition : 0.0
Error Rate Postcondition : 0.0
FSCORE : 1.0
Iteration 25
Size I+ 25
Size I- 1512
Time : 229.182
Syntactical distance : 0.0
Error Rate Precondition : 0.0
Error Rate Postcondition : 0.0
FSCORE : 1.0
Iteration 26
Size I+ 26
Size I- 1582
Time : 240.533
Syntactical distance : 0.0
Error Rate Precondition : 0.0
Error Rate Postcondition : 0.0
FSCORE : 1.0
Iteration 27
Size I+ 27
Size I- 1611
Time : 252.025
Syntactical distance : 0.0
Error Rate Precondition : 0.0
Error Rate Postcondition : 0.0
FSCORE : 1.0
Iteration 28
Size I+ 28
Size I- 1661
Time : 263.646
Syntactical distance : 0.0
Error Rate Precondition : 0.0
Error Rate Postcondition : 0.0
FSCORE : 1.0
Iteration 29
Size I+ 29
Size I- 1702
Time : 276.542
Syntactical distance : 0.0
Error Rate Precondition : 0.0
Error Rate Postcondition : 0.0
FSCORE : 1.0
Iteration 30
Size I+ 30
Size I- 1726
Time : 288.452
Syntactical distance : 0.0
Error Rate Precondition : 0.0
Error Rate Postcondition : 0.0
FSCORE : 1.0

*** Noise = 20.0% ***
Iteration 1
Time : 4.821
Syntactical distance : 0.097222224
Error Rate Precondition : 0.05337447
Error Rate Postcondition : 0.071546614
FSCORE : 0.12547052
Iteration 2
Size I+ 2
Size I- 189
Time : 14.886
Syntactical distance : 0.074074075
Error Rate Precondition : 0.12159784
Error Rate Postcondition : 0.103720404
FSCORE : 0.19379845
Iteration 3
Size I+ 3
Size I- 301
Time : 24.523
Syntactical distance : 0.074074075
Error Rate Precondition : 0.12159784
Error Rate Postcondition : 0.103720404
FSCORE : 0.19379845
Iteration 4
Size I+ 4
Size I- 423
Time : 34.818
Syntactical distance : 0.07638889
Error Rate Precondition : 0.09438826
Error Rate Postcondition : 0.10473815
FSCORE : 0.31496063
Iteration 5
Size I+ 5
Size I- 475
Time : 43.252
Syntactical distance : 0.07638889
Error Rate Precondition : 0.09438826
Error Rate Postcondition : 0.10473815
FSCORE : 0.31496063
Iteration 6
Size I+ 6
Size I- 529
Time : 53.7
Syntactical distance : 0.07638889
Error Rate Precondition : 0.09438826
Error Rate Postcondition : 0.10473815
FSCORE : 0.31496063
Iteration 7
Size I+ 7
Size I- 608
Time : 64.9
Syntactical distance : 0.07638889
Error Rate Precondition : 0.09438826
Error Rate Postcondition : 0.10473815
FSCORE : 0.31496063
Iteration 8
Size I+ 8
Size I- 628
Time : 82.628
Syntactical distance : 0.027777778
Error Rate Precondition : 0.044302177
Error Rate Postcondition : 0.057662174
FSCORE : 1.0
Iteration 9
Size I+ 9
Size I- 716
Time : 92.377
Syntactical distance : 0.027777778
Error Rate Precondition : 0.044302177
Error Rate Postcondition : 0.057662174
FSCORE : 1.0
Iteration 10
Size I+ 10
Size I- 787
Time : 102.429
Syntactical distance : 0.027777778
Error Rate Precondition : 0.044302177
Error Rate Postcondition : 0.057662174
FSCORE : 1.0
Iteration 11
Size I+ 11
Size I- 852
Time : 115.848
Syntactical distance : 0.0
Error Rate Precondition : 0.0
Error Rate Postcondition : 0.0
FSCORE : 1.0
Iteration 12
Size I+ 12
Size I- 888
Time : 129.346
Syntactical distance : 0.0
Error Rate Precondition : 0.0
Error Rate Postcondition : 0.0
FSCORE : 1.0
Iteration 13
Size I+ 13
Size I- 944
Time : 142.08
Syntactical distance : 0.0
Error Rate Precondition : 0.0
Error Rate Postcondition : 0.0
FSCORE : 1.0
Iteration 14
Size I+ 14
Size I- 987
Time : 155.431
Syntactical distance : 0.0
Error Rate Precondition : 0.0
Error Rate Postcondition : 0.0
FSCORE : 1.0
Iteration 15
Size I+ 15
Size I- 1006
Time : 169.934
Syntactical distance : 0.0
Error Rate Precondition : 0.0
Error Rate Postcondition : 0.0
FSCORE : 1.0
Iteration 16
Size I+ 16
Size I- 1057
Time : 185.491
Syntactical distance : 0.0
Error Rate Precondition : 0.0
Error Rate Postcondition : 0.0
FSCORE : 1.0
Iteration 17
Size I+ 17
Size I- 1109
Time : 204.449
Syntactical distance : 0.0
Error Rate Precondition : 0.0
Error Rate Postcondition : 0.0
FSCORE : 1.0
Iteration 18
Size I+ 18
Size I- 1148
Time : 223.691
Syntactical distance : 0.0
Error Rate Precondition : 0.0
Error Rate Postcondition : 0.0
FSCORE : 1.0
Iteration 19
Size I+ 19
Size I- 1187
Time : 243.797
Syntactical distance : 0.0
Error Rate Precondition : 0.0
Error Rate Postcondition : 0.0
FSCORE : 1.0
Iteration 20
Size I+ 20
Size I- 1215
Time : 263.835
Syntactical distance : 0.0
Error Rate Precondition : 0.0
Error Rate Postcondition : 0.0
FSCORE : 1.0
Iteration 21
Size I+ 21
Size I- 1258
Time : 284.41
Syntactical distance : 0.0
Error Rate Precondition : 0.0
Error Rate Postcondition : 0.0
FSCORE : 1.0
Iteration 22
Size I+ 22
Size I- 1301
Time : 305.419
Syntactical distance : 0.0
Error Rate Precondition : 0.0
Error Rate Postcondition : 0.0
FSCORE : 1.0
Iteration 23
Size I+ 23
Size I- 1355
Time : 327.358
Syntactical distance : 0.0
Error Rate Precondition : 0.0
Error Rate Postcondition : 0.0
FSCORE : 1.0
Iteration 24
Size I+ 24
Size I- 1440
Time : 350.03
Syntactical distance : 0.0
Error Rate Precondition : 0.0
Error Rate Postcondition : 0.0
FSCORE : 1.0
Iteration 25
Size I+ 25
Size I- 1512
Time : 373.602
Syntactical distance : 0.0
Error Rate Precondition : 0.0
Error Rate Postcondition : 0.0
FSCORE : 1.0
Iteration 26
Size I+ 26
Size I- 1582
Time : 398.035
Syntactical distance : 0.0
Error Rate Precondition : 0.0
Error Rate Postcondition : 0.0
FSCORE : 1.0
Iteration 27
Size I+ 27
Size I- 1611
Time : 422.748
Syntactical distance : 0.0
Error Rate Precondition : 0.0
Error Rate Postcondition : 0.0
FSCORE : 1.0
Iteration 28
Size I+ 28
Size I- 1661
Time : 445.925
Syntactical distance : 0.0
Error Rate Precondition : 0.0
Error Rate Postcondition : 0.0
FSCORE : 1.0
Iteration 29
Size I+ 29
Size I- 1702
Time : 471.788
Syntactical distance : 0.0
Error Rate Precondition : 0.0
Error Rate Postcondition : 0.0
FSCORE : 1.0
Iteration 30
Size I+ 30
Size I- 1726
Time : 496.951
Syntactical distance : 0.0
Error Rate Precondition : 0.0
Error Rate Postcondition : 0.0
FSCORE : 1.0
E+ size : 100
E- size : 27580
e+ mean size : 52.15
e- mean size : 34.231472
############################################
### Fluent = 25.0% ###

*** Noise = 0.0% ***
Iteration 1
Time : 1.43
Syntactical distance : 0.0462963
Error Rate Precondition : 0.025326341
Error Rate Postcondition : 0.030897498
FSCORE : 0.16993463
Iteration 2
Size I+ 2
Size I- 121
Time : 5.27
Syntactical distance : 0.055555556
Error Rate Precondition : 0.06456197
Error Rate Postcondition : 0.033094555
FSCORE : 0.14814813
Iteration 3
Size I+ 3
Size I- 190
Time : 9.006
Syntactical distance : 0.018518519
Error Rate Precondition : 0.0
Error Rate Postcondition : 0.05154562
FSCORE : 0.18390805
Iteration 4
Size I+ 4
Size I- 256
Time : 14.055
Syntactical distance : 0.0
Error Rate Precondition : 0.0
Error Rate Postcondition : 0.0
FSCORE : 1.0
Iteration 5
Size I+ 5
Size I- 301
Time : 21.279
Syntactical distance : 0.0
Error Rate Precondition : 0.0
Error Rate Postcondition : 0.0
FSCORE : 1.0
Iteration 6
Size I+ 6
Size I- 389
Time : 29.1
Syntactical distance : 0.0
Error Rate Precondition : 0.0
Error Rate Postcondition : 0.0
FSCORE : 1.0
Iteration 7
Size I+ 7
Size I- 472
Time : 37.469
Syntactical distance : 0.0
Error Rate Precondition : 0.0
Error Rate Postcondition : 0.0
FSCORE : 1.0
Iteration 8
Size I+ 8
Size I- 521
Time : 45.392
Syntactical distance : 0.0
Error Rate Precondition : 0.0
Error Rate Postcondition : 0.0
FSCORE : 1.0
Iteration 9
Size I+ 9
Size I- 569
Time : 53.926
Syntactical distance : 0.0
Error Rate Precondition : 0.0
Error Rate Postcondition : 0.0
FSCORE : 1.0
Iteration 10
Size I+ 10
Size I- 660
Time : 62.491
Syntactical distance : 0.0
Error Rate Precondition : 0.0
Error Rate Postcondition : 0.0
FSCORE : 1.0
Iteration 11
Size I+ 11
Size I- 698
Time : 70.757
Syntactical distance : 0.0
Error Rate Precondition : 0.0
Error Rate Postcondition : 0.0
FSCORE : 1.0
Iteration 12
Size I+ 12
Size I- 768
Time : 79.22
Syntactical distance : 0.0
Error Rate Precondition : 0.0
Error Rate Postcondition : 0.0
FSCORE : 1.0
Iteration 13
Size I+ 13
Size I- 817
Time : 88.132
Syntactical distance : 0.0
Error Rate Precondition : 0.0
Error Rate Postcondition : 0.0
FSCORE : 1.0
Iteration 14
Size I+ 14
Size I- 839
Time : 96.799
Syntactical distance : 0.0
Error Rate Precondition : 0.0
Error Rate Postcondition : 0.0
FSCORE : 1.0
Iteration 15
Size I+ 15
Size I- 878
Time : 105.589
Syntactical distance : 0.0
Error Rate Precondition : 0.0
Error Rate Postcondition : 0.0
FSCORE : 1.0
Iteration 16
Size I+ 16
Size I- 907
Time : 115.707
Syntactical distance : 0.0
Error Rate Precondition : 0.0
Error Rate Postcondition : 0.0
FSCORE : 1.0
Iteration 17
Size I+ 17
Size I- 1015
Time : 124.915
Syntactical distance : 0.0
Error Rate Precondition : 0.0
Error Rate Postcondition : 0.0
FSCORE : 1.0
Iteration 18
Size I+ 18
Size I- 1083
Time : 135.653
Syntactical distance : 0.0
Error Rate Precondition : 0.0
Error Rate Postcondition : 0.0
FSCORE : 1.0
Iteration 19
Size I+ 19
Size I- 1181
Time : 147.057
Syntactical distance : 0.0
Error Rate Precondition : 0.0
Error Rate Postcondition : 0.0
FSCORE : 1.0
Iteration 20
Size I+ 20
Size I- 1232
Time : 156.897
Syntactical distance : 0.0
Error Rate Precondition : 0.0
Error Rate Postcondition : 0.0
FSCORE : 1.0
Iteration 21
Size I+ 21
Size I- 1266
Time : 166.85
Syntactical distance : 0.0
Error Rate Precondition : 0.0
Error Rate Postcondition : 0.0
FSCORE : 1.0
Iteration 22
Size I+ 22
Size I- 1342
Time : 177.516
Syntactical distance : 0.0
Error Rate Precondition : 0.0
Error Rate Postcondition : 0.0
FSCORE : 1.0
Iteration 23
Size I+ 23
Size I- 1430
Time : 187.774
Syntactical distance : 0.0
Error Rate Precondition : 0.0
Error Rate Postcondition : 0.0
FSCORE : 1.0
Iteration 24
Size I+ 24
Size I- 1500
Time : 198.245
Syntactical distance : 0.0
Error Rate Precondition : 0.0
Error Rate Postcondition : 0.0
FSCORE : 1.0
Iteration 25
Size I+ 25
Size I- 1578
Time : 209.797
Syntactical distance : 0.0
Error Rate Precondition : 0.0
Error Rate Postcondition : 0.0
FSCORE : 1.0
Iteration 26
Size I+ 26
Size I- 1654
Time : 220.732
Syntactical distance : 0.0
Error Rate Precondition : 0.0
Error Rate Postcondition : 0.0
FSCORE : 1.0
Iteration 27
Size I+ 27
Size I- 1732
Time : 231.855
Syntactical distance : 0.0
Error Rate Precondition : 0.0
Error Rate Postcondition : 0.0
FSCORE : 1.0
Iteration 28
Size I+ 28
Size I- 1802
Time : 243.225
Syntactical distance : 0.0
Error Rate Precondition : 0.0
Error Rate Postcondition : 0.0
FSCORE : 1.0
Iteration 29
Size I+ 29
Size I- 1879
Time : 254.602
Syntactical distance : 0.0
Error Rate Precondition : 0.0
Error Rate Postcondition : 0.0
FSCORE : 1.0
Iteration 30
Size I+ 30
Size I- 1942
Time : 266.152
Syntactical distance : 0.0
Error Rate Precondition : 0.0
Error Rate Postcondition : 0.0
FSCORE : 1.0

*** Noise = 20.0% ***
Iteration 1
Time : 1.719
Syntactical distance : 0.13425925
Error Rate Precondition : 0.08516484
Error Rate Postcondition : 0.044069953
FSCORE : 0.043360434
Iteration 2
Size I+ 2
Size I- 121
Time : 5.946
Syntactical distance : 0.10416667
Error Rate Precondition : 0.07265544
Error Rate Postcondition : 0.09293894
FSCORE : 0.14814813
Iteration 3
Size I+ 3
Size I- 190
Time : 9.544
Syntactical distance : 0.06481482
Error Rate Precondition : 0.11847942
Error Rate Postcondition : 0.02584278
FSCORE : 0.058252428
Iteration 4
Size I+ 4
Size I- 256
Time : 12.545
Syntactical distance : 0.05555556
Error Rate Precondition : 0.10805942
Error Rate Postcondition : 0.024552701
FSCORE : 0.058252428
Iteration 5
Size I+ 5
Size I- 301
Time : 16.397
Syntactical distance : 0.05555556
Error Rate Precondition : 0.10805942
Error Rate Postcondition : 0.024552701
FSCORE : 0.058252428
Iteration 6
Size I+ 6
Size I- 389
Time : 21.017
Syntactical distance : 0.027777778
Error Rate Precondition : 0.04341797
Error Rate Postcondition : 0.055859845
FSCORE : 1.0
Iteration 7
Size I+ 7
Size I- 472
Time : 31.839
Syntactical distance : 0.074074075
Error Rate Precondition : 0.16588402
Error Rate Postcondition : 0.023385301
FSCORE : 0.058252428
Iteration 8
Size I+ 8
Size I- 521
Time : 36.954
Syntactical distance : 0.074074075
Error Rate Precondition : 0.1496707
Error Rate Postcondition : 0.023385301
FSCORE : 0.058252428
Iteration 9
Size I+ 9
Size I- 569
Time : 42.404
Syntactical distance : 0.05555556
Error Rate Precondition : 0.12602545
Error Rate Postcondition : 0.024552701
FSCORE : 0.058252428
Iteration 10
Size I+ 10
Size I- 660
Time : 52.634
Syntactical distance : 0.05555556
Error Rate Precondition : 0.12602545
Error Rate Postcondition : 0.024552701
FSCORE : 0.058252428
Iteration 11
Size I+ 11
Size I- 698
Time : 60.505
Syntactical distance : 0.037037037
Error Rate Precondition : 0.06408553
Error Rate Postcondition : 0.025920108
FSCORE : 0.058252428
Iteration 12
Size I+ 12
Size I- 768
Time : 67.037
Syntactical distance : 0.0
Error Rate Precondition : 0.0
Error Rate Postcondition : 0.0
FSCORE : 1.0
Iteration 13
Size I+ 13
Size I- 817
Time : 75.948
Syntactical distance : 0.0
Error Rate Precondition : 0.0
Error Rate Postcondition : 0.0
FSCORE : 1.0
Iteration 14
Size I+ 14
Size I- 839
Time : 84.614
Syntactical distance : 0.0
Error Rate Precondition : 0.0
Error Rate Postcondition : 0.0
FSCORE : 1.0
Iteration 15
Size I+ 15
Size I- 878
Time : 93.508
Syntactical distance : 0.0
Error Rate Precondition : 0.0
Error Rate Postcondition : 0.0
FSCORE : 1.0
Iteration 16
Size I+ 16
Size I- 907
Time : 106.894
Syntactical distance : 0.0462963
Error Rate Precondition : 0.078727014
Error Rate Postcondition : 0.055859845
FSCORE : 0.19493178
Iteration 17
Size I+ 17
Size I- 1015
Time : 128.405
Syntactical distance : 0.0462963
Error Rate Precondition : 0.078727014
Error Rate Postcondition : 0.055859845
FSCORE : 0.19493178
Iteration 18
Size I+ 18
Size I- 1083
Time : 136.9
Syntactical distance : 0.1388889
Error Rate Precondition : 0.1401214
Error Rate Postcondition : 0.12658753
FSCORE : 0.006535948
Iteration 19
Size I+ 19
Size I- 1181
Time : 152.605
Syntactical distance : 0.0
Error Rate Precondition : 0.0
Error Rate Postcondition : 0.0
FSCORE : 1.0
Iteration 20
Size I+ 20
Size I- 1232
Time : 162.342
Syntactical distance : 0.0
Error Rate Precondition : 0.0
Error Rate Postcondition : 0.0
FSCORE : 1.0
Iteration 21
Size I+ 21
Size I- 1266
Time : 172.301
Syntactical distance : 0.0
Error Rate Precondition : 0.0
Error Rate Postcondition : 0.0
FSCORE : 1.0
Iteration 22
Size I+ 22
Size I- 1342
Time : 193.244
Syntactical distance : 0.0
Error Rate Precondition : 0.0
Error Rate Postcondition : 0.0
FSCORE : 1.0
Iteration 23
Size I+ 23
Size I- 1430
Time : 213.853
Syntactical distance : 0.0
Error Rate Precondition : 0.0
Error Rate Postcondition : 0.0
FSCORE : 1.0
Iteration 24
Size I+ 24
Size I- 1500
Time : 235.11
Syntactical distance : 0.0
Error Rate Precondition : 0.0
Error Rate Postcondition : 0.0
FSCORE : 1.0
Iteration 25
Size I+ 25
Size I- 1578
Time : 256.768
Syntactical distance : 0.0
Error Rate Precondition : 0.0
Error Rate Postcondition : 0.0
FSCORE : 1.0
Iteration 26
Size I+ 26
Size I- 1654
Time : 279.566
Syntactical distance : 0.0
Error Rate Precondition : 0.0
Error Rate Postcondition : 0.0
FSCORE : 1.0
Iteration 27
Size I+ 27
Size I- 1732
Time : 290.724
Syntactical distance : 0.0
Error Rate Precondition : 0.0
Error Rate Postcondition : 0.0
FSCORE : 1.0
Iteration 28
Size I+ 28
Size I- 1802
Time : 302.117
Syntactical distance : 0.0
Error Rate Precondition : 0.0
Error Rate Postcondition : 0.0
FSCORE : 1.0
Iteration 29
Size I+ 29
Size I- 1879
Time : 313.769
Syntactical distance : 0.0
Error Rate Precondition : 0.0
Error Rate Postcondition : 0.0
FSCORE : 1.0
Iteration 30
Size I+ 30
Size I- 1942
Time : 339.975
Syntactical distance : 0.0
Error Rate Precondition : 0.0
Error Rate Postcondition : 0.0
FSCORE : 1.0
############################################
### Fluent = 100.0% ###

*** Noise = 0.0% ***
Iteration 1
Time : 0.497
Syntactical distance : 0.018518519
Error Rate Precondition : 0.038868457
Error Rate Postcondition : 0.0
FSCORE : 0.18181819
Iteration 2
Size I+ 2
Size I- 131
Time : 2.949
Syntactical distance : 0.018518519
Error Rate Precondition : 0.038868457
Error Rate Postcondition : 0.0
FSCORE : 0.18181819
Iteration 3
Size I+ 3
Size I- 187
Time : 5.604
Syntactical distance : 0.018518519
Error Rate Precondition : 0.038868457
Error Rate Postcondition : 0.0
FSCORE : 0.18181819
Iteration 4
Size I+ 4
Size I- 274
Time : 9.453
Syntactical distance : 0.018518519
Error Rate Precondition : 0.020111633
Error Rate Postcondition : 0.027448805
FSCORE : 0.18390805
Iteration 5
Size I+ 5
Size I- 313
Time : 13.66
Syntactical distance : 0.0
Error Rate Precondition : 0.0
Error Rate Postcondition : 0.0
FSCORE : 1.0
Iteration 6
Size I+ 6
Size I- 339
Time : 21.329
Syntactical distance : 0.0
Error Rate Precondition : 0.0
Error Rate Postcondition : 0.0
FSCORE : 1.0
Iteration 7
Size I+ 7
Size I- 406
Time : 29.09
Syntactical distance : 0.0
Error Rate Precondition : 0.0
Error Rate Postcondition : 0.0
FSCORE : 1.0
Iteration 8
Size I+ 8
Size I- 472
Time : 37.248
Syntactical distance : 0.0
Error Rate Precondition : 0.0
Error Rate Postcondition : 0.0
FSCORE : 1.0
Iteration 9
Size I+ 9
Size I- 566
Time : 45.497
Syntactical distance : 0.0
Error Rate Precondition : 0.0
Error Rate Postcondition : 0.0
FSCORE : 1.0
Iteration 10
Size I+ 10
Size I- 623
Time : 54.319
Syntactical distance : 0.0
Error Rate Precondition : 0.0
Error Rate Postcondition : 0.0
FSCORE : 1.0
Iteration 11
Size I+ 11
Size I- 694
Time : 63.015
Syntactical distance : 0.0
Error Rate Precondition : 0.0
Error Rate Postcondition : 0.0
FSCORE : 1.0
Iteration 12
Size I+ 12
Size I- 778
Time : 71.55
Syntactical distance : 0.0
Error Rate Precondition : 0.0
Error Rate Postcondition : 0.0
FSCORE : 1.0
Iteration 13
Size I+ 13
Size I- 891
Time : 81.803
Syntactical distance : 0.0
Error Rate Precondition : 0.0
Error Rate Postcondition : 0.0
FSCORE : 1.0
Iteration 14
Size I+ 14
Size I- 922
Time : 91.374
Syntactical distance : 0.0
Error Rate Precondition : 0.0
Error Rate Postcondition : 0.0
FSCORE : 1.0
Iteration 15
Size I+ 15
Size I- 1023
Time : 102.528
Syntactical distance : 0.0
Error Rate Precondition : 0.0
Error Rate Postcondition : 0.0
FSCORE : 1.0
Iteration 16
Size I+ 16
Size I- 1093
Time : 111.851
Syntactical distance : 0.0
Error Rate Precondition : 0.0
Error Rate Postcondition : 0.0
FSCORE : 1.0
Iteration 17
Size I+ 17
Size I- 1166
Time : 122.244
Syntactical distance : 0.0
Error Rate Precondition : 0.0
Error Rate Postcondition : 0.0
FSCORE : 1.0
Iteration 18
Size I+ 18
Size I- 1237
Time : 135.008
Syntactical distance : 0.0
Error Rate Precondition : 0.0
Error Rate Postcondition : 0.0
FSCORE : 1.0
Iteration 19
Size I+ 19
Size I- 1269
Time : 144.854
Syntactical distance : 0.0
Error Rate Precondition : 0.0
Error Rate Postcondition : 0.0
FSCORE : 1.0
Iteration 20
Size I+ 20
Size I- 1329
Time : 154.973
Syntactical distance : 0.0
Error Rate Precondition : 0.0
Error Rate Postcondition : 0.0
FSCORE : 1.0
Iteration 21
Size I+ 21
Size I- 1395
Time : 167.623
Syntactical distance : 0.0
Error Rate Precondition : 0.0
Error Rate Postcondition : 0.0
FSCORE : 1.0
Iteration 22
Size I+ 22
Size I- 1448
Time : 180.861
Syntactical distance : 0.0
Error Rate Precondition : 0.0
Error Rate Postcondition : 0.0
FSCORE : 1.0
Iteration 23
Size I+ 23
Size I- 1534
Time : 194.67
Syntactical distance : 0.0
Error Rate Precondition : 0.0
Error Rate Postcondition : 0.0
FSCORE : 1.0
Iteration 24
Size I+ 24
Size I- 1591
Time : 205.161
Syntactical distance : 0.0
Error Rate Precondition : 0.0
Error Rate Postcondition : 0.0
FSCORE : 1.0
Iteration 25
Size I+ 25
Size I- 1664
Time : 215.832
Syntactical distance : 0.0
Error Rate Precondition : 0.0
Error Rate Postcondition : 0.0
FSCORE : 1.0
Iteration 26
Size I+ 26
Size I- 1701
Time : 226.689
Syntactical distance : 0.0
Error Rate Precondition : 0.0
Error Rate Postcondition : 0.0
FSCORE : 1.0
Iteration 27
Size I+ 27
Size I- 1799
Time : 237.848
Syntactical distance : 0.0
Error Rate Precondition : 0.0
Error Rate Postcondition : 0.0
FSCORE : 1.0
Iteration 28
Size I+ 28
Size I- 1899
Time : 249.201
Syntactical distance : 0.0
Error Rate Precondition : 0.0
Error Rate Postcondition : 0.0
FSCORE : 1.0
Iteration 29
Size I+ 29
Size I- 1976
Time : 260.739
Syntactical distance : 0.0
Error Rate Precondition : 0.0
Error Rate Postcondition : 0.0
FSCORE : 1.0
Iteration 30
Size I+ 30
Size I- 2013
Time : 272.459
Syntactical distance : 0.0
Error Rate Precondition : 0.0
Error Rate Postcondition : 0.0
FSCORE : 1.0

*** Noise = 20.0% ***
Iteration 1
Time : 2.433
Syntactical distance : 0.074074075
Error Rate Precondition : 0.11197219
Error Rate Postcondition : 0.08622403
FSCORE : 0.18181819
Iteration 2
Size I+ 2
Size I- 131
Time : 6.577
Syntactical distance : 0.074074075
Error Rate Precondition : 0.08575743
Error Rate Postcondition : 0.06267363
FSCORE : 0.18181819
Iteration 3
Size I+ 3
Size I- 187
Time : 12.295
Syntactical distance : 0.0462963
Error Rate Precondition : 0.078727014
Error Rate Postcondition : 0.055859845
FSCORE : 0.19493178
Iteration 4
Size I+ 4
Size I- 274
Time : 24.867
Syntactical distance : 0.0462963
Error Rate Precondition : 0.078727014
Error Rate Postcondition : 0.055859845
FSCORE : 0.19493178
Iteration 5
Size I+ 5
Size I- 313
Time : 34.877
Syntactical distance : 0.0462963
Error Rate Precondition : 0.078727014
Error Rate Postcondition : 0.055859845
FSCORE : 0.19493178
Iteration 6
Size I+ 6
Size I- 339
Time : 45.761
Syntactical distance : 0.037037037
Error Rate Precondition : 0.061931
Error Rate Postcondition : 0.055859845
FSCORE : 0.19493178
Iteration 7
Size I+ 7
Size I- 406
Time : 59.628
Syntactical distance : 0.037037037
Error Rate Precondition : 0.061931
Error Rate Postcondition : 0.055859845
FSCORE : 0.19493178
Iteration 8
Size I+ 8
Size I- 472
Time : 72.787
Syntactical distance : 0.037037037
Error Rate Precondition : 0.061931
Error Rate Postcondition : 0.055859845
FSCORE : 0.19493178
Iteration 9
Size I+ 9
Size I- 566
Time : 81.307
Syntactical distance : 0.037037037
Error Rate Precondition : 0.061931
Error Rate Postcondition : 0.055859845
FSCORE : 0.19493178
Iteration 10
Size I+ 10
Size I- 623
Time : 95.181
Syntactical distance : 0.027777778
Error Rate Precondition : 0.04341797
Error Rate Postcondition : 0.055859845
FSCORE : 1.0
Iteration 11
Size I+ 11
Size I- 694
Time : 104.02
Syntactical distance : 0.027777778
Error Rate Precondition : 0.04341797
Error Rate Postcondition : 0.055859845
FSCORE : 1.0
Iteration 12
Size I+ 12
Size I- 778
Time : 117.344
Syntactical distance : 0.0
Error Rate Precondition : 0.0
Error Rate Postcondition : 0.0
FSCORE : 1.0
Iteration 13
Size I+ 13
Size I- 891
Time : 127.571
Syntactical distance : 0.027777778
Error Rate Precondition : 0.04341797
Error Rate Postcondition : 0.055859845
FSCORE : 1.0
Iteration 14
Size I+ 14
Size I- 922
Time : 137.303
Syntactical distance : 0.027777778
Error Rate Precondition : 0.04341797
Error Rate Postcondition : 0.055859845
FSCORE : 1.0
Iteration 15
Size I+ 15
Size I- 1023
Time : 155.949
Syntactical distance : 0.037037037
Error Rate Precondition : 0.061931
Error Rate Postcondition : 0.055859845
FSCORE : 0.19493178
Iteration 16
Size I+ 16
Size I- 1093
Time : 169.918
Syntactical distance : 0.037037037
Error Rate Precondition : 0.061931
Error Rate Postcondition : 0.055859845
FSCORE : 0.19493178
Iteration 17
Size I+ 17
Size I- 1166
Time : 185.678
Syntactical distance : 0.037037037
Error Rate Precondition : 0.061931
Error Rate Postcondition : 0.055859845
FSCORE : 0.19493178
Iteration 18
Size I+ 18
Size I- 1237
Time : 209.398
Syntactical distance : 0.037037037
Error Rate Precondition : 0.061931
Error Rate Postcondition : 0.055859845
FSCORE : 0.19493178
Iteration 19
Size I+ 19
Size I- 1269
Time : 231.885
Syntactical distance : 0.037037037
Error Rate Precondition : 0.061931
Error Rate Postcondition : 0.055859845
FSCORE : 0.19493178
Iteration 20
Size I+ 20
Size I- 1329
Time : 255.967
Syntactical distance : 0.037037037
Error Rate Precondition : 0.061931
Error Rate Postcondition : 0.055859845
FSCORE : 0.19493178
Iteration 21
Size I+ 21
Size I- 1395
Time : 283.359
Syntactical distance : 0.037037037
Error Rate Precondition : 0.061931
Error Rate Postcondition : 0.055859845
FSCORE : 0.19493178
Iteration 22
Size I+ 22
Size I- 1448
Time : 310.083
Syntactical distance : 0.0
Error Rate Precondition : 0.0
Error Rate Postcondition : 0.0
FSCORE : 1.0
Iteration 23
Size I+ 23
Size I- 1534
Time : 337.797
Syntactical distance : 0.0
Error Rate Precondition : 0.0
Error Rate Postcondition : 0.0
FSCORE : 1.0
Iteration 24
Size I+ 24
Size I- 1591
Time : 364.269
Syntactical distance : 0.0
Error Rate Precondition : 0.0
Error Rate Postcondition : 0.0
FSCORE : 1.0
Iteration 25
Size I+ 25
Size I- 1664
Time : 391.747
Syntactical distance : 0.0
Error Rate Precondition : 0.0
Error Rate Postcondition : 0.0
FSCORE : 1.0
Iteration 26
Size I+ 26
Size I- 1701
Time : 420.047
Syntactical distance : 0.0
Error Rate Precondition : 0.0
Error Rate Postcondition : 0.0
FSCORE : 1.0
Iteration 27
Size I+ 27
Size I- 1799
Time : 449.335
Syntactical distance : 0.0
Error Rate Precondition : 0.0
Error Rate Postcondition : 0.0
FSCORE : 1.0
Iteration 28
Size I+ 28
Size I- 1899
Time : 479.544
Syntactical distance : 0.0
Error Rate Precondition : 0.0
Error Rate Postcondition : 0.0
FSCORE : 1.0
Iteration 29
Size I+ 29
Size I- 1976
Time : 510.972
Syntactical distance : 0.0
Error Rate Precondition : 0.0
Error Rate Postcondition : 0.0
FSCORE : 1.0
Iteration 30
Size I+ 30
Size I- 2013
Time : 542.521
Syntactical distance : 0.0
Error Rate Precondition : 0.0
Error Rate Postcondition : 0.0
FSCORE : 1.0
