# actions 24
# predicate 25
Initial state : pddl/hanoi/initial_states/initial1.pddl
pddl/hanoi/domain.pddl
E+ size : 100
E- size : 34079
e+ mean size : 49.56
e- mean size : 33.640396
############################################
### Fluent = 25.0% ###

*** Noise = 0.0% ***
Iteration 1
Time : 6.139
Syntactical distance : 0.08703704
Error Rate Precondition : 0.0
Error Rate Postcondition : 0.0
FSCORE : 0.22271715
Iteration 2
Size I+ 2
Size I- 157
Time : 15.486
Syntactical distance : 0.096296296
Error Rate Precondition : 0.059326276
Error Rate Postcondition : 0.0
FSCORE : 0.18761726
Iteration 3
Size I+ 3
Size I- 273
Time : 29.8
Syntactical distance : 0.009259259
Error Rate Precondition : 0.0
Error Rate Postcondition : 0.0
FSCORE : 1.0
Iteration 4
Size I+ 4
Size I- 346
Time : 46.964
Syntactical distance : 0.009259259
Error Rate Precondition : 0.0
Error Rate Postcondition : 0.0
FSCORE : 1.0
Iteration 5
Size I+ 5
Size I- 401
Time : 55.493
Syntactical distance : 0.009259259
Error Rate Precondition : 0.0
Error Rate Postcondition : 0.0
FSCORE : 1.0
Iteration 6
Size I+ 6
Size I- 509
Time : 66.083
Syntactical distance : 0.009259259
Error Rate Precondition : 0.0
Error Rate Postcondition : 0.0
FSCORE : 1.0
Iteration 7
Size I+ 7
Size I- 621
Time : 79.193
Syntactical distance : 0.009259259
Error Rate Precondition : 0.0
Error Rate Postcondition : 0.0
FSCORE : 1.0
Iteration 8
Size I+ 8
Size I- 729
Time : 94.6
Syntactical distance : 0.009259259
Error Rate Precondition : 0.0
Error Rate Postcondition : 0.0
FSCORE : 1.0
Iteration 9
Size I+ 9
Size I- 811
Time : 112.525
Syntactical distance : 0.009259259
Error Rate Precondition : 0.0
Error Rate Postcondition : 0.0
FSCORE : 1.0
Iteration 10
Size I+ 10
Size I- 917
Time : 132.64
Syntactical distance : 0.009259259
Error Rate Precondition : 0.0
Error Rate Postcondition : 0.0
FSCORE : 1.0
Iteration 11
Size I+ 11
Size I- 1007
Time : 155.791
Syntactical distance : 0.009259259
Error Rate Precondition : 0.0
Error Rate Postcondition : 0.0
FSCORE : 1.0
Iteration 12
Size I+ 12
Size I- 1135
Time : 182.799
Syntactical distance : 0.009259259
Error Rate Precondition : 0.0
Error Rate Postcondition : 0.0
FSCORE : 1.0
Iteration 13
Size I+ 13
Size I- 1189
Time : 209.545
Syntactical distance : 0.009259259
Error Rate Precondition : 0.0
Error Rate Postcondition : 0.0
FSCORE : 1.0
Iteration 14
Size I+ 14
Size I- 1271
Time : 237.879
Syntactical distance : 0.009259259
Error Rate Precondition : 0.0
Error Rate Postcondition : 0.0
FSCORE : 1.0
Iteration 15
Size I+ 15
Size I- 1346
Time : 268.647
Syntactical distance : 0.009259259
Error Rate Precondition : 0.0
Error Rate Postcondition : 0.0
FSCORE : 1.0
Iteration 16
Size I+ 16
Size I- 1437
Time : 302.32
Syntactical distance : 0.009259259
Error Rate Precondition : 0.0
Error Rate Postcondition : 0.0
FSCORE : 1.0
Iteration 17
Size I+ 17
Size I- 1532
Time : 339.394
Syntactical distance : 0.009259259
Error Rate Precondition : 0.0
Error Rate Postcondition : 0.0
FSCORE : 1.0
Iteration 18
Size I+ 18
Size I- 1635
Time : 376.945
Syntactical distance : 0.009259259
Error Rate Precondition : 0.0
Error Rate Postcondition : 0.0
FSCORE : 1.0
Iteration 19
Size I+ 19
Size I- 1705
Time : 415.697
Syntactical distance : 0.009259259
Error Rate Precondition : 0.0
Error Rate Postcondition : 0.0
FSCORE : 1.0
Iteration 20
Size I+ 20
Size I- 1779
Time : 458.949
Syntactical distance : 0.009259259
Error Rate Precondition : 0.0
Error Rate Postcondition : 0.0
FSCORE : 1.0
Iteration 21
Size I+ 21
Size I- 1946
Time : 504.331
Syntactical distance : 0.009259259
Error Rate Precondition : 0.0
Error Rate Postcondition : 0.0
FSCORE : 1.0
Iteration 22
Size I+ 22
Size I- 2032
Time : 550.158
Syntactical distance : 0.009259259
Error Rate Precondition : 0.0
Error Rate Postcondition : 0.0
FSCORE : 1.0
Iteration 23
Size I+ 23
Size I- 2062
Time : 597.59
Syntactical distance : 0.009259259
Error Rate Precondition : 0.0
Error Rate Postcondition : 0.0
FSCORE : 1.0
Iteration 24
Size I+ 24
Size I- 2132
Time : 644.527
Syntactical distance : 0.009259259
Error Rate Precondition : 0.0
Error Rate Postcondition : 0.0
FSCORE : 1.0
Iteration 25
Size I+ 25
Size I- 2225
Time : 695.62
Syntactical distance : 0.009259259
Error Rate Precondition : 0.0
Error Rate Postcondition : 0.0
FSCORE : 1.0
Iteration 26
Size I+ 26
Size I- 2302
Time : 748.878
Syntactical distance : 0.009259259
Error Rate Precondition : 0.0
Error Rate Postcondition : 0.0
FSCORE : 1.0
Iteration 27
Size I+ 27
Size I- 2360
Time : 802.253
Syntactical distance : 0.009259259
Error Rate Precondition : 0.0
Error Rate Postcondition : 0.0
FSCORE : 1.0
Iteration 28
Size I+ 28
Size I- 2439
Time : 857.221
Syntactical distance : 0.009259259
Error Rate Precondition : 0.0
Error Rate Postcondition : 0.0
FSCORE : 1.0
Iteration 29
Size I+ 29
Size I- 2495
Time : 913.563
Syntactical distance : 0.009259259
Error Rate Precondition : 0.0
Error Rate Postcondition : 0.0
FSCORE : 1.0
Iteration 30
Size I+ 30
Size I- 2568
Time : 971.34
Syntactical distance : 0.009259259
Error Rate Precondition : 0.0
Error Rate Postcondition : 0.0
FSCORE : 1.0

*** Noise = 20.0% ***
Iteration 1
Time : 4.84
Syntactical distance : 0.20555556
Error Rate Precondition : 0.12598974
Error Rate Postcondition : 0.0
FSCORE : 0.03568879
Iteration 2
Size I+ 2
Size I- 157
Time : 44.547
Syntactical distance : 0.074074075
Error Rate Precondition : 0.037365966
Error Rate Postcondition : 0.07696198
FSCORE : 0.15037595
Iteration 3
Size I+ 3
Size I- 273
Time : 66.643
Syntactical distance : 0.06481482
Error Rate Precondition : 0.037365966
Error Rate Postcondition : 0.04002104
FSCORE : 0.15037595
Iteration 4
Size I+ 4
Size I- 346
Time : 95.486
Syntactical distance : 0.009259259
Error Rate Precondition : 0.0
Error Rate Postcondition : 0.0
FSCORE : 1.0
Iteration 5
Size I+ 5
Size I- 401
Time : 118.417
Syntactical distance : 0.009259259
Error Rate Precondition : 0.0
Error Rate Postcondition : 0.0
FSCORE : 1.0
Iteration 6
Size I+ 6
Size I- 509
Time : 129.524
Syntactical distance : 0.062962964
Error Rate Precondition : 0.04013709
Error Rate Postcondition : 0.037439514
FSCORE : 0.0
Iteration 7
Size I+ 7
Size I- 621
Time : 140.324
Syntactical distance : 0.053703703
Error Rate Precondition : 0.037912305
Error Rate Postcondition : 0.0
FSCORE : 0.0
Iteration 8
Size I+ 8
Size I- 729
Time : 181.543
Syntactical distance : 0.009259259
Error Rate Precondition : 0.0
Error Rate Postcondition : 0.0
FSCORE : 1.0
Iteration 9
Size I+ 9
Size I- 811
Time : 235.219
Syntactical distance : 0.009259259
Error Rate Precondition : 0.0
Error Rate Postcondition : 0.0
FSCORE : 1.0
Iteration 10
Size I+ 10
Size I- 917
Time : 318.719
Syntactical distance : 0.009259259
Error Rate Precondition : 0.0
Error Rate Postcondition : 0.0
FSCORE : 1.0
Iteration 11
Size I+ 11
Size I- 1007
Time : 414.521
Syntactical distance : 0.009259259
Error Rate Precondition : 0.0
Error Rate Postcondition : 0.0
FSCORE : 1.0
Iteration 12
Size I+ 12
Size I- 1135
Time : 512.71
Syntactical distance : 0.009259259
Error Rate Precondition : 0.0
Error Rate Postcondition : 0.0
FSCORE : 1.0
Iteration 13
Size I+ 13
Size I- 1189
Time : 610.362
Syntactical distance : 0.009259259
Error Rate Precondition : 0.0
Error Rate Postcondition : 0.0
FSCORE : 1.0
Iteration 14
Size I+ 14
Size I- 1271
Time : 714.153
Syntactical distance : 0.009259259
Error Rate Precondition : 0.0
Error Rate Postcondition : 0.0
FSCORE : 1.0
Iteration 15
Size I+ 15
Size I- 1346
Time : 824.701
Syntactical distance : 0.009259259
Error Rate Precondition : 0.0
Error Rate Postcondition : 0.0
FSCORE : 1.0
Iteration 16
Size I+ 16
Size I- 1437
Time : 945.655
Syntactical distance : 0.009259259
Error Rate Precondition : 0.0
Error Rate Postcondition : 0.0
FSCORE : 1.0
Iteration 17
Size I+ 17
Size I- 1532
Time : 1059.739
Syntactical distance : 0.009259259
Error Rate Precondition : 0.0
Error Rate Postcondition : 0.0
FSCORE : 1.0
Iteration 18
Size I+ 18
Size I- 1635
Time : 1180.888
Syntactical distance : 0.009259259
Error Rate Precondition : 0.0
Error Rate Postcondition : 0.0
FSCORE : 1.0
Iteration 19
Size I+ 19
Size I- 1705
Time : 1343.086
Syntactical distance : 0.009259259
Error Rate Precondition : 0.0
Error Rate Postcondition : 0.0
FSCORE : 1.0
Iteration 20
Size I+ 20
Size I- 1779
Time : 1524.258
Syntactical distance : 0.009259259
Error Rate Precondition : 0.0
Error Rate Postcondition : 0.0
FSCORE : 1.0
Iteration 21
Size I+ 21
Size I- 1946
Time : 1713.874
Syntactical distance : 0.009259259
Error Rate Precondition : 0.0
Error Rate Postcondition : 0.0
FSCORE : 1.0
Iteration 22
Size I+ 22
Size I- 2032
Time : 1910.517
Syntactical distance : 0.009259259
Error Rate Precondition : 0.0
Error Rate Postcondition : 0.0
FSCORE : 1.0
Iteration 23
Size I+ 23
Size I- 2062
Time : 2093.832
Syntactical distance : 0.009259259
Error Rate Precondition : 0.0
Error Rate Postcondition : 0.0
FSCORE : 1.0
Iteration 24
Size I+ 24
Size I- 2132
Time : 2283.306
Syntactical distance : 0.009259259
Error Rate Precondition : 0.0
Error Rate Postcondition : 0.0
FSCORE : 1.0
Iteration 25
Size I+ 25
Size I- 2225
Time : 2485.134
Syntactical distance : 0.009259259
Error Rate Precondition : 0.0
Error Rate Postcondition : 0.0
FSCORE : 1.0
Iteration 26
Size I+ 26
Size I- 2302
Time : 2705.494
Syntactical distance : 0.009259259
Error Rate Precondition : 0.0
Error Rate Postcondition : 0.0
FSCORE : 1.0
Iteration 27
Size I+ 27
Size I- 2360
Time : 2931.9
Syntactical distance : 0.009259259
Error Rate Precondition : 0.0
Error Rate Postcondition : 0.0
FSCORE : 1.0
Iteration 28
Size I+ 28
Size I- 2439
Time : 3162.122
Syntactical distance : 0.009259259
Error Rate Precondition : 0.0
Error Rate Postcondition : 0.0
FSCORE : 1.0
Iteration 29
Size I+ 29
Size I- 2495
Time : 3394.189
Syntactical distance : 0.009259259
Error Rate Precondition : 0.0
Error Rate Postcondition : 0.0
FSCORE : 1.0
Iteration 30
Size I+ 30
Size I- 2568
Time : 3631.856
Syntactical distance : 0.009259259
Error Rate Precondition : 0.0
Error Rate Postcondition : 0.0
FSCORE : 1.0
############################################
### Fluent = 100.0% ###

*** Noise = 0.0% ***
Iteration 1
Time : 1.057
Syntactical distance : 0.009259259
Error Rate Precondition : 0.0
Error Rate Postcondition : 0.0
FSCORE : 1.0
Iteration 2
Size I+ 2
Size I- 130
Time : 4.536
Syntactical distance : 0.009259259
Error Rate Precondition : 0.0
Error Rate Postcondition : 0.0
FSCORE : 1.0
Iteration 3
Size I+ 3
Size I- 182
Time : 8.956
Syntactical distance : 0.009259259
Error Rate Precondition : 0.0
Error Rate Postcondition : 0.0
FSCORE : 1.0
Iteration 4
Size I+ 4
Size I- 254
Time : 15.081
Syntactical distance : 0.009259259
Error Rate Precondition : 0.0
Error Rate Postcondition : 0.0
FSCORE : 1.0
Iteration 5
Size I+ 5
Size I- 307
Time : 22.215
Syntactical distance : 0.009259259
Error Rate Precondition : 0.0
Error Rate Postcondition : 0.0
FSCORE : 1.0
Iteration 6
Size I+ 6
Size I- 372
Time : 30.409
Syntactical distance : 0.009259259
Error Rate Precondition : 0.0
Error Rate Postcondition : 0.0
FSCORE : 1.0
Iteration 7
Size I+ 7
Size I- 458
Time : 39.909
Syntactical distance : 0.009259259
Error Rate Precondition : 0.0
Error Rate Postcondition : 0.0
FSCORE : 1.0
Iteration 8
Size I+ 8
Size I- 611
Time : 52.345
Syntactical distance : 0.009259259
Error Rate Precondition : 0.0
Error Rate Postcondition : 0.0
FSCORE : 1.0
Iteration 9
Size I+ 9
Size I- 703
Time : 66.252
Syntactical distance : 0.009259259
Error Rate Precondition : 0.0
Error Rate Postcondition : 0.0
FSCORE : 1.0
Iteration 10
Size I+ 10
Size I- 756
Time : 81.43
Syntactical distance : 0.009259259
Error Rate Precondition : 0.0
Error Rate Postcondition : 0.0
FSCORE : 1.0
Iteration 11
Size I+ 11
Size I- 788
Time : 96.659
Syntactical distance : 0.009259259
Error Rate Precondition : 0.0
Error Rate Postcondition : 0.0
FSCORE : 1.0
Iteration 12
Size I+ 12
Size I- 923
Time : 115.026
Syntactical distance : 0.009259259
Error Rate Precondition : 0.0
Error Rate Postcondition : 0.0
FSCORE : 1.0
Iteration 13
Size I+ 13
Size I- 1032
Time : 136.441
Syntactical distance : 0.009259259
Error Rate Precondition : 0.0
Error Rate Postcondition : 0.0
FSCORE : 1.0
Iteration 14
Size I+ 14
Size I- 1079
Time : 158.679
Syntactical distance : 0.009259259
Error Rate Precondition : 0.0
Error Rate Postcondition : 0.0
FSCORE : 1.0
Iteration 15
Size I+ 15
Size I- 1154
Time : 182.367
Syntactical distance : 0.009259259
Error Rate Precondition : 0.0
Error Rate Postcondition : 0.0
FSCORE : 1.0
Iteration 16
Size I+ 16
Size I- 1203
Time : 207.359
Syntactical distance : 0.009259259
Error Rate Precondition : 0.0
Error Rate Postcondition : 0.0
FSCORE : 1.0
Iteration 17
Size I+ 17
Size I- 1263
Time : 232.625
Syntactical distance : 0.009259259
Error Rate Precondition : 0.0
Error Rate Postcondition : 0.0
FSCORE : 1.0
Iteration 18
Size I+ 18
Size I- 1305
Time : 259.021
Syntactical distance : 0.009259259
Error Rate Precondition : 0.0
Error Rate Postcondition : 0.0
FSCORE : 1.0
Iteration 19
Size I+ 19
Size I- 1364
Time : 286.131
Syntactical distance : 0.009259259
Error Rate Precondition : 0.0
Error Rate Postcondition : 0.0
FSCORE : 1.0
Iteration 20
Size I+ 20
Size I- 1430
Time : 316.008
Syntactical distance : 0.009259259
Error Rate Precondition : 0.0
Error Rate Postcondition : 0.0
FSCORE : 1.0
Iteration 21
Size I+ 21
Size I- 1491
Time : 345.698
Syntactical distance : 0.009259259
Error Rate Precondition : 0.0
Error Rate Postcondition : 0.0
FSCORE : 1.0
Iteration 22
Size I+ 22
Size I- 1535
Time : 376.621
Syntactical distance : 0.009259259
Error Rate Precondition : 0.0
Error Rate Postcondition : 0.0
FSCORE : 1.0
Iteration 23
Size I+ 23
Size I- 1630
Time : 411.715
Syntactical distance : 0.009259259
Error Rate Precondition : 0.0
Error Rate Postcondition : 0.0
FSCORE : 1.0
Iteration 24
Size I+ 24
Size I- 1698
Time : 445.923
Syntactical distance : 0.009259259
Error Rate Precondition : 0.0
Error Rate Postcondition : 0.0
FSCORE : 1.0
Iteration 25
Size I+ 25
Size I- 1723
Time : 480.757
Syntactical distance : 0.009259259
Error Rate Precondition : 0.0
Error Rate Postcondition : 0.0
FSCORE : 1.0
Iteration 26
Size I+ 26
Size I- 1827
Time : 517.903
Syntactical distance : 0.009259259
Error Rate Precondition : 0.0
Error Rate Postcondition : 0.0
FSCORE : 1.0
Iteration 27
Size I+ 27
Size I- 1887
Time : 556.255
Syntactical distance : 0.009259259
Error Rate Precondition : 0.0
Error Rate Postcondition : 0.0
FSCORE : 1.0
Iteration 28
Size I+ 28
Size I- 1955
Time : 595.809
Syntactical distance : 0.009259259
Error Rate Precondition : 0.0
Error Rate Postcondition : 0.0
FSCORE : 1.0
Iteration 29
Size I+ 29
Size I- 2006
Time : 636.356
Syntactical distance : 0.009259259
Error Rate Precondition : 0.0
Error Rate Postcondition : 0.0
FSCORE : 1.0
Iteration 30
Size I+ 30
Size I- 2144
Time : 680.935
Syntactical distance : 0.009259259
Error Rate Precondition : 0.0
Error Rate Postcondition : 0.0
FSCORE : 1.0

*** Noise = 20.0% ***
Iteration 1
Time : 3.012
Syntactical distance : 0.009259259
Error Rate Precondition : 0.0
Error Rate Postcondition : 0.0
FSCORE : 1.0
Iteration 2
Size I+ 2
Size I- 130
Time : 12.225
Syntactical distance : 0.009259259
Error Rate Precondition : 0.0
Error Rate Postcondition : 0.0
FSCORE : 1.0
Iteration 3
Size I+ 3
Size I- 182
Time : 23.576
Syntactical distance : 0.009259259
Error Rate Precondition : 0.0
Error Rate Postcondition : 0.0
FSCORE : 1.0
Iteration 4
Size I+ 4
Size I- 254
Time : 39.324
Syntactical distance : 0.009259259
Error Rate Precondition : 0.0
Error Rate Postcondition : 0.0
FSCORE : 1.0
Iteration 5
Size I+ 5
Size I- 307
Time : 57.226
Syntactical distance : 0.009259259
Error Rate Precondition : 0.0
Error Rate Postcondition : 0.0
FSCORE : 1.0
Iteration 6
Size I+ 6
Size I- 372
Time : 78.593
Syntactical distance : 0.009259259
Error Rate Precondition : 0.0
Error Rate Postcondition : 0.0
FSCORE : 1.0
Iteration 7
Size I+ 7
Size I- 458
Time : 100.828
Syntactical distance : 0.009259259
Error Rate Precondition : 0.0
Error Rate Postcondition : 0.0
FSCORE : 1.0
Iteration 8
Size I+ 8
Size I- 611
Time : 136.438
Syntactical distance : 0.009259259
Error Rate Precondition : 0.0
Error Rate Postcondition : 0.0
FSCORE : 1.0
Iteration 9
Size I+ 9
Size I- 703
Time : 178.834
Syntactical distance : 0.009259259
Error Rate Precondition : 0.0
Error Rate Postcondition : 0.0
FSCORE : 1.0
Iteration 10
Size I+ 10
Size I- 756
Time : 221.899
Syntactical distance : 0.009259259
Error Rate Precondition : 0.0
Error Rate Postcondition : 0.0
FSCORE : 1.0
Iteration 11
Size I+ 11
Size I- 788
Time : 267.181
Syntactical distance : 0.009259259
Error Rate Precondition : 0.0
Error Rate Postcondition : 0.0
FSCORE : 1.0
Iteration 12
Size I+ 12
Size I- 923
Time : 324.098
Syntactical distance : 0.009259259
Error Rate Precondition : 0.0
Error Rate Postcondition : 0.0
FSCORE : 1.0
Iteration 13
Size I+ 13
Size I- 1032
Time : 383.402
Syntactical distance : 0.009259259
Error Rate Precondition : 0.0
Error Rate Postcondition : 0.0
FSCORE : 1.0
Iteration 14
Size I+ 14
Size I- 1079
Time : 448.835
Syntactical distance : 0.009259259
Error Rate Precondition : 0.0
Error Rate Postcondition : 0.0
FSCORE : 1.0
Iteration 15
Size I+ 15
Size I- 1154
Time : 519.93
Syntactical distance : 0.009259259
Error Rate Precondition : 0.0
Error Rate Postcondition : 0.0
FSCORE : 1.0
Iteration 16
Size I+ 16
Size I- 1203
Time : 590.307
Syntactical distance : 0.009259259
Error Rate Precondition : 0.0
Error Rate Postcondition : 0.0
FSCORE : 1.0
Iteration 17
Size I+ 17
Size I- 1263
Time : 665.182
Syntactical distance : 0.009259259
Error Rate Precondition : 0.0
Error Rate Postcondition : 0.0
FSCORE : 1.0
Iteration 18
Size I+ 18
Size I- 1305
Time : 741.792
Syntactical distance : 0.009259259
Error Rate Precondition : 0.0
Error Rate Postcondition : 0.0
FSCORE : 1.0
Iteration 19
Size I+ 19
Size I- 1364
Time : 823.001
Syntactical distance : 0.009259259
Error Rate Precondition : 0.0
Error Rate Postcondition : 0.0
FSCORE : 1.0
Iteration 20
Size I+ 20
Size I- 1430
Time : 924.157
Syntactical distance : 0.009259259
Error Rate Precondition : 0.0
Error Rate Postcondition : 0.0
FSCORE : 1.0
Iteration 21
Size I+ 21
Size I- 1491
Time : 1025.39
Syntactical distance : 0.009259259
Error Rate Precondition : 0.0
Error Rate Postcondition : 0.0
FSCORE : 1.0
Iteration 22
Size I+ 22
Size I- 1535
Time : 1125.795
Syntactical distance : 0.009259259
Error Rate Precondition : 0.0
Error Rate Postcondition : 0.0
FSCORE : 1.0
Iteration 23
Size I+ 23
Size I- 1630
Time : 1241.359
Syntactical distance : 0.009259259
Error Rate Precondition : 0.0
Error Rate Postcondition : 0.0
FSCORE : 1.0
Iteration 24
Size I+ 24
Size I- 1698
Time : 1359.438
Syntactical distance : 0.009259259
Error Rate Precondition : 0.0
Error Rate Postcondition : 0.0
FSCORE : 1.0
Iteration 25
Size I+ 25
Size I- 1723
Time : 1479.129
Syntactical distance : 0.009259259
Error Rate Precondition : 0.0
Error Rate Postcondition : 0.0
FSCORE : 1.0
Iteration 26
Size I+ 26
Size I- 1827
Time : 1608.038
Syntactical distance : 0.009259259
Error Rate Precondition : 0.0
Error Rate Postcondition : 0.0
FSCORE : 1.0
Iteration 27
Size I+ 27
Size I- 1887
Time : 1741.089
Syntactical distance : 0.009259259
Error Rate Precondition : 0.0
Error Rate Postcondition : 0.0
FSCORE : 1.0
Iteration 28
Size I+ 28
Size I- 1955
Time : 1878.772
Syntactical distance : 0.009259259
Error Rate Precondition : 0.0
Error Rate Postcondition : 0.0
FSCORE : 1.0
Iteration 29
Size I+ 29
Size I- 2006
Time : 2018.939
Syntactical distance : 0.009259259
Error Rate Precondition : 0.0
Error Rate Postcondition : 0.0
FSCORE : 1.0
Iteration 30
Size I+ 30
Size I- 2144
Time : 2173.532
Syntactical distance : 0.009259259
Error Rate Precondition : 0.0
Error Rate Postcondition : 0.0
FSCORE : 1.0
E+ size : 100
E- size : 35986
e+ mean size : 51.82
e- mean size : 33.58595
############################################
### Fluent = 25.0% ###

*** Noise = 0.0% ***
Iteration 1
Time : 6.733
Syntactical distance : 0.0925926
Error Rate Precondition : 0.0
Error Rate Postcondition : 0.0
FSCORE : 0.070866145
Iteration 2
Size I+ 2
Size I- 104
Time : 12.389
Syntactical distance : 0.009259259
Error Rate Precondition : 0.0
Error Rate Postcondition : 0.0
FSCORE : 1.0
Iteration 3
Size I+ 3
Size I- 155
Time : 20.454
Syntactical distance : 0.009259259
Error Rate Precondition : 0.0
Error Rate Postcondition : 0.0
FSCORE : 1.0
Iteration 4
Size I+ 4
Size I- 234
Time : 25.715
Syntactical distance : 0.009259259
Error Rate Precondition : 0.0
Error Rate Postcondition : 0.0
FSCORE : 1.0
Iteration 5
Size I+ 5
Size I- 322
Time : 32.355
Syntactical distance : 0.009259259
Error Rate Precondition : 0.0
Error Rate Postcondition : 0.0
FSCORE : 1.0
Iteration 6
Size I+ 6
Size I- 406
Time : 40.925
Syntactical distance : 0.009259259
Error Rate Precondition : 0.0
Error Rate Postcondition : 0.0
FSCORE : 1.0
Iteration 7
Size I+ 7
Size I- 448
Time : 50.217
Syntactical distance : 0.009259259
Error Rate Precondition : 0.0
Error Rate Postcondition : 0.0
FSCORE : 1.0
Iteration 8
Size I+ 8
Size I- 500
Time : 60.271
Syntactical distance : 0.009259259
Error Rate Precondition : 0.0
Error Rate Postcondition : 0.0
FSCORE : 1.0
Iteration 9
Size I+ 9
Size I- 556
Time : 71.774
Syntactical distance : 0.009259259
Error Rate Precondition : 0.0
Error Rate Postcondition : 0.0
FSCORE : 1.0
Iteration 10
Size I+ 10
Size I- 622
Time : 85.068
Syntactical distance : 0.009259259
Error Rate Precondition : 0.0
Error Rate Postcondition : 0.0
FSCORE : 1.0
Iteration 11
Size I+ 11
Size I- 662
Time : 99.076
Syntactical distance : 0.009259259
Error Rate Precondition : 0.0
Error Rate Postcondition : 0.0
FSCORE : 1.0
Iteration 12
Size I+ 12
Size I- 714
Time : 113.765
Syntactical distance : 0.009259259
Error Rate Precondition : 0.0
Error Rate Postcondition : 0.0
FSCORE : 1.0
Iteration 13
Size I+ 13
Size I- 780
Time : 129.485
Syntactical distance : 0.009259259
Error Rate Precondition : 0.0
Error Rate Postcondition : 0.0
FSCORE : 1.0
Iteration 14
Size I+ 14
Size I- 859
Time : 146.99
Syntactical distance : 0.009259259
Error Rate Precondition : 0.0
Error Rate Postcondition : 0.0
FSCORE : 1.0
Iteration 15
Size I+ 15
Size I- 938
Time : 166.956
Syntactical distance : 0.009259259
Error Rate Precondition : 0.0
Error Rate Postcondition : 0.0
FSCORE : 1.0
Iteration 16
Size I+ 16
Size I- 1022
Time : 188.138
Syntactical distance : 0.009259259
Error Rate Precondition : 0.0
Error Rate Postcondition : 0.0
FSCORE : 1.0
Iteration 17
Size I+ 17
Size I- 1094
Time : 211.856
Syntactical distance : 0.009259259
Error Rate Precondition : 0.0
Error Rate Postcondition : 0.0
FSCORE : 1.0
Iteration 18
Size I+ 18
Size I- 1118
Time : 234.852
Syntactical distance : 0.009259259
Error Rate Precondition : 0.0
Error Rate Postcondition : 0.0
FSCORE : 1.0
Iteration 19
Size I+ 19
Size I- 1236
Time : 262.461
Syntactical distance : 0.009259259
Error Rate Precondition : 0.0
Error Rate Postcondition : 0.0
FSCORE : 1.0
Iteration 20
Size I+ 20
Size I- 1326
Time : 290.579
Syntactical distance : 0.009259259
Error Rate Precondition : 0.0
Error Rate Postcondition : 0.0
FSCORE : 1.0
Iteration 21
Size I+ 21
Size I- 1360
Time : 319.347
Syntactical distance : 0.009259259
Error Rate Precondition : 0.0
Error Rate Postcondition : 0.0
FSCORE : 1.0
Iteration 22
Size I+ 22
Size I- 1487
Time : 351.045
Syntactical distance : 0.009259259
Error Rate Precondition : 0.0
Error Rate Postcondition : 0.0
FSCORE : 1.0
Iteration 23
Size I+ 23
Size I- 1638
Time : 389.595
Syntactical distance : 0.009259259
Error Rate Precondition : 0.0
Error Rate Postcondition : 0.0
FSCORE : 1.0
Iteration 24
Size I+ 24
Size I- 1718
Time : 426.603
Syntactical distance : 0.009259259
Error Rate Precondition : 0.0
Error Rate Postcondition : 0.0
FSCORE : 1.0
Iteration 25
Size I+ 25
Size I- 1812
Time : 465.78
Syntactical distance : 0.009259259
Error Rate Precondition : 0.0
Error Rate Postcondition : 0.0
FSCORE : 1.0
Iteration 26
Size I+ 26
Size I- 1889
Time : 508.453
Syntactical distance : 0.009259259
Error Rate Precondition : 0.0
Error Rate Postcondition : 0.0
FSCORE : 1.0
Iteration 27
Size I+ 27
Size I- 1970
Time : 550.854
Syntactical distance : 0.009259259
Error Rate Precondition : 0.0
Error Rate Postcondition : 0.0
FSCORE : 1.0
Iteration 28
Size I+ 28
Size I- 2088
Time : 599.646
Syntactical distance : 0.009259259
Error Rate Precondition : 0.0
Error Rate Postcondition : 0.0
FSCORE : 1.0
Iteration 29
Size I+ 29
Size I- 2147
Time : 646.149
Syntactical distance : 0.009259259
Error Rate Precondition : 0.0
Error Rate Postcondition : 0.0
FSCORE : 1.0
Iteration 30
Size I+ 30
Size I- 2194
Time : 693.874
Syntactical distance : 0.009259259
Error Rate Precondition : 0.0
Error Rate Postcondition : 0.0
FSCORE : 1.0

*** Noise = 20.0% ***
Iteration 1
Time : 2.705
Syntactical distance : 0.2888889
Error Rate Precondition : 0.15515436
Error Rate Postcondition : 0.2847858
FSCORE : 0.025445292
Iteration 2
Size I+ 2
Size I- 104
Time : 8.431
Syntactical distance : 0.15555556
Error Rate Precondition : 0.14503165
Error Rate Postcondition : 0.1429162
FSCORE : 0.054347828
Iteration 3
Size I+ 3
Size I- 155
Time : 12.677
Syntactical distance : 0.1574074
Error Rate Precondition : 0.12550366
Error Rate Postcondition : 0.060042422
FSCORE : 0.0
Iteration 4
Size I+ 4
Size I- 234
Time : 16.789
Syntactical distance : 0.06481481
Error Rate Precondition : 0.068913884
Error Rate Postcondition : 0.046046045
FSCORE : 0.0
Iteration 5
Size I+ 5
Size I- 322
Time : 24.071
Syntactical distance : 0.0925926
Error Rate Precondition : 0.07120509
Error Rate Postcondition : 0.09000826
FSCORE : 0.0
Iteration 6
Size I+ 6
Size I- 406
Time : 29.631
Syntactical distance : 0.074074075
Error Rate Precondition : 0.07347265
Error Rate Postcondition : 0.07666395
FSCORE : 0.0
Iteration 7
Size I+ 7
Size I- 448
Time : 57.285
Syntactical distance : 0.009259259
Error Rate Precondition : 0.0
Error Rate Postcondition : 0.0
FSCORE : 1.0
Iteration 8
Size I+ 8
Size I- 500
Time : 90.986
Syntactical distance : 0.009259259
Error Rate Precondition : 0.0
Error Rate Postcondition : 0.0
FSCORE : 1.0
Iteration 9
Size I+ 9
Size I- 556
Time : 131.047
Syntactical distance : 0.009259259
Error Rate Precondition : 0.0
Error Rate Postcondition : 0.0
FSCORE : 1.0
Iteration 10
Size I+ 10
Size I- 622
Time : 177.896
Syntactical distance : 0.009259259
Error Rate Precondition : 0.0
Error Rate Postcondition : 0.0
FSCORE : 1.0
Iteration 11
Size I+ 11
Size I- 662
Time : 226.006
Syntactical distance : 0.009259259
Error Rate Precondition : 0.0
Error Rate Postcondition : 0.0
FSCORE : 1.0
Iteration 12
Size I+ 12
Size I- 714
Time : 278.352
Syntactical distance : 0.009259259
Error Rate Precondition : 0.0
Error Rate Postcondition : 0.0
FSCORE : 1.0
Iteration 13
Size I+ 13
Size I- 780
Time : 332.709
Syntactical distance : 0.009259259
Error Rate Precondition : 0.0
Error Rate Postcondition : 0.0
FSCORE : 1.0
Iteration 14
Size I+ 14
Size I- 859
Time : 393.336
Syntactical distance : 0.009259259
Error Rate Precondition : 0.0
Error Rate Postcondition : 0.0
FSCORE : 1.0
Iteration 15
Size I+ 15
Size I- 938
Time : 443.514
Syntactical distance : 0.009259259
Error Rate Precondition : 0.0
Error Rate Postcondition : 0.0
FSCORE : 1.0
Iteration 16
Size I+ 16
Size I- 1022
Time : 500.061
Syntactical distance : 0.009259259
Error Rate Precondition : 0.0
Error Rate Postcondition : 0.0
FSCORE : 1.0
Iteration 17
Size I+ 17
Size I- 1094
Time : 583.446
Syntactical distance : 0.009259259
Error Rate Precondition : 0.0
Error Rate Postcondition : 0.0
FSCORE : 1.0
Iteration 18
Size I+ 18
Size I- 1118
Time : 669.654
Syntactical distance : 0.009259259
Error Rate Precondition : 0.0
Error Rate Postcondition : 0.0
FSCORE : 1.0
Iteration 19
Size I+ 19
Size I- 1236
Time : 767.216
Syntactical distance : 0.009259259
Error Rate Precondition : 0.0
Error Rate Postcondition : 0.0
FSCORE : 1.0
Iteration 20
Size I+ 20
Size I- 1326
Time : 874.91
Syntactical distance : 0.009259259
Error Rate Precondition : 0.0
Error Rate Postcondition : 0.0
FSCORE : 1.0
Iteration 21
Size I+ 21
Size I- 1360
Time : 994.608
Syntactical distance : 0.009259259
Error Rate Precondition : 0.0
Error Rate Postcondition : 0.0
FSCORE : 1.0
Iteration 22
Size I+ 22
Size I- 1487
Time : 1127.644
Syntactical distance : 0.009259259
Error Rate Precondition : 0.0
Error Rate Postcondition : 0.0
FSCORE : 1.0
Iteration 23
Size I+ 23
Size I- 1638
Time : 1297.886
Syntactical distance : 0.009259259
Error Rate Precondition : 0.0
Error Rate Postcondition : 0.0
FSCORE : 1.0
Iteration 24
Size I+ 24
Size I- 1718
Time : 1474.135
Syntactical distance : 0.009259259
Error Rate Precondition : 0.0
Error Rate Postcondition : 0.0
FSCORE : 1.0
Iteration 25
Size I+ 25
Size I- 1812
Time : 1661.79
Syntactical distance : 0.009259259
Error Rate Precondition : 0.0
Error Rate Postcondition : 0.0
FSCORE : 1.0
Iteration 26
Size I+ 26
Size I- 1889
Time : 1853.574
Syntactical distance : 0.009259259
Error Rate Precondition : 0.0
Error Rate Postcondition : 0.0
FSCORE : 1.0
Iteration 27
Size I+ 27
Size I- 1970
Time : 2053.484
Syntactical distance : 0.009259259
Error Rate Precondition : 0.0
Error Rate Postcondition : 0.0
FSCORE : 1.0
Iteration 28
Size I+ 28
Size I- 2088
Time : 2299.01
Syntactical distance : 0.009259259
Error Rate Precondition : 0.0
Error Rate Postcondition : 0.0
FSCORE : 1.0
Iteration 29
Size I+ 29
Size I- 2147
Time : 2551.354
Syntactical distance : 0.009259259
Error Rate Precondition : 0.0
Error Rate Postcondition : 0.0
FSCORE : 1.0
Iteration 30
Size I+ 30
Size I- 2194
Time : 2801.842
Syntactical distance : 0.009259259
Error Rate Precondition : 0.0
Error Rate Postcondition : 0.0
FSCORE : 1.0
############################################
### Fluent = 100.0% ###

*** Noise = 0.0% ***
Iteration 1
Time : 0.803
Syntactical distance : 0.009259259
Error Rate Precondition : 0.0
Error Rate Postcondition : 0.0
FSCORE : 1.0
Iteration 2
Size I+ 2
Size I- 109
Time : 3.451
Syntactical distance : 0.009259259
Error Rate Precondition : 0.0
Error Rate Postcondition : 0.0
FSCORE : 1.0
Iteration 3
Size I+ 3
Size I- 253
Time : 9.009
Syntactical distance : 0.009259259
Error Rate Precondition : 0.0
Error Rate Postcondition : 0.0
FSCORE : 1.0
Iteration 4
Size I+ 4
Size I- 278
Time : 14.995
Syntactical distance : 0.009259259
Error Rate Precondition : 0.0
Error Rate Postcondition : 0.0
FSCORE : 1.0
Iteration 5
Size I+ 5
Size I- 327
Time : 21.99
Syntactical distance : 0.009259259
Error Rate Precondition : 0.0
Error Rate Postcondition : 0.0
FSCORE : 1.0
Iteration 6
Size I+ 6
Size I- 440
Time : 31.077
Syntactical distance : 0.009259259
Error Rate Precondition : 0.0
Error Rate Postcondition : 0.0
FSCORE : 1.0
Iteration 7
Size I+ 7
Size I- 582
Time : 43.128
Syntactical distance : 0.009259259
Error Rate Precondition : 0.0
Error Rate Postcondition : 0.0
FSCORE : 1.0
Iteration 8
Size I+ 8
Size I- 650
Time : 55.733
Syntactical distance : 0.009259259
Error Rate Precondition : 0.0
Error Rate Postcondition : 0.0
FSCORE : 1.0
Iteration 9
Size I+ 9
Size I- 712
Time : 69.259
Syntactical distance : 0.009259259
Error Rate Precondition : 0.0
Error Rate Postcondition : 0.0
FSCORE : 1.0
Iteration 10
Size I+ 10
Size I- 819
Time : 86.228
Syntactical distance : 0.009259259
Error Rate Precondition : 0.0
Error Rate Postcondition : 0.0
FSCORE : 1.0
Iteration 11
Size I+ 11
Size I- 903
Time : 104.69
Syntactical distance : 0.009259259
Error Rate Precondition : 0.0
Error Rate Postcondition : 0.0
FSCORE : 1.0
Iteration 12
Size I+ 12
Size I- 948
Time : 123.17
Syntactical distance : 0.009259259
Error Rate Precondition : 0.0
Error Rate Postcondition : 0.0
FSCORE : 1.0
Iteration 13
Size I+ 13
Size I- 1060
Time : 145.08
Syntactical distance : 0.009259259
Error Rate Precondition : 0.0
Error Rate Postcondition : 0.0
FSCORE : 1.0
Iteration 14
Size I+ 14
Size I- 1129
Time : 169.859
Syntactical distance : 0.009259259
Error Rate Precondition : 0.0
Error Rate Postcondition : 0.0
FSCORE : 1.0
Iteration 15
Size I+ 15
Size I- 1264
Time : 196.377
Syntactical distance : 0.009259259
Error Rate Precondition : 0.0
Error Rate Postcondition : 0.0
FSCORE : 1.0
Iteration 16
Size I+ 16
Size I- 1324
Time : 224.125
Syntactical distance : 0.009259259
Error Rate Precondition : 0.0
Error Rate Postcondition : 0.0
FSCORE : 1.0
Iteration 17
Size I+ 17
Size I- 1382
Time : 251.598
Syntactical distance : 0.009259259
Error Rate Precondition : 0.0
Error Rate Postcondition : 0.0
FSCORE : 1.0
Iteration 18
Size I+ 18
Size I- 1419
Time : 279.811
Syntactical distance : 0.009259259
Error Rate Precondition : 0.0
Error Rate Postcondition : 0.0
FSCORE : 1.0
Iteration 19
Size I+ 19
Size I- 1513
Time : 313.009
Syntactical distance : 0.009259259
Error Rate Precondition : 0.0
Error Rate Postcondition : 0.0
FSCORE : 1.0
Iteration 20
Size I+ 20
Size I- 1572
Time : 343.977
Syntactical distance : 0.009259259
Error Rate Precondition : 0.0
Error Rate Postcondition : 0.0
FSCORE : 1.0
Iteration 21
Size I+ 21
Size I- 1655
Time : 378.711
Syntactical distance : 0.009259259
Error Rate Precondition : 0.0
Error Rate Postcondition : 0.0
FSCORE : 1.0
Iteration 22
Size I+ 22
Size I- 1702
Time : 416.499
Syntactical distance : 0.009259259
Error Rate Precondition : 0.0
Error Rate Postcondition : 0.0
FSCORE : 1.0
Iteration 23
Size I+ 23
Size I- 1757
Time : 451.238
Syntactical distance : 0.009259259
Error Rate Precondition : 0.0
Error Rate Postcondition : 0.0
FSCORE : 1.0
Iteration 24
Size I+ 24
Size I- 1771
Time : 486.182
Syntactical distance : 0.009259259
Error Rate Precondition : 0.0
Error Rate Postcondition : 0.0
FSCORE : 1.0
Iteration 25
Size I+ 25
Size I- 1842
Time : 522.774
Syntactical distance : 0.009259259
Error Rate Precondition : 0.0
Error Rate Postcondition : 0.0
FSCORE : 1.0
Iteration 26
Size I+ 26
Size I- 1931
Time : 561.352
Syntactical distance : 0.009259259
Error Rate Precondition : 0.0
Error Rate Postcondition : 0.0
FSCORE : 1.0
Iteration 27
Size I+ 27
Size I- 1951
Time : 600.241
Syntactical distance : 0.009259259
Error Rate Precondition : 0.0
Error Rate Postcondition : 0.0
FSCORE : 1.0
Iteration 28
Size I+ 28
Size I- 2051
Time : 644.794
Syntactical distance : 0.009259259
Error Rate Precondition : 0.0
Error Rate Postcondition : 0.0
FSCORE : 1.0
Iteration 29
Size I+ 29
Size I- 2095
Time : 687.344
Syntactical distance : 0.009259259
Error Rate Precondition : 0.0
Error Rate Postcondition : 0.0
FSCORE : 1.0
Iteration 30
Size I+ 30
Size I- 2178
Time : 735.988
Syntactical distance : 0.009259259
Error Rate Precondition : 0.0
Error Rate Postcondition : 0.0
FSCORE : 1.0

*** Noise = 20.0% ***
Iteration 1
Time : 2.218
Syntactical distance : 0.13703704
Error Rate Precondition : 0.08994079
Error Rate Postcondition : 0.0
FSCORE : 0.039215688
Iteration 2
Size I+ 2
Size I- 109
Time : 9.173
Syntactical distance : 0.009259259
Error Rate Precondition : 0.0
Error Rate Postcondition : 0.0
FSCORE : 1.0
Iteration 3
Size I+ 3
Size I- 253
Time : 19.781
Syntactical distance : 0.009259259
Error Rate Precondition : 0.0
Error Rate Postcondition : 0.0
FSCORE : 1.0
Iteration 4
Size I+ 4
Size I- 278
Time : 31.304
Syntactical distance : 0.009259259
Error Rate Precondition : 0.0
Error Rate Postcondition : 0.0
FSCORE : 1.0
Iteration 5
Size I+ 5
Size I- 327
Time : 45.37
Syntactical distance : 0.009259259
Error Rate Precondition : 0.0
Error Rate Postcondition : 0.0
FSCORE : 1.0
Iteration 6
Size I+ 6
Size I- 440
Time : 63.516
Syntactical distance : 0.009259259
Error Rate Precondition : 0.0
Error Rate Postcondition : 0.0
FSCORE : 1.0
Iteration 7
Size I+ 7
Size I- 582
Time : 87.718
Syntactical distance : 0.009259259
Error Rate Precondition : 0.0
Error Rate Postcondition : 0.0
FSCORE : 1.0
Iteration 8
Size I+ 8
Size I- 650
Time : 113.601
Syntactical distance : 0.009259259
Error Rate Precondition : 0.0
Error Rate Postcondition : 0.0
FSCORE : 1.0
Iteration 9
Size I+ 9
Size I- 712
Time : 141.646
Syntactical distance : 0.009259259
Error Rate Precondition : 0.0
Error Rate Postcondition : 0.0
FSCORE : 1.0
Iteration 10
Size I+ 10
Size I- 819
Time : 158.473
Syntactical distance : 0.009259259
Error Rate Precondition : 0.0
Error Rate Postcondition : 0.0
FSCORE : 1.0
Iteration 11
Size I+ 11
Size I- 903
Time : 176.971
Syntactical distance : 0.009259259
Error Rate Precondition : 0.0
Error Rate Postcondition : 0.0
FSCORE : 1.0
Iteration 12
Size I+ 12
Size I- 948
Time : 195.406
Syntactical distance : 0.009259259
Error Rate Precondition : 0.0
Error Rate Postcondition : 0.0
FSCORE : 1.0
Iteration 13
Size I+ 13
Size I- 1060
Time : 217.16
Syntactical distance : 0.009259259
Error Rate Precondition : 0.0
Error Rate Postcondition : 0.0
FSCORE : 1.0
Iteration 14
Size I+ 14
Size I- 1129
Time : 241.829
Syntactical distance : 0.009259259
Error Rate Precondition : 0.0
Error Rate Postcondition : 0.0
FSCORE : 1.0
Iteration 15
Size I+ 15
Size I- 1264
Time : 268.36
Syntactical distance : 0.009259259
Error Rate Precondition : 0.0
Error Rate Postcondition : 0.0
FSCORE : 1.0
Iteration 16
Size I+ 16
Size I- 1324
Time : 296.119
Syntactical distance : 0.009259259
Error Rate Precondition : 0.0
Error Rate Postcondition : 0.0
FSCORE : 1.0
Iteration 17
Size I+ 17
Size I- 1382
Time : 323.159
Syntactical distance : 0.009259259
Error Rate Precondition : 0.0
Error Rate Postcondition : 0.0
FSCORE : 1.0
Iteration 18
Size I+ 18
Size I- 1419
Time : 351.163
Syntactical distance : 0.009259259
Error Rate Precondition : 0.0
Error Rate Postcondition : 0.0
FSCORE : 1.0
Iteration 19
Size I+ 19
Size I- 1513
Time : 418.711
Syntactical distance : 0.009259259
Error Rate Precondition : 0.0
Error Rate Postcondition : 0.0
FSCORE : 1.0
Iteration 20
Size I+ 20
Size I- 1572
Time : 485.399
Syntactical distance : 0.009259259
Error Rate Precondition : 0.0
Error Rate Postcondition : 0.0
FSCORE : 1.0
Iteration 21
Size I+ 21
Size I- 1655
Time : 557.509
Syntactical distance : 0.009259259
Error Rate Precondition : 0.0
Error Rate Postcondition : 0.0
FSCORE : 1.0
Iteration 22
Size I+ 22
Size I- 1702
Time : 595.517
Syntactical distance : 0.009259259
Error Rate Precondition : 0.0
Error Rate Postcondition : 0.0
FSCORE : 1.0
Iteration 23
Size I+ 23
Size I- 1757
Time : 630.098
Syntactical distance : 0.009259259
Error Rate Precondition : 0.0
Error Rate Postcondition : 0.0
FSCORE : 1.0
Iteration 24
Size I+ 24
Size I- 1771
Time : 664.965
Syntactical distance : 0.009259259
Error Rate Precondition : 0.0
Error Rate Postcondition : 0.0
FSCORE : 1.0
Iteration 25
Size I+ 25
Size I- 1842
Time : 701.225
Syntactical distance : 0.009259259
Error Rate Precondition : 0.0
Error Rate Postcondition : 0.0
FSCORE : 1.0
Iteration 26
Size I+ 26
Size I- 1931
Time : 803.844
Syntactical distance : 0.009259259
Error Rate Precondition : 0.0
Error Rate Postcondition : 0.0
FSCORE : 1.0
Iteration 27
Size I+ 27
Size I- 1951
Time : 906.932
Syntactical distance : 0.009259259
Error Rate Precondition : 0.0
Error Rate Postcondition : 0.0
FSCORE : 1.0
Iteration 28
Size I+ 28
Size I- 2051
Time : 999.703
Syntactical distance : 0.009259259
Error Rate Precondition : 0.0
Error Rate Postcondition : 0.0
FSCORE : 1.0
Iteration 29
Size I+ 29
Size I- 2095
Time : 1090.901
Syntactical distance : 0.009259259
Error Rate Precondition : 0.0
Error Rate Postcondition : 0.0
FSCORE : 1.0
Iteration 30
Size I+ 30
Size I- 2178
Time : 1185.936
Syntactical distance : 0.009259259
Error Rate Precondition : 0.0
Error Rate Postcondition : 0.0
FSCORE : 1.0
E+ size : 100
E- size : 37976
e+ mean size : 53.86
e- mean size : 34.943832
############################################
### Fluent = 25.0% ###

*** Noise = 0.0% ***
Iteration 1
Time : 4.182
Syntactical distance : 0.19259259
Error Rate Precondition : 0.063390024
Error Rate Postcondition : 0.0
FSCORE : 0.040816326
Iteration 2
Size I+ 2
Size I- 188
Time : 17.787
Syntactical distance : 0.009259259
Error Rate Precondition : 0.0
Error Rate Postcondition : 0.0
FSCORE : 1.0
Iteration 3
Size I+ 3
Size I- 280
Time : 23.828
Syntactical distance : 0.009259259
Error Rate Precondition : 0.0
Error Rate Postcondition : 0.0
FSCORE : 1.0
Iteration 4
Size I+ 4
Size I- 360
Time : 31.133
Syntactical distance : 0.009259259
Error Rate Precondition : 0.0
Error Rate Postcondition : 0.0
FSCORE : 1.0
Iteration 5
Size I+ 5
Size I- 431
Time : 39.681
Syntactical distance : 0.009259259
Error Rate Precondition : 0.0
Error Rate Postcondition : 0.0
FSCORE : 1.0
Iteration 6
Size I+ 6
Size I- 560
Time : 51.073
Syntactical distance : 0.009259259
Error Rate Precondition : 0.0
Error Rate Postcondition : 0.0
FSCORE : 1.0
Iteration 7
Size I+ 7
Size I- 660
Time : 64.713
Syntactical distance : 0.009259259
Error Rate Precondition : 0.0
Error Rate Postcondition : 0.0
FSCORE : 1.0
Iteration 8
Size I+ 8
Size I- 727
Time : 78.951
Syntactical distance : 0.009259259
Error Rate Precondition : 0.0
Error Rate Postcondition : 0.0
FSCORE : 1.0
Iteration 9
Size I+ 9
Size I- 812
Time : 95.427
Syntactical distance : 0.009259259
Error Rate Precondition : 0.0
Error Rate Postcondition : 0.0
FSCORE : 1.0
Iteration 10
Size I+ 10
Size I- 909
Time : 114.37
Syntactical distance : 0.009259259
Error Rate Precondition : 0.0
Error Rate Postcondition : 0.0
FSCORE : 1.0
Iteration 11
Size I+ 11
Size I- 967
Time : 133.697
Syntactical distance : 0.009259259
Error Rate Precondition : 0.0
Error Rate Postcondition : 0.0
FSCORE : 1.0
Iteration 12
Size I+ 12
Size I- 1057
Time : 155.279
Syntactical distance : 0.009259259
Error Rate Precondition : 0.0
Error Rate Postcondition : 0.0
FSCORE : 1.0
Iteration 13
Size I+ 13
Size I- 1134
Time : 177.648
Syntactical distance : 0.009259259
Error Rate Precondition : 0.0
Error Rate Postcondition : 0.0
FSCORE : 1.0
Iteration 14
Size I+ 14
Size I- 1193
Time : 202.337
Syntactical distance : 0.009259259
Error Rate Precondition : 0.0
Error Rate Postcondition : 0.0
FSCORE : 1.0
Iteration 15
Size I+ 15
Size I- 1310
Time : 228.973
Syntactical distance : 0.009259259
Error Rate Precondition : 0.0
Error Rate Postcondition : 0.0
FSCORE : 1.0
Iteration 16
Size I+ 16
Size I- 1371
Time : 256.836
Syntactical distance : 0.009259259
Error Rate Precondition : 0.0
Error Rate Postcondition : 0.0
FSCORE : 1.0
Iteration 17
Size I+ 17
Size I- 1422
Time : 285.005
Syntactical distance : 0.009259259
Error Rate Precondition : 0.0
Error Rate Postcondition : 0.0
FSCORE : 1.0
Iteration 18
Size I+ 18
Size I- 1513
Time : 315.21
Syntactical distance : 0.009259259
Error Rate Precondition : 0.0
Error Rate Postcondition : 0.0
FSCORE : 1.0
Iteration 19
Size I+ 19
Size I- 1611
Time : 346.585
Syntactical distance : 0.009259259
Error Rate Precondition : 0.0
Error Rate Postcondition : 0.0
FSCORE : 1.0
Iteration 20
Size I+ 20
Size I- 1658
Time : 378.925
Syntactical distance : 0.009259259
Error Rate Precondition : 0.0
Error Rate Postcondition : 0.0
FSCORE : 1.0
Iteration 21
Size I+ 21
Size I- 1718
Time : 412.24
Syntactical distance : 0.009259259
Error Rate Precondition : 0.0
Error Rate Postcondition : 0.0
FSCORE : 1.0
Iteration 22
Size I+ 22
Size I- 1776
Time : 446.62
Syntactical distance : 0.009259259
Error Rate Precondition : 0.0
Error Rate Postcondition : 0.0
FSCORE : 1.0
Iteration 23
Size I+ 23
Size I- 1830
Time : 481.65
Syntactical distance : 0.009259259
Error Rate Precondition : 0.0
Error Rate Postcondition : 0.0
FSCORE : 1.0
Iteration 24
Size I+ 24
Size I- 1869
Time : 517.645
Syntactical distance : 0.009259259
Error Rate Precondition : 0.0
Error Rate Postcondition : 0.0
FSCORE : 1.0
Iteration 25
Size I+ 25
Size I- 1946
Time : 556.124
Syntactical distance : 0.009259259
Error Rate Precondition : 0.0
Error Rate Postcondition : 0.0
FSCORE : 1.0
Iteration 26
Size I+ 26
Size I- 2060
Time : 596.154
Syntactical distance : 0.009259259
Error Rate Precondition : 0.0
Error Rate Postcondition : 0.0
FSCORE : 1.0
Iteration 27
Size I+ 27
Size I- 2148
Time : 639.806
Syntactical distance : 0.009259259
Error Rate Precondition : 0.0
Error Rate Postcondition : 0.0
FSCORE : 1.0
Iteration 28
Size I+ 28
Size I- 2257
Time : 684.349
Syntactical distance : 0.009259259
Error Rate Precondition : 0.0
Error Rate Postcondition : 0.0
FSCORE : 1.0
Iteration 29
Size I+ 29
Size I- 2293
Time : 729.667
Syntactical distance : 0.009259259
Error Rate Precondition : 0.0
Error Rate Postcondition : 0.0
FSCORE : 1.0
Iteration 30
Size I+ 30
Size I- 2339
Time : 776.843
Syntactical distance : 0.009259259
Error Rate Precondition : 0.0
Error Rate Postcondition : 0.0
FSCORE : 1.0

*** Noise = 20.0% ***
Iteration 1
Time : 3.647
Syntactical distance : 0.26481482
Error Rate Precondition : 0.19282553
Error Rate Postcondition : 0.0
FSCORE : 0.035856575
Iteration 2
Size I+ 2
Size I- 188
Time : 10.547
Syntactical distance : 0.21481481
Error Rate Precondition : 0.15256011
Error Rate Postcondition : 0.16560805
FSCORE : 0.029498523
Iteration 3
Size I+ 3
Size I- 280
Time : 35.72
Syntactical distance : 0.037037037
Error Rate Precondition : 0.03424151
Error Rate Postcondition : 0.0
FSCORE : 0.4251969
Iteration 4
Size I+ 4
Size I- 360
Time : 53.127
Syntactical distance : 0.037037037
Error Rate Precondition : 0.03424151
Error Rate Postcondition : 0.0
FSCORE : 0.4251969
Iteration 5
Size I+ 5
Size I- 431
Time : 74.873
Syntactical distance : 0.037037037
Error Rate Precondition : 0.03424151
Error Rate Postcondition : 0.0
FSCORE : 0.4251969
Iteration 6
Size I+ 6
Size I- 560
Time : 102.655
Syntactical distance : 0.06481481
Error Rate Precondition : 0.03480104
Error Rate Postcondition : 0.0
FSCORE : 0.05649717
Iteration 7
Size I+ 7
Size I- 660
Time : 135.22
Syntactical distance : 0.072222225
Error Rate Precondition : 0.036949657
Error Rate Postcondition : 0.045923818
FSCORE : 0.48426154
Iteration 8
Size I+ 8
Size I- 727
Time : 172.009
Syntactical distance : 0.018518519
Error Rate Precondition : 0.0
Error Rate Postcondition : 0.0
FSCORE : 0.48426154
Iteration 9
Size I+ 9
Size I- 812
Time : 214.748
Syntactical distance : 0.018518519
Error Rate Precondition : 0.0
Error Rate Postcondition : 0.0
FSCORE : 0.48426154
Iteration 10
Size I+ 10
Size I- 909
Time : 261.445
Syntactical distance : 0.018518519
Error Rate Precondition : 0.0
Error Rate Postcondition : 0.0
FSCORE : 0.48426154
Iteration 11
Size I+ 11
Size I- 967
Time : 313.5
Syntactical distance : 0.009259259
Error Rate Precondition : 0.0
Error Rate Postcondition : 0.0
FSCORE : 1.0
Iteration 12
Size I+ 12
Size I- 1057
Time : 366.692
Syntactical distance : 0.009259259
Error Rate Precondition : 0.0
Error Rate Postcondition : 0.0
FSCORE : 1.0
Iteration 13
Size I+ 13
Size I- 1134
Time : 438.417
Syntactical distance : 0.009259259
Error Rate Precondition : 0.0
Error Rate Postcondition : 0.0
FSCORE : 1.0
Iteration 14
Size I+ 14
Size I- 1193
Time : 532.301
Syntactical distance : 0.009259259
Error Rate Precondition : 0.0
Error Rate Postcondition : 0.0
FSCORE : 1.0
Iteration 15
Size I+ 15
Size I- 1310
Time : 647.677
Syntactical distance : 0.009259259
Error Rate Precondition : 0.0
Error Rate Postcondition : 0.0
FSCORE : 1.0
Iteration 16
Size I+ 16
Size I- 1371
Time : 754.817
Syntactical distance : 0.009259259
Error Rate Precondition : 0.0
Error Rate Postcondition : 0.0
FSCORE : 1.0
Iteration 17
Size I+ 17
Size I- 1422
Time : 869.437
Syntactical distance : 0.009259259
Error Rate Precondition : 0.0
Error Rate Postcondition : 0.0
FSCORE : 1.0
Iteration 18
Size I+ 18
Size I- 1513
Time : 1015.1
Syntactical distance : 0.009259259
Error Rate Precondition : 0.0
Error Rate Postcondition : 0.0
FSCORE : 1.0
Iteration 19
Size I+ 19
Size I- 1611
Time : 1168.638
Syntactical distance : 0.009259259
Error Rate Precondition : 0.0
Error Rate Postcondition : 0.0
FSCORE : 1.0
Iteration 20
Size I+ 20
Size I- 1658
Time : 1326.903
Syntactical distance : 0.009259259
Error Rate Precondition : 0.0
Error Rate Postcondition : 0.0
FSCORE : 1.0
Iteration 21
Size I+ 21
Size I- 1718
Time : 1490.781
Syntactical distance : 0.009259259
Error Rate Precondition : 0.0
Error Rate Postcondition : 0.0
FSCORE : 1.0
Iteration 22
Size I+ 22
Size I- 1776
Time : 1660.454
Syntactical distance : 0.009259259
Error Rate Precondition : 0.0
Error Rate Postcondition : 0.0
FSCORE : 1.0
Iteration 23
Size I+ 23
Size I- 1830
Time : 1834.128
Syntactical distance : 0.009259259
Error Rate Precondition : 0.0
Error Rate Postcondition : 0.0
FSCORE : 1.0
Iteration 24
Size I+ 24
Size I- 1869
Time : 2010.938
Syntactical distance : 0.009259259
Error Rate Precondition : 0.0
Error Rate Postcondition : 0.0
FSCORE : 1.0
Iteration 25
Size I+ 25
Size I- 1946
Time : 2200.703
Syntactical distance : 0.009259259
Error Rate Precondition : 0.0
Error Rate Postcondition : 0.0
FSCORE : 1.0
Iteration 26
Size I+ 26
Size I- 2060
Time : 2376.974
Syntactical distance : 0.009259259
Error Rate Precondition : 0.0
Error Rate Postcondition : 0.0
FSCORE : 1.0
Iteration 27
Size I+ 27
Size I- 2148
Time : 2559.734
Syntactical distance : 0.009259259
Error Rate Precondition : 0.0
Error Rate Postcondition : 0.0
FSCORE : 1.0
Iteration 28
Size I+ 28
Size I- 2257
Time : 2750.808
Syntactical distance : 0.009259259
Error Rate Precondition : 0.0
Error Rate Postcondition : 0.0
FSCORE : 1.0
Iteration 29
Size I+ 29
Size I- 2293
Time : 2944.966
Syntactical distance : 0.009259259
Error Rate Precondition : 0.0
Error Rate Postcondition : 0.0
FSCORE : 1.0
Iteration 30
Size I+ 30
Size I- 2339
Time : 3145.383
Syntactical distance : 0.009259259
Error Rate Precondition : 0.0
Error Rate Postcondition : 0.0
FSCORE : 1.0
############################################
### Fluent = 100.0% ###

*** Noise = 0.0% ***
Iteration 1
Time : 1.414
Syntactical distance : 0.009259259
Error Rate Precondition : 0.0
Error Rate Postcondition : 0.0
FSCORE : 1.0
Iteration 2
Size I+ 2
Size I- 173
Time : 5.515
Syntactical distance : 0.009259259
Error Rate Precondition : 0.0
Error Rate Postcondition : 0.0
FSCORE : 1.0
Iteration 3
Size I+ 3
Size I- 266
Time : 11.28
Syntactical distance : 0.009259259
Error Rate Precondition : 0.0
Error Rate Postcondition : 0.0
FSCORE : 1.0
Iteration 4
Size I+ 4
Size I- 300
Time : 18.12
Syntactical distance : 0.009259259
Error Rate Precondition : 0.0
Error Rate Postcondition : 0.0
FSCORE : 1.0
Iteration 5
Size I+ 5
Size I- 398
Time : 27.034
Syntactical distance : 0.009259259
Error Rate Precondition : 0.0
Error Rate Postcondition : 0.0
FSCORE : 1.0
Iteration 6
Size I+ 6
Size I- 457
Time : 36.327
Syntactical distance : 0.009259259
Error Rate Precondition : 0.0
Error Rate Postcondition : 0.0
FSCORE : 1.0
Iteration 7
Size I+ 7
Size I- 507
Time : 46.668
Syntactical distance : 0.009259259
Error Rate Precondition : 0.0
Error Rate Postcondition : 0.0
FSCORE : 1.0
Iteration 8
Size I+ 8
Size I- 561
Time : 57.837
Syntactical distance : 0.009259259
Error Rate Precondition : 0.0
Error Rate Postcondition : 0.0
FSCORE : 1.0
Iteration 9
Size I+ 9
Size I- 659
Time : 71.277
Syntactical distance : 0.009259259
Error Rate Precondition : 0.0
Error Rate Postcondition : 0.0
FSCORE : 1.0
Iteration 10
Size I+ 10
Size I- 767
Time : 86.559
Syntactical distance : 0.009259259
Error Rate Precondition : 0.0
Error Rate Postcondition : 0.0
FSCORE : 1.0
Iteration 11
Size I+ 11
Size I- 860
Time : 104.042
Syntactical distance : 0.009259259
Error Rate Precondition : 0.0
Error Rate Postcondition : 0.0
FSCORE : 1.0
Iteration 12
Size I+ 12
Size I- 935
Time : 122.53
Syntactical distance : 0.009259259
Error Rate Precondition : 0.0
Error Rate Postcondition : 0.0
FSCORE : 1.0
Iteration 13
Size I+ 13
Size I- 1016
Time : 144.016
Syntactical distance : 0.009259259
Error Rate Precondition : 0.0
Error Rate Postcondition : 0.0
FSCORE : 1.0
Iteration 14
Size I+ 14
Size I- 1080
Time : 165.728
Syntactical distance : 0.009259259
Error Rate Precondition : 0.0
Error Rate Postcondition : 0.0
FSCORE : 1.0
Iteration 15
Size I+ 15
Size I- 1180
Time : 189.767
Syntactical distance : 0.009259259
Error Rate Precondition : 0.0
Error Rate Postcondition : 0.0
FSCORE : 1.0
Iteration 16
Size I+ 16
Size I- 1250
Time : 214.708
Syntactical distance : 0.009259259
Error Rate Precondition : 0.0
Error Rate Postcondition : 0.0
FSCORE : 1.0
Iteration 17
Size I+ 17
Size I- 1313
Time : 242.118
Syntactical distance : 0.009259259
Error Rate Precondition : 0.0
Error Rate Postcondition : 0.0
FSCORE : 1.0
Iteration 18
Size I+ 18
Size I- 1365
Time : 270.375
Syntactical distance : 0.009259259
Error Rate Precondition : 0.0
Error Rate Postcondition : 0.0
FSCORE : 1.0
Iteration 19
Size I+ 19
Size I- 1459
Time : 300.796
Syntactical distance : 0.009259259
Error Rate Precondition : 0.0
Error Rate Postcondition : 0.0
FSCORE : 1.0
Iteration 20
Size I+ 20
Size I- 1547
Time : 331.731
Syntactical distance : 0.009259259
Error Rate Precondition : 0.0
Error Rate Postcondition : 0.0
FSCORE : 1.0
Iteration 21
Size I+ 21
Size I- 1627
Time : 364.23
Syntactical distance : 0.009259259
Error Rate Precondition : 0.0
Error Rate Postcondition : 0.0
FSCORE : 1.0
Iteration 22
Size I+ 22
Size I- 1661
Time : 397.639
Syntactical distance : 0.009259259
Error Rate Precondition : 0.0
Error Rate Postcondition : 0.0
FSCORE : 1.0
Iteration 23
Size I+ 23
Size I- 1738
Time : 432.421
Syntactical distance : 0.009259259
Error Rate Precondition : 0.0
Error Rate Postcondition : 0.0
FSCORE : 1.0
Iteration 24
Size I+ 24
Size I- 1832
Time : 470.962
Syntactical distance : 0.009259259
Error Rate Precondition : 0.0
Error Rate Postcondition : 0.0
FSCORE : 1.0
Iteration 25
Size I+ 25
Size I- 1946
Time : 510.336
Syntactical distance : 0.009259259
Error Rate Precondition : 0.0
Error Rate Postcondition : 0.0
FSCORE : 1.0
Iteration 26
Size I+ 26
Size I- 1995
Time : 551.087
Syntactical distance : 0.009259259
Error Rate Precondition : 0.0
Error Rate Postcondition : 0.0
FSCORE : 1.0
Iteration 27
Size I+ 27
Size I- 2119
Time : 593.99
Syntactical distance : 0.009259259
Error Rate Precondition : 0.0
Error Rate Postcondition : 0.0
FSCORE : 1.0
Iteration 28
Size I+ 28
Size I- 2181
Time : 637.654
Syntactical distance : 0.009259259
Error Rate Precondition : 0.0
Error Rate Postcondition : 0.0
FSCORE : 1.0
Iteration 29
Size I+ 29
Size I- 2288
Time : 687.251
Syntactical distance : 0.009259259
Error Rate Precondition : 0.0
Error Rate Postcondition : 0.0
FSCORE : 1.0
Iteration 30
Size I+ 30
Size I- 2399
Time : 741.748
Syntactical distance : 0.009259259
Error Rate Precondition : 0.0
Error Rate Postcondition : 0.0
FSCORE : 1.0

*** Noise = 20.0% ***
Iteration 1
Time : 4.968
Syntactical distance : 0.15925926
Error Rate Precondition : 0.1544103
Error Rate Postcondition : 0.0
FSCORE : 0.078125
Iteration 2
Size I+ 2
Size I- 173
Time : 19.626
Syntactical distance : 0.10925926
Error Rate Precondition : 0.0995909
Error Rate Postcondition : 0.0
FSCORE : 0.08179959
Iteration 3
Size I+ 3
Size I- 266
Time : 35.192
Syntactical distance : 0.009259259
Error Rate Precondition : 0.0
Error Rate Postcondition : 0.0
FSCORE : 1.0
Iteration 4
Size I+ 4
Size I- 300
Time : 53.204
Syntactical distance : 0.009259259
Error Rate Precondition : 0.0
Error Rate Postcondition : 0.0
FSCORE : 1.0
Iteration 5
Size I+ 5
Size I- 398
Time : 96.089
Syntactical distance : 0.009259259
Error Rate Precondition : 0.0
Error Rate Postcondition : 0.0
FSCORE : 1.0
Iteration 6
Size I+ 6
Size I- 457
Time : 138.203
Syntactical distance : 0.009259259
Error Rate Precondition : 0.0
Error Rate Postcondition : 0.0
FSCORE : 1.0
Iteration 7
Size I+ 7
Size I- 507
Time : 180.178
Syntactical distance : 0.009259259
Error Rate Precondition : 0.0
Error Rate Postcondition : 0.0
FSCORE : 1.0
Iteration 8
Size I+ 8
Size I- 561
Time : 230.669
Syntactical distance : 0.009259259
Error Rate Precondition : 0.0
Error Rate Postcondition : 0.0
FSCORE : 1.0
Iteration 9
Size I+ 9
Size I- 659
Time : 330.495
Syntactical distance : 0.009259259
Error Rate Precondition : 0.0
Error Rate Postcondition : 0.0
FSCORE : 1.0
Iteration 10
Size I+ 10
Size I- 767
Time : 412.052
Syntactical distance : 0.009259259
Error Rate Precondition : 0.0
Error Rate Postcondition : 0.0
FSCORE : 1.0
Iteration 11
Size I+ 11
Size I- 860
Time : 461.101
Syntactical distance : 0.009259259
Error Rate Precondition : 0.0
Error Rate Postcondition : 0.0
FSCORE : 1.0
Iteration 12
Size I+ 12
Size I- 935
Time : 513.567
Syntactical distance : 0.009259259
Error Rate Precondition : 0.0
Error Rate Postcondition : 0.0
FSCORE : 1.0
Iteration 13
Size I+ 13
Size I- 1016
Time : 581.679
Syntactical distance : 0.009259259
Error Rate Precondition : 0.0
Error Rate Postcondition : 0.0
FSCORE : 1.0
Iteration 14
Size I+ 14
Size I- 1080
Time : 655.913
Syntactical distance : 0.009259259
Error Rate Precondition : 0.0
Error Rate Postcondition : 0.0
FSCORE : 1.0
Iteration 15
Size I+ 15
Size I- 1180
Time : 732.617
Syntactical distance : 0.009259259
Error Rate Precondition : 0.0
Error Rate Postcondition : 0.0
FSCORE : 1.0
Iteration 16
Size I+ 16
Size I- 1250
Time : 828.711
Syntactical distance : 0.009259259
Error Rate Precondition : 0.0
Error Rate Postcondition : 0.0
FSCORE : 1.0
Iteration 17
Size I+ 17
Size I- 1313
Time : 948.884
Syntactical distance : 0.009259259
Error Rate Precondition : 0.0
Error Rate Postcondition : 0.0
FSCORE : 1.0
Iteration 18
Size I+ 18
Size I- 1365
Time : 1072.854
Syntactical distance : 0.009259259
Error Rate Precondition : 0.0
Error Rate Postcondition : 0.0
FSCORE : 1.0
Iteration 19
Size I+ 19
Size I- 1459
Time : 1205.074
Syntactical distance : 0.009259259
Error Rate Precondition : 0.0
Error Rate Postcondition : 0.0
FSCORE : 1.0
Iteration 20
Size I+ 20
Size I- 1547
Time : 1344.645
Syntactical distance : 0.009259259
Error Rate Precondition : 0.0
Error Rate Postcondition : 0.0
FSCORE : 1.0
Iteration 21
Size I+ 21
Size I- 1627
Time : 1491.647
Syntactical distance : 0.009259259
Error Rate Precondition : 0.0
Error Rate Postcondition : 0.0
FSCORE : 1.0
Iteration 22
Size I+ 22
Size I- 1661
Time : 1641.629
Syntactical distance : 0.009259259
Error Rate Precondition : 0.0
Error Rate Postcondition : 0.0
FSCORE : 1.0
Iteration 23
Size I+ 23
Size I- 1738
Time : 1799.347
Syntactical distance : 0.009259259
Error Rate Precondition : 0.0
Error Rate Postcondition : 0.0
FSCORE : 1.0
Iteration 24
Size I+ 24
Size I- 1832
Time : 1938.19
Syntactical distance : 0.009259259
Error Rate Precondition : 0.0
Error Rate Postcondition : 0.0
FSCORE : 1.0
Iteration 25
Size I+ 25
Size I- 1946
Time : 2084.328
Syntactical distance : 0.009259259
Error Rate Precondition : 0.0
Error Rate Postcondition : 0.0
FSCORE : 1.0
Iteration 26
Size I+ 26
Size I- 1995
Time : 2233.749
Syntactical distance : 0.009259259
Error Rate Precondition : 0.0
Error Rate Postcondition : 0.0
FSCORE : 1.0
Iteration 27
Size I+ 27
Size I- 2119
Time : 2392.183
Syntactical distance : 0.009259259
Error Rate Precondition : 0.0
Error Rate Postcondition : 0.0
FSCORE : 1.0
Iteration 28
Size I+ 28
Size I- 2181
Time : 2555.69
Syntactical distance : 0.009259259
Error Rate Precondition : 0.0
Error Rate Postcondition : 0.0
FSCORE : 1.0
Iteration 29
Size I+ 29
Size I- 2288
Time : 2776.406
Syntactical distance : 0.009259259
Error Rate Precondition : 0.0
Error Rate Postcondition : 0.0
FSCORE : 1.0
Iteration 30
Size I+ 30
Size I- 2399
Time : 2911.287
Syntactical distance : 0.062962964
Error Rate Precondition : 0.035633028
Error Rate Postcondition : 0.04390742
FSCORE : 1.0
E+ size : 100
E- size : 37695
e+ mean size : 53.91
e- mean size : 35.721794
############################################
### Fluent = 25.0% ###

*** Noise = 0.0% ***
Iteration 1
Time : 10.21
Syntactical distance : 0.009259259
Error Rate Precondition : 0.0
Error Rate Postcondition : 0.0
FSCORE : 1.0
Iteration 2
Size I+ 2
Size I- 232
Time : 16.016
Syntactical distance : 0.009259259
Error Rate Precondition : 0.0
Error Rate Postcondition : 0.0
FSCORE : 1.0
Iteration 3
Size I+ 3
Size I- 305
Time : 22.974
Syntactical distance : 0.009259259
Error Rate Precondition : 0.0
Error Rate Postcondition : 0.0
FSCORE : 1.0
Iteration 4
Size I+ 4
Size I- 408
Time : 32.118
Syntactical distance : 0.009259259
Error Rate Precondition : 0.0
Error Rate Postcondition : 0.0
FSCORE : 1.0
Iteration 5
Size I+ 5
Size I- 526
Time : 43.354
Syntactical distance : 0.009259259
Error Rate Precondition : 0.0
Error Rate Postcondition : 0.0
FSCORE : 1.0
Iteration 6
Size I+ 6
Size I- 647
Time : 56.881
Syntactical distance : 0.009259259
Error Rate Precondition : 0.0
Error Rate Postcondition : 0.0
FSCORE : 1.0
Iteration 7
Size I+ 7
Size I- 737
Time : 72.059
Syntactical distance : 0.009259259
Error Rate Precondition : 0.0
Error Rate Postcondition : 0.0
FSCORE : 1.0
Iteration 8
Size I+ 8
Size I- 813
Time : 88.847
Syntactical distance : 0.009259259
Error Rate Precondition : 0.0
Error Rate Postcondition : 0.0
FSCORE : 1.0
Iteration 9
Size I+ 9
Size I- 914
Time : 107.295
Syntactical distance : 0.009259259
Error Rate Precondition : 0.0
Error Rate Postcondition : 0.0
FSCORE : 1.0
Iteration 10
Size I+ 10
Size I- 960
Time : 126.1
Syntactical distance : 0.009259259
Error Rate Precondition : 0.0
Error Rate Postcondition : 0.0
FSCORE : 1.0
Iteration 11
Size I+ 11
Size I- 1006
Time : 145.732
Syntactical distance : 0.009259259
Error Rate Precondition : 0.0
Error Rate Postcondition : 0.0
FSCORE : 1.0
Iteration 12
Size I+ 12
Size I- 1129
Time : 168.542
Syntactical distance : 0.009259259
Error Rate Precondition : 0.0
Error Rate Postcondition : 0.0
FSCORE : 1.0
Iteration 13
Size I+ 13
Size I- 1221
Time : 192.732
Syntactical distance : 0.009259259
Error Rate Precondition : 0.0
Error Rate Postcondition : 0.0
FSCORE : 1.0
Iteration 14
Size I+ 14
Size I- 1315
Time : 218.613
Syntactical distance : 0.009259259
Error Rate Precondition : 0.0
Error Rate Postcondition : 0.0
FSCORE : 1.0
Iteration 15
Size I+ 15
Size I- 1374
Time : 248.249
Syntactical distance : 0.009259259
Error Rate Precondition : 0.0
Error Rate Postcondition : 0.0
FSCORE : 1.0
Iteration 16
Size I+ 16
Size I- 1439
Time : 277.658
Syntactical distance : 0.009259259
Error Rate Precondition : 0.0
Error Rate Postcondition : 0.0
FSCORE : 1.0
Iteration 17
Size I+ 17
Size I- 1514
Time : 307.194
Syntactical distance : 0.009259259
Error Rate Precondition : 0.0
Error Rate Postcondition : 0.0
FSCORE : 1.0
Iteration 18
Size I+ 18
Size I- 1611
Time : 341.409
Syntactical distance : 0.009259259
Error Rate Precondition : 0.0
Error Rate Postcondition : 0.0
FSCORE : 1.0
Iteration 19
Size I+ 19
Size I- 1672
Time : 374.453
Syntactical distance : 0.009259259
Error Rate Precondition : 0.0
Error Rate Postcondition : 0.0
FSCORE : 1.0
Iteration 20
Size I+ 20
Size I- 1717
Time : 410.594
Syntactical distance : 0.009259259
Error Rate Precondition : 0.0
Error Rate Postcondition : 0.0
FSCORE : 1.0
Iteration 21
Size I+ 21
Size I- 1754
Time : 446.487
Syntactical distance : 0.009259259
Error Rate Precondition : 0.0
Error Rate Postcondition : 0.0
FSCORE : 1.0
Iteration 22
Size I+ 22
Size I- 1787
Time : 481.346
Syntactical distance : 0.009259259
Error Rate Precondition : 0.0
Error Rate Postcondition : 0.0
FSCORE : 1.0
Iteration 23
Size I+ 23
Size I- 1856
Time : 517.573
Syntactical distance : 0.009259259
Error Rate Precondition : 0.0
Error Rate Postcondition : 0.0
FSCORE : 1.0
Iteration 24
Size I+ 24
Size I- 1914
Time : 554.78
Syntactical distance : 0.009259259
Error Rate Precondition : 0.0
Error Rate Postcondition : 0.0
FSCORE : 1.0
Iteration 25
Size I+ 25
Size I- 1948
Time : 592.781
Syntactical distance : 0.009259259
Error Rate Precondition : 0.0
Error Rate Postcondition : 0.0
FSCORE : 1.0
Iteration 26
Size I+ 26
Size I- 2005
Time : 631.871
Syntactical distance : 0.009259259
Error Rate Precondition : 0.0
Error Rate Postcondition : 0.0
FSCORE : 1.0
Iteration 27
Size I+ 27
Size I- 2052
Time : 676.356
Syntactical distance : 0.009259259
Error Rate Precondition : 0.0
Error Rate Postcondition : 0.0
FSCORE : 1.0
Iteration 28
Size I+ 28
Size I- 2126
Time : 718.614
Syntactical distance : 0.009259259
Error Rate Precondition : 0.0
Error Rate Postcondition : 0.0
FSCORE : 1.0
Iteration 29
Size I+ 29
Size I- 2175
Time : 761.605
Syntactical distance : 0.009259259
Error Rate Precondition : 0.0
Error Rate Postcondition : 0.0
FSCORE : 1.0
Iteration 30
Size I+ 30
Size I- 2247
Time : 806.113
Syntactical distance : 0.009259259
Error Rate Precondition : 0.0
Error Rate Postcondition : 0.0
FSCORE : 1.0

*** Noise = 20.0% ***
Iteration 1
Time : 17.503
Syntactical distance : 0.14074075
Error Rate Precondition : 0.043065947
Error Rate Postcondition : 0.053292874
FSCORE : 0.10218977
Iteration 2
Size I+ 2
Size I- 232
Time : 32.034
Syntactical distance : 0.009259259
Error Rate Precondition : 0.0
Error Rate Postcondition : 0.0
FSCORE : 1.0
Iteration 3
Size I+ 3
Size I- 305
Time : 40.61
Syntactical distance : 0.10925926
Error Rate Precondition : 0.0697699
Error Rate Postcondition : 0.042744268
FSCORE : 0.07843137
Iteration 4
Size I+ 4
Size I- 408
Time : 64.841
Syntactical distance : 0.062962964
Error Rate Precondition : 0.034783218
Error Rate Postcondition : 0.04257737
FSCORE : 1.0
Iteration 5
Size I+ 5
Size I- 526
Time : 96.428
Syntactical distance : 0.062962964
Error Rate Precondition : 0.034783218
Error Rate Postcondition : 0.04257737
FSCORE : 1.0
Iteration 6
Size I+ 6
Size I- 647
Time : 140.381
Syntactical distance : 0.009259259
Error Rate Precondition : 0.0
Error Rate Postcondition : 0.0
FSCORE : 1.0
Iteration 7
Size I+ 7
Size I- 737
Time : 188.598
Syntactical distance : 0.009259259
Error Rate Precondition : 0.0
Error Rate Postcondition : 0.0
FSCORE : 1.0
Iteration 8
Size I+ 8
Size I- 813
Time : 245.898
Syntactical distance : 0.009259259
Error Rate Precondition : 0.0
Error Rate Postcondition : 0.0
FSCORE : 1.0
Iteration 9
Size I+ 9
Size I- 914
Time : 314.549
Syntactical distance : 0.009259259
Error Rate Precondition : 0.0
Error Rate Postcondition : 0.0
FSCORE : 1.0
Iteration 10
Size I+ 10
Size I- 960
Time : 385.514
Syntactical distance : 0.009259259
Error Rate Precondition : 0.0
Error Rate Postcondition : 0.0
FSCORE : 1.0
Iteration 11
Size I+ 11
Size I- 1006
Time : 459.848
Syntactical distance : 0.009259259
Error Rate Precondition : 0.0
Error Rate Postcondition : 0.0
FSCORE : 1.0
Iteration 12
Size I+ 12
Size I- 1129
Time : 533.371
Syntactical distance : 0.009259259
Error Rate Precondition : 0.0
Error Rate Postcondition : 0.0
FSCORE : 1.0
Iteration 13
Size I+ 13
Size I- 1221
Time : 611.532
Syntactical distance : 0.009259259
Error Rate Precondition : 0.0
Error Rate Postcondition : 0.0
FSCORE : 1.0
Iteration 14
Size I+ 14
Size I- 1315
Time : 703.174
Syntactical distance : 0.009259259
Error Rate Precondition : 0.0
Error Rate Postcondition : 0.0
FSCORE : 1.0
Iteration 15
Size I+ 15
Size I- 1374
Time : 810.903
Syntactical distance : 0.009259259
Error Rate Precondition : 0.0
Error Rate Postcondition : 0.0
FSCORE : 1.0
Iteration 16
Size I+ 16
Size I- 1439
Time : 958.115
Syntactical distance : 0.009259259
Error Rate Precondition : 0.0
Error Rate Postcondition : 0.0
FSCORE : 1.0
Iteration 17
Size I+ 17
Size I- 1514
Time : 1112.381
Syntactical distance : 0.009259259
Error Rate Precondition : 0.0
Error Rate Postcondition : 0.0
FSCORE : 1.0
Iteration 18
Size I+ 18
Size I- 1611
Time : 1281.043
Syntactical distance : 0.009259259
Error Rate Precondition : 0.0
Error Rate Postcondition : 0.0
FSCORE : 1.0
Iteration 19
Size I+ 19
Size I- 1672
Time : 1452.808
Syntactical distance : 0.009259259
Error Rate Precondition : 0.0
Error Rate Postcondition : 0.0
FSCORE : 1.0
Iteration 20
Size I+ 20
Size I- 1717
Time : 1542.901
Syntactical distance : 0.009259259
Error Rate Precondition : 0.0
Error Rate Postcondition : 0.0
FSCORE : 1.0
Iteration 21
Size I+ 21
Size I- 1754
Time : 1633.143
Syntactical distance : 0.009259259
Error Rate Precondition : 0.0
Error Rate Postcondition : 0.0
FSCORE : 1.0
Iteration 22
Size I+ 22
Size I- 1787
Time : 1724.945
Syntactical distance : 0.009259259
Error Rate Precondition : 0.0
Error Rate Postcondition : 0.0
FSCORE : 1.0
Iteration 23
Size I+ 23
Size I- 1856
Time : 1820.459
Syntactical distance : 0.009259259
Error Rate Precondition : 0.0
Error Rate Postcondition : 0.0
FSCORE : 1.0
Iteration 24
Size I+ 24
Size I- 1914
Time : 1926.033
Syntactical distance : 0.009259259
Error Rate Precondition : 0.0
Error Rate Postcondition : 0.0
FSCORE : 1.0
Iteration 25
Size I+ 25
Size I- 1948
Time : 2035.299
Syntactical distance : 0.009259259
Error Rate Precondition : 0.0
Error Rate Postcondition : 0.0
FSCORE : 1.0
Iteration 26
Size I+ 26
Size I- 2005
Time : 2153.875
Syntactical distance : 0.009259259
Error Rate Precondition : 0.0
Error Rate Postcondition : 0.0
FSCORE : 1.0
Iteration 27
Size I+ 27
Size I- 2052
Time : 2280.453
Syntactical distance : 0.009259259
Error Rate Precondition : 0.0
Error Rate Postcondition : 0.0
FSCORE : 1.0
Iteration 28
Size I+ 28
Size I- 2126
Time : 2386.941
Syntactical distance : 0.009259259
Error Rate Precondition : 0.0
Error Rate Postcondition : 0.0
FSCORE : 1.0
Iteration 29
Size I+ 29
Size I- 2175
Time : 2496.477
Syntactical distance : 0.009259259
Error Rate Precondition : 0.0
Error Rate Postcondition : 0.0
FSCORE : 1.0
Iteration 30
Size I+ 30
Size I- 2247
Time : 2609.249
Syntactical distance : 0.009259259
Error Rate Precondition : 0.0
Error Rate Postcondition : 0.0
FSCORE : 1.0
############################################
### Fluent = 100.0% ###

*** Noise = 0.0% ***
Iteration 1
Time : 2.395
Syntactical distance : 0.009259259
Error Rate Precondition : 0.0
Error Rate Postcondition : 0.0
FSCORE : 1.0
Iteration 2
Size I+ 2
Size I- 261
Time : 9.404
Syntactical distance : 0.009259259
Error Rate Precondition : 0.0
Error Rate Postcondition : 0.0
FSCORE : 1.0
Iteration 3
Size I+ 3
Size I- 337
Time : 17.923
Syntactical distance : 0.009259259
Error Rate Precondition : 0.0
Error Rate Postcondition : 0.0
FSCORE : 1.0
Iteration 4
Size I+ 4
Size I- 422
Time : 27.909
Syntactical distance : 0.009259259
Error Rate Precondition : 0.0
Error Rate Postcondition : 0.0
FSCORE : 1.0
Iteration 5
Size I+ 5
Size I- 563
Time : 40.856
Syntactical distance : 0.009259259
Error Rate Precondition : 0.0
Error Rate Postcondition : 0.0
FSCORE : 1.0
Iteration 6
Size I+ 6
Size I- 683
Time : 56.321
Syntactical distance : 0.009259259
Error Rate Precondition : 0.0
Error Rate Postcondition : 0.0
FSCORE : 1.0
Iteration 7
Size I+ 7
Size I- 759
Time : 72.731
Syntactical distance : 0.009259259
Error Rate Precondition : 0.0
Error Rate Postcondition : 0.0
FSCORE : 1.0
Iteration 8
Size I+ 8
Size I- 849
Time : 91.68
Syntactical distance : 0.009259259
Error Rate Precondition : 0.0
Error Rate Postcondition : 0.0
FSCORE : 1.0
Iteration 9
Size I+ 9
Size I- 911
Time : 111.874
Syntactical distance : 0.009259259
Error Rate Precondition : 0.0
Error Rate Postcondition : 0.0
FSCORE : 1.0
Iteration 10
Size I+ 10
Size I- 979
Time : 132.686
Syntactical distance : 0.009259259
Error Rate Precondition : 0.0
Error Rate Postcondition : 0.0
FSCORE : 1.0
Iteration 11
Size I+ 11
Size I- 1133
Time : 155.933
Syntactical distance : 0.009259259
Error Rate Precondition : 0.0
Error Rate Postcondition : 0.0
FSCORE : 1.0
Iteration 12
Size I+ 12
Size I- 1264
Time : 181.876
Syntactical distance : 0.009259259
Error Rate Precondition : 0.0
Error Rate Postcondition : 0.0
FSCORE : 1.0
Iteration 13
Size I+ 13
Size I- 1385
Time : 210.624
Syntactical distance : 0.009259259
Error Rate Precondition : 0.0
Error Rate Postcondition : 0.0
FSCORE : 1.0
Iteration 14
Size I+ 14
Size I- 1457
Time : 240.485
Syntactical distance : 0.009259259
Error Rate Precondition : 0.0
Error Rate Postcondition : 0.0
FSCORE : 1.0
Iteration 15
Size I+ 15
Size I- 1517
Time : 271.674
Syntactical distance : 0.009259259
Error Rate Precondition : 0.0
Error Rate Postcondition : 0.0
FSCORE : 1.0
Iteration 16
Size I+ 16
Size I- 1589
Time : 305.699
Syntactical distance : 0.009259259
Error Rate Precondition : 0.0
Error Rate Postcondition : 0.0
FSCORE : 1.0
Iteration 17
Size I+ 17
Size I- 1640
Time : 340.544
Syntactical distance : 0.009259259
Error Rate Precondition : 0.0
Error Rate Postcondition : 0.0
FSCORE : 1.0
Iteration 18
Size I+ 18
Size I- 1740
Time : 376.253
Syntactical distance : 0.009259259
Error Rate Precondition : 0.0
Error Rate Postcondition : 0.0
FSCORE : 1.0
Iteration 19
Size I+ 19
Size I- 1760
Time : 412.765
Syntactical distance : 0.009259259
Error Rate Precondition : 0.0
Error Rate Postcondition : 0.0
FSCORE : 1.0
Iteration 20
Size I+ 20
Size I- 1839
Time : 450.582
Syntactical distance : 0.009259259
Error Rate Precondition : 0.0
Error Rate Postcondition : 0.0
FSCORE : 1.0
Iteration 21
Size I+ 21
Size I- 1900
Time : 489.655
Syntactical distance : 0.009259259
Error Rate Precondition : 0.0
Error Rate Postcondition : 0.0
FSCORE : 1.0
Iteration 22
Size I+ 22
Size I- 2019
Time : 532.287
Syntactical distance : 0.009259259
Error Rate Precondition : 0.0
Error Rate Postcondition : 0.0
FSCORE : 1.0
Iteration 23
Size I+ 23
Size I- 2053
Time : 574.633
Syntactical distance : 0.009259259
Error Rate Precondition : 0.0
Error Rate Postcondition : 0.0
FSCORE : 1.0
Iteration 24
Size I+ 24
Size I- 2105
Time : 618.968
Syntactical distance : 0.009259259
Error Rate Precondition : 0.0
Error Rate Postcondition : 0.0
FSCORE : 1.0
Iteration 25
Size I+ 25
Size I- 2182
Time : 663.775
Syntactical distance : 0.009259259
Error Rate Precondition : 0.0
Error Rate Postcondition : 0.0
FSCORE : 1.0
Iteration 26
Size I+ 26
Size I- 2250
Time : 711.236
Syntactical distance : 0.009259259
Error Rate Precondition : 0.0
Error Rate Postcondition : 0.0
FSCORE : 1.0
Iteration 27
Size I+ 27
Size I- 2305
Time : 758.847
Syntactical distance : 0.009259259
Error Rate Precondition : 0.0
Error Rate Postcondition : 0.0
FSCORE : 1.0
Iteration 28
Size I+ 28
Size I- 2417
Time : 809.4
Syntactical distance : 0.009259259
Error Rate Precondition : 0.0
Error Rate Postcondition : 0.0
FSCORE : 1.0
Iteration 29
Size I+ 29
Size I- 2483
Time : 861.385
Syntactical distance : 0.009259259
Error Rate Precondition : 0.0
Error Rate Postcondition : 0.0
FSCORE : 1.0
Iteration 30
Size I+ 30
Size I- 2509
Time : 913.849
Syntactical distance : 0.009259259
Error Rate Precondition : 0.0
Error Rate Postcondition : 0.0
FSCORE : 1.0

*** Noise = 20.0% ***
Iteration 1
Time : 18.688
Syntactical distance : 0.074074075
Error Rate Precondition : 0.070515335
Error Rate Postcondition : 0.043289043
FSCORE : 0.3471074
Iteration 2
Size I+ 2
Size I- 261
Time : 34.764
Syntactical distance : 0.009259259
Error Rate Precondition : 0.0
Error Rate Postcondition : 0.0
FSCORE : 1.0
Iteration 3
Size I+ 3
Size I- 337
Time : 64.816
Syntactical distance : 0.009259259
Error Rate Precondition : 0.0
Error Rate Postcondition : 0.0
FSCORE : 1.0
Iteration 4
Size I+ 4
Size I- 422
Time : 74.439
Syntactical distance : 0.009259259
Error Rate Precondition : 0.0
Error Rate Postcondition : 0.0
FSCORE : 1.0
Iteration 5
Size I+ 5
Size I- 563
Time : 86.897
Syntactical distance : 0.009259259
Error Rate Precondition : 0.0
Error Rate Postcondition : 0.0
FSCORE : 1.0
Iteration 6
Size I+ 6
Size I- 683
Time : 101.955
Syntactical distance : 0.009259259
Error Rate Precondition : 0.0
Error Rate Postcondition : 0.0
FSCORE : 1.0
Iteration 7
Size I+ 7
Size I- 759
Time : 133.093
Syntactical distance : 0.009259259
Error Rate Precondition : 0.0
Error Rate Postcondition : 0.0
FSCORE : 1.0
Iteration 8
Size I+ 8
Size I- 849
Time : 151.834
Syntactical distance : 0.009259259
Error Rate Precondition : 0.0
Error Rate Postcondition : 0.0
FSCORE : 1.0
Iteration 9
Size I+ 9
Size I- 911
Time : 171.928
Syntactical distance : 0.009259259
Error Rate Precondition : 0.0
Error Rate Postcondition : 0.0
FSCORE : 1.0
Iteration 10
Size I+ 10
Size I- 979
Time : 192.581
Syntactical distance : 0.009259259
Error Rate Precondition : 0.0
Error Rate Postcondition : 0.0
FSCORE : 1.0
Iteration 11
Size I+ 11
Size I- 1133
Time : 284.065
Syntactical distance : 0.009259259
Error Rate Precondition : 0.0
Error Rate Postcondition : 0.0
FSCORE : 1.0
Iteration 12
Size I+ 12
Size I- 1264
Time : 390.016
Syntactical distance : 0.009259259
Error Rate Precondition : 0.0
Error Rate Postcondition : 0.0
FSCORE : 1.0
Iteration 13
Size I+ 13
Size I- 1385
Time : 504.593
Syntactical distance : 0.009259259
Error Rate Precondition : 0.0
Error Rate Postcondition : 0.0
FSCORE : 1.0
Iteration 14
Size I+ 14
Size I- 1457
Time : 626.83
Syntactical distance : 0.009259259
Error Rate Precondition : 0.0
Error Rate Postcondition : 0.0
FSCORE : 1.0
Iteration 15
Size I+ 15
Size I- 1517
Time : 754.374
Syntactical distance : 0.009259259
Error Rate Precondition : 0.0
Error Rate Postcondition : 0.0
FSCORE : 1.0
Iteration 16
Size I+ 16
Size I- 1589
Time : 888.7
Syntactical distance : 0.009259259
Error Rate Precondition : 0.0
Error Rate Postcondition : 0.0
FSCORE : 1.0
Iteration 17
Size I+ 17
Size I- 1640
Time : 985.201
Syntactical distance : 0.009259259
Error Rate Precondition : 0.0
Error Rate Postcondition : 0.0
FSCORE : 1.0
Iteration 18
Size I+ 18
Size I- 1740
Time : 1086.615
Syntactical distance : 0.009259259
Error Rate Precondition : 0.0
Error Rate Postcondition : 0.0
FSCORE : 1.0
Iteration 19
Size I+ 19
Size I- 1760
Time : 1251.71
Syntactical distance : 0.009259259
Error Rate Precondition : 0.0
Error Rate Postcondition : 0.0
FSCORE : 1.0
Iteration 20
Size I+ 20
Size I- 1839
Time : 1425.061
Syntactical distance : 0.009259259
Error Rate Precondition : 0.0
Error Rate Postcondition : 0.0
FSCORE : 1.0
Iteration 21
Size I+ 21
Size I- 1900
Time : 1607.291
Syntactical distance : 0.009259259
Error Rate Precondition : 0.0
Error Rate Postcondition : 0.0
FSCORE : 1.0
Iteration 22
Size I+ 22
Size I- 2019
Time : 1786.336
Syntactical distance : 0.009259259
Error Rate Precondition : 0.0
Error Rate Postcondition : 0.0
FSCORE : 1.0
Iteration 23
Size I+ 23
Size I- 2053
Time : 1966.378
Syntactical distance : 0.009259259
Error Rate Precondition : 0.0
Error Rate Postcondition : 0.0
FSCORE : 1.0
Iteration 24
Size I+ 24
Size I- 2105
Time : 2178.936
Syntactical distance : 0.009259259
Error Rate Precondition : 0.0
Error Rate Postcondition : 0.0
FSCORE : 1.0
Iteration 25
Size I+ 25
Size I- 2182
Time : 2399.36
Syntactical distance : 0.009259259
Error Rate Precondition : 0.0
Error Rate Postcondition : 0.0
FSCORE : 1.0
Iteration 26
Size I+ 26
Size I- 2250
Time : 2630.826
Syntactical distance : 0.009259259
Error Rate Precondition : 0.0
Error Rate Postcondition : 0.0
FSCORE : 1.0
Iteration 27
Size I+ 27
Size I- 2305
Time : 2866.235
Syntactical distance : 0.009259259
Error Rate Precondition : 0.0
Error Rate Postcondition : 0.0
FSCORE : 1.0
Iteration 28
Size I+ 28
Size I- 2417
Time : 3117.02
Syntactical distance : 0.009259259
Error Rate Precondition : 0.0
Error Rate Postcondition : 0.0
FSCORE : 1.0
Iteration 29
Size I+ 29
Size I- 2483
Time : 3369.356
Syntactical distance : 0.009259259
Error Rate Precondition : 0.0
Error Rate Postcondition : 0.0
FSCORE : 1.0
Iteration 30
Size I+ 30
Size I- 2509
Time : 3624.636
Syntactical distance : 0.009259259
Error Rate Precondition : 0.0
Error Rate Postcondition : 0.0
FSCORE : 1.0
E+ size : 100
E- size : 33159
e+ mean size : 47.68
e- mean size : 33.301456
############################################
### Fluent = 25.0% ###

*** Noise = 0.0% ***
Iteration 1
Time : 5.11
Syntactical distance : 0.009259259
Error Rate Precondition : 0.0
Error Rate Postcondition : 0.0
FSCORE : 1.0
Iteration 2
Size I+ 2
Size I- 197
Time : 15.569
Syntactical distance : 0.009259259
Error Rate Precondition : 0.0
Error Rate Postcondition : 0.0
FSCORE : 1.0
Iteration 3
Size I+ 3
Size I- 285
Time : 28.82
Syntactical distance : 0.009259259
Error Rate Precondition : 0.0
Error Rate Postcondition : 0.0
FSCORE : 1.0
Iteration 4
Size I+ 4
Size I- 390
Time : 46.174
Syntactical distance : 0.009259259
Error Rate Precondition : 0.0
Error Rate Postcondition : 0.0
FSCORE : 1.0
Iteration 5
Size I+ 5
Size I- 436
Time : 64.733
Syntactical distance : 0.009259259
Error Rate Precondition : 0.0
Error Rate Postcondition : 0.0
FSCORE : 1.0
Iteration 6
Size I+ 6
Size I- 542
Time : 75.526
Syntactical distance : 0.009259259
Error Rate Precondition : 0.0
Error Rate Postcondition : 0.0
FSCORE : 1.0
Iteration 7
Size I+ 7
Size I- 670
Time : 89.131
Syntactical distance : 0.009259259
Error Rate Precondition : 0.0
Error Rate Postcondition : 0.0
FSCORE : 1.0
Iteration 8
Size I+ 8
Size I- 783
Time : 105.446
Syntactical distance : 0.009259259
Error Rate Precondition : 0.0
Error Rate Postcondition : 0.0
FSCORE : 1.0
Iteration 9
Size I+ 9
Size I- 905
Time : 124.723
Syntactical distance : 0.009259259
Error Rate Precondition : 0.0
Error Rate Postcondition : 0.0
FSCORE : 1.0
Iteration 10
Size I+ 10
Size I- 941
Time : 143.763
Syntactical distance : 0.009259259
Error Rate Precondition : 0.0
Error Rate Postcondition : 0.0
FSCORE : 1.0
Iteration 11
Size I+ 11
Size I- 1044
Time : 166.081
Syntactical distance : 0.009259259
Error Rate Precondition : 0.0
Error Rate Postcondition : 0.0
FSCORE : 1.0
Iteration 12
Size I+ 12
Size I- 1175
Time : 190.648
Syntactical distance : 0.009259259
Error Rate Precondition : 0.0
Error Rate Postcondition : 0.0
FSCORE : 1.0
Iteration 13
Size I+ 13
Size I- 1282
Time : 216.709
Syntactical distance : 0.009259259
Error Rate Precondition : 0.0
Error Rate Postcondition : 0.0
FSCORE : 1.0
Iteration 14
Size I+ 14
Size I- 1404
Time : 246.175
Syntactical distance : 0.009259259
Error Rate Precondition : 0.0
Error Rate Postcondition : 0.0
FSCORE : 1.0
Iteration 15
Size I+ 15
Size I- 1454
Time : 276.523
Syntactical distance : 0.009259259
Error Rate Precondition : 0.0
Error Rate Postcondition : 0.0
FSCORE : 1.0
Iteration 16
Size I+ 16
Size I- 1526
Time : 307.611
Syntactical distance : 0.009259259
Error Rate Precondition : 0.0
Error Rate Postcondition : 0.0
FSCORE : 1.0
Iteration 17
Size I+ 17
Size I- 1622
Time : 340.971
Syntactical distance : 0.009259259
Error Rate Precondition : 0.0
Error Rate Postcondition : 0.0
FSCORE : 1.0
Iteration 18
Size I+ 18
Size I- 1695
Time : 375.869
Syntactical distance : 0.009259259
Error Rate Precondition : 0.0
Error Rate Postcondition : 0.0
FSCORE : 1.0
Iteration 19
Size I+ 19
Size I- 1774
Time : 415.862
Syntactical distance : 0.009259259
Error Rate Precondition : 0.0
Error Rate Postcondition : 0.0
FSCORE : 1.0
Iteration 20
Size I+ 20
Size I- 1861
Time : 461.014
Syntactical distance : 0.009259259
Error Rate Precondition : 0.0
Error Rate Postcondition : 0.0
FSCORE : 1.0
Iteration 21
Size I+ 21
Size I- 1966
Time : 509.432
Syntactical distance : 0.009259259
Error Rate Precondition : 0.0
Error Rate Postcondition : 0.0
FSCORE : 1.0
Iteration 22
Size I+ 22
Size I- 2042
Time : 559.812
Syntactical distance : 0.009259259
Error Rate Precondition : 0.0
Error Rate Postcondition : 0.0
FSCORE : 1.0
Iteration 23
Size I+ 23
Size I- 2140
Time : 604.468
Syntactical distance : 0.009259259
Error Rate Precondition : 0.0
Error Rate Postcondition : 0.0
FSCORE : 1.0
Iteration 24
Size I+ 24
Size I- 2214
Time : 654.252
Syntactical distance : 0.009259259
Error Rate Precondition : 0.0
Error Rate Postcondition : 0.0
FSCORE : 1.0
Iteration 25
Size I+ 25
Size I- 2273
Time : 701.464
Syntactical distance : 0.009259259
Error Rate Precondition : 0.0
Error Rate Postcondition : 0.0
FSCORE : 1.0
Iteration 26
Size I+ 26
Size I- 2290
Time : 749.099
Syntactical distance : 0.009259259
Error Rate Precondition : 0.0
Error Rate Postcondition : 0.0
FSCORE : 1.0
Iteration 27
Size I+ 27
Size I- 2329
Time : 797.631
Syntactical distance : 0.009259259
Error Rate Precondition : 0.0
Error Rate Postcondition : 0.0
FSCORE : 1.0
Iteration 28
Size I+ 28
Size I- 2400
Time : 848.886
Syntactical distance : 0.009259259
Error Rate Precondition : 0.0
Error Rate Postcondition : 0.0
FSCORE : 1.0
Iteration 29
Size I+ 29
Size I- 2505
Time : 900.955
Syntactical distance : 0.009259259
Error Rate Precondition : 0.0
Error Rate Postcondition : 0.0
FSCORE : 1.0
Iteration 30
Size I+ 30
Size I- 2587
Time : 960.826
Syntactical distance : 0.009259259
Error Rate Precondition : 0.0
Error Rate Postcondition : 0.0
FSCORE : 1.0

*** Noise = 20.0% ***
Iteration 1
Time : 1.961
Syntactical distance : 0.19444445
Error Rate Precondition : 0.15833396
Error Rate Postcondition : 0.12316176
FSCORE : 0.0
Iteration 2
Size I+ 2
Size I- 197
Time : 2.198
Syntactical distance : 0.16851853
Error Rate Precondition : 0.03868214
Error Rate Postcondition : 0.13607399
FSCORE : 0.023529412
Iteration 3
Size I+ 3
Size I- 285
Time : 6.764
Syntactical distance : 0.06481481
Error Rate Precondition : 0.06799072
Error Rate Postcondition : 0.03649329
FSCORE : 0.0
Iteration 4
Size I+ 4
Size I- 390
Time : 28.482
Syntactical distance : 0.009259259
Error Rate Precondition : 0.0
Error Rate Postcondition : 0.0
FSCORE : 1.0
Iteration 5
Size I+ 5
Size I- 436
Time : 50.782
Syntactical distance : 0.009259259
Error Rate Precondition : 0.0
Error Rate Postcondition : 0.0
FSCORE : 1.0
Iteration 6
Size I+ 6
Size I- 542
Time : 78.341
Syntactical distance : 0.009259259
Error Rate Precondition : 0.0
Error Rate Postcondition : 0.0
FSCORE : 1.0
Iteration 7
Size I+ 7
Size I- 670
Time : 121.728
Syntactical distance : 0.009259259
Error Rate Precondition : 0.0
Error Rate Postcondition : 0.0
FSCORE : 1.0
Iteration 8
Size I+ 8
Size I- 783
Time : 173.965
Syntactical distance : 0.009259259
Error Rate Precondition : 0.0
Error Rate Postcondition : 0.0
FSCORE : 1.0
Iteration 9
Size I+ 9
Size I- 905
Time : 237.683
Syntactical distance : 0.009259259
Error Rate Precondition : 0.0
Error Rate Postcondition : 0.0
FSCORE : 1.0
Iteration 10
Size I+ 10
Size I- 941
Time : 304.504
Syntactical distance : 0.009259259
Error Rate Precondition : 0.0
Error Rate Postcondition : 0.0
FSCORE : 1.0
Iteration 11
Size I+ 11
Size I- 1044
Time : 381.172
Syntactical distance : 0.009259259
Error Rate Precondition : 0.0
Error Rate Postcondition : 0.0
FSCORE : 1.0
Iteration 12
Size I+ 12
Size I- 1175
Time : 481.27
Syntactical distance : 0.009259259
Error Rate Precondition : 0.0
Error Rate Postcondition : 0.0
FSCORE : 1.0
Iteration 13
Size I+ 13
Size I- 1282
Time : 584.466
Syntactical distance : 0.009259259
Error Rate Precondition : 0.0
Error Rate Postcondition : 0.0
FSCORE : 1.0
Iteration 14
Size I+ 14
Size I- 1404
Time : 698.566
Syntactical distance : 0.009259259
Error Rate Precondition : 0.0
Error Rate Postcondition : 0.0
FSCORE : 1.0
Iteration 15
Size I+ 15
Size I- 1454
Time : 810.021
Syntactical distance : 0.009259259
Error Rate Precondition : 0.0
Error Rate Postcondition : 0.0
FSCORE : 1.0
Iteration 16
Size I+ 16
Size I- 1526
Time : 930.155
Syntactical distance : 0.009259259
Error Rate Precondition : 0.0
Error Rate Postcondition : 0.0
FSCORE : 1.0
Iteration 17
Size I+ 17
Size I- 1622
Time : 1056.085
Syntactical distance : 0.009259259
Error Rate Precondition : 0.0
Error Rate Postcondition : 0.0
FSCORE : 1.0
Iteration 18
Size I+ 18
Size I- 1695
Time : 1180.19
Syntactical distance : 0.009259259
Error Rate Precondition : 0.0
Error Rate Postcondition : 0.0
FSCORE : 1.0
Iteration 19
Size I+ 19
Size I- 1774
Time : 1333.945
Syntactical distance : 0.009259259
Error Rate Precondition : 0.0
Error Rate Postcondition : 0.0
FSCORE : 1.0
Iteration 20
Size I+ 20
Size I- 1861
Time : 1379.109
Syntactical distance : 0.009259259
Error Rate Precondition : 0.0
Error Rate Postcondition : 0.0
FSCORE : 1.0
Iteration 21
Size I+ 21
Size I- 1966
Time : 1498.168
Syntactical distance : 0.009259259
Error Rate Precondition : 0.0
Error Rate Postcondition : 0.0
FSCORE : 1.0
Iteration 22
Size I+ 22
Size I- 2042
Time : 1621.708
Syntactical distance : 0.009259259
Error Rate Precondition : 0.0
Error Rate Postcondition : 0.0
FSCORE : 1.0
Iteration 23
Size I+ 23
Size I- 2140
Time : 1743.618
Syntactical distance : 0.009259259
Error Rate Precondition : 0.0
Error Rate Postcondition : 0.0
FSCORE : 1.0
Iteration 24
Size I+ 24
Size I- 2214
Time : 1893.093
Syntactical distance : 0.009259259
Error Rate Precondition : 0.0
Error Rate Postcondition : 0.0
FSCORE : 1.0
Iteration 25
Size I+ 25
Size I- 2273
Time : 2041.94
Syntactical distance : 0.009259259
Error Rate Precondition : 0.0
Error Rate Postcondition : 0.0
FSCORE : 1.0
Iteration 26
Size I+ 26
Size I- 2290
Time : 2192.181
Syntactical distance : 0.009259259
Error Rate Precondition : 0.0
Error Rate Postcondition : 0.0
FSCORE : 1.0
Iteration 27
Size I+ 27
Size I- 2329
Time : 2350.098
Syntactical distance : 0.009259259
Error Rate Precondition : 0.0
Error Rate Postcondition : 0.0
FSCORE : 1.0
Iteration 28
Size I+ 28
Size I- 2400
Time : 2513.78
Syntactical distance : 0.009259259
Error Rate Precondition : 0.0
Error Rate Postcondition : 0.0
FSCORE : 1.0
Iteration 29
Size I+ 29
Size I- 2505
Time : 2683.577
Syntactical distance : 0.009259259
Error Rate Precondition : 0.0
Error Rate Postcondition : 0.0
FSCORE : 1.0
Iteration 30
Size I+ 30
Size I- 2587
Time : 2882.546
Syntactical distance : 0.009259259
Error Rate Precondition : 0.0
Error Rate Postcondition : 0.0
FSCORE : 1.0
############################################
### Fluent = 100.0% ###

*** Noise = 0.0% ***
Iteration 1
Time : 1.99
Syntactical distance : 0.009259259
Error Rate Precondition : 0.0
Error Rate Postcondition : 0.0
FSCORE : 1.0
Iteration 2
Size I+ 2
Size I- 186
Time : 6.343
Syntactical distance : 0.009259259
Error Rate Precondition : 0.0
Error Rate Postcondition : 0.0
FSCORE : 1.0
Iteration 3
Size I+ 3
Size I- 267
Time : 11.941
Syntactical distance : 0.009259259
Error Rate Precondition : 0.0
Error Rate Postcondition : 0.0
FSCORE : 1.0
Iteration 4
Size I+ 4
Size I- 337
Time : 18.898
Syntactical distance : 0.009259259
Error Rate Precondition : 0.0
Error Rate Postcondition : 0.0
FSCORE : 1.0
Iteration 5
Size I+ 5
Size I- 464
Time : 28.645
Syntactical distance : 0.009259259
Error Rate Precondition : 0.0
Error Rate Postcondition : 0.0
FSCORE : 1.0
Iteration 6
Size I+ 6
Size I- 508
Time : 38.504
Syntactical distance : 0.009259259
Error Rate Precondition : 0.0
Error Rate Postcondition : 0.0
FSCORE : 1.0
Iteration 7
Size I+ 7
Size I- 589
Time : 50.472
Syntactical distance : 0.009259259
Error Rate Precondition : 0.0
Error Rate Postcondition : 0.0
FSCORE : 1.0
Iteration 8
Size I+ 8
Size I- 645
Time : 63.403
Syntactical distance : 0.009259259
Error Rate Precondition : 0.0
Error Rate Postcondition : 0.0
FSCORE : 1.0
Iteration 9
Size I+ 9
Size I- 703
Time : 77.311
Syntactical distance : 0.009259259
Error Rate Precondition : 0.0
Error Rate Postcondition : 0.0
FSCORE : 1.0
Iteration 10
Size I+ 10
Size I- 816
Time : 93.367
Syntactical distance : 0.009259259
Error Rate Precondition : 0.0
Error Rate Postcondition : 0.0
FSCORE : 1.0
Iteration 11
Size I+ 11
Size I- 908
Time : 111.482
Syntactical distance : 0.009259259
Error Rate Precondition : 0.0
Error Rate Postcondition : 0.0
FSCORE : 1.0
Iteration 12
Size I+ 12
Size I- 956
Time : 131.851
Syntactical distance : 0.009259259
Error Rate Precondition : 0.0
Error Rate Postcondition : 0.0
FSCORE : 1.0
Iteration 13
Size I+ 13
Size I- 1048
Time : 153.807
Syntactical distance : 0.009259259
Error Rate Precondition : 0.0
Error Rate Postcondition : 0.0
FSCORE : 1.0
Iteration 14
Size I+ 14
Size I- 1131
Time : 175.679
Syntactical distance : 0.009259259
Error Rate Precondition : 0.0
Error Rate Postcondition : 0.0
FSCORE : 1.0
Iteration 15
Size I+ 15
Size I- 1217
Time : 202.757
Syntactical distance : 0.009259259
Error Rate Precondition : 0.0
Error Rate Postcondition : 0.0
FSCORE : 1.0
Iteration 16
Size I+ 16
Size I- 1271
Time : 231.138
Syntactical distance : 0.009259259
Error Rate Precondition : 0.0
Error Rate Postcondition : 0.0
FSCORE : 1.0
Iteration 17
Size I+ 17
Size I- 1341
Time : 257.229
Syntactical distance : 0.009259259
Error Rate Precondition : 0.0
Error Rate Postcondition : 0.0
FSCORE : 1.0
Iteration 18
Size I+ 18
Size I- 1425
Time : 288.589
Syntactical distance : 0.009259259
Error Rate Precondition : 0.0
Error Rate Postcondition : 0.0
FSCORE : 1.0
Iteration 19
Size I+ 19
Size I- 1513
Time : 318.738
Syntactical distance : 0.009259259
Error Rate Precondition : 0.0
Error Rate Postcondition : 0.0
FSCORE : 1.0
Iteration 20
Size I+ 20
Size I- 1622
Time : 351.203
Syntactical distance : 0.009259259
Error Rate Precondition : 0.0
Error Rate Postcondition : 0.0
FSCORE : 1.0
Iteration 21
Size I+ 21
Size I- 1693
Time : 385.275
Syntactical distance : 0.009259259
Error Rate Precondition : 0.0
Error Rate Postcondition : 0.0
FSCORE : 1.0
Iteration 22
Size I+ 22
Size I- 1811
Time : 426.867
Syntactical distance : 0.009259259
Error Rate Precondition : 0.0
Error Rate Postcondition : 0.0
FSCORE : 1.0
Iteration 23
Size I+ 23
Size I- 1884
Time : 464.838
Syntactical distance : 0.009259259
Error Rate Precondition : 0.0
Error Rate Postcondition : 0.0
FSCORE : 1.0
Iteration 24
Size I+ 24
Size I- 1930
Time : 503.567
Syntactical distance : 0.009259259
Error Rate Precondition : 0.0
Error Rate Postcondition : 0.0
FSCORE : 1.0
Iteration 25
Size I+ 25
Size I- 2000
Time : 543.758
Syntactical distance : 0.009259259
Error Rate Precondition : 0.0
Error Rate Postcondition : 0.0
FSCORE : 1.0
Iteration 26
Size I+ 26
Size I- 2058
Time : 585.034
Syntactical distance : 0.009259259
Error Rate Precondition : 0.0
Error Rate Postcondition : 0.0
FSCORE : 1.0
Iteration 27
Size I+ 27
Size I- 2090
Time : 627.047
Syntactical distance : 0.009259259
Error Rate Precondition : 0.0
Error Rate Postcondition : 0.0
FSCORE : 1.0
Iteration 28
Size I+ 28
Size I- 2144
Time : 670.077
Syntactical distance : 0.009259259
Error Rate Precondition : 0.0
Error Rate Postcondition : 0.0
FSCORE : 1.0
Iteration 29
Size I+ 29
Size I- 2275
Time : 720.768
Syntactical distance : 0.009259259
Error Rate Precondition : 0.0
Error Rate Postcondition : 0.0
FSCORE : 1.0
Iteration 30
Size I+ 30
Size I- 2313
Time : 767.539
Syntactical distance : 0.009259259
Error Rate Precondition : 0.0
Error Rate Postcondition : 0.0
FSCORE : 1.0

*** Noise = 20.0% ***
Iteration 1
Time : 10.141
Syntactical distance : 0.08703704
Error Rate Precondition : 0.033324394
Error Rate Postcondition : 0.0
FSCORE : 0.25608197
Iteration 2
Size I+ 2
Size I- 186
Time : 20.716
Syntactical distance : 0.009259259
Error Rate Precondition : 0.0
Error Rate Postcondition : 0.0
FSCORE : 1.0
Iteration 3
Size I+ 3
Size I- 267
Time : 31.179
Syntactical distance : 0.009259259
Error Rate Precondition : 0.0
Error Rate Postcondition : 0.0
FSCORE : 1.0
Iteration 4
Size I+ 4
Size I- 337
Time : 44.756
Syntactical distance : 0.009259259
Error Rate Precondition : 0.0
Error Rate Postcondition : 0.0
FSCORE : 1.0
Iteration 5
Size I+ 5
Size I- 464
Time : 54.435
Syntactical distance : 0.009259259
Error Rate Precondition : 0.0
Error Rate Postcondition : 0.0
FSCORE : 1.0
Iteration 6
Size I+ 6
Size I- 508
Time : 64.252
Syntactical distance : 0.009259259
Error Rate Precondition : 0.0
Error Rate Postcondition : 0.0
FSCORE : 1.0
Iteration 7
Size I+ 7
Size I- 589
Time : 76.218
Syntactical distance : 0.009259259
Error Rate Precondition : 0.0
Error Rate Postcondition : 0.0
FSCORE : 1.0
Iteration 8
Size I+ 8
Size I- 645
Time : 89.106
Syntactical distance : 0.009259259
Error Rate Precondition : 0.0
Error Rate Postcondition : 0.0
FSCORE : 1.0
Iteration 9
Size I+ 9
Size I- 703
Time : 103.107
Syntactical distance : 0.009259259
Error Rate Precondition : 0.0
Error Rate Postcondition : 0.0
FSCORE : 1.0
Iteration 10
Size I+ 10
Size I- 816
Time : 133.304
Syntactical distance : 0.009259259
Error Rate Precondition : 0.0
Error Rate Postcondition : 0.0
FSCORE : 1.0
Iteration 11
Size I+ 11
Size I- 908
Time : 151.437
Syntactical distance : 0.009259259
Error Rate Precondition : 0.0
Error Rate Postcondition : 0.0
FSCORE : 1.0
Iteration 12
Size I+ 12
Size I- 956
Time : 192.169
Syntactical distance : 0.009259259
Error Rate Precondition : 0.0
Error Rate Postcondition : 0.0
FSCORE : 1.0
Iteration 13
Size I+ 13
Size I- 1048
Time : 236.405
Syntactical distance : 0.009259259
Error Rate Precondition : 0.0
Error Rate Postcondition : 0.0
FSCORE : 1.0
Iteration 14
Size I+ 14
Size I- 1131
Time : 282.982
Syntactical distance : 0.009259259
Error Rate Precondition : 0.0
Error Rate Postcondition : 0.0
FSCORE : 1.0
Iteration 15
Size I+ 15
Size I- 1217
Time : 337.198
Syntactical distance : 0.009259259
Error Rate Precondition : 0.0
Error Rate Postcondition : 0.0
FSCORE : 1.0
Iteration 16
Size I+ 16
Size I- 1271
Time : 393.963
Syntactical distance : 0.009259259
Error Rate Precondition : 0.0
Error Rate Postcondition : 0.0
FSCORE : 1.0
Iteration 17
Size I+ 17
Size I- 1341
Time : 449.608
Syntactical distance : 0.009259259
Error Rate Precondition : 0.0
Error Rate Postcondition : 0.0
FSCORE : 1.0
Iteration 18
Size I+ 18
Size I- 1425
Time : 512.702
Syntactical distance : 0.009259259
Error Rate Precondition : 0.0
Error Rate Postcondition : 0.0
FSCORE : 1.0
Iteration 19
Size I+ 19
Size I- 1513
Time : 577.343
Syntactical distance : 0.009259259
Error Rate Precondition : 0.0
Error Rate Postcondition : 0.0
FSCORE : 1.0
Iteration 20
Size I+ 20
Size I- 1622
Time : 646.949
Syntactical distance : 0.009259259
Error Rate Precondition : 0.0
Error Rate Postcondition : 0.0
FSCORE : 1.0
Iteration 21
Size I+ 21
Size I- 1693
Time : 719.883
Syntactical distance : 0.009259259
Error Rate Precondition : 0.0
Error Rate Postcondition : 0.0
FSCORE : 1.0
Iteration 22
Size I+ 22
Size I- 1811
Time : 761.45
Syntactical distance : 0.009259259
Error Rate Precondition : 0.0
Error Rate Postcondition : 0.0
FSCORE : 1.0
Iteration 23
Size I+ 23
Size I- 1884
Time : 799.404
Syntactical distance : 0.009259259
Error Rate Precondition : 0.0
Error Rate Postcondition : 0.0
FSCORE : 1.0
Iteration 24
Size I+ 24
Size I- 1930
Time : 838.167
Syntactical distance : 0.009259259
Error Rate Precondition : 0.0
Error Rate Postcondition : 0.0
FSCORE : 1.0
Iteration 25
Size I+ 25
Size I- 2000
Time : 878.318
Syntactical distance : 0.009259259
Error Rate Precondition : 0.0
Error Rate Postcondition : 0.0
FSCORE : 1.0
Iteration 26
Size I+ 26
Size I- 2058
Time : 1001.02
Syntactical distance : 0.009259259
Error Rate Precondition : 0.0
Error Rate Postcondition : 0.0
FSCORE : 1.0
Iteration 27
Size I+ 27
Size I- 2090
Time : 1125.538
Syntactical distance : 0.009259259
Error Rate Precondition : 0.0
Error Rate Postcondition : 0.0
FSCORE : 1.0
Iteration 28
Size I+ 28
Size I- 2144
Time : 1252.926
Syntactical distance : 0.009259259
Error Rate Precondition : 0.0
Error Rate Postcondition : 0.0
FSCORE : 1.0
Iteration 29
Size I+ 29
Size I- 2275
Time : 1375.205
Syntactical distance : 0.009259259
Error Rate Precondition : 0.0
Error Rate Postcondition : 0.0
FSCORE : 1.0
Iteration 30
Size I+ 30
Size I- 2313
Time : 1495.037
Syntactical distance : 0.009259259
Error Rate Precondition : 0.0
Error Rate Postcondition : 0.0
FSCORE : 1.0
