move_to( n1 n2)::move_to( n2 n3)
move_to( n1 n2)
move_to( n1 n2)::deliver( n2)::move_to( n2 n3)
move_to( n1 n2)::deliver( n2)::move_to( n2 n3)::move_to( n3 n1)::move_to( n1 n2)
move_to( n1 n2)::move_to( n2 n3)::move_to( n3 n1)::move_to( n1 n2)::move_to( n2 n3)::move_to( n3 n1)::move_to( n1 n2)::deliver( n2)::move_to( n2 n3)::move_to( n3 n1)::move_to( n1 n2)::move_to( n2 n3)::move_to( n3 n1)::move_to( n1 n2)::move_to( n2 n3)
move_to( n1 n2)::deliver( n2)::move_to( n2 n3)::move_to( n3 n1)::move_to( n1 n2)
move_to( n1 n2)
move_to( n1 n2)::deliver( n2)::move_to( n2 n3)::move_to( n3 n1)::move_to( n1 n2)::move_to( n2 n3)::move_to( n3 n1)
move_to( n1 n2)::deliver( n2)::move_to( n2 n3)::move_to( n3 n1)::move_to( n1 n2)
move_to( n1 n2)::deliver( n2)::move_to( n2 n3)::move_to( n3 n1)::move_to( n1 n2)::move_to( n2 n3)::move_to( n3 n1)::move_to( n1 n2)::move_to( n2 n3)
move_to( n1 n2)::move_to( n2 n3)::move_to( n3 n1)::move_to( n1 n2)::move_to( n2 n3)::move_to( n3 n1)::move_to( n1 n2)::deliver( n2)::move_to( n2 n3)
move_to( n1 n2)::move_to( n2 n3)::move_to( n3 n1)::move_to( n1 n2)::deliver( n2)::move_to( n2 n3)::move_to( n3 n1)::move_to( n1 n2)::move_to( n2 n3)::move_to( n3 n1)::move_to( n1 n2)::move_to( n2 n3)::move_to( n3 n1)::move_to( n1 n2)::move_to( n2 n3)::move_to( n3 n1)::move_to( n1 n2)::move_to( n2 n3)::move_to( n3 n1)
move_to( n1 n2)::move_to( n2 n3)::move_to( n3 n1)::move_to( n1 n2)::move_to( n2 n3)
move_to( n1 n2)::move_to( n2 n3)::move_to( n3 n1)::move_to( n1 n2)::deliver( n2)::move_to( n2 n3)
move_to( n1 n2)::move_to( n2 n3)::move_to( n3 n1)::move_to( n1 n2)
move_to( n1 n2)::deliver( n2)::move_to( n2 n3)::move_to( n3 n1)::move_to( n1 n2)::move_to( n2 n3)::move_to( n3 n1)::move_to( n1 n2)::move_to( n2 n3)::move_to( n3 n1)::move_to( n1 n2)::move_to( n2 n3)::move_to( n3 n1)::move_to( n1 n2)::move_to( n2 n3)::move_to( n3 n1)::move_to( n1 n2)
move_to( n1 n2)::deliver( n2)::move_to( n2 n3)::move_to( n3 n1)::move_to( n1 n2)::move_to( n2 n3)::move_to( n3 n1)::move_to( n1 n2)::move_to( n2 n3)::move_to( n3 n1)::move_to( n1 n2)::move_to( n2 n3)::move_to( n3 n1)::move_to( n1 n2)::move_to( n2 n3)::move_to( n3 n1)::move_to( n1 n2)
move_to( n1 n2)::deliver( n2)
move_to( n1 n2)::deliver( n2)::move_to( n2 n3)::move_to( n3 n1)::move_to( n1 n2)::move_to( n2 n3)::move_to( n3 n1)
move_to( n1 n2)::move_to( n2 n3)
move_to( n1 n2)::deliver( n2)::move_to( n2 n3)::move_to( n3 n1)::move_to( n1 n2)::move_to( n2 n3)::move_to( n3 n1)::move_to( n1 n2)::move_to( n2 n3)::move_to( n3 n1)::move_to( n1 n2)::move_to( n2 n3)::move_to( n3 n1)::move_to( n1 n2)
move_to( n1 n2)::deliver( n2)::move_to( n2 n3)::move_to( n3 n1)::move_to( n1 n2)::move_to( n2 n3)::move_to( n3 n1)::move_to( n1 n2)::move_to( n2 n3)::move_to( n3 n1)::move_to( n1 n2)::move_to( n2 n3)::move_to( n3 n1)::move_to( n1 n2)
move_to( n1 n2)::move_to( n2 n3)::move_to( n3 n1)::move_to( n1 n2)::deliver( n2)::move_to( n2 n3)::move_to( n3 n1)::move_to( n1 n2)::move_to( n2 n3)::move_to( n3 n1)::move_to( n1 n2)::move_to( n2 n3)::move_to( n3 n1)::move_to( n1 n2)::move_to( n2 n3)::move_to( n3 n1)::move_to( n1 n2)
move_to( n1 n2)::move_to( n2 n3)::move_to( n3 n1)
move_to( n1 n2)::deliver( n2)::move_to( n2 n3)::move_to( n3 n1)::move_to( n1 n2)::move_to( n2 n3)::move_to( n3 n1)::move_to( n1 n2)::move_to( n2 n3)::move_to( n3 n1)::move_to( n1 n2)::move_to( n2 n3)::move_to( n3 n1)::move_to( n1 n2)::move_to( n2 n3)::move_to( n3 n1)::move_to( n1 n2)
move_to( n1 n2)
move_to( n1 n2)::move_to( n2 n3)::move_to( n3 n1)::move_to( n1 n2)::move_to( n2 n3)::move_to( n3 n1)::move_to( n1 n2)::move_to( n2 n3)::move_to( n3 n1)::move_to( n1 n2)::move_to( n2 n3)::move_to( n3 n1)
move_to( n1 n2)::move_to( n2 n3)::move_to( n3 n1)::move_to( n1 n2)::deliver( n2)::move_to( n2 n3)::move_to( n3 n1)::move_to( n1 n2)::move_to( n2 n3)::move_to( n3 n1)::move_to( n1 n2)::move_to( n2 n3)::move_to( n3 n1)::move_to( n1 n2)::move_to( n2 n3)::move_to( n3 n1)
move_to( n1 n2)::move_to( n2 n3)::move_to( n3 n1)::move_to( n1 n2)::deliver( n2)::move_to( n2 n3)::move_to( n3 n1)::move_to( n1 n2)::move_to( n2 n3)::move_to( n3 n1)::move_to( n1 n2)::move_to( n2 n3)::move_to( n3 n1)::move_to( n1 n2)
move_to( n1 n2)::deliver( n2)::move_to( n2 n3)::move_to( n3 n1)::move_to( n1 n2)::move_to( n2 n3)::move_to( n3 n1)
move_to( n1 n2)::move_to( n2 n3)::move_to( n3 n1)::move_to( n1 n2)::deliver( n2)::move_to( n2 n3)::move_to( n3 n1)::move_to( n1 n2)::move_to( n2 n3)::move_to( n3 n1)::move_to( n1 n2)::move_to( n2 n3)::move_to( n3 n1)::move_to( n1 n2)
move_to( n1 n2)::deliver( n2)::move_to( n2 n3)::move_to( n3 n1)::move_to( n1 n2)::move_to( n2 n3)::move_to( n3 n1)::move_to( n1 n2)::move_to( n2 n3)::move_to( n3 n1)::move_to( n1 n2)::move_to( n2 n3)::move_to( n3 n1)::move_to( n1 n2)::move_to( n2 n3)
move_to( n1 n2)::deliver( n2)::move_to( n2 n3)::move_to( n3 n1)::move_to( n1 n2)::move_to( n2 n3)::move_to( n3 n1)::move_to( n1 n2)::move_to( n2 n3)::move_to( n3 n1)::move_to( n1 n2)::move_to( n2 n3)
move_to( n1 n2)::move_to( n2 n3)::move_to( n3 n1)
move_to( n1 n2)::deliver( n2)::move_to( n2 n3)::move_to( n3 n1)::move_to( n1 n2)::move_to( n2 n3)::move_to( n3 n1)::move_to( n1 n2)
move_to( n1 n2)::move_to( n2 n3)::move_to( n3 n1)::move_to( n1 n2)::move_to( n2 n3)::move_to( n3 n1)::move_to( n1 n2)::move_to( n2 n3)::move_to( n3 n1)::move_to( n1 n2)::move_to( n2 n3)::move_to( n3 n1)
move_to( n1 n2)::move_to( n2 n3)::move_to( n3 n1)::move_to( n1 n2)::deliver( n2)
move_to( n1 n2)::move_to( n2 n3)::move_to( n3 n1)
move_to( n1 n2)::move_to( n2 n3)::move_to( n3 n1)::move_to( n1 n2)::deliver( n2)::move_to( n2 n3)::move_to( n3 n1)::move_to( n1 n2)::move_to( n2 n3)::move_to( n3 n1)::move_to( n1 n2)
move_to( n1 n2)::move_to( n2 n3)::move_to( n3 n1)::move_to( n1 n2)::move_to( n2 n3)::move_to( n3 n1)
move_to( n1 n2)::move_to( n2 n3)::move_to( n3 n1)::move_to( n1 n2)::deliver( n2)::move_to( n2 n3)::move_to( n3 n1)::move_to( n1 n2)::move_to( n2 n3)::move_to( n3 n1)::move_to( n1 n2)
move_to( n1 n2)::move_to( n2 n3)
move_to( n1 n2)::move_to( n2 n3)::move_to( n3 n1)::move_to( n1 n2)::deliver( n2)::move_to( n2 n3)::move_to( n3 n1)::move_to( n1 n2)::move_to( n2 n3)::move_to( n3 n1)
move_to( n1 n2)
move_to( n1 n2)::move_to( n2 n3)::move_to( n3 n1)::move_to( n1 n2)::deliver( n2)::move_to( n2 n3)::move_to( n3 n1)::move_to( n1 n2)::move_to( n2 n3)::move_to( n3 n1)::move_to( n1 n2)::move_to( n2 n3)::move_to( n3 n1)::move_to( n1 n2)::move_to( n2 n3)::move_to( n3 n1)
move_to( n1 n2)::move_to( n2 n3)::move_to( n3 n1)::move_to( n1 n2)::move_to( n2 n3)::move_to( n3 n1)::move_to( n1 n2)::move_to( n2 n3)::move_to( n3 n1)::move_to( n1 n2)::move_to( n2 n3)::move_to( n3 n1)::move_to( n1 n2)::deliver( n2)::move_to( n2 n3)::move_to( n3 n1)::move_to( n1 n2)
move_to( n1 n2)::move_to( n2 n3)::move_to( n3 n1)::move_to( n1 n2)::move_to( n2 n3)::move_to( n3 n1)::move_to( n1 n2)::deliver( n2)
move_to( n1 n2)::deliver( n2)
move_to( n1 n2)::deliver( n2)::move_to( n2 n3)::move_to( n3 n1)::move_to( n1 n2)::move_to( n2 n3)::move_to( n3 n1)::move_to( n1 n2)
move_to( n1 n2)::move_to( n2 n3)::move_to( n3 n1)::move_to( n1 n2)
move_to( n1 n2)
move_to( n1 n2)::deliver( n2)::move_to( n2 n3)
move_to( n1 n2)::move_to( n2 n3)::move_to( n3 n1)::move_to( n1 n2)::move_to( n2 n3)::move_to( n3 n1)
move_to( n1 n2)::deliver( n2)
move_to( n1 n2)::move_to( n2 n3)::move_to( n3 n1)::move_to( n1 n2)::deliver( n2)::move_to( n2 n3)::move_to( n3 n1)
move_to( n1 n2)::move_to( n2 n3)::move_to( n3 n1)::move_to( n1 n2)::deliver( n2)::move_to( n2 n3)::move_to( n3 n1)::move_to( n1 n2)::move_to( n2 n3)::move_to( n3 n1)::move_to( n1 n2)::move_to( n2 n3)::move_to( n3 n1)::move_to( n1 n2)::move_to( n2 n3)
move_to( n1 n2)::move_to( n2 n3)::move_to( n3 n1)::move_to( n1 n2)::deliver( n2)::move_to( n2 n3)::move_to( n3 n1)::move_to( n1 n2)::move_to( n2 n3)::move_to( n3 n1)::move_to( n1 n2)::move_to( n2 n3)::move_to( n3 n1)::move_to( n1 n2)::move_to( n2 n3)::move_to( n3 n1)
move_to( n1 n2)::deliver( n2)::move_to( n2 n3)::move_to( n3 n1)::move_to( n1 n2)::move_to( n2 n3)::move_to( n3 n1)::move_to( n1 n2)::move_to( n2 n3)::move_to( n3 n1)::move_to( n1 n2)::move_to( n2 n3)::move_to( n3 n1)::move_to( n1 n2)::move_to( n2 n3)::move_to( n3 n1)::move_to( n1 n2)::move_to( n2 n3)::move_to( n3 n1)
move_to( n1 n2)::deliver( n2)::move_to( n2 n3)::move_to( n3 n1)::move_to( n1 n2)::move_to( n2 n3)::move_to( n3 n1)::move_to( n1 n2)::move_to( n2 n3)::move_to( n3 n1)
move_to( n1 n2)::deliver( n2)::move_to( n2 n3)::move_to( n3 n1)::move_to( n1 n2)::move_to( n2 n3)
move_to( n1 n2)::deliver( n2)::move_to( n2 n3)::move_to( n3 n1)::move_to( n1 n2)::move_to( n2 n3)::move_to( n3 n1)::move_to( n1 n2)::move_to( n2 n3)::move_to( n3 n1)::move_to( n1 n2)::move_to( n2 n3)::move_to( n3 n1)::move_to( n1 n2)::move_to( n2 n3)::move_to( n3 n1)::move_to( n1 n2)::move_to( n2 n3)
move_to( n1 n2)::move_to( n2 n3)::move_to( n3 n1)::move_to( n1 n2)::deliver( n2)::move_to( n2 n3)
move_to( n1 n2)::deliver( n2)::move_to( n2 n3)
move_to( n1 n2)::deliver( n2)::move_to( n2 n3)::move_to( n3 n1)::move_to( n1 n2)
move_to( n1 n2)::deliver( n2)::move_to( n2 n3)::move_to( n3 n1)::move_to( n1 n2)::move_to( n2 n3)::move_to( n3 n1)::move_to( n1 n2)::move_to( n2 n3)::move_to( n3 n1)
move_to( n1 n2)::deliver( n2)::move_to( n2 n3)::move_to( n3 n1)::move_to( n1 n2)::move_to( n2 n3)::move_to( n3 n1)::move_to( n1 n2)
move_to( n1 n2)::deliver( n2)::move_to( n2 n3)::move_to( n3 n1)::move_to( n1 n2)::move_to( n2 n3)::move_to( n3 n1)::move_to( n1 n2)::move_to( n2 n3)::move_to( n3 n1)::move_to( n1 n2)
move_to( n1 n2)::move_to( n2 n3)::move_to( n3 n1)::move_to( n1 n2)::move_to( n2 n3)::move_to( n3 n1)
move_to( n1 n2)::move_to( n2 n3)::move_to( n3 n1)::move_to( n1 n2)
move_to( n1 n2)::move_to( n2 n3)::move_to( n3 n1)::move_to( n1 n2)::move_to( n2 n3)::move_to( n3 n1)::move_to( n1 n2)::deliver( n2)::move_to( n2 n3)::move_to( n3 n1)::move_to( n1 n2)::move_to( n2 n3)::move_to( n3 n1)::move_to( n1 n2)::move_to( n2 n3)
move_to( n1 n2)::deliver( n2)::move_to( n2 n3)::move_to( n3 n1)::move_to( n1 n2)::move_to( n2 n3)::move_to( n3 n1)::move_to( n1 n2)::move_to( n2 n3)::move_to( n3 n1)::move_to( n1 n2)::move_to( n2 n3)::move_to( n3 n1)::move_to( n1 n2)::move_to( n2 n3)::move_to( n3 n1)::move_to( n1 n2)::move_to( n2 n3)::move_to( n3 n1)
move_to( n1 n2)::deliver( n2)::move_to( n2 n3)::move_to( n3 n1)::move_to( n1 n2)::move_to( n2 n3)::move_to( n3 n1)::move_to( n1 n2)::move_to( n2 n3)::move_to( n3 n1)::move_to( n1 n2)::move_to( n2 n3)::move_to( n3 n1)::move_to( n1 n2)::move_to( n2 n3)
move_to( n1 n2)::move_to( n2 n3)::move_to( n3 n1)
move_to( n1 n2)
move_to( n1 n2)::deliver( n2)::move_to( n2 n3)::move_to( n3 n1)::move_to( n1 n2)::move_to( n2 n3)::move_to( n3 n1)::move_to( n1 n2)::move_to( n2 n3)::move_to( n3 n1)::move_to( n1 n2)::move_to( n2 n3)::move_to( n3 n1)::move_to( n1 n2)::move_to( n2 n3)::move_to( n3 n1)
move_to( n1 n2)::deliver( n2)::move_to( n2 n3)
move_to( n1 n2)::deliver( n2)::move_to( n2 n3)::move_to( n3 n1)::move_to( n1 n2)::move_to( n2 n3)::move_to( n3 n1)::move_to( n1 n2)::move_to( n2 n3)::move_to( n3 n1)::move_to( n1 n2)::move_to( n2 n3)::move_to( n3 n1)::move_to( n1 n2)::move_to( n2 n3)::move_to( n3 n1)::move_to( n1 n2)::move_to( n2 n3)
move_to( n1 n2)::deliver( n2)::move_to( n2 n3)::move_to( n3 n1)
move_to( n1 n2)::move_to( n2 n3)::move_to( n3 n1)::move_to( n1 n2)::move_to( n2 n3)::move_to( n3 n1)::move_to( n1 n2)
move_to( n1 n2)::move_to( n2 n3)::move_to( n3 n1)::move_to( n1 n2)::deliver( n2)::move_to( n2 n3)::move_to( n3 n1)::move_to( n1 n2)::move_to( n2 n3)::move_to( n3 n1)
move_to( n1 n2)::deliver( n2)::move_to( n2 n3)::move_to( n3 n1)
move_to( n1 n2)::move_to( n2 n3)::move_to( n3 n1)::move_to( n1 n2)::deliver( n2)::move_to( n2 n3)
move_to( n1 n2)::deliver( n2)::move_to( n2 n3)::move_to( n3 n1)::move_to( n1 n2)::move_to( n2 n3)::move_to( n3 n1)::move_to( n1 n2)::move_to( n2 n3)::move_to( n3 n1)::move_to( n1 n2)::move_to( n2 n3)::move_to( n3 n1)::move_to( n1 n2)::move_to( n2 n3)::move_to( n3 n1)::move_to( n1 n2)
move_to( n1 n2)::move_to( n2 n3)::move_to( n3 n1)::move_to( n1 n2)::deliver( n2)::move_to( n2 n3)::move_to( n3 n1)::move_to( n1 n2)::move_to( n2 n3)::move_to( n3 n1)::move_to( n1 n2)
move_to( n1 n2)::deliver( n2)::move_to( n2 n3)::move_to( n3 n1)::move_to( n1 n2)::move_to( n2 n3)::move_to( n3 n1)::move_to( n1 n2)::move_to( n2 n3)::move_to( n3 n1)::move_to( n1 n2)::move_to( n2 n3)::move_to( n3 n1)::move_to( n1 n2)::move_to( n2 n3)::move_to( n3 n1)
move_to( n1 n2)::deliver( n2)::move_to( n2 n3)::move_to( n3 n1)::move_to( n1 n2)::move_to( n2 n3)
move_to( n1 n2)::deliver( n2)::move_to( n2 n3)::move_to( n3 n1)::move_to( n1 n2)::move_to( n2 n3)::move_to( n3 n1)::move_to( n1 n2)::move_to( n2 n3)::move_to( n3 n1)::move_to( n1 n2)::move_to( n2 n3)::move_to( n3 n1)::move_to( n1 n2)::move_to( n2 n3)::move_to( n3 n1)::move_to( n1 n2)::move_to( n2 n3)
move_to( n1 n2)::move_to( n2 n3)
move_to( n1 n2)::deliver( n2)::move_to( n2 n3)::move_to( n3 n1)::move_to( n1 n2)::move_to( n2 n3)
move_to( n1 n2)::deliver( n2)::move_to( n2 n3)::move_to( n3 n1)::move_to( n1 n2)::move_to( n2 n3)::move_to( n3 n1)::move_to( n1 n2)::move_to( n2 n3)::move_to( n3 n1)::move_to( n1 n2)::move_to( n2 n3)::move_to( n3 n1)::move_to( n1 n2)::move_to( n2 n3)::move_to( n3 n1)::move_to( n1 n2)::move_to( n2 n3)
move_to( n1 n2)::move_to( n2 n3)::move_to( n3 n1)::move_to( n1 n2)::deliver( n2)::move_to( n2 n3)::move_to( n3 n1)::move_to( n1 n2)::move_to( n2 n3)::move_to( n3 n1)::move_to( n1 n2)::move_to( n2 n3)::move_to( n3 n1)::move_to( n1 n2)
move_to( n1 n2)::deliver( n2)
move_to( n1 n2)::move_to( n2 n3)::move_to( n3 n1)::move_to( n1 n2)::move_to( n2 n3)::move_to( n3 n1)::move_to( n1 n2)::deliver( n2)::move_to( n2 n3)::move_to( n3 n1)
move_to( n1 n2)::deliver( n2)
move_to( n1 n2)::deliver( n2)::move_to( n2 n3)::move_to( n3 n1)::move_to( n1 n2)::move_to( n2 n3)::move_to( n3 n1)::move_to( n1 n2)::move_to( n2 n3)::move_to( n3 n1)::move_to( n1 n2)::move_to( n2 n3)::move_to( n3 n1)::move_to( n1 n2)
move_to( n1 n2)::deliver( n2)::move_to( n2 n3)::move_to( n3 n1)::move_to( n1 n2)::move_to( n2 n3)::move_to( n3 n1)::move_to( n1 n2)::move_to( n2 n3)::move_to( n3 n1)::move_to( n1 n2)::move_to( n2 n3)::move_to( n3 n1)::move_to( n1 n2)::move_to( n2 n3)::move_to( n3 n1)::move_to( n1 n2)::move_to( n2 n3)
move_to( n1 n2)::move_to( n2 n3)::move_to( n3 n1)
move_to( n1 n2)::deliver( n2)
move_to( n1 n2)::move_to( n2 n3)::move_to( n3 n1)::move_to( n1 n2)::move_to( n2 n3)::move_to( n3 n1)::move_to( n1 n2)::deliver( n2)::move_to( n2 n3)::move_to( n3 n1)::move_to( n1 n2)::move_to( n2 n3)
move_to( n1 n2)::move_to( n2 n3)::move_to( n3 n1)::move_to( n1 n2)::deliver( n2)::move_to( n2 n3)::move_to( n3 n1)::move_to( n1 n2)::move_to( n2 n3)::move_to( n3 n1)::move_to( n1 n2)::move_to( n2 n3)::move_to( n3 n1)::move_to( n1 n2)::move_to( n2 n3)::move_to( n3 n1)
