move( t_3 p_1_1 p_2_1)::move( t_2 p_1_2 p_1_1)::move( t_2 p_1_1 p_1_2)::move( t_2 p_1_2 p_1_1)::move( t_2 p_1_1 p_1_2)::move( t_1 p_1_2 p_2_2)
move( t_2 p_1_2 p_2_2)::move( t_1 p_2_2 p_2_1)::move( t_2 p_2_2 p_2_1)::move( t_2 p_1_2 p_2_2)::move( t_2 p_2_2 p_1_2)::move( t_2 p_1_2 p_2_2)::move( t_3 p_1_1 p_1_2)::move( t_1 p_2_1 p_1_1)::move( t_2 p_2_1 p_1_1)::move( t_1 p_1_1 p_2_1)
move( t_3 p_1_2 p_2_2)::move( t_2 p_2_2 p_2_1)::move( t_3 p_1_1 p_2_1)::move( t_2 p_1_2 p_1_1)::move( t_2 p_1_1 p_1_2)::move( t_3 p_2_1 p_1_1)::move( t_3 p_1_1 p_2_1)::move( t_3 p_1_2 p_2_2)::move( t_2 p_1_2 p_1_1)
move( t_3 p_1_1 p_2_1)::move( t_3 p_2_1 p_1_1)::move( t_3 p_1_1 p_2_1)::move( t_3 p_2_1 p_1_1)::move( t_1 p_2_2 p_2_1)::move( t_1 p_2_1 p_2_2)::move( t_3 p_1_1 p_2_1)::move( t_2 p_1_2 p_1_1)::move( t_2 p_1_1 p_1_2)::move( t_2 p_1_2 p_1_1)::move( t_1 p_2_2 p_1_2)::move( t_3 p_2_1 p_2_2)::move( t_2 p_1_1 p_2_1)::move( t_2 p_1_1 p_1_2)
move( t_1 p_2_2 p_2_1)::move( t_1 p_2_1 p_2_2)::move( t_1 p_2_2 p_1_2)::move( t_1 p_2_2 p_2_1)::move( t_2 p_1_2 p_2_2)::move( t_3 p_1_1 p_1_2)::move( t_2 p_2_1 p_2_2)::move( t_3 p_1_2 p_1_1)::move( t_3 p_1_1 p_1_2)::move( t_3 p_1_2 p_1_1)
move( t_1 p_2_2 p_2_1)::move( t_2 p_1_2 p_2_2)::move( t_2 p_2_1 p_1_1)::move( t_3 p_1_1 p_1_2)::move( t_3 p_2_1 p_2_2)::move( t_3 p_1_2 p_1_1)::move( t_2 p_2_2 p_1_2)::move( t_1 p_2_1 p_2_2)::move( t_3 p_1_1 p_2_1)::move( t_2 p_2_1 p_1_1)
move( t_3 p_1_1 p_2_1)::move( t_2 p_2_2 p_1_2)::move( t_2 p_1_2 p_1_1)::move( t_3 p_2_2 p_1_2)::move( t_1 p_2_2 p_1_2)::move( t_1 p_1_2 p_2_2)::move( t_1 p_2_2 p_1_2)::move( t_1 p_1_2 p_2_2)::move( t_3 p_2_1 p_2_2)::move( t_3 p_2_1 p_2_2)
move( t_3 p_1_1 p_2_1)::move( t_1 p_2_1 p_1_1)
move( t_3 p_1_1 p_2_1)::move( t_2 p_1_2 p_1_1)::move( t_3 p_2_1 p_2_2)::move( t_2 p_2_2 p_2_1)::move( t_2 p_1_1 p_1_2)::move( t_3 p_2_1 p_1_1)
move( t_1 p_2_2 p_2_1)::move( t_1 p_2_1 p_2_2)::move( t_1 p_2_2 p_1_2)
move( t_3 p_1_1 p_2_1)::move( t_3 p_2_1 p_1_1)::move( t_1 p_2_2 p_2_1)::move( t_2 p_1_1 p_1_2)
move( t_2 p_1_1 p_2_1)
move( t_1 p_2_2 p_2_1)::move( t_2 p_1_2 p_2_2)::move( t_3 p_1_1 p_1_2)::move( t_1 p_2_1 p_1_1)::move( t_1 p_1_1 p_2_1)::move( t_3 p_1_2 p_1_1)::move( t_2 p_2_2 p_1_2)::move( t_2 p_1_2 p_2_2)::move( t_2 p_2_2 p_1_2)::move( t_2 p_1_2 p_2_2)::move( t_2 p_2_2 p_1_2)::move( t_1 p_2_1 p_2_2)::move( t_3 p_1_1 p_2_1)::move( t_2 p_1_2 p_1_1)::move( t_2 p_1_1 p_1_2)::move( t_2 p_1_2 p_1_1)::move( t_1 p_2_2 p_1_2)::move( t_1 p_2_2 p_2_1)
move( t_3 p_1_1 p_2_1)::move( t_3 p_2_1 p_1_1)::move( t_2 p_1_2 p_1_1)::move( t_3 p_1_1 p_2_1)::move( t_2 p_1_2 p_1_1)::move( t_1 p_2_2 p_1_2)::move( t_1 p_1_2 p_1_1)
move( t_1 p_2_2 p_2_1)::move( t_2 p_1_2 p_2_2)::move( t_3 p_1_1 p_1_2)::move( t_3 p_2_1 p_1_1)
move( t_1 p_2_1 p_1_1)::move( t_3 p_1_1 p_2_1)::move( t_3 p_2_1 p_1_1)::move( t_1 p_2_2 p_2_1)::move( t_1 p_2_1 p_2_2)::move( t_1 p_2_2 p_2_1)::move( t_2 p_1_2 p_2_2)
move( t_1 p_2_2 p_2_1)::move( t_2 p_1_2 p_2_2)::move( t_2 p_2_2 p_1_2)::move( t_2 p_1_2 p_2_2)::move( t_3 p_1_1 p_1_2)::move( t_3 p_1_2 p_1_1)::move( t_3 p_1_1 p_1_2)::move( t_1 p_2_2 p_2_1)
move( t_1 p_1_2 p_1_1)::move( t_3 p_1_1 p_2_1)
move( t_1 p_2_2 p_2_1)::move( t_3 p_2_1 p_2_2)::move( t_1 p_2_2 p_1_2)::move( t_2 p_1_2 p_2_2)::move( t_2 p_2_2 p_1_2)::move( t_1 p_1_2 p_1_1)::move( t_2 p_1_2 p_2_2)::move( t_3 p_1_1 p_1_2)
move( t_1 p_2_2 p_2_1)::move( t_1 p_2_1 p_2_2)::move( t_3 p_1_1 p_2_1)::move( t_3 p_2_1 p_1_1)::move( t_1 p_2_2 p_2_1)::move( t_1 p_2_1 p_2_2)::move( t_1 p_2_2 p_2_1)::move( t_3 p_2_1 p_2_2)
move( t_2 p_1_1 p_2_1)::move( t_3 p_1_1 p_2_1)
move( t_1 p_2_2 p_2_1)::move( t_1 p_1_1 p_1_2)::move( t_1 p_2_1 p_2_2)::move( t_3 p_1_2 p_1_1)::move( t_2 p_2_1 p_2_2)::move( t_3 p_1_2 p_1_1)::move( t_3 p_1_1 p_2_1)::move( t_2 p_1_2 p_1_1)::move( t_2 p_1_1 p_1_2)::move( t_3 p_2_1 p_1_1)
move( t_1 p_2_2 p_2_1)::move( t_2 p_1_2 p_2_2)::move( t_2 p_2_2 p_1_2)::move( t_2 p_1_2 p_2_2)::move( t_2 p_2_2 p_1_2)::move( t_2 p_2_2 p_1_2)
move( t_1 p_2_2 p_2_1)::move( t_1 p_2_1 p_2_2)::move( t_3 p_1_1 p_2_1)::move( t_3 p_2_1 p_1_1)::move( t_3 p_1_1 p_2_1)::move( t_2 p_2_1 p_2_2)
move( t_1 p_2_2 p_2_1)::move( t_2 p_1_2 p_2_2)::move( t_2 p_2_1 p_1_1)
move( t_3 p_1_1 p_2_1)::move( t_3 p_2_2 p_2_1)::move( t_2 p_1_2 p_1_1)::move( t_1 p_2_2 p_1_2)
move( t_2 p_2_1 p_1_1)::move( t_3 p_1_2 p_2_2)
move( t_1 p_2_1 p_1_1)::move( t_1 p_2_2 p_2_1)::move( t_3 p_1_1 p_1_2)::move( t_1 p_2_1 p_2_2)::move( t_1 p_1_2 p_1_1)::move( t_3 p_1_1 p_2_1)::move( t_1 p_1_2 p_2_2)::move( t_3 p_2_1 p_1_1)::move( t_3 p_1_1 p_2_1)
move( t_1 p_1_2 p_2_2)
move( t_3 p_1_1 p_2_1)::move( t_2 p_1_2 p_2_2)
move( t_1 p_2_2 p_2_1)::move( t_1 p_2_1 p_2_2)::move( t_3 p_1_2 p_1_1)
move( t_3 p_1_1 p_2_1)::move( t_3 p_2_1 p_1_1)::move( t_3 p_1_1 p_2_1)::move( t_2 p_1_2 p_1_1)::move( t_1 p_2_2 p_1_2)::move( t_1 p_1_2 p_2_2)::move( t_2 p_1_1 p_1_2)::move( t_3 p_2_1 p_1_1)::move( t_3 p_1_1 p_2_1)::move( t_3 p_2_1 p_1_1)::move( t_1 p_2_2 p_2_1)::move( t_1 p_2_1 p_2_2)::move( t_1 p_2_2 p_2_1)::move( t_2 p_1_2 p_2_2)::move( t_3 p_1_1 p_1_2)::move( t_2 p_1_2 p_2_2)
move( t_1 p_2_2 p_2_1)::move( t_1 p_2_1 p_2_2)::move( t_3 p_1_1 p_2_1)::move( t_3 p_2_1 p_1_1)::move( t_1 p_2_2 p_2_1)::move( t_1 p_2_1 p_2_2)::move( t_3 p_1_1 p_2_1)::move( t_2 p_1_2 p_1_1)::move( t_3 p_2_2 p_2_1)
move( t_1 p_2_2 p_2_1)::move( t_2 p_1_2 p_2_2)::move( t_2 p_2_2 p_1_2)::move( t_1 p_2_1 p_2_2)::move( t_1 p_2_2 p_2_1)::move( t_2 p_2_1 p_2_2)
move( t_3 p_1_1 p_2_1)::move( t_3 p_2_1 p_1_1)::move( t_3 p_1_1 p_2_1)::move( t_2 p_1_2 p_1_1)::move( t_1 p_2_2 p_1_2)::move( t_3 p_2_1 p_2_2)::move( t_3 p_2_2 p_2_1)::move( t_1 p_1_2 p_2_2)::move( t_1 p_1_2 p_2_2)
move( t_1 p_2_2 p_2_1)::move( t_2 p_1_2 p_2_2)::move( t_3 p_1_1 p_1_2)::move( t_3 p_1_2 p_1_1)::move( t_3 p_1_1 p_1_2)::move( t_3 p_1_2 p_1_1)::move( t_3 p_2_1 p_2_2)::move( t_3 p_1_1 p_1_2)::move( t_1 p_2_1 p_1_1)
move( t_2 p_1_1 p_1_2)::move( t_3 p_1_1 p_2_1)::move( t_3 p_2_1 p_1_1)::move( t_1 p_2_2 p_2_1)
move( t_3 p_1_1 p_2_1)::move( t_2 p_1_2 p_1_1)::move( t_1 p_2_2 p_1_2)::move( t_3 p_2_1 p_2_2)::move( t_3 p_1_2 p_2_2)::move( t_3 p_2_2 p_2_1)::move( t_3 p_2_1 p_2_2)::move( t_3 p_2_2 p_2_1)::move( t_1 p_1_2 p_2_2)
move( t_1 p_1_2 p_1_1)::move( t_1 p_2_2 p_2_1)::move( t_1 p_2_1 p_2_2)::move( t_3 p_1_2 p_1_1)::move( t_3 p_2_1 p_1_1)::move( t_1 p_2_2 p_2_1)
move( t_3 p_1_1 p_2_1)::move( t_2 p_1_2 p_1_1)::move( t_1 p_2_2 p_1_2)::move( t_3 p_1_1 p_2_1)
move( t_3 p_1_1 p_2_1)::move( t_2 p_1_2 p_1_1)::move( t_2 p_1_2 p_1_1)
move( t_1 p_2_2 p_1_2)::move( t_1 p_2_2 p_2_1)::move( t_2 p_1_2 p_2_2)::move( t_3 p_2_1 p_2_2)::move( t_2 p_2_2 p_1_2)
move( t_1 p_2_2 p_2_1)::move( t_2 p_1_2 p_2_2)::move( t_2 p_1_1 p_1_2)::move( t_1 p_2_2 p_1_2)::move( t_3 p_1_1 p_1_2)::move( t_1 p_2_1 p_2_2)::move( t_3 p_2_1 p_1_1)
move( t_3 p_1_1 p_2_1)::move( t_2 p_1_2 p_1_1)::move( t_2 p_1_1 p_1_2)::move( t_1 p_1_1 p_2_1)::move( t_2 p_1_2 p_1_1)::move( t_2 p_1_1 p_1_2)::move( t_3 p_2_1 p_1_1)::move( t_1 p_2_2 p_2_1)
move( t_1 p_2_2 p_2_1)::move( t_3 p_1_1 p_2_1)::move( t_1 p_2_1 p_2_2)
move( t_2 p_1_2 p_2_2)::move( t_1 p_2_2 p_2_1)::move( t_1 p_2_1 p_2_2)::move( t_1 p_2_2 p_2_1)::move( t_1 p_2_1 p_2_2)::move( t_1 p_2_2 p_2_1)::move( t_3 p_2_2 p_2_1)::move( t_3 p_2_2 p_1_2)::move( t_1 p_2_1 p_2_2)
move( t_2 p_1_1 p_2_1)::move( t_3 p_1_1 p_2_1)::move( t_2 p_1_2 p_1_1)::move( t_1 p_2_2 p_1_2)::move( t_1 p_1_1 p_2_1)::move( t_3 p_2_1 p_2_2)::move( t_2 p_1_1 p_2_1)
move( t_3 p_1_1 p_2_1)::move( t_2 p_1_2 p_1_1)::move( t_1 p_2_2 p_1_2)::move( t_1 p_1_2 p_2_2)::move( t_3 p_1_1 p_1_2)::move( t_2 p_1_1 p_1_2)
move( t_3 p_1_1 p_2_1)::move( t_3 p_2_1 p_1_1)::move( t_1 p_2_2 p_2_1)::move( t_2 p_1_2 p_2_2)::move( t_2 p_2_2 p_1_2)::move( t_1 p_2_1 p_2_2)::move( t_1 p_2_2 p_2_1)::move( t_2 p_1_2 p_2_2)::move( t_1 p_1_1 p_1_2)
move( t_3 p_1_1 p_2_1)::move( t_2 p_1_2 p_1_1)::move( t_3 p_2_1 p_2_2)::move( t_2 p_1_1 p_1_2)::move( t_3 p_2_1 p_1_1)::move( t_3 p_1_1 p_2_1)
move( t_1 p_2_2 p_2_1)::move( t_2 p_1_2 p_2_2)::move( t_3 p_1_1 p_1_2)::move( t_3 p_1_2 p_1_1)::move( t_2 p_1_1 p_2_1)
move( t_1 p_1_1 p_2_1)::move( t_1 p_2_2 p_2_1)::move( t_3 p_2_2 p_1_2)::move( t_1 p_2_1 p_2_2)::move( t_1 p_2_2 p_2_1)::move( t_1 p_2_1 p_2_2)
move( t_3 p_1_1 p_2_1)::move( t_2 p_1_1 p_2_1)::move( t_3 p_2_1 p_1_1)::move( t_3 p_1_1 p_2_1)::move( t_3 p_1_2 p_2_2)::move( t_2 p_1_2 p_1_1)::move( t_1 p_2_2 p_1_2)
move( t_1 p_2_2 p_2_1)::move( t_1 p_2_1 p_2_2)::move( t_3 p_1_1 p_2_1)::move( t_3 p_2_1 p_1_1)::move( t_1 p_2_2 p_2_1)::move( t_2 p_1_2 p_2_2)::move( t_2 p_2_2 p_1_2)::move( t_2 p_1_2 p_2_2)::move( t_3 p_1_1 p_1_2)::move( t_3 p_1_2 p_1_1)::move( t_3 p_1_1 p_1_2)::move( t_3 p_1_2 p_1_1)::move( t_2 p_2_2 p_1_2)::move( t_2 p_1_1 p_2_1)
move( t_1 p_2_2 p_2_1)::move( t_2 p_1_2 p_2_2)::move( t_3 p_1_1 p_1_2)::move( t_1 p_2_1 p_1_1)::move( t_2 p_2_1 p_1_1)
move( t_1 p_1_1 p_2_1)::move( t_1 p_2_2 p_2_1)::move( t_3 p_1_1 p_1_2)::move( t_2 p_1_2 p_2_2)::move( t_2 p_2_2 p_1_2)::move( t_1 p_2_1 p_2_2)
move( t_3 p_1_1 p_2_1)::move( t_3 p_2_1 p_1_1)::move( t_1 p_2_2 p_2_1)::move( t_1 p_2_1 p_2_2)::move( t_3 p_1_1 p_2_1)::move( t_3 p_2_1 p_1_1)::move( t_1 p_2_2 p_2_1)::move( t_1 p_2_1 p_2_2)::move( t_3 p_1_1 p_2_1)::move( t_3 p_2_1 p_1_1)::move( t_1 p_2_2 p_2_1)::move( t_2 p_1_2 p_2_2)::move( t_2 p_2_2 p_1_2)::move( t_1 p_2_1 p_2_2)::move( t_2 p_1_2 p_2_2)
move( t_3 p_1_1 p_2_1)::move( t_3 p_2_1 p_1_1)::move( t_3 p_1_1 p_2_1)::move( t_3 p_2_1 p_1_1)::move( t_3 p_1_1 p_2_1)::move( t_2 p_1_2 p_1_1)::move( t_3 p_1_1 p_1_2)
move( t_3 p_1_1 p_2_1)::move( t_1 p_2_2 p_1_2)::move( t_3 p_2_1 p_1_1)::move( t_3 p_1_1 p_2_1)::move( t_2 p_1_2 p_1_1)::move( t_2 p_1_1 p_1_2)
move( t_3 p_1_1 p_2_1)::move( t_2 p_1_2 p_1_1)::move( t_2 p_1_2 p_2_2)::move( t_1 p_1_2 p_1_1)::move( t_2 p_2_1 p_1_1)
move( t_1 p_2_2 p_2_1)::move( t_2 p_1_2 p_2_2)::move( t_3 p_1_1 p_1_2)::move( t_3 p_1_2 p_1_1)::move( t_2 p_1_2 p_1_1)
move( t_1 p_2_2 p_2_1)::move( t_1 p_2_1 p_2_2)::move( t_1 p_2_2 p_2_1)::move( t_2 p_1_2 p_2_2)::move( t_2 p_2_2 p_1_2)::move( t_2 p_1_2 p_2_2)::move( t_2 p_2_1 p_1_1)
move( t_1 p_2_2 p_2_1)::move( t_2 p_1_2 p_2_2)::move( t_2 p_1_2 p_2_2)::move( t_2 p_2_2 p_1_2)::move( t_3 p_2_1 p_2_2)
move( t_1 p_2_2 p_2_1)::move( t_2 p_1_2 p_2_2)::move( t_1 p_2_2 p_2_1)
move( t_3 p_1_1 p_2_1)::move( t_2 p_1_2 p_1_1)::move( t_2 p_1_1 p_1_2)::move( t_2 p_1_2 p_1_1)::move( t_2 p_1_1 p_1_2)::move( t_2 p_1_2 p_2_2)
move( t_1 p_2_2 p_2_1)::move( t_1 p_2_1 p_2_2)::move( t_3 p_1_1 p_2_1)::move( t_1 p_1_2 p_1_1)::move( t_3 p_2_1 p_1_1)
move( t_1 p_2_2 p_2_1)::move( t_2 p_1_2 p_2_2)::move( t_2 p_2_2 p_1_2)::move( t_2 p_1_2 p_1_1)
move( t_1 p_2_2 p_2_1)::move( t_2 p_1_1 p_1_2)
move( t_1 p_2_2 p_2_1)::move( t_1 p_2_1 p_2_2)::move( t_1 p_2_2 p_2_1)::move( t_1 p_2_1 p_2_2)::move( t_1 p_2_2 p_2_1)::move( t_2 p_1_2 p_2_2)::move( t_3 p_1_1 p_1_2)::move( t_3 p_1_2 p_1_1)::move( t_1 p_2_2 p_1_2)
move( t_3 p_1_1 p_2_1)::move( t_2 p_1_2 p_1_1)::move( t_1 p_1_2 p_1_1)::move( t_2 p_1_1 p_1_2)::move( t_2 p_1_2 p_1_1)
move( t_3 p_1_1 p_2_1)::move( t_1 p_2_1 p_1_1)::move( t_3 p_2_1 p_1_1)::move( t_3 p_1_1 p_2_1)::move( t_2 p_1_2 p_1_1)
move( t_3 p_1_1 p_2_1)::move( t_1 p_2_2 p_1_2)::move( t_2 p_1_2 p_1_1)::move( t_2 p_1_1 p_1_2)::move( t_2 p_1_2 p_1_1)::move( t_1 p_2_2 p_1_2)
move( t_3 p_1_1 p_2_1)::move( t_3 p_2_1 p_1_1)::move( t_2 p_2_2 p_1_2)
move( t_1 p_2_2 p_2_1)::move( t_1 p_2_1 p_2_2)::move( t_3 p_1_1 p_2_1)::move( t_2 p_1_2 p_1_1)::move( t_1 p_1_2 p_2_2)::move( t_1 p_1_2 p_2_2)::move( t_1 p_2_2 p_1_2)
move( t_3 p_2_1 p_1_1)
move( t_1 p_2_2 p_2_1)::move( t_1 p_2_1 p_2_2)::move( t_3 p_1_1 p_2_1)::move( t_1 p_1_1 p_2_1)
move( t_3 p_1_1 p_2_1)::move( t_2 p_1_2 p_1_1)::move( t_1 p_2_2 p_1_2)::move( t_3 p_2_1 p_2_2)::move( t_2 p_1_1 p_2_1)::move( t_2 p_2_1 p_1_1)::move( t_3 p_2_2 p_2_1)::move( t_1 p_1_2 p_2_2)::move( t_1 p_1_1 p_2_1)
move( t_1 p_2_1 p_1_1)
move( t_2 p_1_2 p_1_1)::move( t_3 p_1_1 p_2_1)::move( t_2 p_1_2 p_1_1)::move( t_1 p_2_2 p_1_2)::move( t_1 p_1_2 p_2_2)::move( t_1 p_2_2 p_1_2)::move( t_1 p_1_2 p_2_2)
move( t_2 p_2_1 p_1_1)::move( t_3 p_1_1 p_2_1)::move( t_2 p_1_2 p_1_1)
move( t_3 p_1_1 p_2_1)::move( t_2 p_1_2 p_1_1)::move( t_2 p_1_1 p_1_2)::move( t_2 p_1_2 p_1_1)::move( t_1 p_2_2 p_1_2)::move( t_3 p_2_1 p_2_2)::move( t_3 p_2_2 p_2_1)::move( t_3 p_2_2 p_1_2)::move( t_1 p_1_1 p_1_2)
move( t_1 p_2_2 p_2_1)::move( t_2 p_1_2 p_1_1)::move( t_1 p_2_1 p_2_2)::move( t_1 p_2_2 p_2_1)::move( t_2 p_1_2 p_2_2)::move( t_3 p_1_1 p_1_2)::move( t_1 p_2_1 p_1_1)
move( t_1 p_2_2 p_2_1)::move( t_2 p_1_2 p_2_2)::move( t_3 p_1_1 p_1_2)::move( t_1 p_2_1 p_1_1)::move( t_1 p_1_1 p_2_1)::move( t_2 p_2_2 p_1_2)::move( t_1 p_2_1 p_1_1)::move( t_2 p_2_2 p_2_1)::move( t_2 p_2_1 p_2_2)::move( t_1 p_1_1 p_2_1)
move( t_1 p_2_2 p_2_1)::move( t_2 p_1_2 p_2_2)::move( t_2 p_2_2 p_1_2)::move( t_2 p_1_2 p_2_2)::move( t_2 p_2_2 p_1_2)::move( t_2 p_1_1 p_1_2)
move( t_3 p_1_1 p_2_1)::move( t_3 p_2_1 p_1_1)::move( t_3 p_1_1 p_2_1)::move( t_3 p_2_1 p_1_1)::move( t_1 p_2_2 p_2_1)::move( t_2 p_1_2 p_2_2)::move( t_2 p_2_2 p_1_2)::move( t_1 p_2_1 p_2_2)::move( t_1 p_2_2 p_2_1)::move( t_1 p_2_1 p_2_2)::move( t_3 p_1_1 p_2_1)::move( t_2 p_2_2 p_1_2)
move( t_1 p_2_2 p_2_1)::move( t_2 p_1_2 p_2_2)::move( t_1 p_2_2 p_1_2)::move( t_3 p_1_1 p_2_1)
move( t_3 p_1_1 p_2_1)::move( t_2 p_1_2 p_1_1)::move( t_2 p_1_1 p_1_2)::move( t_2 p_1_2 p_1_1)::move( t_1 p_2_2 p_1_2)::move( t_1 p_1_2 p_2_2)::move( t_2 p_1_1 p_1_2)::move( t_2 p_1_2 p_2_2)
move( t_3 p_1_1 p_2_1)::move( t_2 p_2_2 p_1_2)::move( t_2 p_1_2 p_1_1)::move( t_2 p_1_1 p_1_2)::move( t_2 p_1_1 p_2_1)::move( t_3 p_2_1 p_2_2)
move( t_2 p_2_1 p_2_2)::move( t_3 p_1_1 p_2_1)::move( t_3 p_2_1 p_1_1)::move( t_3 p_1_1 p_1_2)::move( t_1 p_2_2 p_2_1)::move( t_1 p_2_1 p_2_2)::move( t_3 p_1_1 p_2_1)::move( t_2 p_2_1 p_2_2)::move( t_2 p_1_2 p_1_1)::move( t_2 p_1_1 p_1_2)
move( t_3 p_2_2 p_2_1)::move( t_2 p_1_2 p_1_1)::move( t_1 p_2_2 p_2_1)::move( t_2 p_1_2 p_2_2)::move( t_1 p_1_1 p_1_2)::move( t_3 p_1_1 p_1_2)
move( t_3 p_1_1 p_2_1)::move( t_2 p_1_2 p_1_1)::move( t_1 p_2_2 p_1_2)::move( t_3 p_2_1 p_2_2)::move( t_3 p_2_2 p_1_2)
move( t_3 p_1_1 p_2_1)::move( t_2 p_2_2 p_1_2)::move( t_3 p_2_1 p_1_1)::move( t_3 p_1_1 p_2_1)::move( t_2 p_1_2 p_2_2)::move( t_2 p_1_2 p_1_1)::move( t_1 p_2_2 p_1_2)
move( t_3 p_1_1 p_2_1)::move( t_3 p_2_1 p_1_1)::move( t_3 p_1_1 p_2_1)::move( t_2 p_1_2 p_1_1)::move( t_1 p_2_2 p_1_2)::move( t_3 p_2_1 p_2_2)::move( t_2 p_1_1 p_2_1)::move( t_2 p_2_1 p_1_1)::move( t_3 p_2_2 p_2_1)::move( t_3 p_2_1 p_2_2)::move( t_2 p_1_1 p_2_1)::move( t_1 p_1_2 p_1_1)::move( t_1 p_1_1 p_1_2)::move( t_1 p_1_2 p_1_1)::move( t_3 p_2_2 p_1_2)::move( t_2 p_2_1 p_2_2)::move( t_3 p_2_2 p_2_1)
move( t_3 p_2_1 p_2_2)::move( t_1 p_2_2 p_2_1)::move( t_2 p_1_2 p_2_2)::move( t_3 p_1_1 p_1_2)::move( t_1 p_2_1 p_1_1)
move( t_1 p_2_2 p_2_1)::move( t_3 p_2_1 p_1_1)::move( t_1 p_2_1 p_2_2)::move( t_2 p_1_1 p_2_1)
move( t_2 p_2_1 p_2_2)
move( t_3 p_1_1 p_1_2)::move( t_1 p_2_2 p_2_1)::move( t_3 p_2_1 p_1_1)::move( t_1 p_2_1 p_2_2)
move( t_2 p_1_2 p_1_1)::move( t_3 p_1_1 p_2_1)::move( t_2 p_1_2 p_1_1)::move( t_2 p_1_1 p_1_2)::move( t_2 p_1_2 p_1_1)
move( t_1 p_2_2 p_2_1)::move( t_1 p_2_1 p_2_2)::move( t_3 p_1_1 p_2_1)::move( t_2 p_1_2 p_1_1)::move( t_2 p_1_2 p_1_1)
move( t_3 p_1_1 p_2_1)::move( t_1 p_2_2 p_2_1)
move( t_3 p_1_1 p_2_1)::move( t_3 p_2_1 p_1_1)::move( t_1 p_2_2 p_2_1)::move( t_1 p_2_1 p_2_2)::move( t_1 p_2_2 p_2_1)::move( t_2 p_1_2 p_2_2)::move( t_3 p_1_1 p_1_2)::move( t_3 p_1_2 p_1_1)::move( t_3 p_1_1 p_1_2)::move( t_3 p_1_2 p_1_1)::move( t_3 p_1_1 p_1_2)::move( t_3 p_1_2 p_1_1)::move( t_2 p_2_2 p_1_2)::move( t_3 p_2_1 p_1_1)
move( t_1 p_2_1 p_1_1)::move( t_3 p_1_1 p_2_1)::move( t_3 p_1_1 p_2_1)::move( t_2 p_2_2 p_2_1)
move( t_1 p_2_2 p_2_1)::move( t_2 p_1_2 p_2_2)::move( t_2 p_2_2 p_1_2)::move( t_1 p_2_1 p_1_1)
move( t_3 p_1_1 p_2_1)::move( t_2 p_1_2 p_1_1)::move( t_1 p_2_2 p_1_2)::move( t_1 p_1_2 p_2_2)::move( t_2 p_1_1 p_1_2)::move( t_2 p_1_2 p_1_1)::move( t_1 p_2_2 p_2_1)
move( t_1 p_2_2 p_2_1)::move( t_1 p_1_1 p_2_1)
move( t_3 p_2_1 p_1_1)::move( t_3 p_1_1 p_2_1)
move( t_2 p_2_2 p_2_1)::move( t_1 p_2_2 p_2_1)
move( t_1 p_2_2 p_2_1)::move( t_1 p_2_1 p_1_1)::move( t_3 p_1_2 p_2_2)
move( t_3 p_1_1 p_2_1)::move( t_2 p_1_2 p_1_1)::move( t_1 p_2_2 p_1_2)::move( t_1 p_1_1 p_2_1)::move( t_1 p_1_2 p_2_2)::move( t_2 p_1_1 p_1_2)::move( t_2 p_1_2 p_1_1)
move( t_1 p_2_2 p_2_1)::move( t_2 p_1_2 p_2_2)::move( t_3 p_2_1 p_2_2)::move( t_2 p_2_2 p_1_2)::move( t_2 p_1_2 p_2_2)::move( t_3 p_1_1 p_1_2)
move( t_1 p_2_2 p_2_1)::move( t_1 p_2_1 p_2_2)::move( t_3 p_1_1 p_2_1)::move( t_3 p_2_1 p_1_1)::move( t_3 p_1_1 p_2_1)::move( t_2 p_2_1 p_1_1)
move( t_1 p_2_2 p_2_1)::move( t_1 p_2_1 p_2_2)::move( t_3 p_1_1 p_1_2)
move( t_1 p_2_2 p_2_1)::move( t_2 p_1_2 p_2_2)::move( t_3 p_1_1 p_1_2)::move( t_1 p_2_1 p_1_1)::move( t_1 p_1_1 p_2_1)::move( t_2 p_1_2 p_1_1)::move( t_1 p_2_1 p_1_1)
move( t_1 p_2_2 p_2_1)::move( t_1 p_2_1 p_2_2)::move( t_3 p_1_1 p_2_1)::move( t_2 p_1_1 p_1_2)::move( t_2 p_1_2 p_1_1)
move( t_1 p_2_2 p_2_1)::move( t_1 p_2_1 p_2_2)::move( t_3 p_1_1 p_2_1)::move( t_2 p_1_2 p_1_1)::move( t_2 p_1_1 p_1_2)::move( t_3 p_2_1 p_1_1)::move( t_1 p_2_2 p_2_1)::move( t_1 p_2_2 p_2_1)
move( t_3 p_2_2 p_1_2)::move( t_1 p_2_2 p_2_1)::move( t_1 p_2_1 p_2_2)::move( t_3 p_1_1 p_2_1)::move( t_3 p_2_1 p_1_1)::move( t_1 p_2_2 p_2_1)::move( t_2 p_1_2 p_2_2)::move( t_2 p_2_2 p_1_2)::move( t_3 p_2_2 p_2_1)::move( t_1 p_2_1 p_2_2)
move( t_1 p_2_2 p_2_1)::move( t_1 p_2_1 p_2_2)::move( t_1 p_2_2 p_2_1)::move( t_2 p_1_2 p_2_2)::move( t_3 p_1_1 p_1_2)::move( t_1 p_2_1 p_1_1)::move( t_1 p_1_1 p_2_1)::move( t_1 p_2_1 p_1_1)::move( t_2 p_2_2 p_2_1)::move( t_2 p_2_1 p_2_2)::move( t_2 p_2_2 p_2_1)::move( t_2 p_2_1 p_2_2)::move( t_1 p_1_1 p_2_1)::move( t_3 p_1_2 p_1_1)::move( t_2 p_2_2 p_1_2)::move( t_1 p_2_1 p_2_2)::move( t_1 p_2_2 p_2_1)::move( t_1 p_2_1 p_2_2)::move( t_3 p_1_1 p_2_1)::move( t_3 p_2_1 p_1_1)::move( t_3 p_1_1 p_2_1)::move( t_2 p_2_2 p_2_1)
move( t_1 p_2_2 p_2_1)::move( t_1 p_2_2 p_1_2)::move( t_2 p_1_2 p_2_2)::move( t_3 p_1_1 p_1_2)::move( t_3 p_1_2 p_1_1)
move( t_3 p_1_1 p_2_1)::move( t_3 p_2_1 p_1_1)::move( t_3 p_1_1 p_2_1)::move( t_2 p_1_2 p_1_1)::move( t_2 p_1_1 p_1_2)::move( t_3 p_2_1 p_1_1)::move( t_3 p_1_1 p_2_1)::move( t_2 p_1_2 p_1_1)::move( t_2 p_1_1 p_1_2)::move( t_3 p_2_1 p_1_1)::move( t_3 p_1_1 p_2_1)::move( t_3 p_2_1 p_1_1)::move( t_3 p_1_1 p_2_1)::move( t_3 p_2_1 p_1_1)::move( t_1 p_2_2 p_2_1)::move( t_1 p_2_1 p_2_2)::move( t_3 p_1_1 p_2_1)::move( t_2 p_1_2 p_1_1)::move( t_1 p_2_2 p_2_1)
move( t_1 p_1_1 p_1_2)::move( t_1 p_2_2 p_1_2)::move( t_3 p_1_1 p_2_1)::move( t_2 p_1_2 p_1_1)::move( t_2 p_1_1 p_1_2)::move( t_3 p_1_1 p_1_2)::move( t_3 p_2_1 p_1_1)::move( t_1 p_2_2 p_2_1)::move( t_2 p_1_2 p_2_2)::move( t_2 p_2_2 p_2_1)
move( t_3 p_1_1 p_2_1)::move( t_2 p_1_2 p_1_1)::move( t_1 p_2_2 p_1_2)::move( t_3 p_2_1 p_2_2)::move( t_3 p_2_2 p_1_2)
move( t_1 p_2_2 p_2_1)::move( t_2 p_1_2 p_2_2)::move( t_3 p_1_1 p_1_2)::move( t_3 p_1_2 p_1_1)::move( t_2 p_2_2 p_1_2)::move( t_2 p_1_2 p_2_2)::move( t_2 p_2_2 p_1_2)::move( t_2 p_1_2 p_2_2)::move( t_2 p_1_2 p_2_2)
move( t_3 p_1_1 p_2_1)::move( t_3 p_2_1 p_1_1)::move( t_3 p_1_1 p_2_1)::move( t_2 p_1_2 p_1_1)::move( t_2 p_1_1 p_1_2)::move( t_3 p_2_1 p_1_1)::move( t_1 p_2_2 p_2_1)::move( t_3 p_2_2 p_2_1)
move( t_1 p_2_2 p_2_1)::move( t_1 p_2_1 p_2_2)::move( t_3 p_1_1 p_2_1)::move( t_2 p_1_2 p_1_1)::move( t_2 p_1_1 p_1_2)::move( t_3 p_2_1 p_1_1)::move( t_1 p_2_2 p_2_1)::move( t_2 p_1_2 p_2_2)::move( t_3 p_1_1 p_1_2)::move( t_1 p_2_1 p_1_1)::move( t_1 p_1_1 p_2_1)::move( t_1 p_2_1 p_2_2)
move( t_1 p_2_2 p_2_1)::move( t_1 p_2_1 p_2_2)::move( t_3 p_1_1 p_2_1)::move( t_2 p_2_2 p_2_1)::move( t_2 p_1_2 p_1_1)::move( t_1 p_2_2 p_1_2)::move( t_1 p_1_2 p_2_2)::move( t_2 p_1_1 p_1_2)::move( t_2 p_1_2 p_1_1)::move( t_2 p_1_1 p_1_2)
move( t_3 p_1_1 p_2_1)::move( t_3 p_2_1 p_1_1)::move( t_3 p_1_1 p_2_1)::move( t_2 p_1_2 p_1_1)::move( t_2 p_1_1 p_1_2)::move( t_2 p_1_2 p_1_1)::move( t_1 p_2_2 p_1_2)::move( t_3 p_2_1 p_2_2)::move( t_3 p_2_2 p_2_1)::move( t_1 p_1_2 p_2_2)::move( t_1 p_2_2 p_1_2)::move( t_1 p_1_2 p_2_2)::move( t_1 p_2_2 p_1_2)::move( t_3 p_2_1 p_2_2)::move( t_3 p_2_2 p_2_1)::move( t_1 p_1_2 p_2_2)::move( t_1 p_2_2 p_1_2)::move( t_1 p_1_2 p_2_2)::move( t_1 p_2_2 p_1_2)::move( t_1 p_1_2 p_2_2)::move( t_2 p_1_1 p_1_2)::move( t_3 p_2_1 p_1_1)::move( t_1 p_2_2 p_2_1)::move( t_2 p_1_2 p_2_2)::move( t_2 p_2_2 p_1_2)::move( t_2 p_1_2 p_2_2)::move( t_2 p_2_2 p_1_2)::move( t_1 p_2_1 p_2_2)::move( t_3 p_1_1 p_2_1)::move( t_3 p_2_1 p_1_1)::move( t_1 p_2_2 p_2_1)::move( t_2 p_1_1 p_2_1)
move( t_3 p_1_1 p_2_1)::move( t_3 p_2_1 p_1_1)::move( t_3 p_2_1 p_2_2)::move( t_3 p_1_2 p_1_1)::move( t_1 p_2_2 p_2_1)
move( t_1 p_2_2 p_2_1)::move( t_2 p_1_2 p_2_2)::move( t_2 p_2_2 p_1_2)::move( t_2 p_2_1 p_1_1)::move( t_1 p_2_1 p_2_2)::move( t_1 p_2_2 p_2_1)::move( t_1 p_2_1 p_2_2)::move( t_1 p_2_1 p_1_1)::move( t_2 p_2_1 p_2_2)
move( t_1 p_2_2 p_2_1)::move( t_1 p_2_1 p_2_2)::move( t_3 p_1_1 p_2_1)::move( t_1 p_2_2 p_1_2)::move( t_2 p_1_2 p_1_1)::move( t_1 p_2_1 p_2_2)
move( t_1 p_2_2 p_2_1)::move( t_1 p_2_1 p_2_2)::move( t_1 p_2_2 p_2_1)::move( t_1 p_2_1 p_2_2)::move( t_3 p_1_1 p_2_1)::move( t_2 p_1_2 p_1_1)::move( t_2 p_1_1 p_1_2)::move( t_3 p_2_1 p_1_1)::move( t_1 p_2_2 p_2_1)::move( t_1 p_2_1 p_2_2)::move( t_3 p_1_1 p_2_1)::move( t_3 p_2_1 p_1_1)::move( t_1 p_2_2 p_2_1)::move( t_2 p_1_2 p_2_2)::move( t_2 p_2_2 p_1_2)::move( t_2 p_1_2 p_2_2)::move( t_3 p_1_1 p_1_2)::move( t_1 p_2_1 p_1_1)::move( t_1 p_2_1 p_1_1)
move( t_3 p_1_1 p_2_1)::move( t_3 p_2_1 p_1_1)::move( t_1 p_2_2 p_2_1)::move( t_1 p_2_1 p_2_2)::move( t_1 p_2_2 p_2_1)::move( t_1 p_2_1 p_2_2)::move( t_3 p_1_1 p_2_1)::move( t_1 p_1_1 p_2_1)
move( t_1 p_2_1 p_1_1)::move( t_1 p_2_2 p_2_1)::move( t_1 p_2_1 p_2_2)::move( t_3 p_1_1 p_2_1)::move( t_2 p_1_2 p_1_1)::move( t_1 p_2_2 p_1_2)::move( t_1 p_1_1 p_2_1)::move( t_1 p_1_2 p_2_2)::move( t_3 p_1_1 p_1_2)
move( t_1 p_2_2 p_2_1)::move( t_1 p_2_1 p_2_2)::move( t_3 p_1_1 p_2_1)::move( t_2 p_1_2 p_1_1)::move( t_1 p_2_2 p_1_2)::move( t_1 p_2_1 p_1_1)
move( t_1 p_2_2 p_2_1)::move( t_1 p_2_2 p_1_2)::move( t_2 p_1_2 p_2_2)::move( t_3 p_1_1 p_1_2)::move( t_3 p_1_2 p_1_1)::move( t_2 p_2_2 p_1_2)::move( t_2 p_1_2 p_2_2)::move( t_2 p_2_2 p_1_2)::move( t_1 p_2_1 p_2_2)
move( t_2 p_1_1 p_1_2)
move( t_3 p_1_1 p_2_1)::move( t_3 p_2_1 p_1_1)::move( t_1 p_1_1 p_2_1)::move( t_3 p_1_1 p_2_1)::move( t_2 p_1_2 p_1_1)::move( t_2 p_1_1 p_1_2)::move( t_2 p_1_2 p_1_1)::move( t_1 p_2_2 p_1_2)
move( t_3 p_1_1 p_2_1)::move( t_2 p_1_2 p_1_1)::move( t_1 p_2_2 p_2_1)::move( t_1 p_1_2 p_2_2)
move( t_3 p_1_2 p_1_1)::move( t_1 p_2_2 p_2_1)::move( t_3 p_1_1 p_2_1)::move( t_2 p_1_2 p_2_2)::move( t_2 p_2_1 p_2_2)::move( t_2 p_2_2 p_1_2)::move( t_1 p_2_1 p_2_2)::move( t_1 p_2_2 p_2_1)
move( t_1 p_2_2 p_2_1)::move( t_2 p_1_2 p_2_2)::move( t_3 p_1_1 p_1_2)::move( t_3 p_1_2 p_1_1)::move( t_3 p_1_1 p_1_2)::move( t_3 p_1_2 p_1_1)::move( t_3 p_1_1 p_1_2)::move( t_3 p_1_2 p_1_1)::move( t_2 p_2_2 p_1_2)::move( t_3 p_1_2 p_2_2)
move( t_3 p_1_1 p_2_1)::move( t_3 p_2_1 p_1_1)::move( t_2 p_1_2 p_2_2)::move( t_1 p_2_2 p_2_1)::move( t_1 p_2_1 p_2_2)::move( t_1 p_2_2 p_2_1)::move( t_2 p_1_1 p_1_2)::move( t_2 p_1_2 p_2_2)::move( t_2 p_2_2 p_1_2)::move( t_2 p_1_2 p_2_2)
move( t_1 p_2_2 p_2_1)::move( t_1 p_2_1 p_2_2)::move( t_3 p_1_1 p_2_1)::move( t_2 p_1_2 p_1_1)::move( t_1 p_2_2 p_1_2)::move( t_3 p_2_1 p_2_2)::move( t_3 p_2_2 p_2_1)::move( t_1 p_1_1 p_1_2)
move( t_3 p_1_1 p_2_1)::move( t_3 p_2_1 p_1_1)::move( t_1 p_2_2 p_2_1)::move( t_1 p_2_1 p_2_2)::move( t_2 p_1_2 p_2_2)
move( t_3 p_1_1 p_2_1)::move( t_3 p_2_1 p_1_1)::move( t_1 p_2_2 p_2_1)::move( t_2 p_1_2 p_2_2)::move( t_2 p_2_2 p_1_2)::move( t_1 p_2_1 p_2_2)::move( t_3 p_1_1 p_2_1)::move( t_3 p_1_1 p_1_2)
move( t_1 p_2_2 p_2_1)::move( t_1 p_2_1 p_2_2)::move( t_1 p_2_2 p_2_1)::move( t_2 p_1_2 p_2_2)::move( t_3 p_1_1 p_1_2)::move( t_1 p_2_1 p_1_1)::move( t_2 p_1_2 p_1_1)
move( t_3 p_1_1 p_2_1)::move( t_2 p_1_2 p_1_1)::move( t_1 p_2_2 p_1_2)::move( t_3 p_1_2 p_1_1)::move( t_3 p_2_1 p_2_2)::move( t_2 p_1_1 p_2_1)::move( t_2 p_2_1 p_1_1)::move( t_2 p_1_1 p_2_1)
move( t_1 p_2_2 p_2_1)::move( t_2 p_1_2 p_2_2)::move( t_2 p_2_2 p_1_2)::move( t_2 p_1_2 p_2_2)::move( t_3 p_1_1 p_1_2)::move( t_3 p_1_2 p_1_1)::move( t_2 p_2_2 p_1_2)::move( t_2 p_1_2 p_2_2)::move( t_3 p_1_1 p_1_2)::move( t_1 p_2_1 p_1_1)::move( t_1 p_1_1 p_2_1)::move( t_1 p_2_1 p_1_1)::move( t_2 p_2_2 p_1_2)
move( t_1 p_2_2 p_2_1)::move( t_1 p_2_1 p_2_2)::move( t_1 p_1_2 p_2_2)::move( t_1 p_2_2 p_2_1)::move( t_1 p_1_2 p_2_2)::move( t_1 p_1_2 p_1_1)::move( t_2 p_1_2 p_2_2)::move( t_3 p_2_1 p_1_1)::move( t_2 p_2_2 p_1_2)
move( t_3 p_1_1 p_2_1)::move( t_2 p_1_1 p_2_1)::move( t_3 p_2_1 p_1_1)::move( t_3 p_1_1 p_2_1)
move( t_3 p_1_1 p_2_1)::move( t_3 p_2_1 p_1_1)::move( t_3 p_1_1 p_2_1)::move( t_2 p_2_2 p_2_1)
move( t_3 p_1_1 p_2_1)::move( t_3 p_2_1 p_1_1)::move( t_3 p_1_1 p_2_1)::move( t_3 p_2_1 p_1_1)::move( t_1 p_2_2 p_2_1)::move( t_2 p_1_2 p_2_2)::move( t_2 p_2_2 p_1_2)::move( t_3 p_1_2 p_2_2)
move( t_3 p_1_1 p_2_1)::move( t_2 p_1_2 p_1_1)::move( t_2 p_1_1 p_1_2)::move( t_3 p_1_2 p_2_2)::move( t_1 p_1_2 p_1_1)::move( t_2 p_1_2 p_1_1)::move( t_1 p_2_2 p_1_2)::move( t_3 p_2_1 p_2_2)::move( t_3 p_2_2 p_2_1)
move( t_3 p_1_1 p_2_1)::move( t_2 p_1_1 p_2_1)::move( t_2 p_1_2 p_1_1)::move( t_3 p_1_1 p_2_1)::move( t_2 p_1_1 p_1_2)::move( t_2 p_1_2 p_1_1)::move( t_2 p_2_2 p_1_2)
move( t_3 p_1_1 p_2_1)::move( t_2 p_1_2 p_1_1)::move( t_2 p_1_1 p_1_2)::move( t_3 p_2_2 p_1_2)
move( t_3 p_1_1 p_2_1)::move( t_3 p_2_1 p_1_1)::move( t_1 p_2_2 p_2_1)::move( t_2 p_1_2 p_2_2)::move( t_2 p_2_2 p_1_2)::move( t_2 p_1_2 p_2_2)::move( t_3 p_1_1 p_1_2)::move( t_1 p_2_1 p_1_1)::move( t_2 p_1_1 p_2_1)
move( t_3 p_1_1 p_2_1)::move( t_2 p_1_2 p_1_1)::move( t_1 p_2_2 p_1_2)::move( t_3 p_2_1 p_2_2)::move( t_2 p_2_2 p_1_2)::move( t_1 p_2_2 p_2_1)::move( t_2 p_1_1 p_2_1)
move( t_1 p_2_2 p_2_1)::move( t_1 p_1_1 p_2_1)
move( t_2 p_1_2 p_1_1)::move( t_1 p_2_2 p_2_1)::move( t_3 p_1_1 p_2_1)
move( t_1 p_2_2 p_2_1)::move( t_1 p_2_1 p_2_2)::move( t_2 p_1_2 p_1_1)
move( t_1 p_2_2 p_2_1)::move( t_2 p_1_2 p_2_2)::move( t_3 p_2_1 p_2_2)::move( t_2 p_2_2 p_1_2)::move( t_1 p_1_1 p_1_2)::move( t_1 p_2_1 p_2_2)::move( t_1 p_2_2 p_2_1)::move( t_1 p_2_1 p_2_2)::move( t_1 p_2_2 p_2_1)::move( t_1 p_2_1 p_2_2)
move( t_3 p_1_1 p_2_1)::move( t_1 p_2_2 p_1_2)::move( t_1 p_1_1 p_2_1)
move( t_1 p_2_2 p_2_1)::move( t_2 p_1_2 p_2_2)::move( t_2 p_2_2 p_1_2)::move( t_1 p_2_1 p_2_2)::move( t_3 p_2_2 p_2_1)::move( t_3 p_1_1 p_2_1)::move( t_3 p_2_1 p_1_1)::move( t_3 p_1_1 p_2_1)
move( t_3 p_1_1 p_2_1)::move( t_2 p_1_2 p_1_1)::move( t_2 p_1_1 p_1_2)::move( t_2 p_1_2 p_1_1)::move( t_3 p_1_2 p_1_1)
move( t_1 p_2_2 p_2_1)::move( t_2 p_1_2 p_2_2)::move( t_2 p_2_2 p_1_2)::move( t_2 p_1_2 p_2_2)::move( t_2 p_2_2 p_1_2)::move( t_2 p_1_2 p_2_2)::move( t_3 p_1_1 p_1_2)::move( t_3 p_1_2 p_1_1)::move( t_3 p_1_1 p_1_2)::move( t_1 p_2_1 p_1_1)::move( t_2 p_2_2 p_2_1)::move( t_3 p_2_1 p_2_2)
move( t_1 p_2_2 p_2_1)::move( t_1 p_2_1 p_2_2)::move( t_1 p_2_2 p_2_1)::move( t_2 p_1_2 p_2_2)::move( t_2 p_2_2 p_1_2)::move( t_2 p_1_2 p_2_2)::move( t_3 p_1_1 p_1_2)::move( t_1 p_2_1 p_1_1)::move( t_1 p_1_1 p_2_1)::move( t_1 p_2_2 p_1_2)
move( t_3 p_1_1 p_2_1)::move( t_2 p_1_2 p_1_1)::move( t_2 p_1_1 p_1_2)::move( t_3 p_2_1 p_1_1)::move( t_1 p_1_1 p_2_1)::move( t_3 p_1_1 p_2_1)::move( t_2 p_1_2 p_1_1)::move( t_1 p_2_2 p_1_2)::move( t_3 p_2_1 p_2_2)::move( t_3 p_2_2 p_2_1)
move( t_3 p_1_1 p_2_1)::move( t_3 p_2_1 p_1_1)::move( t_3 p_1_1 p_2_1)::move( t_1 p_1_1 p_1_2)::move( t_3 p_2_1 p_1_1)
move( t_3 p_1_1 p_2_1)::move( t_3 p_2_1 p_1_1)::move( t_3 p_1_1 p_2_1)::move( t_3 p_1_1 p_1_2)::move( t_2 p_1_2 p_1_1)::move( t_1 p_2_2 p_1_2)::move( t_3 p_2_1 p_2_2)::move( t_3 p_2_2 p_2_1)
move( t_3 p_1_1 p_2_1)::move( t_3 p_2_1 p_1_1)::move( t_1 p_2_1 p_1_1)::move( t_1 p_2_2 p_2_1)::move( t_2 p_1_1 p_1_2)
move( t_1 p_1_1 p_1_2)::move( t_3 p_1_1 p_2_1)::move( t_2 p_1_2 p_1_1)::move( t_2 p_1_1 p_1_2)
move( t_1 p_2_2 p_2_1)::move( t_2 p_2_1 p_1_1)::move( t_1 p_2_1 p_2_2)::move( t_3 p_1_1 p_2_1)::move( t_3 p_2_1 p_1_1)::move( t_3 p_1_1 p_2_1)::move( t_3 p_2_1 p_1_1)::move( t_1 p_2_2 p_2_1)::move( t_2 p_1_2 p_2_2)
move( t_2 p_2_1 p_2_2)::move( t_3 p_1_1 p_2_1)
move( t_1 p_2_2 p_2_1)::move( t_2 p_1_2 p_2_2)::move( t_2 p_2_2 p_1_2)::move( t_2 p_1_2 p_2_2)::move( t_3 p_1_1 p_1_2)::move( t_3 p_1_2 p_1_1)::move( t_3 p_1_1 p_1_2)::move( t_3 p_1_2 p_1_1)::move( t_2 p_2_2 p_1_2)::move( t_2 p_1_2 p_2_2)::move( t_2 p_2_2 p_1_2)::move( t_1 p_2_1 p_2_2)::move( t_1 p_2_2 p_2_1)::move( t_2 p_1_2 p_2_2)::move( t_2 p_2_2 p_1_2)::move( t_1 p_2_1 p_2_2)::move( t_2 p_2_2 p_2_1)
move( t_3 p_1_1 p_2_1)::move( t_3 p_2_1 p_1_1)::move( t_2 p_2_2 p_1_2)
move( t_1 p_2_2 p_2_1)::move( t_1 p_2_1 p_2_2)::move( t_3 p_1_1 p_2_1)::move( t_3 p_2_1 p_1_1)::move( t_3 p_1_1 p_2_1)::move( t_2 p_2_1 p_1_1)::move( t_3 p_1_2 p_1_1)
move( t_2 p_1_2 p_1_1)::move( t_1 p_2_2 p_2_1)::move( t_1 p_2_1 p_2_2)::move( t_1 p_2_2 p_2_1)::move( t_2 p_2_1 p_2_2)::move( t_2 p_1_2 p_2_2)::move( t_2 p_2_2 p_1_2)::move( t_1 p_1_2 p_1_1)::move( t_1 p_2_1 p_2_2)
move( t_1 p_2_2 p_2_1)::move( t_1 p_2_1 p_2_2)::move( t_3 p_1_1 p_2_1)::move( t_2 p_1_2 p_1_1)::move( t_1 p_2_2 p_1_2)::move( t_3 p_2_1 p_2_2)::move( t_1 p_1_2 p_1_1)
move( t_3 p_1_1 p_2_1)::move( t_2 p_1_1 p_2_1)::move( t_2 p_1_2 p_1_1)::move( t_1 p_2_2 p_1_2)::move( t_3 p_1_2 p_1_1)::move( t_3 p_2_1 p_1_1)::move( t_3 p_2_1 p_2_2)::move( t_2 p_1_1 p_2_1)
move( t_2 p_2_1 p_1_1)::move( t_1 p_2_2 p_2_1)::move( t_1 p_2_1 p_2_2)::move( t_3 p_1_1 p_1_2)
move( t_2 p_2_2 p_2_1)::move( t_1 p_2_2 p_2_1)::move( t_2 p_1_2 p_2_2)::move( t_3 p_1_1 p_1_2)
move( t_1 p_1_2 p_2_2)::move( t_3 p_2_1 p_2_2)
move( t_3 p_1_1 p_2_1)::move( t_2 p_1_2 p_1_1)::move( t_2 p_1_1 p_1_2)::move( t_3 p_2_1 p_1_1)::move( t_1 p_2_2 p_2_1)::move( t_1 p_1_2 p_1_1)::move( t_1 p_2_1 p_2_2)::move( t_3 p_1_1 p_2_1)::move( t_3 p_2_1 p_1_1)
move( t_1 p_2_2 p_2_1)::move( t_1 p_2_1 p_2_2)::move( t_3 p_1_1 p_2_1)::move( t_2 p_2_2 p_1_2)::move( t_3 p_2_1 p_1_1)::move( t_3 p_1_1 p_2_1)::move( t_2 p_1_2 p_1_1)::move( t_1 p_2_2 p_1_2)
move( t_2 p_1_2 p_2_2)::move( t_3 p_1_1 p_2_1)::move( t_2 p_1_1 p_2_1)::move( t_2 p_1_2 p_1_1)::move( t_1 p_2_2 p_1_2)::move( t_1 p_1_2 p_2_2)::move( t_2 p_1_1 p_1_2)::move( t_2 p_2_1 p_2_2)::move( t_3 p_2_1 p_1_1)::move( t_3 p_1_1 p_2_1)
move( t_3 p_1_1 p_2_1)::move( t_3 p_2_1 p_1_1)::move( t_2 p_1_2 p_2_2)::move( t_1 p_2_2 p_2_1)::move( t_2 p_2_2 p_1_2)::move( t_1 p_2_1 p_2_2)::move( t_1 p_2_2 p_2_1)::move( t_2 p_1_2 p_2_2)::move( t_1 p_1_2 p_2_2)
move( t_1 p_2_2 p_2_1)::move( t_1 p_2_1 p_2_2)::move( t_3 p_1_1 p_2_1)::move( t_3 p_2_1 p_1_1)::move( t_3 p_1_1 p_2_1)::move( t_3 p_2_1 p_1_1)::move( t_3 p_1_1 p_2_1)::move( t_3 p_1_1 p_2_1)
move( t_3 p_1_1 p_2_1)::move( t_2 p_1_2 p_1_1)::move( t_1 p_2_2 p_1_2)::move( t_3 p_2_1 p_2_2)::move( t_2 p_1_1 p_2_1)::move( t_1 p_1_2 p_1_1)::move( t_1 p_1_1 p_1_2)::move( t_1 p_1_2 p_1_1)::move( t_3 p_1_2 p_2_2)
move( t_1 p_1_1 p_1_2)::move( t_3 p_1_1 p_2_1)::move( t_2 p_1_2 p_1_1)::move( t_2 p_2_2 p_1_2)
move( t_3 p_1_1 p_2_1)::move( t_2 p_1_2 p_1_1)::move( t_2 p_1_1 p_1_2)::move( t_2 p_1_2 p_1_1)::move( t_2 p_1_1 p_1_2)::move( t_2 p_1_2 p_1_1)::move( t_2 p_1_1 p_1_2)::move( t_2 p_1_1 p_2_1)
move( t_1 p_1_2 p_1_1)::move( t_2 p_1_1 p_2_1)::move( t_3 p_1_1 p_2_1)::move( t_2 p_1_2 p_1_1)::move( t_1 p_2_2 p_1_2)::move( t_3 p_2_1 p_2_2)::move( t_2 p_1_1 p_2_1)
move( t_1 p_2_2 p_2_1)::move( t_2 p_1_2 p_2_2)::move( t_2 p_1_1 p_1_2)
move( t_1 p_2_2 p_2_1)::move( t_2 p_1_2 p_2_2)::move( t_2 p_2_2 p_1_2)::move( t_1 p_2_1 p_2_2)::move( t_1 p_2_2 p_2_1)::move( t_2 p_1_2 p_2_2)::move( t_2 p_2_2 p_1_2)::move( t_2 p_1_2 p_2_2)::move( t_1 p_2_1 p_1_1)
move( t_2 p_1_2 p_1_1)::move( t_1 p_2_2 p_2_1)::move( t_1 p_1_2 p_1_1)::move( t_1 p_2_1 p_2_2)::move( t_2 p_2_2 p_1_2)::move( t_3 p_1_1 p_2_1)::move( t_3 p_2_1 p_1_1)::move( t_1 p_2_2 p_2_1)::move( t_1 p_2_1 p_2_2)
move( t_3 p_1_1 p_2_1)::move( t_3 p_2_1 p_1_1)::move( t_1 p_2_2 p_2_1)::move( t_3 p_2_1 p_1_1)::move( t_2 p_1_2 p_2_2)::move( t_3 p_1_1 p_1_2)
move( t_3 p_1_1 p_2_1)::move( t_3 p_2_1 p_1_1)::move( t_1 p_2_2 p_2_1)::move( t_2 p_1_2 p_2_2)::move( t_3 p_1_1 p_1_2)::move( t_1 p_2_1 p_1_1)::move( t_1 p_1_1 p_2_1)::move( t_1 p_2_1 p_1_1)::move( t_1 p_1_1 p_2_1)::move( t_3 p_1_2 p_1_1)::move( t_3 p_1_1 p_1_2)::move( t_3 p_1_2 p_1_1)::move( t_3 p_1_1 p_1_2)::move( t_3 p_1_2 p_1_1)::move( t_3 p_1_1 p_1_2)::move( t_1 p_1_1 p_1_2)
move( t_3 p_1_1 p_2_1)::move( t_2 p_1_2 p_1_1)::move( t_2 p_1_1 p_1_2)::move( t_2 p_2_2 p_2_1)
move( t_3 p_1_1 p_2_1)::move( t_2 p_1_2 p_1_1)::move( t_2 p_1_1 p_1_2)::move( t_2 p_1_2 p_1_1)::move( t_1 p_2_2 p_1_2)::move( t_3 p_1_2 p_2_2)
move( t_1 p_2_2 p_2_1)::move( t_1 p_2_1 p_2_2)::move( t_1 p_2_2 p_2_1)::move( t_1 p_1_1 p_1_2)::move( t_1 p_1_2 p_1_1)::move( t_1 p_2_1 p_2_2)::move( t_1 p_2_2 p_2_1)
move( t_2 p_1_1 p_1_2)::move( t_3 p_1_1 p_2_1)
move( t_1 p_2_2 p_2_1)::move( t_1 p_2_2 p_1_2)::move( t_2 p_2_2 p_2_1)::move( t_2 p_1_2 p_2_2)::move( t_3 p_1_1 p_1_2)
move( t_3 p_1_1 p_2_1)::move( t_3 p_2_1 p_1_1)::move( t_3 p_1_1 p_2_1)::move( t_2 p_1_2 p_1_1)::move( t_2 p_1_1 p_1_2)::move( t_3 p_2_1 p_1_1)::move( t_3 p_1_1 p_2_1)::move( t_3 p_2_1 p_1_1)::move( t_3 p_1_1 p_2_1)::move( t_2 p_1_2 p_1_1)::move( t_2 p_1_1 p_1_2)::move( t_2 p_1_2 p_1_1)::move( t_1 p_1_2 p_2_2)
move( t_1 p_2_2 p_2_1)::move( t_2 p_1_2 p_2_2)::move( t_1 p_1_1 p_1_2)
move( t_2 p_1_1 p_1_2)::move( t_3 p_1_1 p_1_2)
move( t_1 p_2_2 p_2_1)::move( t_1 p_2_1 p_2_2)::move( t_2 p_2_1 p_2_2)
move( t_3 p_1_1 p_2_1)::move( t_3 p_2_1 p_1_1)::move( t_1 p_2_2 p_2_1)::move( t_2 p_1_2 p_2_2)::move( t_3 p_1_1 p_1_2)::move( t_3 p_1_2 p_1_1)::move( t_2 p_2_2 p_1_2)::move( t_3 p_1_1 p_1_2)
move( t_1 p_2_2 p_2_1)::move( t_1 p_2_1 p_2_2)::move( t_3 p_1_1 p_2_1)::move( t_2 p_1_2 p_1_1)::move( t_2 p_1_1 p_1_2)::move( t_2 p_1_2 p_1_1)::move( t_2 p_1_1 p_1_2)::move( t_3 p_1_2 p_2_2)
move( t_2 p_2_2 p_1_2)::move( t_1 p_2_2 p_2_1)::move( t_1 p_2_1 p_2_2)::move( t_3 p_1_1 p_2_1)::move( t_3 p_2_1 p_1_1)::move( t_3 p_1_1 p_2_1)::move( t_2 p_1_2 p_1_1)::move( t_1 p_2_2 p_1_2)::move( t_1 p_1_2 p_2_2)
move( t_1 p_2_2 p_2_1)::move( t_1 p_2_1 p_2_2)::move( t_1 p_2_2 p_2_1)::move( t_2 p_2_1 p_2_2)
move( t_3 p_1_1 p_1_2)::move( t_3 p_1_1 p_2_1)::move( t_2 p_1_2 p_1_1)::move( t_3 p_1_1 p_2_1)::move( t_2 p_1_1 p_1_2)
move( t_3 p_1_1 p_2_1)::move( t_3 p_2_1 p_1_1)::move( t_3 p_1_2 p_1_1)
move( t_1 p_2_2 p_2_1)::move( t_1 p_2_1 p_2_2)::move( t_3 p_2_1 p_1_1)::move( t_1 p_2_2 p_2_1)::move( t_1 p_2_1 p_2_2)::move( t_3 p_1_1 p_2_1)
move( t_3 p_1_1 p_2_1)::move( t_3 p_2_1 p_1_1)::move( t_1 p_2_2 p_2_1)::move( t_2 p_1_2 p_2_2)::move( t_2 p_1_2 p_2_2)::move( t_3 p_2_1 p_1_1)::move( t_2 p_2_2 p_1_2)
move( t_2 p_2_2 p_2_1)::move( t_3 p_1_1 p_2_1)::move( t_3 p_1_2 p_1_1)
move( t_3 p_2_2 p_2_1)::move( t_1 p_2_2 p_2_1)
move( t_3 p_1_2 p_1_1)::move( t_3 p_1_1 p_2_1)
move( t_1 p_2_2 p_2_1)::move( t_2 p_1_2 p_2_2)::move( t_3 p_1_1 p_1_2)::move( t_3 p_1_2 p_1_1)::move( t_2 p_2_2 p_1_2)::move( t_1 p_2_1 p_2_2)::move( t_1 p_2_2 p_2_1)::move( t_2 p_1_2 p_2_2)::move( t_3 p_2_2 p_1_2)
move( t_1 p_2_2 p_2_1)::move( t_1 p_2_1 p_2_2)::move( t_1 p_2_2 p_2_1)::move( t_1 p_2_1 p_2_2)::move( t_3 p_1_1 p_2_1)::move( t_2 p_1_2 p_1_1)::move( t_2 p_1_2 p_1_1)
move( t_3 p_1_1 p_2_1)::move( t_1 p_2_2 p_1_2)::move( t_2 p_2_2 p_1_2)::move( t_3 p_2_1 p_1_1)::move( t_1 p_1_2 p_1_1)::move( t_3 p_1_1 p_2_1)::move( t_3 p_1_2 p_2_2)::move( t_3 p_1_1 p_2_1)::move( t_2 p_1_2 p_1_1)
move( t_1 p_2_2 p_2_1)::move( t_1 p_2_1 p_2_2)::move( t_3 p_1_1 p_2_1)::move( t_2 p_1_2 p_1_1)::move( t_1 p_2_1 p_1_1)
move( t_3 p_1_1 p_2_1)::move( t_2 p_1_2 p_1_1)::move( t_3 p_1_1 p_2_1)
move( t_1 p_2_2 p_2_1)::move( t_2 p_1_1 p_1_2)::move( t_2 p_1_2 p_2_2)::move( t_3 p_1_1 p_1_2)::move( t_3 p_1_2 p_1_1)::move( t_2 p_2_2 p_1_2)::move( t_1 p_2_1 p_2_2)
move( t_1 p_2_2 p_2_1)::move( t_3 p_1_1 p_1_2)
move( t_3 p_1_1 p_2_1)::move( t_3 p_2_1 p_1_1)::move( t_3 p_2_2 p_2_1)::move( t_1 p_2_2 p_2_1)::move( t_2 p_1_2 p_2_2)::move( t_3 p_1_2 p_2_2)
move( t_1 p_2_2 p_2_1)::move( t_1 p_2_1 p_2_2)::move( t_1 p_2_2 p_2_1)::move( t_1 p_2_1 p_2_2)::move( t_1 p_2_2 p_2_1)::move( t_2 p_1_2 p_2_2)::move( t_2 p_2_2 p_1_2)::move( t_3 p_2_1 p_2_2)
move( t_2 p_1_1 p_2_1)::move( t_1 p_2_2 p_2_1)::move( t_1 p_2_1 p_2_2)::move( t_1 p_2_2 p_2_1)
move( t_3 p_1_1 p_2_1)::move( t_2 p_1_2 p_1_1)::move( t_3 p_2_2 p_2_1)::move( t_2 p_1_1 p_1_2)::move( t_2 p_1_2 p_1_1)::move( t_1 p_2_2 p_1_2)::move( t_3 p_2_2 p_1_2)
move( t_3 p_1_1 p_2_1)::move( t_3 p_2_1 p_1_1)::move( t_1 p_2_2 p_2_1)::move( t_2 p_1_2 p_2_2)::move( t_3 p_1_1 p_1_2)::move( t_1 p_2_1 p_1_1)::move( t_1 p_1_1 p_2_1)::move( t_3 p_1_2 p_1_1)::move( t_1 p_2_2 p_1_2)
move( t_3 p_1_1 p_2_1)::move( t_3 p_2_1 p_1_1)::move( t_1 p_2_2 p_2_1)::move( t_2 p_1_2 p_2_2)::move( t_2 p_2_2 p_1_2)::move( t_2 p_1_2 p_2_2)::move( t_2 p_2_2 p_1_2)::move( t_1 p_2_1 p_2_2)::move( t_3 p_1_1 p_2_1)::move( t_1 p_2_1 p_1_1)
move( t_2 p_1_2 p_1_1)::move( t_1 p_2_2 p_2_1)
move( t_3 p_1_1 p_2_1)::move( t_3 p_2_1 p_1_1)::move( t_2 p_2_2 p_1_2)::move( t_1 p_2_2 p_2_1)::move( t_1 p_1_1 p_2_1)
move( t_3 p_1_1 p_2_1)::move( t_3 p_2_1 p_1_1)::move( t_1 p_2_2 p_2_1)::move( t_2 p_1_2 p_2_2)::move( t_2 p_2_2 p_1_2)::move( t_2 p_1_2 p_2_2)::move( t_1 p_2_1 p_1_1)::move( t_3 p_1_1 p_1_2)::move( t_3 p_1_2 p_1_1)::move( t_3 p_1_1 p_2_1)
move( t_1 p_2_2 p_2_1)::move( t_3 p_1_2 p_1_1)::move( t_2 p_1_2 p_2_2)::move( t_1 p_1_1 p_2_1)
move( t_3 p_1_1 p_2_1)::move( t_3 p_2_1 p_1_1)::move( t_1 p_2_2 p_2_1)::move( t_3 p_2_2 p_2_1)::move( t_2 p_1_2 p_2_2)::move( t_2 p_2_2 p_1_2)
move( t_1 p_2_2 p_2_1)::move( t_2 p_1_2 p_2_2)::move( t_2 p_1_2 p_1_1)::move( t_3 p_1_1 p_1_2)::move( t_1 p_2_1 p_1_1)::move( t_1 p_1_1 p_2_1)::move( t_1 p_2_1 p_1_1)::move( t_2 p_1_1 p_1_2)::move( t_1 p_1_1 p_2_1)::move( t_3 p_1_2 p_1_1)
move( t_3 p_1_1 p_2_1)::move( t_2 p_1_2 p_1_1)::move( t_1 p_2_2 p_1_2)::move( t_1 p_1_2 p_2_2)::move( t_2 p_1_1 p_1_2)::move( t_3 p_2_1 p_1_1)::move( t_2 p_2_1 p_2_2)
move( t_1 p_2_2 p_2_1)::move( t_1 p_2_1 p_2_2)::move( t_3 p_1_1 p_2_1)::move( t_1 p_1_2 p_1_1)::move( t_3 p_2_1 p_1_1)::move( t_1 p_2_2 p_2_1)::move( t_2 p_2_1 p_1_1)::move( t_1 p_2_1 p_2_2)
move( t_3 p_1_1 p_2_1)::move( t_3 p_2_1 p_1_1)::move( t_3 p_1_1 p_2_1)::move( t_3 p_2_1 p_1_1)::move( t_2 p_2_1 p_1_1)
move( t_3 p_1_1 p_2_1)::move( t_2 p_1_2 p_1_1)::move( t_3 p_1_1 p_2_1)
move( t_1 p_2_2 p_2_1)::move( t_2 p_1_2 p_2_2)::move( t_3 p_1_1 p_1_2)::move( t_3 p_1_2 p_1_1)::move( t_3 p_1_1 p_1_2)::move( t_3 p_1_2 p_1_1)::move( t_2 p_2_2 p_1_2)::move( t_2 p_1_2 p_2_2)::move( t_2 p_2_1 p_1_1)
move( t_3 p_1_1 p_2_1)::move( t_3 p_2_1 p_1_1)::move( t_3 p_1_1 p_2_1)::move( t_1 p_2_1 p_2_2)::move( t_3 p_2_1 p_1_1)
move( t_1 p_2_2 p_2_1)::move( t_2 p_1_2 p_2_2)::move( t_2 p_2_2 p_1_2)::move( t_1 p_2_1 p_2_2)::move( t_1 p_2_2 p_2_1)::move( t_2 p_1_2 p_2_2)::move( t_3 p_1_1 p_1_2)::move( t_1 p_2_1 p_1_1)::move( t_2 p_2_2 p_2_1)::move( t_1 p_1_2 p_1_1)
move( t_1 p_2_2 p_2_1)::move( t_1 p_2_1 p_2_2)::move( t_2 p_2_2 p_1_2)::move( t_1 p_2_2 p_2_1)::move( t_2 p_1_2 p_2_2)::move( t_3 p_1_1 p_1_2)::move( t_3 p_1_2 p_1_1)::move( t_2 p_2_2 p_1_2)::move( t_1 p_1_1 p_1_2)::move( t_1 p_2_1 p_2_2)
move( t_2 p_2_1 p_1_1)::move( t_1 p_2_2 p_1_2)
move( t_3 p_1_1 p_2_1)::move( t_2 p_1_2 p_1_1)::move( t_1 p_2_1 p_2_2)::move( t_2 p_2_1 p_1_1)::move( t_1 p_2_2 p_1_2)::move( t_1 p_1_2 p_2_2)::move( t_1 p_2_2 p_1_2)::move( t_1 p_1_2 p_2_2)
move( t_3 p_1_1 p_2_1)::move( t_1 p_1_2 p_1_1)::move( t_2 p_1_2 p_1_1)::move( t_1 p_2_2 p_1_2)::move( t_1 p_1_2 p_2_2)::move( t_1 p_1_2 p_1_1)::move( t_1 p_2_2 p_1_2)::move( t_1 p_1_2 p_2_2)
move( t_3 p_1_1 p_2_1)::move( t_3 p_2_1 p_1_1)::move( t_1 p_2_2 p_2_1)::move( t_2 p_1_2 p_2_2)::move( t_2 p_2_2 p_1_2)::move( t_1 p_2_1 p_2_2)::move( t_1 p_1_1 p_2_1)
move( t_1 p_2_2 p_2_1)::move( t_1 p_1_1 p_2_1)::move( t_1 p_2_1 p_2_2)
move( t_3 p_1_1 p_2_1)::move( t_2 p_1_2 p_1_1)::move( t_1 p_2_2 p_1_2)::move( t_3 p_2_1 p_2_2)::move( t_3 p_2_2 p_2_1)::move( t_3 p_2_1 p_2_2)::move( t_3 p_2_2 p_2_1)::move( t_1 p_1_2 p_2_2)::move( t_2 p_1_1 p_1_2)::move( t_3 p_2_2 p_1_2)
move( t_1 p_2_2 p_2_1)::move( t_1 p_2_1 p_2_2)::move( t_3 p_1_1 p_2_1)::move( t_3 p_1_1 p_1_2)::move( t_3 p_2_1 p_1_1)
move( t_1 p_2_2 p_2_1)::move( t_2 p_1_2 p_2_2)::move( t_3 p_1_1 p_1_2)::move( t_3 p_1_2 p_1_1)::move( t_3 p_1_1 p_1_2)::move( t_1 p_2_1 p_1_1)::move( t_1 p_1_1 p_2_1)::move( t_1 p_2_1 p_1_1)::move( t_2 p_2_2 p_2_1)::move( t_3 p_1_2 p_2_2)::move( t_1 p_1_1 p_1_2)::move( t_3 p_2_2 p_2_1)
move( t_1 p_2_2 p_2_1)::move( t_1 p_2_1 p_2_2)::move( t_3 p_1_1 p_2_1)::move( t_3 p_2_1 p_1_1)::move( t_1 p_2_2 p_2_1)::move( t_1 p_2_1 p_2_2)::move( t_3 p_2_2 p_1_2)
