unstack( c b)::stack( c b)::unstack( c b)::stack( c b)::unstack( c b)::stack( c b)::unstack( c b)::put-down( c)
unstack( c b)::stack( c b)::unstack( c b)::stack( c b)::unstack( c b)::stack( c b)
unstack( c b)::put-down( c)::pick-up( c)::put-down( c)::unstack( b a)::stack( b c)
unstack( c b)::put-down( c)::pick-up( c)::put-down( c)::pick-up( c)::stack( c b)::unstack( c b)
unstack( c b)::stack( c b)::unstack( c b)::put-down( c)::unstack( b a)::stack( b c)::pick-up( a)::put-down( a)::unstack( b c)::put-down( b)::pick-up( b)::stack( b c)::pick-up( a)::stack( a b)
unstack( c b)::put-down( c)::pick-up( c)::put-down( c)::unstack( b a)::put-down( b)::pick-up( b)::stack( b c)::pick-up( a)
unstack( c b)::stack( c b)::unstack( c b)::stack( c b)::unstack( c b)::put-down( c)::pick-up( c)
unstack( c b)::stack( c b)::unstack( c b)::stack( c b)::unstack( c b)::put-down( c)::unstack( b a)::put-down( b)::pick-up( c)::stack( c a)::unstack( c a)::put-down( c)::pick-up( b)::put-down( b)::pick-up( a)::stack( a c)::unstack( a c)::put-down( a)::pick-up( c)::stack( c a)
unstack( c b)::put-down( c)::unstack( b a)::put-down( b)::pick-up( c)::put-down( c)::pick-up( a)
unstack( c b)::put-down( c)::pick-up( c)::put-down( c)::pick-up( c)::stack( c b)::unstack( c b)::stack( c b)::unstack( c b)::stack( c b)
unstack( c b)::put-down( c)::unstack( b a)::stack( b c)
unstack( c b)::stack( c b)::unstack( c b)::put-down( c)
unstack( c b)::put-down( c)::pick-up( c)::stack( c b)::unstack( c b)::put-down( c)::pick-up( c)::put-down( c)::unstack( b a)::stack( b c)::unstack( b c)::stack( b c)::pick-up( a)::stack( a b)::unstack( a b)::stack( a b)::unstack( a b)::put-down( a)::pick-up( a)
unstack( c b)::stack( c b)::unstack( c b)::put-down( c)::unstack( b a)::stack( b c)::pick-up( a)::stack( a b)::unstack( a b)::put-down( a)::unstack( b c)::stack( b c)
unstack( c b)::stack( c b)::unstack( c b)::stack( c b)::unstack( c b)::put-down( c)
unstack( c b)::put-down( c)::pick-up( c)::put-down( c)::unstack( b a)::put-down( b)::pick-up( c)::stack( c a)::unstack( c a)::stack( c b)::unstack( c b)::stack( c a)::pick-up( b)::put-down( b)::pick-up( b)::stack( b c)::unstack( b c)::stack( b c)::unstack( b c)
unstack( c b)::put-down( c)::unstack( b a)::stack( b a)::unstack( b a)
unstack( c b)::stack( c b)::unstack( c b)::put-down( c)::unstack( b a)::stack( b c)::unstack( b c)
unstack( c b)::stack( c b)::unstack( c b)::put-down( c)::unstack( b a)::put-down( b)
unstack( c b)::put-down( c)::pick-up( c)::stack( c b)
unstack( c b)::stack( c b)::unstack( c b)::put-down( c)::pick-up( c)::stack( c b)::unstack( c b)::stack( c b)::unstack( c b)::stack( c b)::unstack( c b)::put-down( c)::unstack( b a)::stack( b a)::pick-up( c)::put-down( c)::unstack( b a)::stack( b c)::unstack( b c)::put-down( b)
unstack( c b)::stack( c b)
unstack( c b)::stack( c b)::unstack( c b)::put-down( c)::unstack( b a)
unstack( c b)::put-down( c)::pick-up( c)::stack( c b)::unstack( c b)::put-down( c)::unstack( b a)::stack( b a)::pick-up( c)
unstack( c b)::put-down( c)::unstack( b a)::put-down( b)::pick-up( b)::stack( b c)::pick-up( a)::put-down( a)::unstack( b c)::stack( b a)::unstack( b a)::put-down( b)::pick-up( a)::stack( a c)::pick-up( b)::stack( b a)::unstack( b a)
unstack( c b)::stack( c b)::unstack( c b)::stack( c b)
unstack( c b)::stack( c b)::unstack( c b)::put-down( c)
unstack( c b)::put-down( c)::pick-up( c)::put-down( c)::pick-up( c)::stack( c b)::unstack( c b)::stack( c b)::unstack( c b)::stack( c b)::unstack( c b)::put-down( c)::unstack( b a)::stack( b a)::unstack( b a)::put-down( b)::pick-up( b)
unstack( c b)::stack( c b)::unstack( c b)::put-down( c)::unstack( b a)::put-down( b)::pick-up( c)::stack( c b)::unstack( c b)::stack( c b)::unstack( c b)
unstack( c b)::stack( c b)::unstack( c b)::stack( c b)::unstack( c b)::stack( c b)::unstack( c b)::put-down( c)::unstack( b a)::put-down( b)::pick-up( c)::stack( c a)::pick-up( b)::stack( b c)::unstack( b c)::stack( b c)::unstack( b c)::stack( b c)::unstack( b c)
unstack( c b)::put-down( c)::pick-up( c)::stack( c b)::unstack( c b)::stack( c b)::unstack( c b)::put-down( c)::pick-up( c)::stack( c b)::unstack( c b)::put-down( c)::pick-up( c)::stack( c b)::unstack( c b)::put-down( c)::pick-up( c)::stack( c b)::unstack( c b)
unstack( c b)::put-down( c)::unstack( b a)::put-down( b)::pick-up( a)::stack( a b)::unstack( a b)::stack( a c)
unstack( c b)::put-down( c)::unstack( b a)::put-down( b)::pick-up( a)
unstack( c b)::stack( c b)::unstack( c b)::stack( c b)::unstack( c b)::stack( c b)::unstack( c b)::stack( c b)::unstack( c b)::stack( c b)::unstack( c b)::put-down( c)::pick-up( c)::put-down( c)::pick-up( c)::stack( c b)::unstack( c b)::put-down( c)::pick-up( c)::put-down( c)
unstack( c b)::put-down( c)::pick-up( c)::put-down( c)::unstack( b a)::put-down( b)::pick-up( b)::stack( b a)::pick-up( c)::put-down( c)::unstack( b a)::stack( b a)::pick-up( c)::put-down( c)::unstack( b a)::put-down( b)::pick-up( a)::put-down( a)
unstack( c b)::stack( c b)::unstack( c b)::put-down( c)::unstack( b a)::put-down( b)::pick-up( c)::stack( c b)::unstack( c b)
unstack( c b)::put-down( c)::pick-up( c)::put-down( c)::unstack( b a)::put-down( b)::pick-up( a)::put-down( a)
unstack( c b)::put-down( c)::unstack( b a)
unstack( c b)::put-down( c)
unstack( c b)::put-down( c)::pick-up( c)::put-down( c)::pick-up( c)::put-down( c)::unstack( b a)::stack( b a)
unstack( c b)
unstack( c b)
unstack( c b)::put-down( c)
unstack( c b)::stack( c b)::unstack( c b)::stack( c b)::unstack( c b)::put-down( c)::pick-up( c)::stack( c b)::unstack( c b)::stack( c b)::unstack( c b)::put-down( c)::pick-up( c)::put-down( c)::unstack( b a)::stack( b a)::pick-up( c)::put-down( c)
unstack( c b)::stack( c b)::unstack( c b)::stack( c b)::unstack( c b)::put-down( c)::unstack( b a)::put-down( b)::pick-up( c)
unstack( c b)::stack( c b)::unstack( c b)
unstack( c b)::put-down( c)::pick-up( c)::put-down( c)::pick-up( c)::put-down( c)::unstack( b a)::put-down( b)::pick-up( a)::stack( a b)::pick-up( c)::stack( c a)
unstack( c b)::put-down( c)::pick-up( c)::stack( c b)::unstack( c b)::put-down( c)::pick-up( c)::stack( c b)::unstack( c b)::stack( c b)::unstack( c b)::stack( c b)::unstack( c b)
unstack( c b)::stack( c b)::unstack( c b)::stack( c b)::unstack( c b)::put-down( c)::pick-up( c)::stack( c b)::unstack( c b)::put-down( c)::unstack( b a)
unstack( c b)::put-down( c)::unstack( b a)::put-down( b)::pick-up( a)::stack( a b)::pick-up( c)::stack( c a)::unstack( c a)::put-down( c)::unstack( a b)::stack( a c)::unstack( a c)::put-down( a)::pick-up( b)::stack( b a)::pick-up( c)::put-down( c)::unstack( b a)::stack( b a)
unstack( c b)::stack( c b)::unstack( c b)
unstack( c b)::stack( c b)::unstack( c b)::put-down( c)::pick-up( c)::put-down( c)::unstack( b a)::stack( b c)::pick-up( a)
unstack( c b)::stack( c b)::unstack( c b)::stack( c b)::unstack( c b)
unstack( c b)::put-down( c)::pick-up( c)::stack( c b)
unstack( c b)::put-down( c)::unstack( b a)::put-down( b)::pick-up( a)::stack( a c)::unstack( a c)::stack( a b)::unstack( a b)::stack( a b)::pick-up( c)::stack( c a)::unstack( c a)::stack( c a)::unstack( c a)::put-down( c)::pick-up( c)
unstack( c b)::stack( c b)::unstack( c b)::stack( c b)::unstack( c b)::put-down( c)
unstack( c b)::put-down( c)::unstack( b a)::stack( b c)::pick-up( a)::put-down( a)::unstack( b c)::stack( b a)::pick-up( c)::stack( c b)::unstack( c b)::put-down( c)::pick-up( c)::put-down( c)::unstack( b a)
unstack( c b)::put-down( c)::pick-up( c)::stack( c b)::unstack( c b)::stack( c b)::unstack( c b)::stack( c b)::unstack( c b)::stack( c b)::unstack( c b)::stack( c b)::unstack( c b)::put-down( c)::pick-up( c)::stack( c b)::unstack( c b)
unstack( c b)::stack( c b)::unstack( c b)::stack( c b)::unstack( c b)
unstack( c b)::stack( c b)::unstack( c b)::put-down( c)::unstack( b a)::stack( b a)::unstack( b a)::stack( b a)::unstack( b a)::put-down( b)::pick-up( c)::put-down( c)::pick-up( a)::stack( a b)::pick-up( c)::stack( c a)
unstack( c b)::put-down( c)::pick-up( c)::stack( c b)
unstack( c b)::put-down( c)::pick-up( c)::stack( c b)::unstack( c b)::stack( c b)::unstack( c b)::stack( c b)::unstack( c b)
unstack( c b)::put-down( c)::unstack( b a)::put-down( b)::pick-up( c)::put-down( c)::pick-up( c)::stack( c b)::pick-up( a)::put-down( a)::pick-up( a)::put-down( a)::unstack( c b)::stack( c b)::unstack( c b)::stack( c a)
unstack( c b)::put-down( c)::unstack( b a)::put-down( b)::pick-up( b)::put-down( b)::pick-up( a)::stack( a b)::unstack( a b)
unstack( c b)::put-down( c)::pick-up( c)::put-down( c)::unstack( b a)::put-down( b)::pick-up( c)::stack( c b)::unstack( c b)::put-down( c)::pick-up( a)::put-down( a)::pick-up( a)::stack( a b)::pick-up( c)::put-down( c)
unstack( c b)::stack( c b)::unstack( c b)::stack( c b)::unstack( c b)::stack( c b)::unstack( c b)
unstack( c b)::put-down( c)::pick-up( c)::put-down( c)::pick-up( c)::stack( c b)::unstack( c b)::put-down( c)::unstack( b a)::put-down( b)::pick-up( a)::stack( a c)::pick-up( b)::stack( b a)::unstack( b a)::put-down( b)::unstack( a c)::stack( a b)
unstack( c b)::put-down( c)::pick-up( c)::stack( c b)::unstack( c b)::put-down( c)::unstack( b a)::stack( b a)::pick-up( c)::stack( c b)::unstack( c b)::put-down( c)::pick-up( c)::stack( c b)::unstack( c b)
unstack( c b)::put-down( c)::unstack( b a)::put-down( b)::pick-up( a)::stack( a b)::unstack( a b)::stack( a c)::unstack( a c)::stack( a b)::unstack( a b)::put-down( a)::pick-up( c)
unstack( c b)::stack( c b)::unstack( c b)::stack( c b)::unstack( c b)::put-down( c)::unstack( b a)::stack( b c)::unstack( b c)::put-down( b)::pick-up( a)::stack( a b)::unstack( a b)::stack( a b)::unstack( a b)
unstack( c b)::put-down( c)::pick-up( c)::stack( c b)
unstack( c b)::stack( c b)::unstack( c b)::put-down( c)::pick-up( c)::stack( c b)::unstack( c b)::stack( c b)::unstack( c b)::put-down( c)::unstack( b a)
unstack( c b)::put-down( c)::pick-up( c)::put-down( c)::pick-up( c)::put-down( c)::pick-up( c)::put-down( c)::unstack( b a)::put-down( b)::pick-up( b)
unstack( c b)::put-down( c)::unstack( b a)::put-down( b)::pick-up( a)
unstack( c b)::stack( c b)::unstack( c b)
unstack( c b)::stack( c b)::unstack( c b)::stack( c b)::unstack( c b)::put-down( c)::pick-up( c)::stack( c b)::unstack( c b)::stack( c b)
unstack( c b)::put-down( c)::unstack( b a)::stack( b a)::pick-up( c)::stack( c b)::unstack( c b)::put-down( c)::unstack( b a)::stack( b c)::unstack( b c)::stack( b a)::unstack( b a)::stack( b c)
unstack( c b)::stack( c b)
unstack( c b)::stack( c b)::unstack( c b)::stack( c b)::unstack( c b)::put-down( c)::pick-up( c)::stack( c b)::unstack( c b)::put-down( c)::pick-up( c)
unstack( c b)::stack( c b)::unstack( c b)::stack( c b)::unstack( c b)::stack( c b)::unstack( c b)::stack( c b)::unstack( c b)::put-down( c)::unstack( b a)::stack( b a)::unstack( b a)
unstack( c b)::put-down( c)::unstack( b a)::put-down( b)::pick-up( c)::stack( c a)::unstack( c a)::stack( c b)
unstack( c b)::stack( c b)::unstack( c b)::put-down( c)::unstack( b a)::stack( b c)::unstack( b c)::stack( b c)
unstack( c b)::put-down( c)::pick-up( c)
unstack( c b)::stack( c b)
unstack( c b)::stack( c b)::unstack( c b)::stack( c b)::unstack( c b)::put-down( c)::pick-up( c)::put-down( c)::unstack( b a)::stack( b c)::unstack( b c)::stack( b c)::unstack( b c)::stack( b c)::pick-up( a)::stack( a b)::unstack( a b)::stack( a b)::unstack( a b)
unstack( c b)::stack( c b)::unstack( c b)::stack( c b)::unstack( c b)::stack( c b)::unstack( c b)
unstack( c b)::put-down( c)::unstack( b a)::stack( b c)::unstack( b c)::stack( b a)::unstack( b a)::stack( b c)::unstack( b c)::stack( b c)::unstack( b c)::stack( b c)::pick-up( a)::stack( a b)::unstack( a b)::put-down( a)::unstack( b c)
unstack( c b)::stack( c b)::unstack( c b)::put-down( c)::unstack( b a)::stack( b c)::unstack( b c)::stack( b a)::pick-up( c)::put-down( c)::unstack( b a)
unstack( c b)::stack( c b)::unstack( c b)::put-down( c)
unstack( c b)::stack( c b)::unstack( c b)::put-down( c)::pick-up( c)::stack( c b)
unstack( c b)::put-down( c)::pick-up( c)::put-down( c)::pick-up( c)::put-down( c)::unstack( b a)::put-down( b)::pick-up( c)::stack( c b)::unstack( c b)::stack( c a)::unstack( c a)::stack( c b)::unstack( c b)::stack( c a)::pick-up( b)
unstack( c b)::put-down( c)::unstack( b a)::put-down( b)::pick-up( a)::stack( a c)::unstack( a c)::put-down( a)::pick-up( a)::stack( a b)::unstack( a b)::stack( a b)
unstack( c b)::put-down( c)::unstack( b a)::put-down( b)::pick-up( a)::stack( a b)::pick-up( c)::stack( c a)::unstack( c a)::stack( c a)::unstack( c a)::put-down( c)::unstack( a b)::stack( a c)::pick-up( b)::stack( b a)::unstack( b a)::stack( b a)::unstack( b a)::put-down( b)
unstack( c b)::put-down( c)::unstack( b a)::stack( b a)::pick-up( c)::stack( c b)::unstack( c b)::put-down( c)::unstack( b a)::stack( b a)::pick-up( c)::stack( c b)::unstack( c b)::stack( c b)
unstack( c b)::put-down( c)::unstack( b a)::put-down( b)
unstack( c b)::put-down( c)::pick-up( c)::put-down( c)::pick-up( c)::put-down( c)::pick-up( c)::put-down( c)::unstack( b a)::stack( b a)::pick-up( c)::put-down( c)
unstack( c b)
unstack( c b)::put-down( c)::pick-up( c)::put-down( c)::pick-up( c)::stack( c b)::unstack( c b)::stack( c b)::unstack( c b)::put-down( c)::pick-up( c)::put-down( c)::unstack( b a)::stack( b a)::pick-up( c)::stack( c b)::unstack( c b)::put-down( c)::unstack( b a)
unstack( c b)::stack( c b)::unstack( c b)::stack( c b)::unstack( c b)::put-down( c)::unstack( b a)::stack( b c)::pick-up( a)::put-down( a)::pick-up( a)::put-down( a)::pick-up( a)::put-down( a)::unstack( b c)
unstack( c b)::stack( c b)::unstack( c b)::stack( c b)::unstack( c b)
