move( n0 n1)::move( n1 n2)::move( n2 n0)::move( n0 n1)::move( n1 n2)::move( n2 n0)::move( n0 n1)::move( n1 n2)::move( n2 n0)::move( n0 n1)::move( n1 n2)::move( n2 n0)::move( n0 n1)::move( n1 n2)::move( n2 n0)
move( n0 n1)
move( n0 n1)::move( n1 n2)::move( n2 n0)
move( n0 n1)::move( n1 n2)::move( n2 n0)
move( n0 n1)::move( n1 n2)::move( n2 n0)::move( n0 n1)::move( n1 n2)::move( n2 n0)::move( n0 n1)::move( n1 n2)::move( n2 n0)
move( n0 n1)::move( n1 n2)::move( n2 n0)::move( n0 n1)::move( n1 n2)::move( n2 n0)::move( n0 n1)
move( n0 n1)::move( n1 n2)::move( n2 n0)::move( n0 n1)::move( n1 n2)::move( n2 n0)::move( n0 n1)::move( n1 n2)::move( n2 n0)::move( n0 n1)::move( n1 n2)::move( n2 n0)::move( n0 n1)
move( n0 n1)::move( n1 n2)::move( n2 n0)::move( n0 n1)::move( n1 n2)::move( n2 n0)::move( n0 n1)::move( n1 n2)::move( n2 n0)::move( n0 n1)::move( n1 n2)::move( n2 n0)::move( n0 n1)
move( n0 n1)::move( n1 n2)::move( n2 n0)::move( n0 n1)::move( n1 n2)::move( n2 n0)::move( n0 n1)::move( n1 n2)::move( n2 n0)
move( n0 n1)::move( n1 n2)::move( n2 n0)::move( n0 n1)::move( n1 n2)::move( n2 n0)::move( n0 n1)::move( n1 n2)::move( n2 n0)::move( n0 n1)::move( n1 n2)::move( n2 n0)::move( n0 n1)::move( n1 n2)
move( n0 n1)::move( n1 n2)::move( n2 n0)::move( n0 n1)::move( n1 n2)::move( n2 n0)::move( n0 n1)::move( n1 n2)
move( n0 n1)::move( n1 n2)::move( n2 n0)::move( n0 n1)::move( n1 n2)::move( n2 n0)::move( n0 n1)::move( n1 n2)::move( n2 n0)::move( n0 n1)::move( n1 n2)::move( n2 n0)::move( n0 n1)::move( n1 n2)::move( n2 n0)::move( n0 n1)
move( n0 n1)::move( n1 n2)::move( n2 n0)::move( n0 n1)::move( n1 n2)::move( n2 n0)::move( n0 n1)::move( n1 n2)::move( n2 n0)::move( n0 n1)::move( n1 n2)::move( n2 n0)::move( n0 n1)::move( n1 n2)::move( n2 n0)::move( n0 n1)::move( n1 n2)::move( n2 n0)::move( n0 n1)::move( n1 n2)
move( n0 n1)
move( n0 n1)::move( n1 n2)::move( n2 n0)::move( n0 n1)::move( n1 n2)::move( n2 n0)::move( n0 n1)::move( n1 n2)::move( n2 n0)::move( n0 n1)::move( n1 n2)::move( n2 n0)::move( n0 n1)::move( n1 n2)::move( n2 n0)::move( n0 n1)::move( n1 n2)::move( n2 n0)
move( n0 n1)::move( n1 n2)::move( n2 n0)::move( n0 n1)::move( n1 n2)::move( n2 n0)::move( n0 n1)::move( n1 n2)::move( n2 n0)::move( n0 n1)::move( n1 n2)::move( n2 n0)::move( n0 n1)::move( n1 n2)::move( n2 n0)
move( n0 n1)::move( n1 n2)::move( n2 n0)::move( n0 n1)::move( n1 n2)::move( n2 n0)::move( n0 n1)::move( n1 n2)::move( n2 n0)::move( n0 n1)
move( n0 n1)::move( n1 n2)::move( n2 n0)::move( n0 n1)::move( n1 n2)::move( n2 n0)::move( n0 n1)::move( n1 n2)::move( n2 n0)::move( n0 n1)::move( n1 n2)::move( n2 n0)::move( n0 n1)::move( n1 n2)::move( n2 n0)::move( n0 n1)::move( n1 n2)::move( n2 n0)
move( n0 n1)::move( n1 n2)::move( n2 n0)::move( n0 n1)::move( n1 n2)::move( n2 n0)::move( n0 n1)::move( n1 n2)::move( n2 n0)::move( n0 n1)::move( n1 n2)::move( n2 n0)::move( n0 n1)::move( n1 n2)::move( n2 n0)::move( n0 n1)
move( n0 n1)
move( n0 n1)::move( n1 n2)::move( n2 n0)::move( n0 n1)::move( n1 n2)::move( n2 n0)::move( n0 n1)
move( n0 n1)::move( n1 n2)::move( n2 n0)
move( n0 n1)::move( n1 n2)::move( n2 n0)::move( n0 n1)::move( n1 n2)::move( n2 n0)::move( n0 n1)
move( n0 n1)::move( n1 n2)::move( n2 n0)::move( n0 n1)
move( n0 n1)::move( n1 n2)::move( n2 n0)::move( n0 n1)::move( n1 n2)::move( n2 n0)::move( n0 n1)
move( n0 n1)::move( n1 n2)::move( n2 n0)::move( n0 n1)::move( n1 n2)::move( n2 n0)::move( n0 n1)::move( n1 n2)::move( n2 n0)::move( n0 n1)::move( n1 n2)::move( n2 n0)::move( n0 n1)::move( n1 n2)::move( n2 n0)::move( n0 n1)::move( n1 n2)::move( n2 n0)
move( n0 n1)
move( n0 n1)::move( n1 n2)::move( n2 n0)::move( n0 n1)::move( n1 n2)::move( n2 n0)::move( n0 n1)::move( n1 n2)::move( n2 n0)::move( n0 n1)::move( n1 n2)::move( n2 n0)::move( n0 n1)::move( n1 n2)::move( n2 n0)::move( n0 n1)::move( n1 n2)::move( n2 n0)::move( n0 n1)::move( n1 n2)
move( n0 n1)::move( n1 n2)::move( n2 n0)::move( n0 n1)::move( n1 n2)::move( n2 n0)::move( n0 n1)::move( n1 n2)::move( n2 n0)::move( n0 n1)
move( n0 n1)
move( n0 n1)::move( n1 n2)::move( n2 n0)::move( n0 n1)::move( n1 n2)::move( n2 n0)::move( n0 n1)::move( n1 n2)::move( n2 n0)::move( n0 n1)::move( n1 n2)::move( n2 n0)::move( n0 n1)::move( n1 n2)
move( n0 n1)::move( n1 n2)::move( n2 n0)
move( n0 n1)::move( n1 n2)::move( n2 n0)::move( n0 n1)::move( n1 n2)::move( n2 n0)::move( n0 n1)::move( n1 n2)::move( n2 n0)::move( n0 n1)::move( n1 n2)::move( n2 n0)::move( n0 n1)
move( n0 n1)::move( n1 n2)::move( n2 n0)
move( n0 n1)::move( n1 n2)::move( n2 n0)::move( n0 n1)::move( n1 n2)::move( n2 n0)::move( n0 n1)::move( n1 n2)::move( n2 n0)::move( n0 n1)::move( n1 n2)::move( n2 n0)::move( n0 n1)::move( n1 n2)::move( n2 n0)::move( n0 n1)::move( n1 n2)::move( n2 n0)
move( n0 n1)::move( n1 n2)::move( n2 n0)::move( n0 n1)::move( n1 n2)::move( n2 n0)::move( n0 n1)::move( n1 n2)::move( n2 n0)::move( n0 n1)::move( n1 n2)::move( n2 n0)::move( n0 n1)::move( n1 n2)::move( n2 n0)::move( n0 n1)
move( n0 n1)::move( n1 n2)::move( n2 n0)::move( n0 n1)::move( n1 n2)::move( n2 n0)::move( n0 n1)::move( n1 n2)::move( n2 n0)
move( n0 n1)::move( n1 n2)::move( n2 n0)::move( n0 n1)::move( n1 n2)::move( n2 n0)::move( n0 n1)::move( n1 n2)::move( n2 n0)::move( n0 n1)::move( n1 n2)::move( n2 n0)::move( n0 n1)::move( n1 n2)::move( n2 n0)::move( n0 n1)
move( n0 n1)::move( n1 n2)::move( n2 n0)::move( n0 n1)::move( n1 n2)::move( n2 n0)::move( n0 n1)::move( n1 n2)::move( n2 n0)::move( n0 n1)::move( n1 n2)::move( n2 n0)::move( n0 n1)
move( n0 n1)::move( n1 n2)::move( n2 n0)::move( n0 n1)::move( n1 n2)::move( n2 n0)::move( n0 n1)::move( n1 n2)::move( n2 n0)::move( n0 n1)::move( n1 n2)::move( n2 n0)::move( n0 n1)::move( n1 n2)
move( n0 n1)::move( n1 n2)::move( n2 n0)::move( n0 n1)
move( n0 n1)::move( n1 n2)
move( n0 n1)::move( n1 n2)::move( n2 n0)::move( n0 n1)::move( n1 n2)::move( n2 n0)::move( n0 n1)::move( n1 n2)::move( n2 n0)::move( n0 n1)::move( n1 n2)::move( n2 n0)::move( n0 n1)::move( n1 n2)::move( n2 n0)::move( n0 n1)::move( n1 n2)::move( n2 n0)::move( n0 n1)
move( n0 n1)::move( n1 n2)::move( n2 n0)::move( n0 n1)::move( n1 n2)::move( n2 n0)::move( n0 n1)::move( n1 n2)::move( n2 n0)::move( n0 n1)::move( n1 n2)::move( n2 n0)::move( n0 n1)::move( n1 n2)::move( n2 n0)::move( n0 n1)::move( n1 n2)::move( n2 n0)::move( n0 n1)
move( n0 n1)::move( n1 n2)::move( n2 n0)::move( n0 n1)::move( n1 n2)::move( n2 n0)::move( n0 n1)::move( n1 n2)::move( n2 n0)::move( n0 n1)::move( n1 n2)::move( n2 n0)::move( n0 n1)::move( n1 n2)::move( n2 n0)::move( n0 n1)::move( n1 n2)
move( n0 n1)::move( n1 n2)::move( n2 n0)::move( n0 n1)::move( n1 n2)::move( n2 n0)::move( n0 n1)::move( n1 n2)::move( n2 n0)::move( n0 n1)::move( n1 n2)
move( n0 n1)::move( n1 n2)::move( n2 n0)::move( n0 n1)::move( n1 n2)::move( n2 n0)::move( n0 n1)::move( n1 n2)::move( n2 n0)::move( n0 n1)::move( n1 n2)
move( n0 n1)::move( n1 n2)::move( n2 n0)::move( n0 n1)::move( n1 n2)::move( n2 n0)::move( n0 n1)::move( n1 n2)::move( n2 n0)::move( n0 n1)::move( n1 n2)
move( n0 n1)::move( n1 n2)::move( n2 n0)::move( n0 n1)::move( n1 n2)::move( n2 n0)::move( n0 n1)::move( n1 n2)::move( n2 n0)::move( n0 n1)::move( n1 n2)::move( n2 n0)
move( n0 n1)::move( n1 n2)::move( n2 n0)
move( n0 n1)::move( n1 n2)::move( n2 n0)::move( n0 n1)::move( n1 n2)::move( n2 n0)::move( n0 n1)::move( n1 n2)::move( n2 n0)::move( n0 n1)::move( n1 n2)::move( n2 n0)
move( n0 n1)::move( n1 n2)::move( n2 n0)::move( n0 n1)::move( n1 n2)::move( n2 n0)::move( n0 n1)::move( n1 n2)::move( n2 n0)::move( n0 n1)::move( n1 n2)::move( n2 n0)::move( n0 n1)::move( n1 n2)
move( n0 n1)::move( n1 n2)::move( n2 n0)
move( n0 n1)::move( n1 n2)::move( n2 n0)::move( n0 n1)::move( n1 n2)::move( n2 n0)::move( n0 n1)
move( n0 n1)::move( n1 n2)::move( n2 n0)::move( n0 n1)::move( n1 n2)::move( n2 n0)::move( n0 n1)::move( n1 n2)::move( n2 n0)::move( n0 n1)::move( n1 n2)::move( n2 n0)::move( n0 n1)::move( n1 n2)::move( n2 n0)::move( n0 n1)::move( n1 n2)
move( n0 n1)::move( n1 n2)::move( n2 n0)::move( n0 n1)::move( n1 n2)
move( n0 n1)::move( n1 n2)::move( n2 n0)::move( n0 n1)::move( n1 n2)::move( n2 n0)::move( n0 n1)::move( n1 n2)::move( n2 n0)
move( n0 n1)::move( n1 n2)::move( n2 n0)::move( n0 n1)
move( n0 n1)::move( n1 n2)::move( n2 n0)::move( n0 n1)::move( n1 n2)::move( n2 n0)::move( n0 n1)::move( n1 n2)::move( n2 n0)::move( n0 n1)::move( n1 n2)::move( n2 n0)::move( n0 n1)::move( n1 n2)::move( n2 n0)::move( n0 n1)::move( n1 n2)::move( n2 n0)::move( n0 n1)::move( n1 n2)
move( n0 n1)::move( n1 n2)::move( n2 n0)::move( n0 n1)::move( n1 n2)::move( n2 n0)::move( n0 n1)::move( n1 n2)::move( n2 n0)::move( n0 n1)
move( n0 n1)::move( n1 n2)::move( n2 n0)::move( n0 n1)::move( n1 n2)::move( n2 n0)::move( n0 n1)::move( n1 n2)::move( n2 n0)::move( n0 n1)::move( n1 n2)::move( n2 n0)::move( n0 n1)::move( n1 n2)::move( n2 n0)::move( n0 n1)::move( n1 n2)::move( n2 n0)::move( n0 n1)
move( n0 n1)::move( n1 n2)::move( n2 n0)
move( n0 n1)::move( n1 n2)::move( n2 n0)::move( n0 n1)::move( n1 n2)::move( n2 n0)::move( n0 n1)::move( n1 n2)::move( n2 n0)::move( n0 n1)::move( n1 n2)
move( n0 n1)::move( n1 n2)::move( n2 n0)::move( n0 n1)::move( n1 n2)
move( n0 n1)::move( n1 n2)::move( n2 n0)::move( n0 n1)::move( n1 n2)::move( n2 n0)::move( n0 n1)::move( n1 n2)::move( n2 n0)
move( n0 n1)::move( n1 n2)::move( n2 n0)::move( n0 n1)::move( n1 n2)::move( n2 n0)::move( n0 n1)::move( n1 n2)
move( n0 n1)::move( n1 n2)::move( n2 n0)::move( n0 n1)::move( n1 n2)::move( n2 n0)::move( n0 n1)::move( n1 n2)::move( n2 n0)::move( n0 n1)::move( n1 n2)
move( n0 n1)::move( n1 n2)::move( n2 n0)::move( n0 n1)::move( n1 n2)::move( n2 n0)::move( n0 n1)::move( n1 n2)::move( n2 n0)::move( n0 n1)::move( n1 n2)::move( n2 n0)::move( n0 n1)::move( n1 n2)::move( n2 n0)::move( n0 n1)::move( n1 n2)::move( n2 n0)
move( n0 n1)
move( n0 n1)::move( n1 n2)::move( n2 n0)::move( n0 n1)::move( n1 n2)::move( n2 n0)::move( n0 n1)::move( n1 n2)::move( n2 n0)::move( n0 n1)::move( n1 n2)::move( n2 n0)::move( n0 n1)::move( n1 n2)
move( n0 n1)::move( n1 n2)::move( n2 n0)::move( n0 n1)::move( n1 n2)::move( n2 n0)::move( n0 n1)::move( n1 n2)::move( n2 n0)::move( n0 n1)::move( n1 n2)::move( n2 n0)::move( n0 n1)
move( n0 n1)::move( n1 n2)::move( n2 n0)::move( n0 n1)::move( n1 n2)::move( n2 n0)::move( n0 n1)::move( n1 n2)::move( n2 n0)::move( n0 n1)::move( n1 n2)::move( n2 n0)::move( n0 n1)::move( n1 n2)
move( n0 n1)::move( n1 n2)::move( n2 n0)::move( n0 n1)::move( n1 n2)::move( n2 n0)::move( n0 n1)::move( n1 n2)::move( n2 n0)::move( n0 n1)::move( n1 n2)::move( n2 n0)::move( n0 n1)::move( n1 n2)::move( n2 n0)::move( n0 n1)::move( n1 n2)::move( n2 n0)
move( n0 n1)::move( n1 n2)::move( n2 n0)::move( n0 n1)::move( n1 n2)::move( n2 n0)::move( n0 n1)::move( n1 n2)::move( n2 n0)::move( n0 n1)::move( n1 n2)::move( n2 n0)::move( n0 n1)::move( n1 n2)::move( n2 n0)::move( n0 n1)::move( n1 n2)::move( n2 n0)::move( n0 n1)::move( n1 n2)
move( n0 n1)::move( n1 n2)::move( n2 n0)::move( n0 n1)::move( n1 n2)::move( n2 n0)::move( n0 n1)::move( n1 n2)::move( n2 n0)::move( n0 n1)::move( n1 n2)::move( n2 n0)::move( n0 n1)
move( n0 n1)::move( n1 n2)::move( n2 n0)::move( n0 n1)::move( n1 n2)::move( n2 n0)::move( n0 n1)::move( n1 n2)::move( n2 n0)::move( n0 n1)::move( n1 n2)::move( n2 n0)::move( n0 n1)::move( n1 n2)::move( n2 n0)
move( n0 n1)::move( n1 n2)::move( n2 n0)::move( n0 n1)::move( n1 n2)::move( n2 n0)::move( n0 n1)::move( n1 n2)::move( n2 n0)::move( n0 n1)
move( n0 n1)::move( n1 n2)::move( n2 n0)::move( n0 n1)::move( n1 n2)::move( n2 n0)::move( n0 n1)::move( n1 n2)::move( n2 n0)::move( n0 n1)::move( n1 n2)::move( n2 n0)::move( n0 n1)::move( n1 n2)
move( n0 n1)::move( n1 n2)::move( n2 n0)::move( n0 n1)::move( n1 n2)::move( n2 n0)::move( n0 n1)::move( n1 n2)::move( n2 n0)::move( n0 n1)::move( n1 n2)::move( n2 n0)::move( n0 n1)::move( n1 n2)::move( n2 n0)::move( n0 n1)::move( n1 n2)
move( n0 n1)::move( n1 n2)::move( n2 n0)::move( n0 n1)::move( n1 n2)::move( n2 n0)::move( n0 n1)::move( n1 n2)::move( n2 n0)::move( n0 n1)::move( n1 n2)::move( n2 n0)::move( n0 n1)::move( n1 n2)
move( n0 n1)::move( n1 n2)
move( n0 n1)::move( n1 n2)::move( n2 n0)::move( n0 n1)::move( n1 n2)::move( n2 n0)::move( n0 n1)::move( n1 n2)::move( n2 n0)::move( n0 n1)::move( n1 n2)::move( n2 n0)::move( n0 n1)::move( n1 n2)
move( n0 n1)::move( n1 n2)::move( n2 n0)::move( n0 n1)::move( n1 n2)::move( n2 n0)::move( n0 n1)::move( n1 n2)::move( n2 n0)::move( n0 n1)::move( n1 n2)::move( n2 n0)::move( n0 n1)
move( n0 n1)::move( n1 n2)::move( n2 n0)::move( n0 n1)::move( n1 n2)::move( n2 n0)::move( n0 n1)::move( n1 n2)::move( n2 n0)::move( n0 n1)::move( n1 n2)::move( n2 n0)::move( n0 n1)::move( n1 n2)::move( n2 n0)::move( n0 n1)
move( n0 n1)::move( n1 n2)::move( n2 n0)::move( n0 n1)::move( n1 n2)::move( n2 n0)::move( n0 n1)::move( n1 n2)::move( n2 n0)::move( n0 n1)::move( n1 n2)::move( n2 n0)::move( n0 n1)
move( n0 n1)::move( n1 n2)
move( n0 n1)::move( n1 n2)::move( n2 n0)::move( n0 n1)::move( n1 n2)::move( n2 n0)
move( n0 n1)::move( n1 n2)::move( n2 n0)::move( n0 n1)::move( n1 n2)::move( n2 n0)::move( n0 n1)::move( n1 n2)::move( n2 n0)::move( n0 n1)::move( n1 n2)::move( n2 n0)::move( n0 n1)::move( n1 n2)::move( n2 n0)
move( n0 n1)::move( n1 n2)::move( n2 n0)::move( n0 n1)::move( n1 n2)::move( n2 n0)::move( n0 n1)::move( n1 n2)::move( n2 n0)::move( n0 n1)::move( n1 n2)::move( n2 n0)::move( n0 n1)::move( n1 n2)::move( n2 n0)::move( n0 n1)
move( n0 n1)::move( n1 n2)::move( n2 n0)::move( n0 n1)::move( n1 n2)::move( n2 n0)::move( n0 n1)::move( n1 n2)
move( n0 n1)::move( n1 n2)
move( n0 n1)::move( n1 n2)::move( n2 n0)::move( n0 n1)::move( n1 n2)::move( n2 n0)::move( n0 n1)::move( n1 n2)::move( n2 n0)::move( n0 n1)::move( n1 n2)::move( n2 n0)::move( n0 n1)::move( n1 n2)::move( n2 n0)
move( n0 n1)::move( n1 n2)::move( n2 n0)::move( n0 n1)::move( n1 n2)::move( n2 n0)::move( n0 n1)::move( n1 n2)
move( n0 n1)::move( n1 n2)::move( n2 n0)::move( n0 n1)
move( n0 n1)::move( n1 n2)::move( n2 n0)::move( n0 n1)::move( n1 n2)::move( n2 n0)::move( n0 n1)::move( n1 n2)::move( n2 n0)::move( n0 n1)::move( n1 n2)::move( n2 n0)::move( n0 n1)::move( n1 n2)::move( n2 n0)::move( n0 n1)::move( n1 n2)::move( n2 n0)::move( n0 n1)
move( n0 n1)
move( n0 n1)::move( n1 n2)::move( n2 n0)::move( n0 n1)::move( n1 n2)::move( n2 n0)::move( n0 n1)::move( n1 n2)::move( n2 n0)::move( n0 n1)::move( n1 n2)::move( n2 n0)::move( n0 n1)
move( n0 n1)::move( n1 n2)
move( n0 n1)::move( n1 n2)::move( n2 n0)::move( n0 n1)::move( n1 n2)::move( n2 n0)::move( n0 n1)::move( n1 n2)::move( n2 n0)::move( n0 n1)::move( n1 n2)::move( n2 n0)::move( n0 n1)::move( n1 n2)::move( n2 n0)::move( n0 n1)
move( n0 n1)::move( n1 n2)::move( n2 n0)::move( n0 n1)::move( n1 n2)::move( n2 n0)::move( n0 n1)::move( n1 n2)::move( n2 n0)::move( n0 n1)::move( n1 n2)::move( n2 n0)::move( n0 n1)::move( n1 n2)::move( n2 n0)::move( n0 n1)::move( n1 n2)::move( n2 n0)::move( n0 n1)
