jump-new-move( pos-0-0 pos-1-0 pos-2-0)::end-move( pos-1-0)::end-move( pos-2-0)::jump-new-move( pos-2-2 pos-1-2 pos-0-2)::end-move( pos-0-2)::jump-new-move( pos-2-0 pos-2-1 pos-2-2)::end-move( pos-2-2)::jump-new-move( pos-0-2 pos-0-1 pos-0-0)::jump-new-move( pos-0-0 pos-1-0 pos-2-0)
end-move( pos-2-0)::jump-new-move( pos-0-0 pos-1-0 pos-2-0)::end-move( pos-2-0)::jump-new-move( pos-2-2 pos-1-2 pos-0-2)::jump-new-move( pos-2-2 pos-1-2 pos-0-2)::jump-continue-move( pos-0-2 pos-0-1 pos-0-0)::jump-new-move( pos-2-2 pos-1-2 pos-0-2)::jump-new-move( pos-0-2 pos-0-1 pos-0-0)::jump-new-move( pos-1-0 pos-1-1 pos-1-2)::jump-continue-move( pos-1-0 pos-1-1 pos-1-2)
jump-new-move( pos-2-2 pos-1-2 pos-0-2)::end-move( pos-0-2)::jump-new-move( pos-0-0 pos-1-0 pos-2-0)::jump-continue-move( pos-0-0 pos-0-1 pos-0-2)
jump-new-move( pos-2-2 pos-1-2 pos-0-2)::end-move( pos-0-2)::jump-new-move( pos-1-0 pos-1-1 pos-1-2)::end-move( pos-1-2)::jump-continue-move( pos-2-0 pos-1-0 pos-0-0)
jump-new-move( pos-0-0 pos-0-1 pos-0-2)::end-move( pos-0-2)::jump-new-move( pos-2-2 pos-2-1 pos-2-0)::jump-continue-move( pos-2-0 pos-1-0 pos-0-0)::end-move( pos-0-2)
jump-new-move( pos-2-2 pos-2-1 pos-2-0)::end-move( pos-2-0)::jump-new-move( pos-0-1 pos-1-1 pos-2-1)::end-move( pos-0-0)::end-move( pos-2-1)::jump-continue-move( pos-1-2 pos-1-1 pos-1-0)::jump-new-move( pos-2-0 pos-2-1 pos-2-2)
jump-new-move( pos-0-0 pos-1-0 pos-2-0)::end-move( pos-2-0)::jump-new-move( pos-1-2 pos-1-1 pos-1-0)::end-move( pos-1-0)::jump-new-move( pos-2-0 pos-1-0 pos-0-0)::jump-continue-move( pos-0-0 pos-0-1 pos-0-2)::jump-new-move( pos-0-0 pos-1-0 pos-2-0)
jump-continue-move( pos-2-1 pos-1-1 pos-0-1)::jump-new-move( pos-2-2 pos-1-2 pos-0-2)::jump-continue-move( pos-0-2 pos-1-2 pos-2-2)
jump-new-move( pos-2-2 pos-1-2 pos-0-2)::end-move( pos-0-2)::end-move( pos-1-2)
jump-new-move( pos-2-2 pos-1-2 pos-0-2)::jump-continue-move( pos-0-0 pos-1-0 pos-2-0)
jump-new-move( pos-0-0 pos-0-1 pos-0-2)::end-move( pos-0-2)::jump-continue-move( pos-2-2 pos-2-1 pos-2-0)::jump-continue-move( pos-0-0 pos-0-1 pos-0-2)::jump-new-move( pos-2-1 pos-1-1 pos-0-1)::end-move( pos-0-1)
jump-new-move( pos-2-2 pos-2-1 pos-2-0)::end-move( pos-2-0)::jump-new-move( pos-0-0 pos-0-1 pos-0-2)::jump-continue-move( pos-0-2 pos-1-2 pos-2-2)::end-move( pos-0-2)
jump-new-move( pos-0-0 pos-1-0 pos-2-0)::end-move( pos-2-1)::end-move( pos-2-0)
jump-continue-move( pos-0-2 pos-0-1 pos-0-0)::jump-new-move( pos-0-0 pos-1-0 pos-2-0)::end-move( pos-2-0)::jump-new-move( pos-1-2 pos-1-1 pos-1-0)::end-move( pos-1-0)::jump-new-move( pos-2-0 pos-1-0 pos-0-0)::jump-continue-move( pos-0-0 pos-0-1 pos-0-2)
jump-new-move( pos-2-2 pos-1-2 pos-0-2)::end-move( pos-1-2)::end-move( pos-0-2)::jump-new-move( pos-1-0 pos-1-1 pos-1-2)::end-move( pos-1-2)
jump-new-move( pos-2-2 pos-2-1 pos-2-0)::jump-continue-move( pos-0-0 pos-0-1 pos-0-2)::end-move( pos-2-0)
jump-new-move( pos-0-0 pos-0-1 pos-0-2)::jump-continue-move( pos-2-0 pos-1-0 pos-0-0)::end-move( pos-0-2)::jump-continue-move( pos-0-0 pos-1-0 pos-2-0)::jump-new-move( pos-2-2 pos-2-1 pos-2-0)::jump-continue-move( pos-0-0 pos-1-0 pos-2-0)
end-move( pos-0-1)::end-move( pos-2-1)::jump-new-move( pos-0-0 pos-0-1 pos-0-2)
jump-new-move( pos-0-0 pos-0-1 pos-0-2)::end-move( pos-0-2)::jump-new-move( pos-2-1 pos-1-1 pos-0-1)::jump-continue-move( pos-2-0 pos-2-1 pos-2-2)::end-move( pos-0-1)
jump-new-move( pos-0-0 pos-1-0 pos-2-0)::end-move( pos-2-0)::jump-new-move( pos-2-2 pos-1-2 pos-0-2)::jump-continue-move( pos-1-2 pos-1-1 pos-1-0)::end-move( pos-0-2)
jump-new-move( pos-0-2 pos-1-2 pos-2-2)
jump-new-move( pos-0-2 pos-0-1 pos-0-0)::jump-new-move( pos-2-2 pos-1-2 pos-0-2)::end-move( pos-0-2)::jump-new-move( pos-1-0 pos-1-1 pos-1-2)::jump-new-move( pos-0-1 pos-1-1 pos-2-1)
jump-continue-move( pos-0-0 pos-1-0 pos-2-0)::jump-new-move( pos-0-0 pos-0-1 pos-0-2)
jump-new-move( pos-0-0 pos-0-1 pos-0-2)::end-move( pos-0-2)::jump-new-move( pos-2-1 pos-1-1 pos-0-1)::end-move( pos-0-1)::jump-new-move( pos-0-2 pos-0-1 pos-0-0)::jump-continue-move( pos-0-2 pos-1-2 pos-2-2)
jump-new-move( pos-2-2 pos-2-1 pos-2-0)::jump-continue-move( pos-2-2 pos-2-1 pos-2-0)::jump-new-move( pos-0-2 pos-0-1 pos-0-0)
jump-new-move( pos-2-2 pos-2-1 pos-2-0)::end-move( pos-2-0)::jump-new-move( pos-0-1 pos-1-1 pos-2-1)::end-move( pos-2-1)::jump-new-move( pos-2-0 pos-1-0 pos-0-0)
jump-new-move( pos-2-2 pos-2-1 pos-2-0)::end-move( pos-2-0)::jump-new-move( pos-2-1 pos-1-1 pos-0-1)::jump-continue-move( pos-2-2 pos-2-1 pos-2-0)::jump-new-move( pos-0-1 pos-1-1 pos-2-1)
jump-continue-move( pos-1-2 pos-1-1 pos-1-0)::jump-new-move( pos-2-2 pos-2-1 pos-2-0)::jump-new-move( pos-0-1 pos-1-1 pos-2-1)::end-move( pos-2-0)
jump-continue-move( pos-2-2 pos-2-1 pos-2-0)::jump-new-move( pos-0-0 pos-1-0 pos-2-0)::end-move( pos-2-0)::jump-new-move( pos-1-2 pos-1-1 pos-1-0)::end-move( pos-1-0)::jump-new-move( pos-2-0 pos-1-0 pos-0-0)::jump-continue-move( pos-0-0 pos-0-1 pos-0-2)::jump-continue-move( pos-2-0 pos-2-1 pos-2-2)
jump-new-move( pos-2-2 pos-2-1 pos-2-0)::end-move( pos-2-0)::end-move( pos-2-2)
jump-new-move( pos-0-0 pos-0-1 pos-0-2)::end-move( pos-0-1)::end-move( pos-0-2)::jump-continue-move( pos-2-0 pos-2-1 pos-2-2)::jump-continue-move( pos-0-1 pos-1-1 pos-2-1)::jump-new-move( pos-2-2 pos-2-1 pos-2-0)::jump-continue-move( pos-2-0 pos-1-0 pos-0-0)
jump-new-move( pos-1-2 pos-1-1 pos-1-0)::jump-continue-move( pos-0-0 pos-1-0 pos-2-0)
jump-continue-move( pos-0-2 pos-0-1 pos-0-0)
jump-new-move( pos-2-0 pos-1-0 pos-0-0)
end-move( pos-0-1)
jump-new-move( pos-2-2 pos-2-1 pos-2-0)::end-move( pos-2-0)::jump-new-move( pos-0-0 pos-0-1 pos-0-2)::end-move( pos-0-2)::jump-new-move( pos-0-0 pos-1-0 pos-2-0)
jump-new-move( pos-2-2 pos-1-2 pos-0-2)::end-move( pos-0-2)::jump-new-move( pos-0-0 pos-1-0 pos-2-0)::end-move( pos-1-2)::end-move( pos-2-0)::jump-new-move( pos-0-2 pos-0-1 pos-0-0)
jump-new-move( pos-0-0 pos-0-1 pos-0-2)::end-move( pos-0-2)::jump-new-move( pos-2-0 pos-2-1 pos-2-2)
jump-new-move( pos-2-2 pos-2-1 pos-2-0)::end-move( pos-2-0)::jump-new-move( pos-0-0 pos-0-1 pos-0-2)::jump-continue-move( pos-2-1 pos-1-1 pos-0-1)
jump-new-move( pos-2-2 pos-2-1 pos-2-0)::end-move( pos-2-0)::jump-new-move( pos-0-1 pos-1-1 pos-2-1)::end-move( pos-2-1)::jump-new-move( pos-2-2 pos-1-2 pos-0-2)
jump-new-move( pos-1-2 pos-1-1 pos-1-0)::jump-new-move( pos-2-2 pos-1-2 pos-0-2)::end-move( pos-0-2)
jump-new-move( pos-0-0 pos-0-1 pos-0-2)::end-move( pos-0-2)::jump-new-move( pos-2-2 pos-2-1 pos-2-0)::end-move( pos-2-2)
jump-new-move( pos-2-0 pos-1-0 pos-0-0)
jump-new-move( pos-0-0 pos-0-1 pos-0-2)::jump-continue-move( pos-2-1 pos-1-1 pos-0-1)
jump-continue-move( pos-2-0 pos-1-0 pos-0-0)
jump-new-move( pos-2-2 pos-1-2 pos-0-2)::jump-new-move( pos-2-0 pos-2-1 pos-2-2)::end-move( pos-0-2)::jump-new-move( pos-0-0 pos-1-0 pos-2-0)::jump-continue-move( pos-2-0 pos-2-1 pos-2-2)::jump-new-move( pos-0-2 pos-0-1 pos-0-0)::end-move( pos-0-1)
jump-new-move( pos-2-2 pos-1-2 pos-0-2)::end-move( pos-0-2)::end-move( pos-2-0)
jump-new-move( pos-0-0 pos-1-0 pos-2-0)::end-move( pos-2-0)::jump-new-move( pos-2-2 pos-1-2 pos-0-2)::jump-continue-move( pos-0-2 pos-0-1 pos-0-0)::jump-continue-move( pos-2-1 pos-1-1 pos-0-1)
jump-new-move( pos-0-0 pos-0-1 pos-0-2)::jump-new-move( pos-0-0 pos-1-0 pos-2-0)::end-move( pos-0-2)::jump-new-move( pos-2-1 pos-1-1 pos-0-1)
jump-new-move( pos-0-0 pos-1-0 pos-2-0)::end-move( pos-2-0)::jump-continue-move( pos-0-0 pos-1-0 pos-2-0)::jump-new-move( pos-2-2 pos-1-2 pos-0-2)::end-move( pos-0-2)::jump-new-move( pos-2-0 pos-2-1 pos-2-2)::end-move( pos-2-2)::jump-new-move( pos-0-1 pos-1-1 pos-2-1)::end-move( pos-2-1)
jump-new-move( pos-0-0 pos-0-1 pos-0-2)::end-move( pos-1-0)
jump-continue-move( pos-0-1 pos-1-1 pos-2-1)::jump-new-move( pos-0-0 pos-0-1 pos-0-2)::end-move( pos-0-2)::jump-new-move( pos-2-1 pos-1-1 pos-0-1)::end-move( pos-0-0)::end-move( pos-0-1)::jump-new-move( pos-0-2 pos-0-1 pos-0-0)
jump-new-move( pos-2-2 pos-1-2 pos-0-2)::end-move( pos-0-2)::jump-new-move( pos-1-0 pos-1-1 pos-1-2)::end-move( pos-1-2)::end-move( pos-2-1)
end-move( pos-2-1)::jump-new-move( pos-2-2 pos-2-1 pos-2-0)::end-move( pos-2-0)::jump-new-move( pos-0-1 pos-1-1 pos-2-1)::end-move( pos-2-1)::jump-new-move( pos-2-0 pos-2-1 pos-2-2)::jump-continue-move( pos-2-2 pos-1-2 pos-0-2)::jump-new-move( pos-1-2 pos-1-1 pos-1-0)::end-move( pos-2-0)
end-move( pos-2-2)::jump-new-move( pos-2-2 pos-2-1 pos-2-0)::end-move( pos-2-0)
jump-new-move( pos-2-2 pos-1-2 pos-0-2)::end-move( pos-0-2)::jump-new-move( pos-1-0 pos-1-1 pos-1-2)::end-move( pos-1-2)::end-move( pos-2-1)
jump-new-move( pos-0-0 pos-0-1 pos-0-2)::end-move( pos-0-2)::jump-new-move( pos-2-2 pos-2-1 pos-2-0)::end-move( pos-2-0)::jump-new-move( pos-2-0 pos-1-0 pos-0-0)::end-move( pos-0-0)::jump-new-move( pos-1-2 pos-1-1 pos-1-0)::end-move( pos-1-0)::jump-new-move( pos-0-0 pos-1-0 pos-2-0)::end-move( pos-2-0)::jump-continue-move( pos-0-0 pos-1-0 pos-2-0)
jump-new-move( pos-0-0 pos-1-0 pos-2-0)::end-move( pos-2-0)::jump-new-move( pos-1-2 pos-1-1 pos-1-0)::end-move( pos-1-0)::jump-new-move( pos-2-0 pos-1-0 pos-0-0)::end-move( pos-0-0)::jump-new-move( pos-2-2 pos-2-1 pos-2-0)::end-move( pos-2-0)::jump-new-move( pos-0-0 pos-0-1 pos-0-2)::end-move( pos-0-2)::jump-new-move( pos-0-1 pos-1-1 pos-2-1)
jump-new-move( pos-2-2 pos-2-1 pos-2-0)::jump-continue-move( pos-0-2 pos-1-2 pos-2-2)::end-move( pos-2-0)::jump-new-move( pos-0-1 pos-1-1 pos-2-1)::end-move( pos-2-1)::jump-new-move( pos-2-0 pos-2-1 pos-2-2)::jump-continue-move( pos-2-2 pos-1-2 pos-0-2)::end-move( pos-2-0)::jump-continue-move( pos-0-2 pos-0-1 pos-0-0)::jump-continue-move( pos-1-2 pos-1-1 pos-1-0)
jump-new-move( pos-2-2 pos-1-2 pos-0-2)::end-move( pos-0-2)::jump-new-move( pos-0-0 pos-1-0 pos-2-0)::jump-continue-move( pos-2-0 pos-2-1 pos-2-2)::jump-continue-move( pos-0-0 pos-0-1 pos-0-2)
jump-new-move( pos-0-0 pos-0-1 pos-0-2)::end-move( pos-0-2)::jump-new-move( pos-2-2 pos-2-1 pos-2-0)::jump-continue-move( pos-2-0 pos-1-0 pos-0-0)::jump-continue-move( pos-1-0 pos-1-1 pos-1-2)::end-move( pos-2-0)::jump-new-move( pos-2-0 pos-2-1 pos-2-2)::jump-new-move( pos-0-0 pos-1-0 pos-2-0)::jump-new-move( pos-2-2 pos-1-2 pos-0-2)::jump-new-move( pos-0-1 pos-1-1 pos-2-1)
jump-new-move( pos-2-2 pos-1-2 pos-0-2)::end-move( pos-0-2)::jump-new-move( pos-1-0 pos-1-1 pos-1-2)::end-move( pos-1-2)::jump-new-move( pos-0-2 pos-1-2 pos-2-2)::end-move( pos-2-2)::jump-new-move( pos-2-2 pos-2-1 pos-2-0)::end-move( pos-2-0)::end-move( pos-0-1)
jump-new-move( pos-2-2 pos-2-1 pos-2-0)::end-move( pos-2-0)::jump-new-move( pos-0-0 pos-0-1 pos-0-2)::jump-continue-move( pos-0-2 pos-1-2 pos-2-2)::end-move( pos-1-0)::end-move( pos-2-2)::jump-continue-move( pos-0-0 pos-1-0 pos-2-0)::jump-continue-move( pos-1-2 pos-1-1 pos-1-0)::jump-new-move( pos-0-1 pos-1-1 pos-2-1)
jump-new-move( pos-2-2 pos-2-1 pos-2-0)::jump-continue-move( pos-0-0 pos-1-0 pos-2-0)::end-move( pos-2-0)::jump-continue-move( pos-2-1 pos-1-1 pos-0-1)::jump-new-move( pos-0-1 pos-1-1 pos-2-1)::end-move( pos-2-1)::jump-new-move( pos-2-0 pos-2-1 pos-2-2)
jump-new-move( pos-0-0 pos-0-1 pos-0-2)::end-move( pos-0-2)::jump-new-move( pos-2-2 pos-2-1 pos-2-0)::end-move( pos-2-0)::jump-new-move( pos-2-0 pos-1-0 pos-0-0)::end-move( pos-0-0)::jump-new-move( pos-0-2 pos-1-2 pos-2-2)::end-move( pos-2-2)::jump-continue-move( pos-2-2 pos-2-1 pos-2-0)
jump-new-move( pos-0-0 pos-1-0 pos-2-0)::jump-continue-move( pos-2-1 pos-1-1 pos-0-1)::end-move( pos-2-0)::jump-new-move( pos-2-2 pos-1-2 pos-0-2)::jump-continue-move( pos-0-2 pos-0-1 pos-0-0)::jump-new-move( pos-0-0 pos-0-1 pos-0-2)::jump-new-move( pos-1-2 pos-1-1 pos-1-0)::jump-continue-move( pos-2-0 pos-1-0 pos-0-0)::jump-new-move( pos-0-0 pos-1-0 pos-2-0)
jump-new-move( pos-0-0 pos-0-1 pos-0-2)::jump-continue-move( pos-2-2 pos-1-2 pos-0-2)::end-move( pos-0-2)::jump-new-move( pos-2-2 pos-2-1 pos-2-0)::jump-continue-move( pos-2-0 pos-1-0 pos-0-0)::jump-new-move( pos-1-0 pos-1-1 pos-1-2)::jump-new-move( pos-0-0 pos-1-0 pos-2-0)
jump-new-move( pos-2-2 pos-1-2 pos-0-2)::end-move( pos-0-2)::jump-new-move( pos-1-0 pos-1-1 pos-1-2)::end-move( pos-1-2)::jump-new-move( pos-0-2 pos-1-2 pos-2-2)::end-move( pos-1-2)
jump-new-move( pos-0-0 pos-0-1 pos-0-2)::end-move( pos-0-2)::jump-new-move( pos-2-1 pos-1-1 pos-0-1)::jump-new-move( pos-2-2 pos-2-1 pos-2-0)
jump-new-move( pos-0-0 pos-1-0 pos-2-0)::end-move( pos-2-0)::end-move( pos-2-2)::jump-new-move( pos-1-2 pos-1-1 pos-1-0)::end-move( pos-1-0)::jump-new-move( pos-2-0 pos-1-0 pos-0-0)::end-move( pos-0-0)::jump-new-move( pos-2-2 pos-2-1 pos-2-0)::jump-continue-move( pos-2-2 pos-2-1 pos-2-0)
jump-new-move( pos-0-0 pos-0-1 pos-0-2)::end-move( pos-0-2)::jump-new-move( pos-2-1 pos-1-1 pos-0-1)::end-move( pos-0-1)::end-move( pos-0-1)::jump-new-move( pos-2-1 pos-1-1 pos-0-1)::jump-new-move( pos-0-2 pos-0-1 pos-0-0)
jump-new-move( pos-2-0 pos-1-0 pos-0-0)::jump-new-move( pos-2-2 pos-2-1 pos-2-0)::end-move( pos-2-0)::jump-new-move( pos-2-2 pos-2-1 pos-2-0)::jump-new-move( pos-0-0 pos-0-1 pos-0-2)
jump-new-move( pos-0-0 pos-0-1 pos-0-2)::end-move( pos-0-2)::jump-new-move( pos-2-2 pos-2-1 pos-2-0)::jump-continue-move( pos-2-0 pos-1-0 pos-0-0)::jump-new-move( pos-2-2 pos-2-1 pos-2-0)
jump-new-move( pos-0-0 pos-1-0 pos-2-0)::end-move( pos-2-0)::jump-new-move( pos-1-2 pos-1-1 pos-1-0)::end-move( pos-1-0)::jump-continue-move( pos-0-2 pos-1-2 pos-2-2)::jump-continue-move( pos-2-0 pos-1-0 pos-0-0)::jump-new-move( pos-2-0 pos-1-0 pos-0-0)::end-move( pos-0-0)::jump-continue-move( pos-2-0 pos-2-1 pos-2-2)
jump-continue-move( pos-0-0 pos-1-0 pos-2-0)::jump-new-move( pos-2-0 pos-1-0 pos-0-0)::jump-new-move( pos-2-2 pos-2-1 pos-2-0)
jump-new-move( pos-2-2 pos-2-1 pos-2-0)::end-move( pos-2-0)::jump-new-move( pos-0-0 pos-0-1 pos-0-2)::jump-continue-move( pos-0-2 pos-1-2 pos-2-2)::jump-new-move( pos-2-2 pos-1-2 pos-0-2)::end-move( pos-2-1)::end-move( pos-2-2)
jump-new-move( pos-0-0 pos-0-1 pos-0-2)::end-move( pos-0-0)::end-move( pos-0-2)::jump-new-move( pos-2-1 pos-1-1 pos-0-1)::end-move( pos-0-1)
jump-new-move( pos-2-2 pos-2-1 pos-2-0)::end-move( pos-2-0)::jump-continue-move( pos-2-1 pos-1-1 pos-0-1)
jump-new-move( pos-0-0 pos-1-0 pos-2-0)::jump-continue-move( pos-2-0 pos-2-1 pos-2-2)::end-move( pos-2-0)::jump-new-move( pos-1-2 pos-1-1 pos-1-0)::end-move( pos-0-2)::jump-continue-move( pos-1-2 pos-1-1 pos-1-0)::end-move( pos-1-0)::jump-new-move( pos-2-0 pos-1-0 pos-0-0)::end-move( pos-0-0)
jump-new-move( pos-2-2 pos-2-1 pos-2-0)::end-move( pos-2-0)::jump-new-move( pos-0-0 pos-0-1 pos-0-2)::jump-continue-move( pos-0-2 pos-1-2 pos-2-2)::jump-new-move( pos-1-0 pos-1-1 pos-1-2)::end-move( pos-2-0)::end-move( pos-0-1)::jump-continue-move( pos-0-0 pos-1-0 pos-2-0)::jump-new-move( pos-2-0 pos-2-1 pos-2-2)::end-move( pos-1-0)
jump-new-move( pos-0-0 pos-0-1 pos-0-2)::end-move( pos-0-2)::jump-new-move( pos-2-2 pos-2-1 pos-2-0)::end-move( pos-2-0)::jump-new-move( pos-2-0 pos-1-0 pos-0-0)::end-move( pos-0-0)::jump-new-move( pos-0-2 pos-1-2 pos-2-2)::end-move( pos-2-2)::jump-new-move( pos-2-0 pos-2-1 pos-2-2)::jump-new-move( pos-0-0 pos-1-0 pos-2-0)
jump-new-move( pos-2-2 pos-2-1 pos-2-0)::end-move( pos-2-0)::jump-new-move( pos-0-0 pos-0-1 pos-0-2)::jump-new-move( pos-2-2 pos-2-1 pos-2-0)::end-move( pos-0-2)::jump-continue-move( pos-0-2 pos-0-1 pos-0-0)::jump-new-move( pos-2-0 pos-1-0 pos-0-0)::end-move( pos-0-0)::jump-new-move( pos-0-2 pos-1-2 pos-2-2)::end-move( pos-2-2)
jump-new-move( pos-2-2 pos-1-2 pos-0-2)::end-move( pos-0-2)::jump-new-move( pos-0-2 pos-1-2 pos-2-2)::jump-new-move( pos-0-0 pos-1-0 pos-2-0)::jump-new-move( pos-2-0 pos-2-1 pos-2-2)::jump-continue-move( pos-2-0 pos-2-1 pos-2-2)::jump-new-move( pos-2-2 pos-2-1 pos-2-0)::jump-new-move( pos-2-1 pos-1-1 pos-0-1)::jump-continue-move( pos-2-2 pos-1-2 pos-0-2)
jump-new-move( pos-2-2 pos-2-1 pos-2-0)::end-move( pos-2-0)::jump-new-move( pos-0-1 pos-1-1 pos-2-1)::end-move( pos-2-1)::jump-new-move( pos-2-0 pos-2-1 pos-2-2)::end-move( pos-2-2)::jump-new-move( pos-2-2 pos-1-2 pos-0-2)::jump-continue-move( pos-2-2 pos-1-2 pos-0-2)
jump-new-move( pos-2-2 pos-2-1 pos-2-0)::jump-new-move( pos-1-0 pos-1-1 pos-1-2)::end-move( pos-2-0)::jump-new-move( pos-2-2 pos-1-2 pos-0-2)::jump-new-move( pos-0-0 pos-0-1 pos-0-2)::end-move( pos-0-2)::jump-new-move( pos-0-2 pos-1-2 pos-2-2)::end-move( pos-2-2)::jump-new-move( pos-1-0 pos-1-1 pos-1-2)
jump-continue-move( pos-1-0 pos-1-1 pos-1-2)::jump-new-move( pos-0-0 pos-0-1 pos-0-2)::end-move( pos-0-2)::jump-new-move( pos-2-2 pos-2-1 pos-2-0)::jump-continue-move( pos-2-0 pos-1-0 pos-0-0)::jump-new-move( pos-2-0 pos-1-0 pos-0-0)::jump-continue-move( pos-2-0 pos-1-0 pos-0-0)::jump-new-move( pos-0-0 pos-1-0 pos-2-0)
jump-new-move( pos-0-0 pos-1-0 pos-2-0)::jump-new-move( pos-0-0 pos-0-1 pos-0-2)::end-move( pos-2-0)::jump-new-move( pos-2-2 pos-1-2 pos-0-2)::jump-continue-move( pos-0-2 pos-0-1 pos-0-0)::jump-continue-move( pos-0-2 pos-1-2 pos-2-2)::jump-continue-move( pos-2-1 pos-1-1 pos-0-1)::end-move( pos-0-1)
jump-new-move( pos-2-2 pos-2-1 pos-2-0)::jump-continue-move( pos-0-0 pos-1-0 pos-2-0)
jump-new-move( pos-0-0 pos-0-1 pos-0-2)::end-move( pos-0-2)::jump-new-move( pos-2-1 pos-1-1 pos-0-1)::end-move( pos-0-1)::jump-new-move( pos-0-2 pos-0-1 pos-0-0)::jump-continue-move( pos-0-0 pos-1-0 pos-2-0)::end-move( pos-0-1)
jump-new-move( pos-0-0 pos-1-0 pos-2-0)::end-move( pos-2-0)::jump-new-move( pos-0-0 pos-1-0 pos-2-0)::jump-new-move( pos-2-2 pos-1-2 pos-0-2)::jump-continue-move( pos-0-2 pos-0-1 pos-0-0)::jump-continue-move( pos-0-1 pos-1-1 pos-2-1)::jump-new-move( pos-2-0 pos-2-1 pos-2-2)
jump-new-move( pos-0-0 pos-1-0 pos-2-0)::end-move( pos-2-0)::jump-new-move( pos-2-2 pos-1-2 pos-0-2)::jump-continue-move( pos-0-2 pos-0-1 pos-0-0)::jump-continue-move( pos-2-2 pos-1-2 pos-0-2)::end-move( pos-0-1)
jump-continue-move( pos-1-0 pos-1-1 pos-1-2)
jump-new-move( pos-2-2 pos-1-2 pos-0-2)::end-move( pos-0-2)::jump-new-move( pos-0-0 pos-1-0 pos-2-0)::jump-continue-move( pos-2-0 pos-2-1 pos-2-2)::end-move( pos-2-1)
jump-new-move( pos-0-0 pos-0-1 pos-0-2)::end-move( pos-0-2)::jump-new-move( pos-2-2 pos-2-1 pos-2-0)::end-move( pos-2-0)::jump-new-move( pos-0-2 pos-1-2 pos-2-2)::end-move( pos-2-2)::jump-new-move( pos-2-0 pos-1-0 pos-0-0)::end-move( pos-0-0)::jump-continue-move( pos-1-2 pos-1-1 pos-1-0)
jump-new-move( pos-0-0 pos-0-1 pos-0-2)::end-move( pos-0-2)::jump-new-move( pos-0-0 pos-1-0 pos-2-0)::jump-new-move( pos-2-2 pos-2-1 pos-2-0)::jump-continue-move( pos-2-0 pos-1-0 pos-0-0)::end-move( pos-0-1)::jump-new-move( pos-1-0 pos-1-1 pos-1-2)::jump-continue-move( pos-2-0 pos-2-1 pos-2-2)::jump-new-move( pos-2-1 pos-1-1 pos-0-1)::jump-continue-move( pos-0-0 pos-1-0 pos-2-0)
jump-new-move( pos-2-2 pos-1-2 pos-0-2)::end-move( pos-0-2)::jump-new-move( pos-1-0 pos-1-1 pos-1-2)::end-move( pos-1-2)::jump-new-move( pos-0-2 pos-1-2 pos-2-2)::end-move( pos-2-2)::jump-new-move( pos-2-2 pos-2-1 pos-2-0)::end-move( pos-2-0)::jump-new-move( pos-0-0 pos-0-1 pos-0-2)::end-move( pos-0-2)::jump-new-move( pos-2-2 pos-2-1 pos-2-0)
jump-new-move( pos-2-2 pos-1-2 pos-0-2)::jump-new-move( pos-1-0 pos-1-1 pos-1-2)::end-move( pos-0-2)::jump-new-move( pos-1-0 pos-1-1 pos-1-2)::end-move( pos-1-2)::jump-new-move( pos-0-2 pos-1-2 pos-2-2)
jump-new-move( pos-2-2 pos-2-1 pos-2-0)::end-move( pos-2-0)::jump-new-move( pos-0-0 pos-0-1 pos-0-2)::jump-continue-move( pos-0-2 pos-1-2 pos-2-2)::jump-new-move( pos-1-2 pos-1-1 pos-1-0)
jump-new-move( pos-0-0 pos-1-0 pos-2-0)::end-move( pos-2-0)::jump-new-move( pos-2-2 pos-1-2 pos-0-2)::end-move( pos-0-2)::jump-new-move( pos-0-2 pos-0-1 pos-0-0)::end-move( pos-2-1)::end-move( pos-0-0)::jump-new-move( pos-2-1 pos-1-1 pos-0-1)
jump-new-move( pos-0-0 pos-0-1 pos-0-2)::end-move( pos-2-1)::end-move( pos-0-2)::jump-new-move( pos-2-2 pos-2-1 pos-2-0)::end-move( pos-2-0)::jump-new-move( pos-2-0 pos-1-0 pos-0-0)::end-move( pos-0-0)::jump-new-move( pos-0-2 pos-1-2 pos-2-2)::end-move( pos-2-2)
jump-new-move( pos-2-2 pos-2-1 pos-2-0)::end-move( pos-2-0)::jump-new-move( pos-0-0 pos-0-1 pos-0-2)::jump-continue-move( pos-0-2 pos-1-2 pos-2-2)::end-move( pos-1-0)::jump-new-move( pos-0-2 pos-1-2 pos-2-2)
jump-new-move( pos-2-2 pos-2-1 pos-2-0)::jump-new-move( pos-0-2 pos-1-2 pos-2-2)::end-move( pos-2-0)::end-move( pos-2-2)::jump-new-move( pos-0-0 pos-0-1 pos-0-2)::jump-continue-move( pos-0-2 pos-1-2 pos-2-2)
jump-new-move( pos-2-0 pos-2-1 pos-2-2)::jump-new-move( pos-0-0 pos-0-1 pos-0-2)::end-move( pos-0-2)::jump-new-move( pos-2-1 pos-1-1 pos-0-1)::end-move( pos-0-1)::jump-new-move( pos-0-2 pos-0-1 pos-0-0)::end-move( pos-0-0)::jump-new-move( pos-2-2 pos-1-2 pos-0-2)::jump-new-move( pos-0-0 pos-1-0 pos-2-0)::end-move( pos-0-2)
jump-new-move( pos-0-0 pos-1-0 pos-2-0)::end-move( pos-2-0)::jump-continue-move( pos-2-2 pos-1-2 pos-0-2)::jump-continue-move( pos-0-2 pos-0-1 pos-0-0)::jump-new-move( pos-2-2 pos-1-2 pos-0-2)::jump-continue-move( pos-0-2 pos-0-1 pos-0-0)::jump-new-move( pos-2-0 pos-2-1 pos-2-2)::jump-new-move( pos-2-0 pos-1-0 pos-0-0)::jump-new-move( pos-1-0 pos-1-1 pos-1-2)::jump-continue-move( pos-2-0 pos-1-0 pos-0-0)
jump-new-move( pos-0-0 pos-1-0 pos-2-0)::end-move( pos-2-0)::jump-new-move( pos-1-2 pos-1-1 pos-1-0)::end-move( pos-1-0)::jump-new-move( pos-2-0 pos-1-0 pos-0-0)::end-move( pos-0-0)::jump-new-move( pos-2-2 pos-2-1 pos-2-0)::end-move( pos-2-0)::jump-new-move( pos-0-0 pos-0-1 pos-0-2)::jump-new-move( pos-1-2 pos-1-1 pos-1-0)
jump-new-move( pos-2-2 pos-2-1 pos-2-0)::end-move( pos-2-0)::jump-new-move( pos-0-1 pos-1-1 pos-2-1)::end-move( pos-2-1)::end-move( pos-2-2)
jump-new-move( pos-2-2 pos-2-1 pos-2-0)::end-move( pos-2-0)::jump-new-move( pos-0-1 pos-1-1 pos-2-1)::jump-continue-move( pos-1-0 pos-1-1 pos-1-2)
jump-new-move( pos-2-2 pos-1-2 pos-0-2)::end-move( pos-0-2)::jump-new-move( pos-1-0 pos-1-1 pos-1-2)::end-move( pos-1-2)::jump-new-move( pos-0-2 pos-1-2 pos-2-2)::jump-continue-move( pos-2-2 pos-2-1 pos-2-0)::jump-continue-move( pos-2-2 pos-1-2 pos-0-2)::jump-continue-move( pos-2-2 pos-1-2 pos-0-2)::end-move( pos-0-0)::jump-new-move( pos-0-0 pos-0-1 pos-0-2)
jump-new-move( pos-2-2 pos-2-1 pos-2-0)::jump-continue-move( pos-1-0 pos-1-1 pos-1-2)
jump-new-move( pos-2-0 pos-2-1 pos-2-2)::jump-new-move( pos-0-0 pos-1-0 pos-2-0)::jump-continue-move( pos-0-0 pos-1-0 pos-2-0)::end-move( pos-2-0)::jump-continue-move( pos-0-2 pos-1-2 pos-2-2)::jump-new-move( pos-1-2 pos-1-1 pos-1-0)::end-move( pos-1-0)::jump-continue-move( pos-2-1 pos-1-1 pos-0-1)
jump-new-move( pos-2-2 pos-1-2 pos-0-2)::jump-new-move( pos-2-2 pos-2-1 pos-2-0)::jump-new-move( pos-0-2 pos-1-2 pos-2-2)::end-move( pos-0-2)
jump-new-move( pos-2-2 pos-2-1 pos-2-0)::end-move( pos-2-0)::jump-new-move( pos-0-2 pos-1-2 pos-2-2)::jump-new-move( pos-2-0 pos-1-0 pos-0-0)::jump-new-move( pos-0-1 pos-1-1 pos-2-1)
jump-new-move( pos-2-2 pos-2-1 pos-2-0)::jump-continue-move( pos-0-2 pos-0-1 pos-0-0)
jump-new-move( pos-0-0 pos-0-1 pos-0-2)::jump-new-move( pos-0-2 pos-1-2 pos-2-2)::jump-new-move( pos-2-0 pos-1-0 pos-0-0)::jump-continue-move( pos-2-0 pos-2-1 pos-2-2)::end-move( pos-0-2)::jump-new-move( pos-2-1 pos-1-1 pos-0-1)::end-move( pos-0-1)
jump-new-move( pos-2-2 pos-2-1 pos-2-0)::end-move( pos-2-0)::jump-new-move( pos-0-1 pos-1-1 pos-2-1)::end-move( pos-2-1)::jump-new-move( pos-2-0 pos-2-1 pos-2-2)::jump-continue-move( pos-2-2 pos-1-2 pos-0-2)::end-move( pos-1-0)
jump-new-move( pos-0-0 pos-1-0 pos-2-0)::end-move( pos-2-0)::jump-new-move( pos-2-2 pos-1-2 pos-0-2)::end-move( pos-0-1)::end-move( pos-0-2)::jump-new-move( pos-2-0 pos-2-1 pos-2-2)::end-move( pos-2-2)::jump-new-move( pos-0-2 pos-0-1 pos-0-0)
jump-new-move( pos-2-2 pos-2-1 pos-2-0)::end-move( pos-2-0)::jump-new-move( pos-0-0 pos-0-1 pos-0-2)::jump-continue-move( pos-0-0 pos-0-1 pos-0-2)::end-move( pos-0-2)
jump-continue-move( pos-0-2 pos-0-1 pos-0-0)::jump-new-move( pos-0-0 pos-1-0 pos-2-0)::end-move( pos-2-1)::end-move( pos-2-0)::jump-continue-move( pos-1-2 pos-1-1 pos-1-0)::jump-continue-move( pos-1-0 pos-1-1 pos-1-2)
jump-continue-move( pos-0-2 pos-0-1 pos-0-0)::jump-new-move( pos-0-0 pos-1-0 pos-2-0)::end-move( pos-2-0)::jump-new-move( pos-1-2 pos-1-1 pos-1-0)::end-move( pos-1-0)
jump-new-move( pos-0-0 pos-0-1 pos-0-2)::end-move( pos-0-2)::jump-new-move( pos-2-2 pos-2-1 pos-2-0)::end-move( pos-2-0)::end-move( pos-0-0)
jump-new-move( pos-0-0 pos-1-0 pos-2-0)::jump-continue-move( pos-0-2 pos-1-2 pos-2-2)::end-move( pos-2-0)::jump-new-move( pos-2-0 pos-1-0 pos-0-0)::jump-new-move( pos-2-2 pos-1-2 pos-0-2)
jump-new-move( pos-2-2 pos-1-2 pos-0-2)::jump-continue-move( pos-2-2 pos-2-1 pos-2-0)::end-move( pos-2-1)::end-move( pos-0-2)
jump-new-move( pos-2-2 pos-1-2 pos-0-2)::jump-new-move( pos-0-1 pos-1-1 pos-2-1)::end-move( pos-0-2)::jump-new-move( pos-0-0 pos-1-0 pos-2-0)::end-move( pos-2-0)::jump-new-move( pos-2-0 pos-2-1 pos-2-2)
jump-new-move( pos-2-2 pos-1-2 pos-0-2)::end-move( pos-0-2)::jump-new-move( pos-0-2 pos-1-2 pos-2-2)::jump-new-move( pos-1-0 pos-1-1 pos-1-2)::end-move( pos-1-2)
jump-new-move( pos-2-2 pos-2-1 pos-2-0)::jump-new-move( pos-2-0 pos-1-0 pos-0-0)::end-move( pos-2-0)::jump-new-move( pos-0-0 pos-0-1 pos-0-2)::end-move( pos-0-2)
jump-new-move( pos-2-2 pos-1-2 pos-0-2)::end-move( pos-0-2)::jump-new-move( pos-0-2 pos-0-1 pos-0-0)::jump-new-move( pos-0-0 pos-1-0 pos-2-0)::jump-new-move( pos-1-2 pos-1-1 pos-1-0)::end-move( pos-2-0)::jump-new-move( pos-0-2 pos-0-1 pos-0-0)::end-move( pos-0-0)::jump-new-move( pos-2-1 pos-1-1 pos-0-1)
jump-new-move( pos-2-2 pos-1-2 pos-0-2)::end-move( pos-0-2)::jump-new-move( pos-0-0 pos-1-0 pos-2-0)::jump-continue-move( pos-2-0 pos-2-1 pos-2-2)::jump-continue-move( pos-0-1 pos-1-1 pos-2-1)
jump-new-move( pos-2-2 pos-1-2 pos-0-2)::end-move( pos-0-2)::jump-new-move( pos-2-1 pos-1-1 pos-0-1)::jump-continue-move( pos-2-0 pos-1-0 pos-0-0)::jump-new-move( pos-1-0 pos-1-1 pos-1-2)::jump-continue-move( pos-0-2 pos-0-1 pos-0-0)::end-move( pos-1-2)::jump-new-move( pos-0-2 pos-0-1 pos-0-0)::jump-continue-move( pos-2-2 pos-2-1 pos-2-0)::jump-new-move( pos-0-2 pos-1-2 pos-2-2)
jump-new-move( pos-0-0 pos-0-1 pos-0-2)::end-move( pos-0-2)::jump-new-move( pos-2-1 pos-1-1 pos-0-1)::end-move( pos-0-1)::jump-new-move( pos-0-2 pos-0-1 pos-0-0)::jump-continue-move( pos-0-0 pos-1-0 pos-2-0)::end-move( pos-2-1)
jump-new-move( pos-0-0 pos-0-1 pos-0-2)::end-move( pos-0-2)::jump-new-move( pos-2-2 pos-2-1 pos-2-0)::jump-continue-move( pos-2-0 pos-1-0 pos-0-0)::jump-continue-move( pos-2-2 pos-1-2 pos-0-2)::jump-continue-move( pos-1-2 pos-1-1 pos-1-0)::jump-new-move( pos-2-2 pos-2-1 pos-2-0)::end-move( pos-2-1)::end-move( pos-2-2)
jump-new-move( pos-2-2 pos-1-2 pos-0-2)::jump-new-move( pos-2-0 pos-2-1 pos-2-2)::end-move( pos-0-2)::end-move( pos-2-2)
jump-new-move( pos-0-0 pos-0-1 pos-0-2)::end-move( pos-0-2)::jump-new-move( pos-2-1 pos-1-1 pos-0-1)::end-move( pos-0-1)::jump-new-move( pos-0-2 pos-0-1 pos-0-0)::end-move( pos-0-0)::jump-new-move( pos-2-2 pos-1-2 pos-0-2)::end-move( pos-0-2)::end-move( pos-0-1)::jump-new-move( pos-0-0 pos-1-0 pos-2-0)
jump-new-move( pos-0-0 pos-0-1 pos-0-2)::end-move( pos-0-2)::jump-continue-move( pos-0-0 pos-1-0 pos-2-0)
jump-new-move( pos-0-0 pos-0-1 pos-0-2)::end-move( pos-0-2)::jump-new-move( pos-2-2 pos-2-1 pos-2-0)::jump-new-move( pos-2-1 pos-1-1 pos-0-1)::jump-continue-move( pos-2-0 pos-1-0 pos-0-0)::jump-new-move( pos-2-0 pos-1-0 pos-0-0)::end-move( pos-1-0)
jump-new-move( pos-2-2 pos-2-1 pos-2-0)::end-move( pos-2-0)::jump-new-move( pos-0-0 pos-0-1 pos-0-2)::jump-continue-move( pos-0-2 pos-1-2 pos-2-2)::jump-new-move( pos-0-2 pos-0-1 pos-0-0)::jump-new-move( pos-2-0 pos-1-0 pos-0-0)::jump-continue-move( pos-2-0 pos-1-0 pos-0-0)::jump-new-move( pos-0-0 pos-0-1 pos-0-2)
jump-new-move( pos-2-2 pos-1-2 pos-0-2)::end-move( pos-0-2)::jump-new-move( pos-0-0 pos-1-0 pos-2-0)::jump-continue-move( pos-2-0 pos-2-1 pos-2-2)::jump-new-move( pos-0-2 pos-0-1 pos-0-0)::end-move( pos-2-2)::jump-new-move( pos-2-2 pos-2-1 pos-2-0)::jump-new-move( pos-2-0 pos-2-1 pos-2-2)::jump-continue-move( pos-2-2 pos-2-1 pos-2-0)::jump-new-move( pos-1-2 pos-1-1 pos-1-0)
jump-new-move( pos-0-0 pos-0-1 pos-0-2)::end-move( pos-0-2)::jump-new-move( pos-2-1 pos-1-1 pos-0-1)::end-move( pos-0-1)::jump-new-move( pos-0-2 pos-0-1 pos-0-0)::jump-continue-move( pos-0-0 pos-1-0 pos-2-0)::end-move( pos-1-2)
jump-continue-move( pos-2-0 pos-1-0 pos-0-0)::jump-new-move( pos-2-2 pos-2-1 pos-2-0)::end-move( pos-2-0)::jump-new-move( pos-0-0 pos-0-1 pos-0-2)::jump-continue-move( pos-0-2 pos-1-2 pos-2-2)::end-move( pos-2-0)::jump-continue-move( pos-2-2 pos-1-2 pos-0-2)::jump-new-move( pos-0-2 pos-0-1 pos-0-0)::jump-new-move( pos-0-1 pos-1-1 pos-2-1)
jump-continue-move( pos-2-0 pos-1-0 pos-0-0)::jump-new-move( pos-1-2 pos-1-1 pos-1-0)::jump-continue-move( pos-2-2 pos-1-2 pos-0-2)::jump-new-move( pos-0-0 pos-1-0 pos-2-0)::end-move( pos-2-0)
end-move( pos-1-0)::jump-continue-move( pos-2-0 pos-2-1 pos-2-2)::jump-new-move( pos-0-0 pos-1-0 pos-2-0)::end-move( pos-1-0)::end-move( pos-2-0)::jump-new-move( pos-1-2 pos-1-1 pos-1-0)::end-move( pos-1-0)
jump-new-move( pos-2-2 pos-2-1 pos-2-0)::end-move( pos-2-0)::jump-new-move( pos-0-0 pos-0-1 pos-0-2)::end-move( pos-0-2)::jump-new-move( pos-0-2 pos-1-2 pos-2-2)::end-move( pos-2-2)::jump-new-move( pos-1-0 pos-1-1 pos-1-2)::end-move( pos-1-2)::end-move( pos-0-2)
jump-new-move( pos-2-2 pos-1-2 pos-0-2)::jump-continue-move( pos-2-2 pos-2-1 pos-2-0)::jump-continue-move( pos-2-0 pos-1-0 pos-0-0)::end-move( pos-0-2)::jump-new-move( pos-1-0 pos-1-1 pos-1-2)
jump-new-move( pos-0-2 pos-1-2 pos-2-2)::jump-new-move( pos-0-0 pos-1-0 pos-2-0)
jump-new-move( pos-0-0 pos-1-0 pos-2-0)::end-move( pos-2-0)::jump-new-move( pos-2-2 pos-1-2 pos-0-2)::jump-continue-move( pos-0-2 pos-0-1 pos-0-0)::jump-new-move( pos-2-2 pos-2-1 pos-2-0)
jump-new-move( pos-0-0 pos-1-0 pos-2-0)::end-move( pos-2-0)::jump-continue-move( pos-2-0 pos-1-0 pos-0-0)::jump-continue-move( pos-0-1 pos-1-1 pos-2-1)::jump-new-move( pos-2-2 pos-1-2 pos-0-2)::jump-continue-move( pos-0-2 pos-0-1 pos-0-0)
jump-new-move( pos-2-2 pos-1-2 pos-0-2)::end-move( pos-0-2)::jump-continue-move( pos-0-0 pos-1-0 pos-2-0)::jump-new-move( pos-1-0 pos-1-1 pos-1-2)::end-move( pos-1-2)::jump-new-move( pos-0-2 pos-1-2 pos-2-2)
jump-new-move( pos-0-0 pos-0-1 pos-0-2)::end-move( pos-1-2)::jump-new-move( pos-2-1 pos-1-1 pos-0-1)::end-move( pos-0-2)::jump-new-move( pos-2-2 pos-2-1 pos-2-0)::jump-continue-move( pos-2-0 pos-1-0 pos-0-0)::jump-continue-move( pos-2-2 pos-1-2 pos-0-2)::jump-continue-move( pos-1-2 pos-1-1 pos-1-0)::jump-continue-move( pos-0-1 pos-1-1 pos-2-1)::jump-continue-move( pos-1-2 pos-1-1 pos-1-0)
jump-new-move( pos-0-0 pos-1-0 pos-2-0)::jump-continue-move( pos-2-0 pos-2-1 pos-2-2)
jump-new-move( pos-0-0 pos-0-1 pos-0-2)::end-move( pos-0-2)::jump-new-move( pos-2-2 pos-2-1 pos-2-0)::end-move( pos-2-2)
jump-new-move( pos-2-2 pos-2-1 pos-2-0)::end-move( pos-2-0)::jump-new-move( pos-0-0 pos-0-1 pos-0-2)::jump-continue-move( pos-0-2 pos-1-2 pos-2-2)::jump-continue-move( pos-0-2 pos-0-1 pos-0-0)
jump-new-move( pos-0-0 pos-0-1 pos-0-2)::end-move( pos-0-2)::jump-new-move( pos-2-2 pos-2-1 pos-2-0)::jump-continue-move( pos-2-0 pos-1-0 pos-0-0)::jump-new-move( pos-1-2 pos-1-1 pos-1-0)
jump-new-move( pos-2-2 pos-1-2 pos-0-2)::end-move( pos-0-2)::jump-new-move( pos-1-0 pos-1-1 pos-1-2)::end-move( pos-2-0)::jump-continue-move( pos-2-2 pos-2-1 pos-2-0)::jump-new-move( pos-2-1 pos-1-1 pos-0-1)::end-move( pos-1-2)::jump-new-move( pos-0-2 pos-1-2 pos-2-2)::jump-continue-move( pos-2-2 pos-2-1 pos-2-0)::jump-new-move( pos-0-0 pos-0-1 pos-0-2)
jump-new-move( pos-0-0 pos-1-0 pos-2-0)::end-move( pos-2-0)::jump-new-move( pos-1-2 pos-1-1 pos-1-0)::end-move( pos-1-0)::jump-new-move( pos-2-0 pos-1-0 pos-0-0)::end-move( pos-0-0)::jump-new-move( pos-0-0 pos-0-1 pos-0-2)::end-move( pos-0-2)::jump-new-move( pos-2-2 pos-2-1 pos-2-0)::end-move( pos-2-0)::jump-new-move( pos-1-2 pos-1-1 pos-1-0)
jump-new-move( pos-2-2 pos-1-2 pos-0-2)::jump-continue-move( pos-2-0 pos-2-1 pos-2-2)::jump-new-move( pos-2-0 pos-1-0 pos-0-0)::end-move( pos-0-2)::jump-new-move( pos-0-0 pos-0-1 pos-0-2)::jump-new-move( pos-0-1 pos-1-1 pos-2-1)::jump-new-move( pos-0-0 pos-1-0 pos-2-0)::jump-continue-move( pos-2-0 pos-2-1 pos-2-2)
jump-new-move( pos-2-2 pos-1-2 pos-0-2)::end-move( pos-0-2)::jump-new-move( pos-0-0 pos-1-0 pos-2-0)::end-move( pos-2-0)::jump-new-move( pos-2-0 pos-2-1 pos-2-2)::jump-continue-move( pos-0-0 pos-1-0 pos-2-0)::jump-new-move( pos-2-0 pos-2-1 pos-2-2)::jump-continue-move( pos-1-2 pos-1-1 pos-1-0)::jump-continue-move( pos-2-0 pos-1-0 pos-0-0)
jump-continue-move( pos-2-1 pos-1-1 pos-0-1)::jump-new-move( pos-0-0 pos-1-0 pos-2-0)::end-move( pos-2-0)::jump-new-move( pos-1-2 pos-1-1 pos-1-0)::end-move( pos-1-0)
jump-new-move( pos-0-0 pos-0-1 pos-0-2)::end-move( pos-0-2)::jump-new-move( pos-2-1 pos-1-1 pos-0-1)::end-move( pos-0-1)::end-move( pos-1-0)::jump-continue-move( pos-0-2 pos-1-2 pos-2-2)::jump-new-move( pos-2-2 pos-2-1 pos-2-0)::jump-new-move( pos-0-2 pos-0-1 pos-0-0)::end-move( pos-0-0)
jump-new-move( pos-2-2 pos-1-2 pos-0-2)::end-move( pos-0-2)::jump-new-move( pos-0-0 pos-1-0 pos-2-0)::jump-new-move( pos-2-0 pos-2-1 pos-2-2)::end-move( pos-2-0)::jump-new-move( pos-0-2 pos-0-1 pos-0-0)::end-move( pos-0-0)::jump-new-move( pos-0-1 pos-1-1 pos-2-1)::jump-new-move( pos-2-0 pos-2-1 pos-2-2)::end-move( pos-2-2)
jump-new-move( pos-0-0 pos-1-0 pos-2-0)::end-move( pos-2-0)::jump-new-move( pos-1-2 pos-1-1 pos-1-0)::end-move( pos-1-0)::jump-new-move( pos-2-0 pos-1-0 pos-0-0)::jump-new-move( pos-2-0 pos-2-1 pos-2-2)::jump-continue-move( pos-0-0 pos-0-1 pos-0-2)::jump-continue-move( pos-0-2 pos-0-1 pos-0-0)::jump-continue-move( pos-0-1 pos-1-1 pos-2-1)
jump-new-move( pos-0-0 pos-1-0 pos-2-0)::end-move( pos-2-0)::jump-new-move( pos-1-2 pos-1-1 pos-1-0)::end-move( pos-1-0)::jump-new-move( pos-2-0 pos-1-0 pos-0-0)::jump-continue-move( pos-2-2 pos-2-1 pos-2-0)::jump-continue-move( pos-0-0 pos-0-1 pos-0-2)::jump-new-move( pos-0-1 pos-1-1 pos-2-1)
jump-new-move( pos-0-0 pos-1-0 pos-2-0)::end-move( pos-2-0)::jump-continue-move( pos-2-0 pos-2-1 pos-2-2)::jump-continue-move( pos-0-2 pos-0-1 pos-0-0)::jump-new-move( pos-1-2 pos-1-1 pos-1-0)
end-move( pos-2-2)::jump-continue-move( pos-1-0 pos-1-1 pos-1-2)::jump-new-move( pos-2-2 pos-1-2 pos-0-2)
jump-new-move( pos-2-2 pos-2-1 pos-2-0)::end-move( pos-2-0)::jump-new-move( pos-0-0 pos-0-1 pos-0-2)::jump-continue-move( pos-0-2 pos-1-2 pos-2-2)::jump-continue-move( pos-2-2 pos-2-1 pos-2-0)
jump-new-move( pos-2-2 pos-1-2 pos-0-2)::jump-new-move( pos-1-0 pos-1-1 pos-1-2)::end-move( pos-0-2)::jump-continue-move( pos-2-0 pos-1-0 pos-0-0)::jump-new-move( pos-0-0 pos-1-0 pos-2-0)::end-move( pos-2-0)
jump-new-move( pos-2-2 pos-2-1 pos-2-0)::end-move( pos-2-0)::end-move( pos-0-1)::jump-new-move( pos-2-2 pos-2-1 pos-2-0)
end-move( pos-0-2)::jump-new-move( pos-2-2 pos-1-2 pos-0-2)::end-move( pos-0-2)::jump-new-move( pos-0-0 pos-1-0 pos-2-0)::jump-continue-move( pos-2-0 pos-2-1 pos-2-2)::jump-new-move( pos-2-2 pos-1-2 pos-0-2)::jump-continue-move( pos-2-0 pos-1-0 pos-0-0)
jump-new-move( pos-0-0 pos-0-1 pos-0-2)::end-move( pos-0-2)::jump-new-move( pos-2-2 pos-2-1 pos-2-0)::jump-new-move( pos-0-0 pos-0-1 pos-0-2)::end-move( pos-2-0)::jump-new-move( pos-2-0 pos-1-0 pos-0-0)::jump-new-move( pos-0-2 pos-0-1 pos-0-0)
jump-new-move( pos-2-2 pos-2-1 pos-2-0)::end-move( pos-2-0)::end-move( pos-1-0)::jump-new-move( pos-0-0 pos-0-1 pos-0-2)::jump-continue-move( pos-0-2 pos-1-2 pos-2-2)::end-move( pos-2-1)::end-move( pos-1-2)::end-move( pos-0-1)::jump-new-move( pos-0-2 pos-0-1 pos-0-0)::jump-continue-move( pos-0-2 pos-0-1 pos-0-0)
end-move( pos-2-0)
jump-new-move( pos-2-2 pos-1-2 pos-0-2)::end-move( pos-0-2)::jump-new-move( pos-1-0 pos-1-1 pos-1-2)::end-move( pos-1-2)::jump-new-move( pos-0-0 pos-1-0 pos-2-0)::jump-new-move( pos-0-2 pos-1-2 pos-2-2)::jump-continue-move( pos-2-2 pos-2-1 pos-2-0)
jump-new-move( pos-0-0 pos-0-1 pos-0-2)::jump-new-move( pos-0-0 pos-1-0 pos-2-0)::end-move( pos-0-2)::jump-new-move( pos-2-1 pos-1-1 pos-0-1)::end-move( pos-0-1)::jump-continue-move( pos-2-0 pos-2-1 pos-2-2)::jump-new-move( pos-0-0 pos-0-1 pos-0-2)
jump-new-move( pos-0-0 pos-1-0 pos-2-0)::end-move( pos-2-0)::jump-new-move( pos-2-2 pos-1-2 pos-0-2)::jump-new-move( pos-2-2 pos-2-1 pos-2-0)
jump-new-move( pos-0-0 pos-0-1 pos-0-2)::jump-continue-move( pos-1-2 pos-1-1 pos-1-0)::end-move( pos-1-2)
jump-new-move( pos-2-2 pos-1-2 pos-0-2)::end-move( pos-0-2)::jump-new-move( pos-0-0 pos-1-0 pos-2-0)::jump-continue-move( pos-2-0 pos-2-1 pos-2-2)::jump-continue-move( pos-2-0 pos-1-0 pos-0-0)::jump-new-move( pos-1-0 pos-1-1 pos-1-2)::jump-continue-move( pos-1-2 pos-1-1 pos-1-0)
jump-new-move( pos-2-2 pos-2-1 pos-2-0)::end-move( pos-2-0)::jump-new-move( pos-0-1 pos-1-1 pos-2-1)::end-move( pos-2-0)
jump-continue-move( pos-0-2 pos-1-2 pos-2-2)::jump-new-move( pos-2-2 pos-2-1 pos-2-0)::jump-continue-move( pos-0-2 pos-0-1 pos-0-0)::end-move( pos-2-0)::end-move( pos-1-0)::jump-new-move( pos-0-0 pos-0-1 pos-0-2)::jump-continue-move( pos-0-2 pos-1-2 pos-2-2)::end-move( pos-2-0)::end-move( pos-2-0)::end-move( pos-1-0)
jump-new-move( pos-0-0 pos-0-1 pos-0-2)::end-move( pos-2-1)
jump-new-move( pos-1-2 pos-1-1 pos-1-0)::jump-new-move( pos-0-0 pos-0-1 pos-0-2)::end-move( pos-0-2)::jump-new-move( pos-2-1 pos-1-1 pos-0-1)::end-move( pos-0-1)::jump-new-move( pos-0-2 pos-0-1 pos-0-0)::jump-continue-move( pos-0-0 pos-1-0 pos-2-0)
jump-new-move( pos-0-0 pos-0-1 pos-0-2)::end-move( pos-0-0)::end-move( pos-0-2)::end-move( pos-2-2)::jump-new-move( pos-2-1 pos-1-1 pos-0-1)::end-move( pos-0-1)::jump-new-move( pos-0-2 pos-0-1 pos-0-0)
jump-new-move( pos-0-1 pos-1-1 pos-2-1)::jump-new-move( pos-2-2 pos-2-1 pos-2-0)::end-move( pos-2-0)::jump-new-move( pos-0-0 pos-0-1 pos-0-2)::end-move( pos-0-2)::jump-new-move( pos-2-0 pos-1-0 pos-0-0)
jump-new-move( pos-2-2 pos-2-1 pos-2-0)::end-move( pos-2-0)::jump-new-move( pos-0-1 pos-1-1 pos-2-1)::end-move( pos-2-1)::jump-new-move( pos-2-0 pos-2-1 pos-2-2)::end-move( pos-2-2)::jump-new-move( pos-0-0 pos-1-0 pos-2-0)::end-move( pos-2-0)::jump-new-move( pos-2-2 pos-1-2 pos-0-2)::end-move( pos-0-2)::jump-new-move( pos-1-2 pos-1-1 pos-1-0)
jump-new-move( pos-0-0 pos-0-1 pos-0-2)::end-move( pos-0-2)::jump-new-move( pos-2-2 pos-2-1 pos-2-0)::end-move( pos-2-0)::jump-new-move( pos-0-2 pos-1-2 pos-2-2)::end-move( pos-2-2)::jump-new-move( pos-1-0 pos-1-1 pos-1-2)::end-move( pos-1-2)::jump-new-move( pos-2-2 pos-1-2 pos-0-2)::end-move( pos-0-2)::jump-continue-move( pos-0-2 pos-1-2 pos-2-2)
jump-new-move( pos-2-2 pos-1-2 pos-0-2)::end-move( pos-2-2)
end-move( pos-0-0)::jump-new-move( pos-2-2 pos-1-2 pos-0-2)::end-move( pos-2-2)::end-move( pos-0-2)::jump-new-move( pos-1-0 pos-1-1 pos-1-2)
jump-new-move( pos-2-2 pos-2-1 pos-2-0)::jump-continue-move( pos-0-0 pos-0-1 pos-0-2)::end-move( pos-2-0)::jump-new-move( pos-0-1 pos-1-1 pos-2-1)::end-move( pos-2-1)
end-move( pos-0-0)::jump-new-move( pos-0-0 pos-0-1 pos-0-2)::end-move( pos-0-2)
jump-new-move( pos-0-0 pos-1-0 pos-2-0)::end-move( pos-2-0)::jump-new-move( pos-1-2 pos-1-1 pos-1-0)::end-move( pos-1-0)::jump-new-move( pos-2-0 pos-1-0 pos-0-0)::end-move( pos-0-0)::jump-new-move( pos-2-2 pos-2-1 pos-2-0)::end-move( pos-2-0)::jump-new-move( pos-0-0 pos-0-1 pos-0-2)::end-move( pos-0-2)::jump-continue-move( pos-2-2 pos-1-2 pos-0-2)
jump-new-move( pos-0-0 pos-1-0 pos-2-0)::end-move( pos-2-0)::jump-new-move( pos-1-2 pos-1-1 pos-1-0)::end-move( pos-0-1)::end-move( pos-1-0)::jump-new-move( pos-0-2 pos-0-1 pos-0-0)::jump-continue-move( pos-1-2 pos-1-1 pos-1-0)::jump-new-move( pos-2-0 pos-1-0 pos-0-0)::jump-continue-move( pos-0-0 pos-0-1 pos-0-2)
jump-new-move( pos-2-2 pos-2-1 pos-2-0)::end-move( pos-2-0)::jump-new-move( pos-2-0 pos-1-0 pos-0-0)::jump-new-move( pos-0-0 pos-0-1 pos-0-2)::jump-continue-move( pos-0-2 pos-1-2 pos-2-2)
jump-new-move( pos-2-2 pos-1-2 pos-0-2)::end-move( pos-0-2)::jump-new-move( pos-1-0 pos-1-1 pos-1-2)::end-move( pos-1-2)::jump-continue-move( pos-1-0 pos-1-1 pos-1-2)
jump-new-move( pos-0-0 pos-1-0 pos-2-0)::end-move( pos-2-0)::jump-new-move( pos-2-2 pos-1-2 pos-0-2)::end-move( pos-0-2)::jump-new-move( pos-2-2 pos-1-2 pos-0-2)
jump-continue-move( pos-2-0 pos-2-1 pos-2-2)::jump-continue-move( pos-2-0 pos-2-1 pos-2-2)::jump-new-move( pos-0-0 pos-1-0 pos-2-0)::end-move( pos-2-0)
jump-new-move( pos-0-0 pos-1-0 pos-2-0)::end-move( pos-2-0)::jump-new-move( pos-1-2 pos-1-1 pos-1-0)::end-move( pos-1-0)::jump-new-move( pos-2-0 pos-1-0 pos-0-0)::jump-continue-move( pos-2-2 pos-1-2 pos-0-2)
jump-new-move( pos-2-2 pos-2-1 pos-2-0)::end-move( pos-2-0)::jump-new-move( pos-0-1 pos-1-1 pos-2-1)::end-move( pos-2-1)::jump-new-move( pos-2-0 pos-2-1 pos-2-2)::end-move( pos-2-2)::jump-new-move( pos-2-2 pos-1-2 pos-0-2)::end-move( pos-0-2)::jump-new-move( pos-0-0 pos-1-0 pos-2-0)::jump-new-move( pos-0-2 pos-1-2 pos-2-2)
jump-new-move( pos-0-0 pos-0-1 pos-0-2)::end-move( pos-0-2)::jump-new-move( pos-0-2 pos-0-1 pos-0-0)
jump-new-move( pos-2-1 pos-1-1 pos-0-1)::jump-new-move( pos-0-0 pos-1-0 pos-2-0)::jump-continue-move( pos-2-1 pos-1-1 pos-0-1)::end-move( pos-2-0)::jump-new-move( pos-2-0 pos-1-0 pos-0-0)::jump-new-move( pos-1-2 pos-1-1 pos-1-0)::end-move( pos-1-0)::jump-new-move( pos-2-0 pos-1-0 pos-0-0)::end-move( pos-0-0)::jump-new-move( pos-0-2 pos-0-1 pos-0-0)
jump-new-move( pos-0-0 pos-0-1 pos-0-2)::jump-new-move( pos-2-2 pos-2-1 pos-2-0)::end-move( pos-0-2)
jump-new-move( pos-2-2 pos-2-1 pos-2-0)::end-move( pos-2-0)::jump-new-move( pos-2-0 pos-2-1 pos-2-2)::jump-new-move( pos-0-0 pos-0-1 pos-0-2)::jump-continue-move( pos-0-2 pos-1-2 pos-2-2)::end-move( pos-0-1)::jump-continue-move( pos-0-2 pos-0-1 pos-0-0)::jump-continue-move( pos-0-0 pos-0-1 pos-0-2)::end-move( pos-1-0)
jump-continue-move( pos-0-0 pos-1-0 pos-2-0)::end-move( pos-2-2)::jump-new-move( pos-2-0 pos-2-1 pos-2-2)::jump-new-move( pos-2-2 pos-1-2 pos-0-2)::jump-new-move( pos-1-2 pos-1-1 pos-1-0)::end-move( pos-0-2)::jump-new-move( pos-1-0 pos-1-1 pos-1-2)::end-move( pos-1-2)::jump-new-move( pos-2-1 pos-1-1 pos-0-1)
jump-new-move( pos-2-2 pos-1-2 pos-0-2)::end-move( pos-0-2)::jump-new-move( pos-0-2 pos-0-1 pos-0-0)::jump-new-move( pos-0-0 pos-1-0 pos-2-0)::jump-continue-move( pos-2-0 pos-2-1 pos-2-2)::jump-continue-move( pos-1-0 pos-1-1 pos-1-2)
jump-continue-move( pos-0-0 pos-0-1 pos-0-2)::jump-new-move( pos-2-2 pos-1-2 pos-0-2)::end-move( pos-0-2)
jump-new-move( pos-2-2 pos-1-2 pos-0-2)::end-move( pos-0-2)::jump-new-move( pos-1-0 pos-1-1 pos-1-2)::end-move( pos-1-2)::jump-new-move( pos-0-2 pos-1-2 pos-2-2)::jump-continue-move( pos-0-2 pos-0-1 pos-0-0)
jump-new-move( pos-2-0 pos-1-0 pos-0-0)::jump-new-move( pos-2-0 pos-2-1 pos-2-2)
jump-new-move( pos-2-2 pos-1-2 pos-0-2)::end-move( pos-0-2)::jump-continue-move( pos-0-0 pos-1-0 pos-2-0)::jump-new-move( pos-1-0 pos-1-1 pos-1-2)::end-move( pos-1-2)::jump-new-move( pos-0-2 pos-1-2 pos-2-2)::jump-continue-move( pos-2-0 pos-1-0 pos-0-0)::end-move( pos-2-2)::jump-new-move( pos-2-2 pos-2-1 pos-2-0)
jump-new-move( pos-2-2 pos-2-1 pos-2-0)::end-move( pos-2-0)::jump-new-move( pos-0-0 pos-0-1 pos-0-2)::end-move( pos-0-2)::jump-continue-move( pos-2-2 pos-1-2 pos-0-2)
jump-new-move( pos-2-2 pos-2-1 pos-2-0)::end-move( pos-0-1)::end-move( pos-2-0)::jump-new-move( pos-0-0 pos-0-1 pos-0-2)::end-move( pos-0-2)::jump-new-move( pos-2-0 pos-1-0 pos-0-0)
jump-new-move( pos-2-2 pos-1-2 pos-0-2)::end-move( pos-0-2)::jump-new-move( pos-1-0 pos-1-1 pos-1-2)::end-move( pos-1-0)::end-move( pos-1-2)::jump-new-move( pos-0-2 pos-1-2 pos-2-2)::jump-continue-move( pos-2-2 pos-2-1 pos-2-0)::jump-new-move( pos-0-0 pos-1-0 pos-2-0)::jump-new-move( pos-0-2 pos-0-1 pos-0-0)::jump-continue-move( pos-0-0 pos-0-1 pos-0-2)
jump-continue-move( pos-2-2 pos-2-1 pos-2-0)::jump-new-move( pos-2-2 pos-1-2 pos-0-2)::end-move( pos-0-2)
jump-new-move( pos-2-2 pos-1-2 pos-0-2)::end-move( pos-0-2)::jump-new-move( pos-1-0 pos-1-1 pos-1-2)::end-move( pos-1-2)::jump-new-move( pos-1-2 pos-1-1 pos-1-0)
jump-new-move( pos-0-0 pos-0-1 pos-0-2)::end-move( pos-0-2)::jump-new-move( pos-2-2 pos-2-1 pos-2-0)::jump-continue-move( pos-2-0 pos-1-0 pos-0-0)::end-move( pos-0-2)
jump-new-move( pos-0-0 pos-1-0 pos-2-0)::end-move( pos-2-0)::jump-new-move( pos-0-0 pos-1-0 pos-2-0)
jump-continue-move( pos-2-2 pos-1-2 pos-0-2)
jump-new-move( pos-2-2 pos-2-1 pos-2-0)::end-move( pos-2-0)::jump-new-move( pos-0-1 pos-1-1 pos-2-1)::end-move( pos-2-1)::jump-new-move( pos-2-0 pos-2-1 pos-2-2)::jump-continue-move( pos-2-2 pos-1-2 pos-0-2)::jump-new-move( pos-0-1 pos-1-1 pos-2-1)::end-move( pos-0-0)::jump-continue-move( pos-2-0 pos-1-0 pos-0-0)::end-move( pos-0-2)
jump-new-move( pos-2-2 pos-2-1 pos-2-0)::end-move( pos-2-0)::jump-new-move( pos-0-1 pos-1-1 pos-2-1)::end-move( pos-2-1)::jump-new-move( pos-2-0 pos-2-1 pos-2-2)::jump-continue-move( pos-2-2 pos-1-2 pos-0-2)::jump-continue-move( pos-0-2 pos-1-2 pos-2-2)
jump-new-move( pos-2-2 pos-1-2 pos-0-2)::end-move( pos-0-2)::jump-new-move( pos-0-0 pos-1-0 pos-2-0)::jump-new-move( pos-2-0 pos-1-0 pos-0-0)
jump-new-move( pos-0-2 pos-1-2 pos-2-2)
jump-new-move( pos-0-0 pos-0-1 pos-0-2)::end-move( pos-0-2)::jump-continue-move( pos-2-2 pos-1-2 pos-0-2)::jump-new-move( pos-2-2 pos-2-1 pos-2-0)::jump-continue-move( pos-2-0 pos-1-0 pos-0-0)::jump-new-move( pos-2-1 pos-1-1 pos-0-1)
jump-new-move( pos-2-2 pos-2-1 pos-2-0)::end-move( pos-2-0)::end-move( pos-0-0)::jump-new-move( pos-0-0 pos-0-1 pos-0-2)::jump-continue-move( pos-0-2 pos-1-2 pos-2-2)::jump-continue-move( pos-1-2 pos-1-1 pos-1-0)::jump-continue-move( pos-2-2 pos-2-1 pos-2-0)::jump-new-move( pos-0-2 pos-0-1 pos-0-0)::jump-continue-move( pos-0-2 pos-0-1 pos-0-0)::jump-new-move( pos-2-1 pos-1-1 pos-0-1)
jump-continue-move( pos-2-0 pos-2-1 pos-2-2)::jump-new-move( pos-0-0 pos-0-1 pos-0-2)::jump-continue-move( pos-0-0 pos-0-1 pos-0-2)::end-move( pos-0-2)
jump-new-move( pos-2-2 pos-1-2 pos-0-2)::jump-continue-move( pos-2-1 pos-1-1 pos-0-1)::end-move( pos-0-2)::jump-new-move( pos-0-0 pos-1-0 pos-2-0)::jump-continue-move( pos-2-0 pos-2-1 pos-2-2)::jump-continue-move( pos-2-2 pos-1-2 pos-0-2)::end-move( pos-1-0)
jump-new-move( pos-2-2 pos-1-2 pos-0-2)::end-move( pos-0-2)::jump-new-move( pos-0-0 pos-1-0 pos-2-0)::end-move( pos-2-0)::jump-new-move( pos-0-1 pos-1-1 pos-2-1)
jump-continue-move( pos-1-0 pos-1-1 pos-1-2)::end-move( pos-0-2)::jump-new-move( pos-0-0 pos-0-1 pos-0-2)::end-move( pos-0-2)::jump-new-move( pos-2-1 pos-1-1 pos-0-1)::end-move( pos-0-1)::jump-new-move( pos-0-2 pos-0-1 pos-0-0)
jump-continue-move( pos-2-1 pos-1-1 pos-0-1)::jump-new-move( pos-0-0 pos-0-1 pos-0-2)
jump-continue-move( pos-2-2 pos-1-2 pos-0-2)
jump-new-move( pos-0-0 pos-0-1 pos-0-2)::end-move( pos-0-2)::jump-new-move( pos-2-2 pos-2-1 pos-2-0)::end-move( pos-2-0)::jump-new-move( pos-0-2 pos-1-2 pos-2-2)::end-move( pos-2-2)::jump-new-move( pos-1-0 pos-1-1 pos-1-2)::jump-continue-move( pos-0-2 pos-0-1 pos-0-0)
jump-new-move( pos-0-0 pos-1-0 pos-2-0)::end-move( pos-2-0)::jump-new-move( pos-2-2 pos-1-2 pos-0-2)::jump-continue-move( pos-0-2 pos-1-2 pos-2-2)::jump-continue-move( pos-0-2 pos-0-1 pos-0-0)::jump-new-move( pos-0-2 pos-0-1 pos-0-0)::jump-new-move( pos-0-0 pos-0-1 pos-0-2)::jump-new-move( pos-0-1 pos-1-1 pos-2-1)::end-move( pos-0-1)::jump-new-move( pos-1-2 pos-1-1 pos-1-0)
end-move( pos-0-2)::jump-new-move( pos-2-2 pos-1-2 pos-0-2)
jump-new-move( pos-2-2 pos-2-1 pos-2-0)::end-move( pos-2-2)::end-move( pos-0-0)::end-move( pos-2-0)::jump-new-move( pos-0-1 pos-1-1 pos-2-1)::jump-new-move( pos-0-2 pos-0-1 pos-0-0)::end-move( pos-2-1)::end-move( pos-0-0)
jump-new-move( pos-0-0 pos-0-1 pos-0-2)::end-move( pos-0-2)::jump-continue-move( pos-0-2 pos-0-1 pos-0-0)::jump-new-move( pos-2-1 pos-1-1 pos-0-1)::end-move( pos-0-1)::jump-new-move( pos-2-0 pos-1-0 pos-0-0)::jump-new-move( pos-0-2 pos-0-1 pos-0-0)::end-move( pos-2-0)::jump-continue-move( pos-0-0 pos-1-0 pos-2-0)
jump-new-move( pos-2-2 pos-2-1 pos-2-0)::end-move( pos-2-0)::jump-new-move( pos-0-0 pos-0-1 pos-0-2)::jump-continue-move( pos-0-2 pos-0-1 pos-0-0)::end-move( pos-0-2)::jump-new-move( pos-0-2 pos-1-2 pos-2-2)::end-move( pos-0-0)::end-move( pos-2-2)::jump-new-move( pos-1-0 pos-1-1 pos-1-2)::end-move( pos-1-2)
jump-new-move( pos-2-2 pos-2-1 pos-2-0)::end-move( pos-2-0)::jump-continue-move( pos-0-0 pos-1-0 pos-2-0)::jump-new-move( pos-0-1 pos-1-1 pos-2-1)::end-move( pos-2-1)
jump-continue-move( pos-0-2 pos-0-1 pos-0-0)::jump-new-move( pos-0-0 pos-0-1 pos-0-2)::end-move( pos-0-2)::jump-new-move( pos-2-1 pos-1-1 pos-0-1)::end-move( pos-0-1)::jump-new-move( pos-0-2 pos-0-1 pos-0-0)::jump-continue-move( pos-0-0 pos-1-0 pos-2-0)::jump-continue-move( pos-2-2 pos-2-1 pos-2-0)
jump-new-move( pos-0-0 pos-0-1 pos-0-2)::jump-new-move( pos-2-2 pos-1-2 pos-0-2)::end-move( pos-0-2)::jump-new-move( pos-2-1 pos-1-1 pos-0-1)::jump-new-move( pos-2-0 pos-1-0 pos-0-0)::end-move( pos-0-1)::jump-new-move( pos-0-2 pos-0-1 pos-0-0)::jump-continue-move( pos-0-0 pos-1-0 pos-2-0)::jump-continue-move( pos-0-0 pos-1-0 pos-2-0)::end-move( pos-2-0)
jump-new-move( pos-0-0 pos-1-0 pos-2-0)::end-move( pos-2-0)::jump-new-move( pos-0-0 pos-1-0 pos-2-0)::jump-new-move( pos-1-2 pos-1-1 pos-1-0)::end-move( pos-1-0)::jump-new-move( pos-2-0 pos-1-0 pos-0-0)::jump-continue-move( pos-0-0 pos-0-1 pos-0-2)::jump-continue-move( pos-0-0 pos-1-0 pos-2-0)::end-move( pos-0-0)::jump-new-move( pos-2-1 pos-1-1 pos-0-1)
jump-new-move( pos-2-1 pos-1-1 pos-0-1)::jump-continue-move( pos-0-1 pos-1-1 pos-2-1)::jump-new-move( pos-2-2 pos-2-1 pos-2-0)::jump-new-move( pos-1-2 pos-1-1 pos-1-0)::jump-new-move( pos-1-0 pos-1-1 pos-1-2)::end-move( pos-2-0)::jump-new-move( pos-0-1 pos-1-1 pos-2-1)::jump-new-move( pos-0-2 pos-1-2 pos-2-2)
jump-new-move( pos-2-2 pos-2-1 pos-2-0)::jump-new-move( pos-2-2 pos-2-1 pos-2-0)::end-move( pos-2-0)::jump-new-move( pos-0-1 pos-1-1 pos-2-1)::end-move( pos-2-1)
jump-new-move( pos-0-0 pos-0-1 pos-0-2)::end-move( pos-0-1)::jump-new-move( pos-0-0 pos-0-1 pos-0-2)
jump-new-move( pos-0-1 pos-1-1 pos-2-1)
jump-new-move( pos-2-2 pos-1-2 pos-0-2)::end-move( pos-0-2)::jump-new-move( pos-0-0 pos-1-0 pos-2-0)::jump-continue-move( pos-2-0 pos-2-1 pos-2-2)::jump-new-move( pos-0-0 pos-1-0 pos-2-0)
jump-new-move( pos-0-0 pos-0-1 pos-0-2)::jump-new-move( pos-0-0 pos-1-0 pos-2-0)::end-move( pos-0-2)::jump-new-move( pos-2-1 pos-1-1 pos-0-1)::end-move( pos-0-1)
jump-new-move( pos-0-1 pos-1-1 pos-2-1)::end-move( pos-0-0)::jump-new-move( pos-2-2 pos-2-1 pos-2-0)::end-move( pos-2-0)::jump-new-move( pos-0-1 pos-1-1 pos-2-1)::end-move( pos-2-1)::jump-new-move( pos-2-0 pos-2-1 pos-2-2)::jump-continue-move( pos-2-2 pos-1-2 pos-0-2)::jump-continue-move( pos-1-2 pos-1-1 pos-1-0)::jump-new-move( pos-0-2 pos-0-1 pos-0-0)
jump-new-move( pos-0-0 pos-0-1 pos-0-2)::end-move( pos-0-2)::jump-continue-move( pos-1-2 pos-1-1 pos-1-0)::jump-new-move( pos-2-2 pos-1-2 pos-0-2)::jump-new-move( pos-2-1 pos-1-1 pos-0-1)
end-move( pos-2-0)::jump-new-move( pos-2-2 pos-2-1 pos-2-0)::jump-new-move( pos-0-0 pos-0-1 pos-0-2)::end-move( pos-2-0)::jump-continue-move( pos-1-2 pos-1-1 pos-1-0)::jump-continue-move( pos-0-1 pos-1-1 pos-2-1)::jump-new-move( pos-0-1 pos-1-1 pos-2-1)::jump-continue-move( pos-2-0 pos-1-0 pos-0-0)
jump-new-move( pos-2-2 pos-1-2 pos-0-2)::end-move( pos-0-2)::jump-new-move( pos-0-0 pos-1-0 pos-2-0)::end-move( pos-2-0)::jump-new-move( pos-2-0 pos-2-1 pos-2-2)::jump-continue-move( pos-0-0 pos-0-1 pos-0-2)
jump-new-move( pos-0-0 pos-1-0 pos-2-0)::end-move( pos-2-0)::jump-new-move( pos-1-2 pos-1-1 pos-1-0)::end-move( pos-1-0)::jump-new-move( pos-2-0 pos-1-0 pos-0-0)::jump-new-move( pos-2-0 pos-2-1 pos-2-2)::jump-continue-move( pos-0-0 pos-0-1 pos-0-2)::jump-new-move( pos-2-1 pos-1-1 pos-0-1)
jump-new-move( pos-2-2 pos-2-1 pos-2-0)::end-move( pos-2-0)::jump-new-move( pos-2-0 pos-2-1 pos-2-2)::jump-new-move( pos-0-1 pos-1-1 pos-2-1)::end-move( pos-2-1)::jump-continue-move( pos-1-2 pos-1-1 pos-1-0)::jump-new-move( pos-2-0 pos-2-1 pos-2-2)
jump-new-move( pos-2-2 pos-1-2 pos-0-2)::end-move( pos-0-2)::jump-new-move( pos-0-0 pos-1-0 pos-2-0)::end-move( pos-2-0)::jump-new-move( pos-0-2 pos-0-1 pos-0-0)::end-move( pos-0-2)::end-move( pos-0-0)::jump-continue-move( pos-2-2 pos-2-1 pos-2-0)::jump-new-move( pos-2-1 pos-1-1 pos-0-1)
jump-new-move( pos-2-2 pos-2-1 pos-2-0)::end-move( pos-2-0)::jump-new-move( pos-0-0 pos-0-1 pos-0-2)::end-move( pos-0-2)::jump-new-move( pos-2-0 pos-1-0 pos-0-0)::end-move( pos-2-0)
jump-new-move( pos-2-2 pos-1-2 pos-0-2)::end-move( pos-0-2)::jump-new-move( pos-0-0 pos-1-0 pos-2-0)::jump-new-move( pos-2-2 pos-1-2 pos-0-2)::jump-continue-move( pos-2-0 pos-2-1 pos-2-2)
jump-new-move( pos-2-2 pos-1-2 pos-0-2)::end-move( pos-0-2)::jump-new-move( pos-1-0 pos-1-1 pos-1-2)::jump-new-move( pos-0-2 pos-0-1 pos-0-0)
