# actions 14
# predicate 10
Initial state : pddl/zenotravel/initial_states/initial1.pddl
pddl/zenotravel/domain.pddl
E+ size : 100
E- size : 18048
e+ mean size : 49.88
e- mean size : 32.92287
############################################
### Fluent = 25.0% ###

*** Noise = 0.0% ***
Iteration 1
Time : 2.084
Syntactical distance : 0.1959596
Error Rate Precondition : 0.08199474
Error Rate Postcondition : 0.0
FSCORE : 0.016260162
Iteration 2
Size I+ 2
Size I- 99
Time : 5.432
Syntactical distance : 0.022222223
Error Rate Precondition : 0.0
Error Rate Postcondition : 0.0
FSCORE : 0.3952569
Iteration 3
Size I+ 3
Size I- 125
Time : 13.663
Syntactical distance : 0.0
Error Rate Precondition : 0.0
Error Rate Postcondition : 0.0
FSCORE : 1.0
Iteration 4
Size I+ 4
Size I- 149
Time : 21.66
Syntactical distance : 0.0
Error Rate Precondition : 0.0
Error Rate Postcondition : 0.0
FSCORE : 1.0
Iteration 5
Size I+ 5
Size I- 206
Time : 30.911
Syntactical distance : 0.0
Error Rate Precondition : 0.0
Error Rate Postcondition : 0.0
FSCORE : 1.0
Iteration 6
Size I+ 6
Size I- 282
Time : 40.599
Syntactical distance : 0.0
Error Rate Precondition : 0.0
Error Rate Postcondition : 0.0
FSCORE : 1.0
Iteration 7
Size I+ 7
Size I- 316
Time : 48.392
Syntactical distance : 0.0
Error Rate Precondition : 0.0
Error Rate Postcondition : 0.0
FSCORE : 1.0
Iteration 8
Size I+ 8
Size I- 358
Time : 56.924
Syntactical distance : 0.0
Error Rate Precondition : 0.0
Error Rate Postcondition : 0.0
FSCORE : 1.0
Iteration 9
Size I+ 9
Size I- 411
Time : 66.533
Syntactical distance : 0.0
Error Rate Precondition : 0.0
Error Rate Postcondition : 0.0
FSCORE : 1.0
Iteration 10
Size I+ 10
Size I- 460
Time : 77.057
Syntactical distance : 0.0
Error Rate Precondition : 0.0
Error Rate Postcondition : 0.0
FSCORE : 1.0
Iteration 11
Size I+ 11
Size I- 527
Time : 88.665
Syntactical distance : 0.0
Error Rate Precondition : 0.0
Error Rate Postcondition : 0.0
FSCORE : 1.0
Iteration 12
Size I+ 12
Size I- 569
Time : 107.124
Syntactical distance : 0.0
Error Rate Precondition : 0.0
Error Rate Postcondition : 0.0
FSCORE : 1.0
Iteration 13
Size I+ 13
Size I- 598
Time : 120.504
Syntactical distance : 0.0
Error Rate Precondition : 0.0
Error Rate Postcondition : 0.0
FSCORE : 1.0
Iteration 14
Size I+ 14
Size I- 645
Time : 134.017
Syntactical distance : 0.0
Error Rate Precondition : 0.0
Error Rate Postcondition : 0.0
FSCORE : 1.0
Iteration 15
Size I+ 15
Size I- 670
Time : 149.086
Syntactical distance : 0.0
Error Rate Precondition : 0.0
Error Rate Postcondition : 0.0
FSCORE : 1.0
Iteration 16
Size I+ 16
Size I- 728
Time : 166.12
Syntactical distance : 0.0
Error Rate Precondition : 0.0
Error Rate Postcondition : 0.0
FSCORE : 1.0
Iteration 17
Size I+ 17
Size I- 776
Time : 176.038
Syntactical distance : 0.0
Error Rate Precondition : 0.0
Error Rate Postcondition : 0.0
FSCORE : 1.0
Iteration 18
Size I+ 18
Size I- 832
Time : 186.287
Syntactical distance : 0.0
Error Rate Precondition : 0.0
Error Rate Postcondition : 0.0
FSCORE : 1.0
Iteration 19
Size I+ 19
Size I- 885
Time : 223.358
Syntactical distance : 0.0
Error Rate Precondition : 0.0
Error Rate Postcondition : 0.0
FSCORE : 1.0
Iteration 20
Size I+ 20
Size I- 928
Time : 243.88
Syntactical distance : 0.0
Error Rate Precondition : 0.0
Error Rate Postcondition : 0.0
FSCORE : 1.0
Iteration 21
Size I+ 21
Size I- 959
Time : 266.363
Syntactical distance : 0.0
Error Rate Precondition : 0.0
Error Rate Postcondition : 0.0
FSCORE : 1.0
Iteration 22
Size I+ 22
Size I- 1006
Time : 290.223
Syntactical distance : 0.0
Error Rate Precondition : 0.0
Error Rate Postcondition : 0.0
FSCORE : 1.0
Iteration 23
Size I+ 23
Size I- 1045
Time : 302.004
Syntactical distance : 0.0
Error Rate Precondition : 0.0
Error Rate Postcondition : 0.0
FSCORE : 1.0
Iteration 24
Size I+ 24
Size I- 1094
Time : 345.961
Syntactical distance : 0.0
Error Rate Precondition : 0.0
Error Rate Postcondition : 0.0
FSCORE : 1.0
Iteration 25
Size I+ 25
Size I- 1117
Time : 372.714
Syntactical distance : 0.0
Error Rate Precondition : 0.0
Error Rate Postcondition : 0.0
FSCORE : 1.0
Iteration 26
Size I+ 26
Size I- 1160
Time : 400.885
Syntactical distance : 0.0
Error Rate Precondition : 0.0
Error Rate Postcondition : 0.0
FSCORE : 1.0
Iteration 27
Size I+ 27
Size I- 1188
Time : 413.41
Syntactical distance : 0.0
Error Rate Precondition : 0.0
Error Rate Postcondition : 0.0
FSCORE : 1.0
Iteration 28
Size I+ 28
Size I- 1227
Time : 445.671
Syntactical distance : 0.0
Error Rate Precondition : 0.0
Error Rate Postcondition : 0.0
FSCORE : 1.0
Iteration 29
Size I+ 29
Size I- 1276
Time : 480.776
Syntactical distance : 0.0
Error Rate Precondition : 0.0
Error Rate Postcondition : 0.0
FSCORE : 1.0
Iteration 30
Size I+ 30
Size I- 1329
Time : 518.027
Syntactical distance : 0.0
Error Rate Precondition : 0.0
Error Rate Postcondition : 0.0
FSCORE : 1.0

*** Noise = 20.0% ***
Iteration 1
Time : 1.615
Syntactical distance : 0.22646466
Error Rate Precondition : 0.094558835
Error Rate Postcondition : 0.0
FSCORE : 0.015037594
Iteration 2
Size I+ 2
Size I- 99
Time : 4.182
Syntactical distance : 0.022222223
Error Rate Precondition : 0.0
Error Rate Postcondition : 0.0
FSCORE : 0.3952569
Iteration 3
Size I+ 3
Size I- 125
Time : 11.814
Syntactical distance : 0.0
Error Rate Precondition : 0.0
Error Rate Postcondition : 0.0
FSCORE : 1.0
Iteration 4
Size I+ 4
Size I- 149
Time : 20.161
Syntactical distance : 0.0
Error Rate Precondition : 0.0
Error Rate Postcondition : 0.0
FSCORE : 1.0
Iteration 5
Size I+ 5
Size I- 206
Time : 30.15
Syntactical distance : 0.0
Error Rate Precondition : 0.0
Error Rate Postcondition : 0.0
FSCORE : 1.0
Iteration 6
Size I+ 6
Size I- 282
Time : 41.557
Syntactical distance : 0.0
Error Rate Precondition : 0.0
Error Rate Postcondition : 0.0
FSCORE : 1.0
Iteration 7
Size I+ 7
Size I- 316
Time : 51.535
Syntactical distance : 0.0
Error Rate Precondition : 0.0
Error Rate Postcondition : 0.0
FSCORE : 1.0
Iteration 8
Size I+ 8
Size I- 358
Time : 62.53
Syntactical distance : 0.0
Error Rate Precondition : 0.0
Error Rate Postcondition : 0.0
FSCORE : 1.0
Iteration 9
Size I+ 9
Size I- 411
Time : 74.986
Syntactical distance : 0.0
Error Rate Precondition : 0.0
Error Rate Postcondition : 0.0
FSCORE : 1.0
Iteration 10
Size I+ 10
Size I- 460
Time : 89.398
Syntactical distance : 0.0
Error Rate Precondition : 0.0
Error Rate Postcondition : 0.0
FSCORE : 1.0
Iteration 11
Size I+ 11
Size I- 527
Time : 106.43
Syntactical distance : 0.0
Error Rate Precondition : 0.0
Error Rate Postcondition : 0.0
FSCORE : 1.0
Iteration 12
Size I+ 12
Size I- 569
Time : 135.221
Syntactical distance : 0.0
Error Rate Precondition : 0.0
Error Rate Postcondition : 0.0
FSCORE : 1.0
Iteration 13
Size I+ 13
Size I- 598
Time : 159.843
Syntactical distance : 0.0
Error Rate Precondition : 0.0
Error Rate Postcondition : 0.0
FSCORE : 1.0
Iteration 14
Size I+ 14
Size I- 645
Time : 178.358
Syntactical distance : 0.0
Error Rate Precondition : 0.0
Error Rate Postcondition : 0.0
FSCORE : 1.0
Iteration 15
Size I+ 15
Size I- 670
Time : 197.852
Syntactical distance : 0.0
Error Rate Precondition : 0.0
Error Rate Postcondition : 0.0
FSCORE : 1.0
Iteration 16
Size I+ 16
Size I- 728
Time : 219.416
Syntactical distance : 0.0
Error Rate Precondition : 0.0
Error Rate Postcondition : 0.0
FSCORE : 1.0
Iteration 17
Size I+ 17
Size I- 776
Time : 229.354
Syntactical distance : 0.0
Error Rate Precondition : 0.0
Error Rate Postcondition : 0.0
FSCORE : 1.0
Iteration 18
Size I+ 18
Size I- 832
Time : 239.64
Syntactical distance : 0.0
Error Rate Precondition : 0.0
Error Rate Postcondition : 0.0
FSCORE : 1.0
Iteration 19
Size I+ 19
Size I- 885
Time : 276.237
Syntactical distance : 0.0
Error Rate Precondition : 0.0
Error Rate Postcondition : 0.0
FSCORE : 1.0
Iteration 20
Size I+ 20
Size I- 928
Time : 296.687
Syntactical distance : 0.0
Error Rate Precondition : 0.0
Error Rate Postcondition : 0.0
FSCORE : 1.0
Iteration 21
Size I+ 21
Size I- 959
Time : 319.191
Syntactical distance : 0.0
Error Rate Precondition : 0.0
Error Rate Postcondition : 0.0
FSCORE : 1.0
Iteration 22
Size I+ 22
Size I- 1006
Time : 343.459
Syntactical distance : 0.0
Error Rate Precondition : 0.0
Error Rate Postcondition : 0.0
FSCORE : 1.0
Iteration 23
Size I+ 23
Size I- 1045
Time : 355.149
Syntactical distance : 0.0
Error Rate Precondition : 0.0
Error Rate Postcondition : 0.0
FSCORE : 1.0
Iteration 24
Size I+ 24
Size I- 1094
Time : 399.489
Syntactical distance : 0.0
Error Rate Precondition : 0.0
Error Rate Postcondition : 0.0
FSCORE : 1.0
Iteration 25
Size I+ 25
Size I- 1117
Time : 426.404
Syntactical distance : 0.0
Error Rate Precondition : 0.0
Error Rate Postcondition : 0.0
FSCORE : 1.0
Iteration 26
Size I+ 26
Size I- 1160
Time : 454.903
Syntactical distance : 0.0
Error Rate Precondition : 0.0
Error Rate Postcondition : 0.0
FSCORE : 1.0
Iteration 27
Size I+ 27
Size I- 1188
Time : 467.44
Syntactical distance : 0.0
Error Rate Precondition : 0.0
Error Rate Postcondition : 0.0
FSCORE : 1.0
Iteration 28
Size I+ 28
Size I- 1227
Time : 499.523
Syntactical distance : 0.0
Error Rate Precondition : 0.0
Error Rate Postcondition : 0.0
FSCORE : 1.0
Iteration 29
Size I+ 29
Size I- 1276
Time : 533.853
Syntactical distance : 0.0
Error Rate Precondition : 0.0
Error Rate Postcondition : 0.0
FSCORE : 1.0
Iteration 30
Size I+ 30
Size I- 1329
Time : 570.789
Syntactical distance : 0.0
Error Rate Precondition : 0.0
Error Rate Postcondition : 0.0
FSCORE : 1.0
############################################
### Fluent = 100.0% ###

*** Noise = 0.0% ***
Iteration 1
Time : 1.371
Syntactical distance : 0.1777778
Error Rate Precondition : 0.078095846
Error Rate Postcondition : 0.0
FSCORE : 0.058252428
Iteration 2
Size I+ 2
Size I- 104
Time : 3.1
Syntactical distance : 0.0
Error Rate Precondition : 0.0
Error Rate Postcondition : 0.0
FSCORE : 1.0
Iteration 3
Size I+ 3
Size I- 138
Time : 9.072
Syntactical distance : 0.0
Error Rate Precondition : 0.0
Error Rate Postcondition : 0.0
FSCORE : 1.0
Iteration 4
Size I+ 4
Size I- 206
Time : 15.595
Syntactical distance : 0.0
Error Rate Precondition : 0.0
Error Rate Postcondition : 0.0
FSCORE : 1.0
Iteration 5
Size I+ 5
Size I- 263
Time : 22.861
Syntactical distance : 0.0
Error Rate Precondition : 0.0
Error Rate Postcondition : 0.0
FSCORE : 1.0
Iteration 6
Size I+ 6
Size I- 318
Time : 30.957
Syntactical distance : 0.0
Error Rate Precondition : 0.0
Error Rate Postcondition : 0.0
FSCORE : 1.0
Iteration 7
Size I+ 7
Size I- 396
Time : 39.263
Syntactical distance : 0.0
Error Rate Precondition : 0.0
Error Rate Postcondition : 0.0
FSCORE : 1.0
Iteration 8
Size I+ 8
Size I- 414
Time : 48.146
Syntactical distance : 0.0
Error Rate Precondition : 0.0
Error Rate Postcondition : 0.0
FSCORE : 1.0
Iteration 9
Size I+ 9
Size I- 437
Time : 56.991
Syntactical distance : 0.0
Error Rate Precondition : 0.0
Error Rate Postcondition : 0.0
FSCORE : 1.0
Iteration 10
Size I+ 10
Size I- 462
Time : 66.169
Syntactical distance : 0.0
Error Rate Precondition : 0.0
Error Rate Postcondition : 0.0
FSCORE : 1.0
Iteration 11
Size I+ 11
Size I- 531
Time : 75.361
Syntactical distance : 0.0
Error Rate Precondition : 0.0
Error Rate Postcondition : 0.0
FSCORE : 1.0
Iteration 12
Size I+ 12
Size I- 570
Time : 86.598
Syntactical distance : 0.0
Error Rate Precondition : 0.0
Error Rate Postcondition : 0.0
FSCORE : 1.0
Iteration 13
Size I+ 13
Size I- 599
Time : 98.541
Syntactical distance : 0.0
Error Rate Precondition : 0.0
Error Rate Postcondition : 0.0
FSCORE : 1.0
Iteration 14
Size I+ 14
Size I- 638
Time : 110.121
Syntactical distance : 0.0
Error Rate Precondition : 0.0
Error Rate Postcondition : 0.0
FSCORE : 1.0
Iteration 15
Size I+ 15
Size I- 682
Time : 123.179
Syntactical distance : 0.0
Error Rate Precondition : 0.0
Error Rate Postcondition : 0.0
FSCORE : 1.0
Iteration 16
Size I+ 16
Size I- 719
Time : 136.179
Syntactical distance : 0.0
Error Rate Precondition : 0.0
Error Rate Postcondition : 0.0
FSCORE : 1.0
Iteration 17
Size I+ 17
Size I- 774
Time : 149.73
Syntactical distance : 0.0
Error Rate Precondition : 0.0
Error Rate Postcondition : 0.0
FSCORE : 1.0
Iteration 18
Size I+ 18
Size I- 823
Time : 164.838
Syntactical distance : 0.0
Error Rate Precondition : 0.0
Error Rate Postcondition : 0.0
FSCORE : 1.0
Iteration 19
Size I+ 19
Size I- 854
Time : 180.692
Syntactical distance : 0.0
Error Rate Precondition : 0.0
Error Rate Postcondition : 0.0
FSCORE : 1.0
Iteration 20
Size I+ 20
Size I- 885
Time : 195.712
Syntactical distance : 0.0
Error Rate Precondition : 0.0
Error Rate Postcondition : 0.0
FSCORE : 1.0
Iteration 21
Size I+ 21
Size I- 949
Time : 206.989
Syntactical distance : 0.0
Error Rate Precondition : 0.0
Error Rate Postcondition : 0.0
FSCORE : 1.0
Iteration 22
Size I+ 22
Size I- 966
Time : 218.307
Syntactical distance : 0.0
Error Rate Precondition : 0.0
Error Rate Postcondition : 0.0
FSCORE : 1.0
Iteration 23
Size I+ 23
Size I- 1032
Time : 238.76
Syntactical distance : 0.0
Error Rate Precondition : 0.0
Error Rate Postcondition : 0.0
FSCORE : 1.0
Iteration 24
Size I+ 24
Size I- 1092
Time : 263.162
Syntactical distance : 0.0
Error Rate Precondition : 0.0
Error Rate Postcondition : 0.0
FSCORE : 1.0
Iteration 25
Size I+ 25
Size I- 1135
Time : 280.422
Syntactical distance : 0.0
Error Rate Precondition : 0.0
Error Rate Postcondition : 0.0
FSCORE : 1.0
Iteration 26
Size I+ 26
Size I- 1162
Time : 294.609
Syntactical distance : 0.0
Error Rate Precondition : 0.0
Error Rate Postcondition : 0.0
FSCORE : 1.0
Iteration 27
Size I+ 27
Size I- 1189
Time : 307.651
Syntactical distance : 0.0
Error Rate Precondition : 0.0
Error Rate Postcondition : 0.0
FSCORE : 1.0
Iteration 28
Size I+ 28
Size I- 1258
Time : 321.235
Syntactical distance : 0.0
Error Rate Precondition : 0.0
Error Rate Postcondition : 0.0
FSCORE : 1.0
Iteration 29
Size I+ 29
Size I- 1294
Time : 335.057
Syntactical distance : 0.0
Error Rate Precondition : 0.0
Error Rate Postcondition : 0.0
FSCORE : 1.0
Iteration 30
Size I+ 30
Size I- 1329
Time : 349.067
Syntactical distance : 0.0
Error Rate Precondition : 0.0
Error Rate Postcondition : 0.0
FSCORE : 1.0

*** Noise = 20.0% ***
Iteration 1
Time : 1.612
Syntactical distance : 0.20323233
Error Rate Precondition : 0.111337684
Error Rate Postcondition : 0.0
FSCORE : 0.0
Iteration 2
Size I+ 2
Size I- 104
Time : 4.665
Syntactical distance : 0.0
Error Rate Precondition : 0.0
Error Rate Postcondition : 0.0
FSCORE : 1.0
Iteration 3
Size I+ 3
Size I- 138
Time : 12.083
Syntactical distance : 0.0
Error Rate Precondition : 0.0
Error Rate Postcondition : 0.0
FSCORE : 1.0
Iteration 4
Size I+ 4
Size I- 206
Time : 20.549
Syntactical distance : 0.0
Error Rate Precondition : 0.0
Error Rate Postcondition : 0.0
FSCORE : 1.0
Iteration 5
Size I+ 5
Size I- 263
Time : 27.823
Syntactical distance : 0.0
Error Rate Precondition : 0.0
Error Rate Postcondition : 0.0
FSCORE : 1.0
Iteration 6
Size I+ 6
Size I- 318
Time : 35.84
Syntactical distance : 0.0
Error Rate Precondition : 0.0
Error Rate Postcondition : 0.0
FSCORE : 1.0
Iteration 7
Size I+ 7
Size I- 396
Time : 44.171
Syntactical distance : 0.0
Error Rate Precondition : 0.0
Error Rate Postcondition : 0.0
FSCORE : 1.0
Iteration 8
Size I+ 8
Size I- 414
Time : 53.006
Syntactical distance : 0.0
Error Rate Precondition : 0.0
Error Rate Postcondition : 0.0
FSCORE : 1.0
Iteration 9
Size I+ 9
Size I- 437
Time : 61.894
Syntactical distance : 0.0
Error Rate Precondition : 0.0
Error Rate Postcondition : 0.0
FSCORE : 1.0
Iteration 10
Size I+ 10
Size I- 462
Time : 78.471
Syntactical distance : 0.0
Error Rate Precondition : 0.0
Error Rate Postcondition : 0.0
FSCORE : 1.0
Iteration 11
Size I+ 11
Size I- 531
Time : 99.971
Syntactical distance : 0.0
Error Rate Precondition : 0.0
Error Rate Postcondition : 0.0
FSCORE : 1.0
Iteration 12
Size I+ 12
Size I- 570
Time : 120.62
Syntactical distance : 0.0
Error Rate Precondition : 0.0
Error Rate Postcondition : 0.0
FSCORE : 1.0
Iteration 13
Size I+ 13
Size I- 599
Time : 132.591
Syntactical distance : 0.0
Error Rate Precondition : 0.0
Error Rate Postcondition : 0.0
FSCORE : 1.0
Iteration 14
Size I+ 14
Size I- 638
Time : 144.075
Syntactical distance : 0.0
Error Rate Precondition : 0.0
Error Rate Postcondition : 0.0
FSCORE : 1.0
Iteration 15
Size I+ 15
Size I- 682
Time : 156.989
Syntactical distance : 0.0
Error Rate Precondition : 0.0
Error Rate Postcondition : 0.0
FSCORE : 1.0
Iteration 16
Size I+ 16
Size I- 719
Time : 169.701
Syntactical distance : 0.0
Error Rate Precondition : 0.0
Error Rate Postcondition : 0.0
FSCORE : 1.0
Iteration 17
Size I+ 17
Size I- 774
Time : 183.243
Syntactical distance : 0.0
Error Rate Precondition : 0.0
Error Rate Postcondition : 0.0
FSCORE : 1.0
Iteration 18
Size I+ 18
Size I- 823
Time : 198.416
Syntactical distance : 0.0
Error Rate Precondition : 0.0
Error Rate Postcondition : 0.0
FSCORE : 1.0
Iteration 19
Size I+ 19
Size I- 854
Time : 214.16
Syntactical distance : 0.0
Error Rate Precondition : 0.0
Error Rate Postcondition : 0.0
FSCORE : 1.0
Iteration 20
Size I+ 20
Size I- 885
Time : 237.687
Syntactical distance : 0.0
Error Rate Precondition : 0.0
Error Rate Postcondition : 0.0
FSCORE : 1.0
Iteration 21
Size I+ 21
Size I- 949
Time : 258.075
Syntactical distance : 0.0
Error Rate Precondition : 0.0
Error Rate Postcondition : 0.0
FSCORE : 1.0
Iteration 22
Size I+ 22
Size I- 966
Time : 279.02
Syntactical distance : 0.0
Error Rate Precondition : 0.0
Error Rate Postcondition : 0.0
FSCORE : 1.0
Iteration 23
Size I+ 23
Size I- 1032
Time : 308.163
Syntactical distance : 0.0
Error Rate Precondition : 0.0
Error Rate Postcondition : 0.0
FSCORE : 1.0
Iteration 24
Size I+ 24
Size I- 1092
Time : 340.685
Syntactical distance : 0.0
Error Rate Precondition : 0.0
Error Rate Postcondition : 0.0
FSCORE : 1.0
Iteration 25
Size I+ 25
Size I- 1135
Time : 380.88
Syntactical distance : 0.0
Error Rate Precondition : 0.0
Error Rate Postcondition : 0.0
FSCORE : 1.0
Iteration 26
Size I+ 26
Size I- 1162
Time : 413.109
Syntactical distance : 0.0
Error Rate Precondition : 0.0
Error Rate Postcondition : 0.0
FSCORE : 1.0
Iteration 27
Size I+ 27
Size I- 1189
Time : 444.597
Syntactical distance : 0.0
Error Rate Precondition : 0.0
Error Rate Postcondition : 0.0
FSCORE : 1.0
Iteration 28
Size I+ 28
Size I- 1258
Time : 483.949
Syntactical distance : 0.0
Error Rate Precondition : 0.0
Error Rate Postcondition : 0.0
FSCORE : 1.0
Iteration 29
Size I+ 29
Size I- 1294
Time : 524.418
Syntactical distance : 0.0
Error Rate Precondition : 0.0
Error Rate Postcondition : 0.0
FSCORE : 1.0
Iteration 30
Size I+ 30
Size I- 1329
Time : 565.866
Syntactical distance : 0.0
Error Rate Precondition : 0.0
Error Rate Postcondition : 0.0
FSCORE : 1.0
E+ size : 100
E- size : 18520
e+ mean size : 52.05
e- mean size : 35.036446
############################################
### Fluent = 25.0% ###

*** Noise = 0.0% ***
Iteration 1
Time : 1.407
Syntactical distance : 0.13959596
Error Rate Precondition : 0.02816177
Error Rate Postcondition : 0.0
FSCORE : 0.032258064
Iteration 2
Size I+ 2
Size I- 83
Time : 4.554
Syntactical distance : 0.032727275
Error Rate Precondition : 0.0
Error Rate Postcondition : 0.0
FSCORE : 0.089136496
Iteration 3
Size I+ 3
Size I- 130
Time : 9.779
Syntactical distance : 0.0
Error Rate Precondition : 0.0
Error Rate Postcondition : 0.0
FSCORE : 1.0
Iteration 4
Size I+ 4
Size I- 187
Time : 17.957
Syntactical distance : 0.0
Error Rate Precondition : 0.0
Error Rate Postcondition : 0.0
FSCORE : 1.0
Iteration 5
Size I+ 5
Size I- 217
Time : 25.038
Syntactical distance : 0.0
Error Rate Precondition : 0.0
Error Rate Postcondition : 0.0
FSCORE : 1.0
Iteration 6
Size I+ 6
Size I- 253
Time : 32.711
Syntactical distance : 0.0
Error Rate Precondition : 0.0
Error Rate Postcondition : 0.0
FSCORE : 1.0
Iteration 7
Size I+ 7
Size I- 311
Time : 40.761
Syntactical distance : 0.0
Error Rate Precondition : 0.0
Error Rate Postcondition : 0.0
FSCORE : 1.0
Iteration 8
Size I+ 8
Size I- 342
Time : 49.193
Syntactical distance : 0.0
Error Rate Precondition : 0.0
Error Rate Postcondition : 0.0
FSCORE : 1.0
Iteration 9
Size I+ 9
Size I- 407
Time : 58.367
Syntactical distance : 0.0
Error Rate Precondition : 0.0
Error Rate Postcondition : 0.0
FSCORE : 1.0
Iteration 10
Size I+ 10
Size I- 445
Time : 68.661
Syntactical distance : 0.0
Error Rate Precondition : 0.0
Error Rate Postcondition : 0.0
FSCORE : 1.0
Iteration 11
Size I+ 11
Size I- 474
Time : 83.049
Syntactical distance : 0.0
Error Rate Precondition : 0.0
Error Rate Postcondition : 0.0
FSCORE : 1.0
Iteration 12
Size I+ 12
Size I- 541
Time : 95.692
Syntactical distance : 0.0
Error Rate Precondition : 0.0
Error Rate Postcondition : 0.0
FSCORE : 1.0
Iteration 13
Size I+ 13
Size I- 567
Time : 111.189
Syntactical distance : 0.0
Error Rate Precondition : 0.0
Error Rate Postcondition : 0.0
FSCORE : 1.0
Iteration 14
Size I+ 14
Size I- 600
Time : 120.338
Syntactical distance : 0.0
Error Rate Precondition : 0.0
Error Rate Postcondition : 0.0
FSCORE : 1.0
Iteration 15
Size I+ 15
Size I- 623
Time : 134.039
Syntactical distance : 0.0
Error Rate Precondition : 0.0
Error Rate Postcondition : 0.0
FSCORE : 1.0
Iteration 16
Size I+ 16
Size I- 661
Time : 151.412
Syntactical distance : 0.0
Error Rate Precondition : 0.0
Error Rate Postcondition : 0.0
FSCORE : 1.0
Iteration 17
Size I+ 17
Size I- 699
Time : 167.228
Syntactical distance : 0.0
Error Rate Precondition : 0.0
Error Rate Postcondition : 0.0
FSCORE : 1.0
Iteration 18
Size I+ 18
Size I- 756
Time : 192.324
Syntactical distance : 0.0
Error Rate Precondition : 0.0
Error Rate Postcondition : 0.0
FSCORE : 1.0
Iteration 19
Size I+ 19
Size I- 852
Time : 211.18
Syntactical distance : 0.0
Error Rate Precondition : 0.0
Error Rate Postcondition : 0.0
FSCORE : 1.0
Iteration 20
Size I+ 20
Size I- 902
Time : 231.052
Syntactical distance : 0.0
Error Rate Precondition : 0.0
Error Rate Postcondition : 0.0
FSCORE : 1.0
Iteration 21
Size I+ 21
Size I- 952
Time : 253.712
Syntactical distance : 0.0
Error Rate Precondition : 0.0
Error Rate Postcondition : 0.0
FSCORE : 1.0
Iteration 22
Size I+ 22
Size I- 970
Time : 276.348
Syntactical distance : 0.0
Error Rate Precondition : 0.0
Error Rate Postcondition : 0.0
FSCORE : 1.0
Iteration 23
Size I+ 23
Size I- 990
Time : 288.047
Syntactical distance : 0.0
Error Rate Precondition : 0.0
Error Rate Postcondition : 0.0
FSCORE : 1.0
Iteration 24
Size I+ 24
Size I- 1021
Time : 316.625
Syntactical distance : 0.0
Error Rate Precondition : 0.0
Error Rate Postcondition : 0.0
FSCORE : 1.0
Iteration 25
Size I+ 25
Size I- 1075
Time : 328.816
Syntactical distance : 0.0
Error Rate Precondition : 0.0
Error Rate Postcondition : 0.0
FSCORE : 1.0
Iteration 26
Size I+ 26
Size I- 1135
Time : 357.909
Syntactical distance : 0.0
Error Rate Precondition : 0.0
Error Rate Postcondition : 0.0
FSCORE : 1.0
Iteration 27
Size I+ 27
Size I- 1174
Time : 370.749
Syntactical distance : 0.0
Error Rate Precondition : 0.0
Error Rate Postcondition : 0.0
FSCORE : 1.0
Iteration 28
Size I+ 28
Size I- 1210
Time : 401.85
Syntactical distance : 0.0
Error Rate Precondition : 0.0
Error Rate Postcondition : 0.0
FSCORE : 1.0
Iteration 29
Size I+ 29
Size I- 1248
Time : 432.914
Syntactical distance : 0.0
Error Rate Precondition : 0.0
Error Rate Postcondition : 0.0
FSCORE : 1.0
Iteration 30
Size I+ 30
Size I- 1293
Time : 467.026
Syntactical distance : 0.0
Error Rate Precondition : 0.0
Error Rate Postcondition : 0.0
FSCORE : 1.0

*** Noise = 20.0% ***
Iteration 1
Time : 1.413
Syntactical distance : 0.13959596
Error Rate Precondition : 0.029723126
Error Rate Postcondition : 0.0
FSCORE : 0.02469136
Iteration 2
Size I+ 2
Size I- 83
Time : 7.856
Syntactical distance : 0.09818182
Error Rate Precondition : 0.07005123
Error Rate Postcondition : 0.05667314
FSCORE : 0.023622047
Iteration 3
Size I+ 3
Size I- 130
Time : 11.704
Syntactical distance : 0.0
Error Rate Precondition : 0.0
Error Rate Postcondition : 0.0
FSCORE : 1.0
Iteration 4
Size I+ 4
Size I- 187
Time : 21.107
Syntactical distance : 0.0
Error Rate Precondition : 0.0
Error Rate Postcondition : 0.0
FSCORE : 1.0
Iteration 5
Size I+ 5
Size I- 217
Time : 31.4
Syntactical distance : 0.0
Error Rate Precondition : 0.0
Error Rate Postcondition : 0.0
FSCORE : 1.0
Iteration 6
Size I+ 6
Size I- 253
Time : 43.753
Syntactical distance : 0.0
Error Rate Precondition : 0.0
Error Rate Postcondition : 0.0
FSCORE : 1.0
Iteration 7
Size I+ 7
Size I- 311
Time : 58.354
Syntactical distance : 0.0
Error Rate Precondition : 0.0
Error Rate Postcondition : 0.0
FSCORE : 1.0
Iteration 8
Size I+ 8
Size I- 342
Time : 74.104
Syntactical distance : 0.0
Error Rate Precondition : 0.0
Error Rate Postcondition : 0.0
FSCORE : 1.0
Iteration 9
Size I+ 9
Size I- 407
Time : 91.416
Syntactical distance : 0.0
Error Rate Precondition : 0.0
Error Rate Postcondition : 0.0
FSCORE : 1.0
Iteration 10
Size I+ 10
Size I- 445
Time : 110.03
Syntactical distance : 0.0
Error Rate Precondition : 0.0
Error Rate Postcondition : 0.0
FSCORE : 1.0
Iteration 11
Size I+ 11
Size I- 474
Time : 133.605
Syntactical distance : 0.0
Error Rate Precondition : 0.0
Error Rate Postcondition : 0.0
FSCORE : 1.0
Iteration 12
Size I+ 12
Size I- 541
Time : 157.62
Syntactical distance : 0.0
Error Rate Precondition : 0.0
Error Rate Postcondition : 0.0
FSCORE : 1.0
Iteration 13
Size I+ 13
Size I- 567
Time : 184.582
Syntactical distance : 0.0
Error Rate Precondition : 0.0
Error Rate Postcondition : 0.0
FSCORE : 1.0
Iteration 14
Size I+ 14
Size I- 600
Time : 193.787
Syntactical distance : 0.0
Error Rate Precondition : 0.0
Error Rate Postcondition : 0.0
FSCORE : 1.0
Iteration 15
Size I+ 15
Size I- 623
Time : 207.373
Syntactical distance : 0.0
Error Rate Precondition : 0.0
Error Rate Postcondition : 0.0
FSCORE : 1.0
Iteration 16
Size I+ 16
Size I- 661
Time : 224.573
Syntactical distance : 0.0
Error Rate Precondition : 0.0
Error Rate Postcondition : 0.0
FSCORE : 1.0
Iteration 17
Size I+ 17
Size I- 699
Time : 240.421
Syntactical distance : 0.0
Error Rate Precondition : 0.0
Error Rate Postcondition : 0.0
FSCORE : 1.0
Iteration 18
Size I+ 18
Size I- 756
Time : 265.795
Syntactical distance : 0.0
Error Rate Precondition : 0.0
Error Rate Postcondition : 0.0
FSCORE : 1.0
Iteration 19
Size I+ 19
Size I- 852
Time : 290.622
Syntactical distance : 0.0
Error Rate Precondition : 0.0
Error Rate Postcondition : 0.0
FSCORE : 1.0
Iteration 20
Size I+ 20
Size I- 902
Time : 324.49
Syntactical distance : 0.0
Error Rate Precondition : 0.0
Error Rate Postcondition : 0.0
FSCORE : 1.0
Iteration 21
Size I+ 21
Size I- 952
Time : 360.758
Syntactical distance : 0.0
Error Rate Precondition : 0.0
Error Rate Postcondition : 0.0
FSCORE : 1.0
Iteration 22
Size I+ 22
Size I- 970
Time : 390.637
Syntactical distance : 0.0
Error Rate Precondition : 0.0
Error Rate Postcondition : 0.0
FSCORE : 1.0
Iteration 23
Size I+ 23
Size I- 990
Time : 409.991
Syntactical distance : 0.0
Error Rate Precondition : 0.0
Error Rate Postcondition : 0.0
FSCORE : 1.0
Iteration 24
Size I+ 24
Size I- 1021
Time : 446.357
Syntactical distance : 0.0
Error Rate Precondition : 0.0
Error Rate Postcondition : 0.0
FSCORE : 1.0
Iteration 25
Size I+ 25
Size I- 1075
Time : 466.93
Syntactical distance : 0.0
Error Rate Precondition : 0.0
Error Rate Postcondition : 0.0
FSCORE : 1.0
Iteration 26
Size I+ 26
Size I- 1135
Time : 504.811
Syntactical distance : 0.0
Error Rate Precondition : 0.0
Error Rate Postcondition : 0.0
FSCORE : 1.0
Iteration 27
Size I+ 27
Size I- 1174
Time : 526.768
Syntactical distance : 0.0
Error Rate Precondition : 0.0
Error Rate Postcondition : 0.0
FSCORE : 1.0
Iteration 28
Size I+ 28
Size I- 1210
Time : 566.98
Syntactical distance : 0.0
Error Rate Precondition : 0.0
Error Rate Postcondition : 0.0
FSCORE : 1.0
Iteration 29
Size I+ 29
Size I- 1248
Time : 608.522
Syntactical distance : 0.0
Error Rate Precondition : 0.0
Error Rate Postcondition : 0.0
FSCORE : 1.0
Iteration 30
Size I+ 30
Size I- 1293
Time : 643.261
Syntactical distance : 0.0
Error Rate Precondition : 0.0
Error Rate Postcondition : 0.0
FSCORE : 1.0
############################################
### Fluent = 100.0% ###

*** Noise = 0.0% ***
Iteration 1
Time : 1.176
Syntactical distance : 0.054545455
Error Rate Precondition : 0.022913942
Error Rate Postcondition : 0.0
FSCORE : 0.027272727
Iteration 2
Size I+ 2
Size I- 70
Time : 2.856
Syntactical distance : 0.0
Error Rate Precondition : 0.0
Error Rate Postcondition : 0.0
FSCORE : 1.0
Iteration 3
Size I+ 3
Size I- 108
Time : 9.08
Syntactical distance : 0.0
Error Rate Precondition : 0.0
Error Rate Postcondition : 0.0
FSCORE : 1.0
Iteration 4
Size I+ 4
Size I- 153
Time : 15.719
Syntactical distance : 0.0
Error Rate Precondition : 0.0
Error Rate Postcondition : 0.0
FSCORE : 1.0
Iteration 5
Size I+ 5
Size I- 225
Time : 22.898
Syntactical distance : 0.0
Error Rate Precondition : 0.0
Error Rate Postcondition : 0.0
FSCORE : 1.0
Iteration 6
Size I+ 6
Size I- 255
Time : 30.576
Syntactical distance : 0.0
Error Rate Precondition : 0.0
Error Rate Postcondition : 0.0
FSCORE : 1.0
Iteration 7
Size I+ 7
Size I- 277
Time : 38.399
Syntactical distance : 0.0
Error Rate Precondition : 0.0
Error Rate Postcondition : 0.0
FSCORE : 1.0
Iteration 8
Size I+ 8
Size I- 333
Time : 47.193
Syntactical distance : 0.0
Error Rate Precondition : 0.0
Error Rate Postcondition : 0.0
FSCORE : 1.0
Iteration 9
Size I+ 9
Size I- 405
Time : 56.68
Syntactical distance : 0.0
Error Rate Precondition : 0.0
Error Rate Postcondition : 0.0
FSCORE : 1.0
Iteration 10
Size I+ 10
Size I- 461
Time : 67.375
Syntactical distance : 0.0
Error Rate Precondition : 0.0
Error Rate Postcondition : 0.0
FSCORE : 1.0
Iteration 11
Size I+ 11
Size I- 491
Time : 79.723
Syntactical distance : 0.0
Error Rate Precondition : 0.0
Error Rate Postcondition : 0.0
FSCORE : 1.0
Iteration 12
Size I+ 12
Size I- 507
Time : 92.588
Syntactical distance : 0.0
Error Rate Precondition : 0.0
Error Rate Postcondition : 0.0
FSCORE : 1.0
Iteration 13
Size I+ 13
Size I- 568
Time : 104.365
Syntactical distance : 0.0
Error Rate Precondition : 0.0
Error Rate Postcondition : 0.0
FSCORE : 1.0
Iteration 14
Size I+ 14
Size I- 636
Time : 117.511
Syntactical distance : 0.0
Error Rate Precondition : 0.0
Error Rate Postcondition : 0.0
FSCORE : 1.0
Iteration 15
Size I+ 15
Size I- 690
Time : 127.433
Syntactical distance : 0.0
Error Rate Precondition : 0.0
Error Rate Postcondition : 0.0
FSCORE : 1.0
Iteration 16
Size I+ 16
Size I- 718
Time : 137.439
Syntactical distance : 0.0
Error Rate Precondition : 0.0
Error Rate Postcondition : 0.0
FSCORE : 1.0
Iteration 17
Size I+ 17
Size I- 775
Time : 147.863
Syntactical distance : 0.0
Error Rate Precondition : 0.0
Error Rate Postcondition : 0.0
FSCORE : 1.0
Iteration 18
Size I+ 18
Size I- 811
Time : 164.046
Syntactical distance : 0.0
Error Rate Precondition : 0.0
Error Rate Postcondition : 0.0
FSCORE : 1.0
Iteration 19
Size I+ 19
Size I- 877
Time : 181.454
Syntactical distance : 0.0
Error Rate Precondition : 0.0
Error Rate Postcondition : 0.0
FSCORE : 1.0
Iteration 20
Size I+ 20
Size I- 923
Time : 192.756
Syntactical distance : 0.0
Error Rate Precondition : 0.0
Error Rate Postcondition : 0.0
FSCORE : 1.0
Iteration 21
Size I+ 21
Size I- 968
Time : 212.122
Syntactical distance : 0.0
Error Rate Precondition : 0.0
Error Rate Postcondition : 0.0
FSCORE : 1.0
Iteration 22
Size I+ 22
Size I- 1021
Time : 233.291
Syntactical distance : 0.0
Error Rate Precondition : 0.0
Error Rate Postcondition : 0.0
FSCORE : 1.0
Iteration 23
Size I+ 23
Size I- 1074
Time : 259.745
Syntactical distance : 0.0
Error Rate Precondition : 0.0
Error Rate Postcondition : 0.0
FSCORE : 1.0
Iteration 24
Size I+ 24
Size I- 1125
Time : 272.396
Syntactical distance : 0.0
Error Rate Precondition : 0.0
Error Rate Postcondition : 0.0
FSCORE : 1.0
Iteration 25
Size I+ 25
Size I- 1145
Time : 285.237
Syntactical distance : 0.0
Error Rate Precondition : 0.0
Error Rate Postcondition : 0.0
FSCORE : 1.0
Iteration 26
Size I+ 26
Size I- 1212
Time : 313.669
Syntactical distance : 0.0
Error Rate Precondition : 0.0
Error Rate Postcondition : 0.0
FSCORE : 1.0
Iteration 27
Size I+ 27
Size I- 1249
Time : 342.868
Syntactical distance : 0.0
Error Rate Precondition : 0.0
Error Rate Postcondition : 0.0
FSCORE : 1.0
Iteration 28
Size I+ 28
Size I- 1289
Time : 373.803
Syntactical distance : 0.0
Error Rate Precondition : 0.0
Error Rate Postcondition : 0.0
FSCORE : 1.0
Iteration 29
Size I+ 29
Size I- 1345
Time : 387.842
Syntactical distance : 0.0
Error Rate Precondition : 0.0
Error Rate Postcondition : 0.0
FSCORE : 1.0
Iteration 30
Size I+ 30
Size I- 1399
Time : 446.515
Syntactical distance : 0.0
Error Rate Precondition : 0.0
Error Rate Postcondition : 0.0
FSCORE : 1.0

*** Noise = 20.0% ***
Iteration 1
Time : 1.476
Syntactical distance : 0.04848485
Error Rate Precondition : 0.023871811
Error Rate Postcondition : 0.0
FSCORE : 0.058252428
Iteration 2
Size I+ 2
Size I- 70
Time : 5.621
Syntactical distance : 0.0
Error Rate Precondition : 0.0
Error Rate Postcondition : 0.0
FSCORE : 1.0
Iteration 3
Size I+ 3
Size I- 108
Time : 12.892
Syntactical distance : 0.0
Error Rate Precondition : 0.0
Error Rate Postcondition : 0.0
FSCORE : 1.0
Iteration 4
Size I+ 4
Size I- 153
Time : 20.805
Syntactical distance : 0.0
Error Rate Precondition : 0.0
Error Rate Postcondition : 0.0
FSCORE : 1.0
Iteration 5
Size I+ 5
Size I- 225
Time : 28.094
Syntactical distance : 0.0
Error Rate Precondition : 0.0
Error Rate Postcondition : 0.0
FSCORE : 1.0
Iteration 6
Size I+ 6
Size I- 255
Time : 35.757
Syntactical distance : 0.0
Error Rate Precondition : 0.0
Error Rate Postcondition : 0.0
FSCORE : 1.0
Iteration 7
Size I+ 7
Size I- 277
Time : 43.651
Syntactical distance : 0.0
Error Rate Precondition : 0.0
Error Rate Postcondition : 0.0
FSCORE : 1.0
Iteration 8
Size I+ 8
Size I- 333
Time : 52.42
Syntactical distance : 0.0
Error Rate Precondition : 0.0
Error Rate Postcondition : 0.0
FSCORE : 1.0
Iteration 9
Size I+ 9
Size I- 405
Time : 61.924
Syntactical distance : 0.0
Error Rate Precondition : 0.0
Error Rate Postcondition : 0.0
FSCORE : 1.0
Iteration 10
Size I+ 10
Size I- 461
Time : 72.732
Syntactical distance : 0.0
Error Rate Precondition : 0.0
Error Rate Postcondition : 0.0
FSCORE : 1.0
Iteration 11
Size I+ 11
Size I- 491
Time : 88.166
Syntactical distance : 0.0
Error Rate Precondition : 0.0
Error Rate Postcondition : 0.0
FSCORE : 1.0
Iteration 12
Size I+ 12
Size I- 507
Time : 101.169
Syntactical distance : 0.0
Error Rate Precondition : 0.0
Error Rate Postcondition : 0.0
FSCORE : 1.0
Iteration 13
Size I+ 13
Size I- 568
Time : 113.01
Syntactical distance : 0.0
Error Rate Precondition : 0.0
Error Rate Postcondition : 0.0
FSCORE : 1.0
Iteration 14
Size I+ 14
Size I- 636
Time : 129.979
Syntactical distance : 0.0
Error Rate Precondition : 0.0
Error Rate Postcondition : 0.0
FSCORE : 1.0
Iteration 15
Size I+ 15
Size I- 690
Time : 143.868
Syntactical distance : 0.0
Error Rate Precondition : 0.0
Error Rate Postcondition : 0.0
FSCORE : 1.0
Iteration 16
Size I+ 16
Size I- 718
Time : 153.813
Syntactical distance : 0.0
Error Rate Precondition : 0.0
Error Rate Postcondition : 0.0
FSCORE : 1.0
Iteration 17
Size I+ 17
Size I- 775
Time : 164.241
Syntactical distance : 0.0
Error Rate Precondition : 0.0
Error Rate Postcondition : 0.0
FSCORE : 1.0
Iteration 18
Size I+ 18
Size I- 811
Time : 180.317
Syntactical distance : 0.0
Error Rate Precondition : 0.0
Error Rate Postcondition : 0.0
FSCORE : 1.0
Iteration 19
Size I+ 19
Size I- 877
Time : 197.68
Syntactical distance : 0.0
Error Rate Precondition : 0.0
Error Rate Postcondition : 0.0
FSCORE : 1.0
Iteration 20
Size I+ 20
Size I- 923
Time : 209.02
Syntactical distance : 0.0
Error Rate Precondition : 0.0
Error Rate Postcondition : 0.0
FSCORE : 1.0
Iteration 21
Size I+ 21
Size I- 968
Time : 228.366
Syntactical distance : 0.0
Error Rate Precondition : 0.0
Error Rate Postcondition : 0.0
FSCORE : 1.0
Iteration 22
Size I+ 22
Size I- 1021
Time : 255.601
Syntactical distance : 0.0
Error Rate Precondition : 0.0
Error Rate Postcondition : 0.0
FSCORE : 1.0
Iteration 23
Size I+ 23
Size I- 1074
Time : 288.149
Syntactical distance : 0.0
Error Rate Precondition : 0.0
Error Rate Postcondition : 0.0
FSCORE : 1.0
Iteration 24
Size I+ 24
Size I- 1125
Time : 306.922
Syntactical distance : 0.0
Error Rate Precondition : 0.0
Error Rate Postcondition : 0.0
FSCORE : 1.0
Iteration 25
Size I+ 25
Size I- 1145
Time : 325.974
Syntactical distance : 0.0
Error Rate Precondition : 0.0
Error Rate Postcondition : 0.0
FSCORE : 1.0
Iteration 26
Size I+ 26
Size I- 1212
Time : 360.956
Syntactical distance : 0.0
Error Rate Precondition : 0.0
Error Rate Postcondition : 0.0
FSCORE : 1.0
Iteration 27
Size I+ 27
Size I- 1249
Time : 396.985
Syntactical distance : 0.022222223
Error Rate Precondition : 0.0
Error Rate Postcondition : 0.0
FSCORE : 1.0
Iteration 28
Size I+ 28
Size I- 1289
Time : 435.142
Syntactical distance : 0.0
Error Rate Precondition : 0.0
Error Rate Postcondition : 0.0
FSCORE : 1.0
Iteration 29
Size I+ 29
Size I- 1345
Time : 456.454
Syntactical distance : 0.0
Error Rate Precondition : 0.0
Error Rate Postcondition : 0.0
FSCORE : 1.0
Iteration 30
Size I+ 30
Size I- 1399
Time : 522.575
Syntactical distance : 0.0
Error Rate Precondition : 0.0
Error Rate Postcondition : 0.0
FSCORE : 1.0
E+ size : 100
E- size : 16750
e+ mean size : 46.59
e- mean size : 33.32591
############################################
### Fluent = 25.0% ###

*** Noise = 0.0% ***
Iteration 1
Time : 1.986
Syntactical distance : 0.20848484
Error Rate Precondition : 0.10166792
Error Rate Postcondition : 0.0
FSCORE : 0.061776057
Iteration 2
Size I+ 2
Size I- 91
Time : 5.571
Syntactical distance : 0.06666667
Error Rate Precondition : 0.035386913
Error Rate Postcondition : 0.0
FSCORE : 0.29895365
Iteration 3
Size I+ 3
Size I- 117
Time : 14.418
Syntactical distance : 0.06666667
Error Rate Precondition : 0.0
Error Rate Postcondition : 0.0
FSCORE : 0.29895365
Iteration 4
Size I+ 4
Size I- 176
Time : 24.516
Syntactical distance : 0.0
Error Rate Precondition : 0.0
Error Rate Postcondition : 0.0
FSCORE : 1.0
Iteration 5
Size I+ 5
Size I- 217
Time : 32.85
Syntactical distance : 0.0
Error Rate Precondition : 0.0
Error Rate Postcondition : 0.0
FSCORE : 1.0
Iteration 6
Size I+ 6
Size I- 269
Time : 41.888
Syntactical distance : 0.0
Error Rate Precondition : 0.0
Error Rate Postcondition : 0.0
FSCORE : 1.0
Iteration 7
Size I+ 7
Size I- 301
Time : 50.98
Syntactical distance : 0.0
Error Rate Precondition : 0.0
Error Rate Postcondition : 0.0
FSCORE : 1.0
Iteration 8
Size I+ 8
Size I- 338
Time : 60.969
Syntactical distance : 0.0
Error Rate Precondition : 0.0
Error Rate Postcondition : 0.0
FSCORE : 1.0
Iteration 9
Size I+ 9
Size I- 380
Time : 71.517
Syntactical distance : 0.0
Error Rate Precondition : 0.0
Error Rate Postcondition : 0.0
FSCORE : 1.0
Iteration 10
Size I+ 10
Size I- 439
Time : 83.072
Syntactical distance : 0.0
Error Rate Precondition : 0.0
Error Rate Postcondition : 0.0
FSCORE : 1.0
Iteration 11
Size I+ 11
Size I- 475
Time : 95.178
Syntactical distance : 0.0
Error Rate Precondition : 0.0
Error Rate Postcondition : 0.0
FSCORE : 1.0
Iteration 12
Size I+ 12
Size I- 553
Time : 104.594
Syntactical distance : 0.0
Error Rate Precondition : 0.0
Error Rate Postcondition : 0.0
FSCORE : 1.0
Iteration 13
Size I+ 13
Size I- 571
Time : 112.784
Syntactical distance : 0.0
Error Rate Precondition : 0.0
Error Rate Postcondition : 0.0
FSCORE : 1.0
Iteration 14
Size I+ 14
Size I- 644
Time : 124.013
Syntactical distance : 0.0
Error Rate Precondition : 0.0
Error Rate Postcondition : 0.0
FSCORE : 1.0
Iteration 15
Size I+ 15
Size I- 670
Time : 135.503
Syntactical distance : 0.0
Error Rate Precondition : 0.0
Error Rate Postcondition : 0.0
FSCORE : 1.0
Iteration 16
Size I+ 16
Size I- 704
Time : 144.453
Syntactical distance : 0.0
Error Rate Precondition : 0.0
Error Rate Postcondition : 0.0
FSCORE : 1.0
Iteration 17
Size I+ 17
Size I- 757
Time : 157.92
Syntactical distance : 0.0
Error Rate Precondition : 0.0
Error Rate Postcondition : 0.0
FSCORE : 1.0
Iteration 18
Size I+ 18
Size I- 804
Time : 167.376
Syntactical distance : 0.0
Error Rate Precondition : 0.0
Error Rate Postcondition : 0.0
FSCORE : 1.0
Iteration 19
Size I+ 19
Size I- 876
Time : 177.265
Syntactical distance : 0.0
Error Rate Precondition : 0.0
Error Rate Postcondition : 0.0
FSCORE : 1.0
Iteration 20
Size I+ 20
Size I- 925
Time : 187.477
Syntactical distance : 0.0
Error Rate Precondition : 0.0
Error Rate Postcondition : 0.0
FSCORE : 1.0
Iteration 21
Size I+ 21
Size I- 952
Time : 205.322
Syntactical distance : 0.0
Error Rate Precondition : 0.0
Error Rate Postcondition : 0.0
FSCORE : 1.0
Iteration 22
Size I+ 22
Size I- 981
Time : 215.873
Syntactical distance : 0.0
Error Rate Precondition : 0.0
Error Rate Postcondition : 0.0
FSCORE : 1.0
Iteration 23
Size I+ 23
Size I- 1010
Time : 233.543
Syntactical distance : 0.0
Error Rate Precondition : 0.0
Error Rate Postcondition : 0.0
FSCORE : 1.0
Iteration 24
Size I+ 24
Size I- 1039
Time : 253.096
Syntactical distance : 0.0
Error Rate Precondition : 0.0
Error Rate Postcondition : 0.0
FSCORE : 1.0
Iteration 25
Size I+ 25
Size I- 1100
Time : 277.104
Syntactical distance : 0.0
Error Rate Precondition : 0.0
Error Rate Postcondition : 0.0
FSCORE : 1.0
Iteration 26
Size I+ 26
Size I- 1182
Time : 298.596
Syntactical distance : 0.0
Error Rate Precondition : 0.0
Error Rate Postcondition : 0.0
FSCORE : 1.0
Iteration 27
Size I+ 27
Size I- 1238
Time : 310.747
Syntactical distance : 0.0
Error Rate Precondition : 0.0
Error Rate Postcondition : 0.0
FSCORE : 1.0
Iteration 28
Size I+ 28
Size I- 1297
Time : 323.284
Syntactical distance : 0.0
Error Rate Precondition : 0.0
Error Rate Postcondition : 0.0
FSCORE : 1.0
Iteration 29
Size I+ 29
Size I- 1310
Time : 335.875
Syntactical distance : 0.0
Error Rate Precondition : 0.0
Error Rate Postcondition : 0.0
FSCORE : 1.0
Iteration 30
Size I+ 30
Size I- 1334
Time : 363.571
Syntactical distance : 0.0
Error Rate Precondition : 0.0
Error Rate Postcondition : 0.0
FSCORE : 1.0

*** Noise = 20.0% ***
Iteration 1
Time : 1.888
Syntactical distance : 0.2640404
Error Rate Precondition : 0.14500083
Error Rate Postcondition : 0.08090654
FSCORE : 0.029339854
Iteration 2
Size I+ 2
Size I- 91
Time : 6.82
Syntactical distance : 0.025454545
Error Rate Precondition : 0.024725435
Error Rate Postcondition : 0.0
FSCORE : 0.3809524
Iteration 3
Size I+ 3
Size I- 117
Time : 12.515
Syntactical distance : 0.069898985
Error Rate Precondition : 0.024725435
Error Rate Postcondition : 0.0
FSCORE : 0.17391303
Iteration 4
Size I+ 4
Size I- 176
Time : 16.987
Syntactical distance : 0.0
Error Rate Precondition : 0.0
Error Rate Postcondition : 0.0
FSCORE : 1.0
Iteration 5
Size I+ 5
Size I- 217
Time : 27.833
Syntactical distance : 0.025454545
Error Rate Precondition : 0.023244258
Error Rate Postcondition : 0.0
FSCORE : 0.3809524
Iteration 6
Size I+ 6
Size I- 269
Time : 38.141
Syntactical distance : 0.026666667
Error Rate Precondition : 0.0
Error Rate Postcondition : 0.0
FSCORE : 0.14947683
Iteration 7
Size I+ 7
Size I- 301
Time : 48.987
Syntactical distance : 0.0
Error Rate Precondition : 0.0
Error Rate Postcondition : 0.0
FSCORE : 1.0
Iteration 8
Size I+ 8
Size I- 338
Time : 63.081
Syntactical distance : 0.026666667
Error Rate Precondition : 0.0
Error Rate Postcondition : 0.0
FSCORE : 0.14947683
Iteration 9
Size I+ 9
Size I- 380
Time : 76.573
Syntactical distance : 0.0
Error Rate Precondition : 0.0
Error Rate Postcondition : 0.0
FSCORE : 1.0
Iteration 10
Size I+ 10
Size I- 439
Time : 90.679
Syntactical distance : 0.026666667
Error Rate Precondition : 0.0
Error Rate Postcondition : 0.0
FSCORE : 0.14947683
Iteration 11
Size I+ 11
Size I- 475
Time : 108.249
Syntactical distance : 0.026666667
Error Rate Precondition : 0.0
Error Rate Postcondition : 0.0
FSCORE : 0.14947683
Iteration 12
Size I+ 12
Size I- 553
Time : 126.209
Syntactical distance : 0.0
Error Rate Precondition : 0.0
Error Rate Postcondition : 0.0
FSCORE : 1.0
Iteration 13
Size I+ 13
Size I- 571
Time : 147.748
Syntactical distance : 0.0
Error Rate Precondition : 0.0
Error Rate Postcondition : 0.0
FSCORE : 1.0
Iteration 14
Size I+ 14
Size I- 644
Time : 167.664
Syntactical distance : 0.0
Error Rate Precondition : 0.0
Error Rate Postcondition : 0.0
FSCORE : 1.0
Iteration 15
Size I+ 15
Size I- 670
Time : 188.021
Syntactical distance : 0.0
Error Rate Precondition : 0.0
Error Rate Postcondition : 0.0
FSCORE : 1.0
Iteration 16
Size I+ 16
Size I- 704
Time : 207.358
Syntactical distance : 0.0
Error Rate Precondition : 0.0
Error Rate Postcondition : 0.0
FSCORE : 1.0
Iteration 17
Size I+ 17
Size I- 757
Time : 220.892
Syntactical distance : 0.0
Error Rate Precondition : 0.0
Error Rate Postcondition : 0.0
FSCORE : 1.0
Iteration 18
Size I+ 18
Size I- 804
Time : 230.406
Syntactical distance : 0.0
Error Rate Precondition : 0.0
Error Rate Postcondition : 0.0
FSCORE : 1.0
Iteration 19
Size I+ 19
Size I- 876
Time : 240.329
Syntactical distance : 0.0
Error Rate Precondition : 0.0
Error Rate Postcondition : 0.0
FSCORE : 1.0
Iteration 20
Size I+ 20
Size I- 925
Time : 250.619
Syntactical distance : 0.0
Error Rate Precondition : 0.0
Error Rate Postcondition : 0.0
FSCORE : 1.0
Iteration 21
Size I+ 21
Size I- 952
Time : 268.471
Syntactical distance : 0.0
Error Rate Precondition : 0.0
Error Rate Postcondition : 0.0
FSCORE : 1.0
Iteration 22
Size I+ 22
Size I- 981
Time : 279.094
Syntactical distance : 0.0
Error Rate Precondition : 0.0
Error Rate Postcondition : 0.0
FSCORE : 1.0
Iteration 23
Size I+ 23
Size I- 1010
Time : 296.775
Syntactical distance : 0.0
Error Rate Precondition : 0.0
Error Rate Postcondition : 0.0
FSCORE : 1.0
Iteration 24
Size I+ 24
Size I- 1039
Time : 316.467
Syntactical distance : 0.0
Error Rate Precondition : 0.0
Error Rate Postcondition : 0.0
FSCORE : 1.0
Iteration 25
Size I+ 25
Size I- 1100
Time : 340.452
Syntactical distance : 0.0
Error Rate Precondition : 0.0
Error Rate Postcondition : 0.0
FSCORE : 1.0
Iteration 26
Size I+ 26
Size I- 1182
Time : 362.327
Syntactical distance : 0.0
Error Rate Precondition : 0.0
Error Rate Postcondition : 0.0
FSCORE : 1.0
Iteration 27
Size I+ 27
Size I- 1238
Time : 374.5
Syntactical distance : 0.0
Error Rate Precondition : 0.0
Error Rate Postcondition : 0.0
FSCORE : 1.0
Iteration 28
Size I+ 28
Size I- 1297
Time : 387.124
Syntactical distance : 0.0
Error Rate Precondition : 0.0
Error Rate Postcondition : 0.0
FSCORE : 1.0
Iteration 29
Size I+ 29
Size I- 1310
Time : 399.752
Syntactical distance : 0.0
Error Rate Precondition : 0.0
Error Rate Postcondition : 0.0
FSCORE : 1.0
Iteration 30
Size I+ 30
Size I- 1334
Time : 427.571
Syntactical distance : 0.0
Error Rate Precondition : 0.0
Error Rate Postcondition : 0.0
FSCORE : 1.0
############################################
### Fluent = 100.0% ###

*** Noise = 0.0% ***
Iteration 1
Time : 1.334
Syntactical distance : 0.04848485
Error Rate Precondition : 0.024648711
Error Rate Postcondition : 0.0
FSCORE : 0.16513762
Iteration 2
Size I+ 2
Size I- 90
Time : 2.894
Syntactical distance : 0.0
Error Rate Precondition : 0.0
Error Rate Postcondition : 0.0
FSCORE : 1.0
Iteration 3
Size I+ 3
Size I- 152
Time : 8.72
Syntactical distance : 0.0
Error Rate Precondition : 0.0
Error Rate Postcondition : 0.0
FSCORE : 1.0
Iteration 4
Size I+ 4
Size I- 195
Time : 14.862
Syntactical distance : 0.0
Error Rate Precondition : 0.0
Error Rate Postcondition : 0.0
FSCORE : 1.0
Iteration 5
Size I+ 5
Size I- 252
Time : 21.282
Syntactical distance : 0.0
Error Rate Precondition : 0.0
Error Rate Postcondition : 0.0
FSCORE : 1.0
Iteration 6
Size I+ 6
Size I- 294
Time : 27.877
Syntactical distance : 0.0
Error Rate Precondition : 0.0
Error Rate Postcondition : 0.0
FSCORE : 1.0
Iteration 7
Size I+ 7
Size I- 328
Time : 34.602
Syntactical distance : 0.0
Error Rate Precondition : 0.0
Error Rate Postcondition : 0.0
FSCORE : 1.0
Iteration 8
Size I+ 8
Size I- 391
Time : 41.866
Syntactical distance : 0.0
Error Rate Precondition : 0.0
Error Rate Postcondition : 0.0
FSCORE : 1.0
Iteration 9
Size I+ 9
Size I- 431
Time : 49.844
Syntactical distance : 0.0
Error Rate Precondition : 0.0
Error Rate Postcondition : 0.0
FSCORE : 1.0
Iteration 10
Size I+ 10
Size I- 455
Time : 57.716
Syntactical distance : 0.0
Error Rate Precondition : 0.0
Error Rate Postcondition : 0.0
FSCORE : 1.0
Iteration 11
Size I+ 11
Size I- 483
Time : 65.288
Syntactical distance : 0.0
Error Rate Precondition : 0.0
Error Rate Postcondition : 0.0
FSCORE : 1.0
Iteration 12
Size I+ 12
Size I- 549
Time : 74.374
Syntactical distance : 0.0
Error Rate Precondition : 0.0
Error Rate Postcondition : 0.0
FSCORE : 1.0
Iteration 13
Size I+ 13
Size I- 616
Time : 83.976
Syntactical distance : 0.0
Error Rate Precondition : 0.0
Error Rate Postcondition : 0.0
FSCORE : 1.0
Iteration 14
Size I+ 14
Size I- 660
Time : 94.496
Syntactical distance : 0.0
Error Rate Precondition : 0.0
Error Rate Postcondition : 0.0
FSCORE : 1.0
Iteration 15
Size I+ 15
Size I- 689
Time : 105.79
Syntactical distance : 0.0
Error Rate Precondition : 0.0
Error Rate Postcondition : 0.0
FSCORE : 1.0
Iteration 16
Size I+ 16
Size I- 755
Time : 117.379
Syntactical distance : 0.0
Error Rate Precondition : 0.0
Error Rate Postcondition : 0.0
FSCORE : 1.0
Iteration 17
Size I+ 17
Size I- 817
Time : 131.262
Syntactical distance : 0.0
Error Rate Precondition : 0.0
Error Rate Postcondition : 0.0
FSCORE : 1.0
Iteration 18
Size I+ 18
Size I- 862
Time : 141.153
Syntactical distance : 0.0
Error Rate Precondition : 0.0
Error Rate Postcondition : 0.0
FSCORE : 1.0
Iteration 19
Size I+ 19
Size I- 891
Time : 157.122
Syntactical distance : 0.0
Error Rate Precondition : 0.0
Error Rate Postcondition : 0.0
FSCORE : 1.0
Iteration 20
Size I+ 20
Size I- 938
Time : 167.435
Syntactical distance : 0.0
Error Rate Precondition : 0.0
Error Rate Postcondition : 0.0
FSCORE : 1.0
Iteration 21
Size I+ 21
Size I- 992
Time : 183.793
Syntactical distance : 0.0
Error Rate Precondition : 0.0
Error Rate Postcondition : 0.0
FSCORE : 1.0
Iteration 22
Size I+ 22
Size I- 1036
Time : 194.703
Syntactical distance : 0.0
Error Rate Precondition : 0.0
Error Rate Postcondition : 0.0
FSCORE : 1.0
Iteration 23
Size I+ 23
Size I- 1077
Time : 205.958
Syntactical distance : 0.0
Error Rate Precondition : 0.0
Error Rate Postcondition : 0.0
FSCORE : 1.0
Iteration 24
Size I+ 24
Size I- 1099
Time : 217.383
Syntactical distance : 0.0
Error Rate Precondition : 0.0
Error Rate Postcondition : 0.0
FSCORE : 1.0
Iteration 25
Size I+ 25
Size I- 1152
Time : 237.296
Syntactical distance : 0.0
Error Rate Precondition : 0.0
Error Rate Postcondition : 0.0
FSCORE : 1.0
Iteration 26
Size I+ 26
Size I- 1194
Time : 249.391
Syntactical distance : 0.0
Error Rate Precondition : 0.0
Error Rate Postcondition : 0.0
FSCORE : 1.0
Iteration 27
Size I+ 27
Size I- 1213
Time : 261.603
Syntactical distance : 0.0
Error Rate Precondition : 0.0
Error Rate Postcondition : 0.0
FSCORE : 1.0
Iteration 28
Size I+ 28
Size I- 1245
Time : 285.486
Syntactical distance : 0.0
Error Rate Precondition : 0.0
Error Rate Postcondition : 0.0
FSCORE : 1.0
Iteration 29
Size I+ 29
Size I- 1265
Time : 298.169
Syntactical distance : 0.0
Error Rate Precondition : 0.0
Error Rate Postcondition : 0.0
FSCORE : 1.0
Iteration 30
Size I+ 30
Size I- 1301
Time : 330.413
Syntactical distance : 0.0
Error Rate Precondition : 0.0
Error Rate Postcondition : 0.0
FSCORE : 1.0

*** Noise = 20.0% ***
Iteration 1
Time : 1.384
Syntactical distance : 0.15292929
Error Rate Precondition : 0.087436534
Error Rate Postcondition : 0.0
FSCORE : 0.04010025
Iteration 2
Size I+ 2
Size I- 90
Time : 4.718
Syntactical distance : 0.061010104
Error Rate Precondition : 0.0
Error Rate Postcondition : 0.031410877
FSCORE : 0.07920792
Iteration 3
Size I+ 3
Size I- 152
Time : 12.051
Syntactical distance : 0.0
Error Rate Precondition : 0.0
Error Rate Postcondition : 0.0
FSCORE : 1.0
Iteration 4
Size I+ 4
Size I- 195
Time : 21.188
Syntactical distance : 0.0
Error Rate Precondition : 0.0
Error Rate Postcondition : 0.0
FSCORE : 1.0
Iteration 5
Size I+ 5
Size I- 252
Time : 32.743
Syntactical distance : 0.0
Error Rate Precondition : 0.0
Error Rate Postcondition : 0.0
FSCORE : 1.0
Iteration 6
Size I+ 6
Size I- 294
Time : 43.297
Syntactical distance : 0.0
Error Rate Precondition : 0.0
Error Rate Postcondition : 0.0
FSCORE : 1.0
Iteration 7
Size I+ 7
Size I- 328
Time : 55.087
Syntactical distance : 0.0
Error Rate Precondition : 0.0
Error Rate Postcondition : 0.0
FSCORE : 1.0
Iteration 8
Size I+ 8
Size I- 391
Time : 65.42
Syntactical distance : 0.0
Error Rate Precondition : 0.0
Error Rate Postcondition : 0.0
FSCORE : 1.0
Iteration 9
Size I+ 9
Size I- 431
Time : 73.697
Syntactical distance : 0.0
Error Rate Precondition : 0.0
Error Rate Postcondition : 0.0
FSCORE : 1.0
Iteration 10
Size I+ 10
Size I- 455
Time : 81.866
Syntactical distance : 0.0
Error Rate Precondition : 0.0
Error Rate Postcondition : 0.0
FSCORE : 1.0
Iteration 11
Size I+ 11
Size I- 483
Time : 89.729
Syntactical distance : 0.0
Error Rate Precondition : 0.0
Error Rate Postcondition : 0.0
FSCORE : 1.0
Iteration 12
Size I+ 12
Size I- 549
Time : 98.808
Syntactical distance : 0.0
Error Rate Precondition : 0.0
Error Rate Postcondition : 0.0
FSCORE : 1.0
Iteration 13
Size I+ 13
Size I- 616
Time : 108.346
Syntactical distance : 0.0
Error Rate Precondition : 0.0
Error Rate Postcondition : 0.0
FSCORE : 1.0
Iteration 14
Size I+ 14
Size I- 660
Time : 118.677
Syntactical distance : 0.0
Error Rate Precondition : 0.0
Error Rate Postcondition : 0.0
FSCORE : 1.0
Iteration 15
Size I+ 15
Size I- 689
Time : 129.816
Syntactical distance : 0.0
Error Rate Precondition : 0.0
Error Rate Postcondition : 0.0
FSCORE : 1.0
Iteration 16
Size I+ 16
Size I- 755
Time : 141.373
Syntactical distance : 0.0
Error Rate Precondition : 0.0
Error Rate Postcondition : 0.0
FSCORE : 1.0
Iteration 17
Size I+ 17
Size I- 817
Time : 155.235
Syntactical distance : 0.0
Error Rate Precondition : 0.0
Error Rate Postcondition : 0.0
FSCORE : 1.0
Iteration 18
Size I+ 18
Size I- 862
Time : 165.088
Syntactical distance : 0.0
Error Rate Precondition : 0.0
Error Rate Postcondition : 0.0
FSCORE : 1.0
Iteration 19
Size I+ 19
Size I- 891
Time : 181.047
Syntactical distance : 0.0
Error Rate Precondition : 0.0
Error Rate Postcondition : 0.0
FSCORE : 1.0
Iteration 20
Size I+ 20
Size I- 938
Time : 191.407
Syntactical distance : 0.0
Error Rate Precondition : 0.0
Error Rate Postcondition : 0.0
FSCORE : 1.0
Iteration 21
Size I+ 21
Size I- 992
Time : 207.907
Syntactical distance : 0.0
Error Rate Precondition : 0.0
Error Rate Postcondition : 0.0
FSCORE : 1.0
Iteration 22
Size I+ 22
Size I- 1036
Time : 218.823
Syntactical distance : 0.0
Error Rate Precondition : 0.0
Error Rate Postcondition : 0.0
FSCORE : 1.0
Iteration 23
Size I+ 23
Size I- 1077
Time : 230.068
Syntactical distance : 0.0
Error Rate Precondition : 0.0
Error Rate Postcondition : 0.0
FSCORE : 1.0
Iteration 24
Size I+ 24
Size I- 1099
Time : 241.434
Syntactical distance : 0.0
Error Rate Precondition : 0.0
Error Rate Postcondition : 0.0
FSCORE : 1.0
Iteration 25
Size I+ 25
Size I- 1152
Time : 261.524
Syntactical distance : 0.0
Error Rate Precondition : 0.0
Error Rate Postcondition : 0.0
FSCORE : 1.0
Iteration 26
Size I+ 26
Size I- 1194
Time : 273.631
Syntactical distance : 0.0
Error Rate Precondition : 0.0
Error Rate Postcondition : 0.0
FSCORE : 1.0
Iteration 27
Size I+ 27
Size I- 1213
Time : 285.874
Syntactical distance : 0.0
Error Rate Precondition : 0.0
Error Rate Postcondition : 0.0
FSCORE : 1.0
Iteration 28
Size I+ 28
Size I- 1245
Time : 309.879
Syntactical distance : 0.0
Error Rate Precondition : 0.0
Error Rate Postcondition : 0.0
FSCORE : 1.0
Iteration 29
Size I+ 29
Size I- 1265
Time : 322.502
Syntactical distance : 0.0
Error Rate Precondition : 0.0
Error Rate Postcondition : 0.0
FSCORE : 1.0
Iteration 30
Size I+ 30
Size I- 1301
Time : 354.632
Syntactical distance : 0.0
Error Rate Precondition : 0.0
Error Rate Postcondition : 0.0
FSCORE : 1.0
E+ size : 100
E- size : 19065
e+ mean size : 52.28
e- mean size : 35.3562
############################################
### Fluent = 25.0% ###

*** Noise = 0.0% ***
Iteration 1
Time : 2.387
Syntactical distance : 0.0
Error Rate Precondition : 0.0
Error Rate Postcondition : 0.0
FSCORE : 1.0
Iteration 2
Size I+ 2
Size I- 107
Time : 10.317
Syntactical distance : 0.0
Error Rate Precondition : 0.0
Error Rate Postcondition : 0.0
FSCORE : 1.0
Iteration 3
Size I+ 3
Size I- 149
Time : 18.53
Syntactical distance : 0.0
Error Rate Precondition : 0.0
Error Rate Postcondition : 0.0
FSCORE : 1.0
Iteration 4
Size I+ 4
Size I- 184
Time : 25.601
Syntactical distance : 0.0
Error Rate Precondition : 0.0
Error Rate Postcondition : 0.0
FSCORE : 1.0
Iteration 5
Size I+ 5
Size I- 230
Time : 34.717
Syntactical distance : 0.0
Error Rate Precondition : 0.0
Error Rate Postcondition : 0.0
FSCORE : 1.0
Iteration 6
Size I+ 6
Size I- 267
Time : 44.784
Syntactical distance : 0.0
Error Rate Precondition : 0.0
Error Rate Postcondition : 0.0
FSCORE : 1.0
Iteration 7
Size I+ 7
Size I- 318
Time : 55.568
Syntactical distance : 0.0
Error Rate Precondition : 0.0
Error Rate Postcondition : 0.0
FSCORE : 1.0
Iteration 8
Size I+ 8
Size I- 382
Time : 64.764
Syntactical distance : 0.0
Error Rate Precondition : 0.0
Error Rate Postcondition : 0.0
FSCORE : 1.0
Iteration 9
Size I+ 9
Size I- 408
Time : 74.28
Syntactical distance : 0.0
Error Rate Precondition : 0.0
Error Rate Postcondition : 0.0
FSCORE : 1.0
Iteration 10
Size I+ 10
Size I- 473
Time : 85.606
Syntactical distance : 0.0
Error Rate Precondition : 0.0
Error Rate Postcondition : 0.0
FSCORE : 1.0
Iteration 11
Size I+ 11
Size I- 531
Time : 100.088
Syntactical distance : 0.0
Error Rate Precondition : 0.0
Error Rate Postcondition : 0.0
FSCORE : 1.0
Iteration 12
Size I+ 12
Size I- 570
Time : 113.227
Syntactical distance : 0.0
Error Rate Precondition : 0.0
Error Rate Postcondition : 0.0
FSCORE : 1.0
Iteration 13
Size I+ 13
Size I- 599
Time : 126.862
Syntactical distance : 0.0
Error Rate Precondition : 0.0
Error Rate Postcondition : 0.0
FSCORE : 1.0
Iteration 14
Size I+ 14
Size I- 647
Time : 141.845
Syntactical distance : 0.0
Error Rate Precondition : 0.0
Error Rate Postcondition : 0.0
FSCORE : 1.0
Iteration 15
Size I+ 15
Size I- 687
Time : 156.225
Syntactical distance : 0.0
Error Rate Precondition : 0.0
Error Rate Postcondition : 0.0
FSCORE : 1.0
Iteration 16
Size I+ 16
Size I- 725
Time : 172.13
Syntactical distance : 0.0
Error Rate Precondition : 0.0
Error Rate Postcondition : 0.0
FSCORE : 1.0
Iteration 17
Size I+ 17
Size I- 806
Time : 188.702
Syntactical distance : 0.0
Error Rate Precondition : 0.0
Error Rate Postcondition : 0.0
FSCORE : 1.0
Iteration 18
Size I+ 18
Size I- 855
Time : 209.845
Syntactical distance : 0.0
Error Rate Precondition : 0.0
Error Rate Postcondition : 0.0
FSCORE : 1.0
Iteration 19
Size I+ 19
Size I- 885
Time : 230.328
Syntactical distance : 0.0
Error Rate Precondition : 0.0
Error Rate Postcondition : 0.0
FSCORE : 1.0
Iteration 20
Size I+ 20
Size I- 942
Time : 256.303
Syntactical distance : 0.0
Error Rate Precondition : 0.0
Error Rate Postcondition : 0.0
FSCORE : 1.0
Iteration 21
Size I+ 21
Size I- 970
Time : 303.23
Syntactical distance : 0.0
Error Rate Precondition : 0.0
Error Rate Postcondition : 0.0
FSCORE : 1.0
Iteration 22
Size I+ 22
Size I- 989
Time : 329.884
Syntactical distance : 0.0
Error Rate Precondition : 0.0
Error Rate Postcondition : 0.0
FSCORE : 1.0
Iteration 23
Size I+ 23
Size I- 1022
Time : 358.425
Syntactical distance : 0.0
Error Rate Precondition : 0.0
Error Rate Postcondition : 0.0
FSCORE : 1.0
Iteration 24
Size I+ 24
Size I- 1103
Time : 389.77
Syntactical distance : 0.0
Error Rate Precondition : 0.0
Error Rate Postcondition : 0.0
FSCORE : 1.0
Iteration 25
Size I+ 25
Size I- 1128
Time : 470.252
Syntactical distance : 0.0
Error Rate Precondition : 0.0
Error Rate Postcondition : 0.0
FSCORE : 1.0
Iteration 26
Size I+ 26
Size I- 1149
Time : 503.916
Syntactical distance : 0.0
Error Rate Precondition : 0.0
Error Rate Postcondition : 0.0
FSCORE : 1.0
Iteration 27
Size I+ 27
Size I- 1204
Time : 539.757
Syntactical distance : 0.0
Error Rate Precondition : 0.0
Error Rate Postcondition : 0.0
FSCORE : 1.0
Iteration 28
Size I+ 28
Size I- 1217
Time : 552.989
Syntactical distance : 0.0
Error Rate Precondition : 0.0
Error Rate Postcondition : 0.0
FSCORE : 1.0
Iteration 29
Size I+ 29
Size I- 1252
Time : 586.037
Syntactical distance : 0.0
Error Rate Precondition : 0.0
Error Rate Postcondition : 0.0
FSCORE : 1.0
Iteration 30
Size I+ 30
Size I- 1287
Time : 626.827
Syntactical distance : 0.0
Error Rate Precondition : 0.0
Error Rate Postcondition : 0.0
FSCORE : 1.0

*** Noise = 20.0% ***
Iteration 1
Time : 2.145
Syntactical distance : 0.06666667
Error Rate Precondition : 0.0
Error Rate Postcondition : 0.0
FSCORE : 0.10878661
Iteration 2
Size I+ 2
Size I- 107
Time : 8.345
Syntactical distance : 0.0
Error Rate Precondition : 0.0
Error Rate Postcondition : 0.0
FSCORE : 1.0
Iteration 3
Size I+ 3
Size I- 149
Time : 23.058
Syntactical distance : 0.0
Error Rate Precondition : 0.0
Error Rate Postcondition : 0.0
FSCORE : 1.0
Iteration 4
Size I+ 4
Size I- 184
Time : 28.816
Syntactical distance : 0.15777779
Error Rate Precondition : 0.109717354
Error Rate Postcondition : 0.14848508
FSCORE : 0.0
Iteration 5
Size I+ 5
Size I- 230
Time : 35.797
Syntactical distance : 0.0
Error Rate Precondition : 0.0
Error Rate Postcondition : 0.0
FSCORE : 1.0
Iteration 6
Size I+ 6
Size I- 267
Time : 45.646
Syntactical distance : 0.0
Error Rate Precondition : 0.0
Error Rate Postcondition : 0.0
FSCORE : 1.0
Iteration 7
Size I+ 7
Size I- 318
Time : 55.886
Syntactical distance : 0.0
Error Rate Precondition : 0.0
Error Rate Postcondition : 0.0
FSCORE : 1.0
Iteration 8
Size I+ 8
Size I- 382
Time : 71.184
Syntactical distance : 0.0
Error Rate Precondition : 0.0
Error Rate Postcondition : 0.0
FSCORE : 1.0
Iteration 9
Size I+ 9
Size I- 408
Time : 87.134
Syntactical distance : 0.0
Error Rate Precondition : 0.0
Error Rate Postcondition : 0.0
FSCORE : 1.0
Iteration 10
Size I+ 10
Size I- 473
Time : 106.364
Syntactical distance : 0.0
Error Rate Precondition : 0.0
Error Rate Postcondition : 0.0
FSCORE : 1.0
Iteration 11
Size I+ 11
Size I- 531
Time : 131.094
Syntactical distance : 0.0
Error Rate Precondition : 0.0
Error Rate Postcondition : 0.0
FSCORE : 1.0
Iteration 12
Size I+ 12
Size I- 570
Time : 155.091
Syntactical distance : 0.0
Error Rate Precondition : 0.0
Error Rate Postcondition : 0.0
FSCORE : 1.0
Iteration 13
Size I+ 13
Size I- 599
Time : 179.437
Syntactical distance : 0.0
Error Rate Precondition : 0.0
Error Rate Postcondition : 0.0
FSCORE : 1.0
Iteration 14
Size I+ 14
Size I- 647
Time : 204.484
Syntactical distance : 0.0
Error Rate Precondition : 0.0
Error Rate Postcondition : 0.0
FSCORE : 1.0
Iteration 15
Size I+ 15
Size I- 687
Time : 232.128
Syntactical distance : 0.0
Error Rate Precondition : 0.0
Error Rate Postcondition : 0.0
FSCORE : 1.0
Iteration 16
Size I+ 16
Size I- 725
Time : 260.826
Syntactical distance : 0.0
Error Rate Precondition : 0.0
Error Rate Postcondition : 0.0
FSCORE : 1.0
Iteration 17
Size I+ 17
Size I- 806
Time : 291.4
Syntactical distance : 0.0
Error Rate Precondition : 0.0
Error Rate Postcondition : 0.0
FSCORE : 1.0
Iteration 18
Size I+ 18
Size I- 855
Time : 328.706
Syntactical distance : 0.0
Error Rate Precondition : 0.0
Error Rate Postcondition : 0.0
FSCORE : 1.0
Iteration 19
Size I+ 19
Size I- 885
Time : 366.992
Syntactical distance : 0.0
Error Rate Precondition : 0.0
Error Rate Postcondition : 0.0
FSCORE : 1.0
Iteration 20
Size I+ 20
Size I- 942
Time : 412.917
Syntactical distance : 0.0
Error Rate Precondition : 0.0
Error Rate Postcondition : 0.0
FSCORE : 1.0
Iteration 21
Size I+ 21
Size I- 970
Time : 480.471
Syntactical distance : 0.0
Error Rate Precondition : 0.0
Error Rate Postcondition : 0.0
FSCORE : 1.0
Iteration 22
Size I+ 22
Size I- 989
Time : 525.863
Syntactical distance : 0.0
Error Rate Precondition : 0.0
Error Rate Postcondition : 0.0
FSCORE : 1.0
Iteration 23
Size I+ 23
Size I- 1022
Time : 574.753
Syntactical distance : 0.0
Error Rate Precondition : 0.0
Error Rate Postcondition : 0.0
FSCORE : 1.0
Iteration 24
Size I+ 24
Size I- 1103
Time : 628.659
Syntactical distance : 0.0
Error Rate Precondition : 0.0
Error Rate Postcondition : 0.0
FSCORE : 1.0
Iteration 25
Size I+ 25
Size I- 1128
Time : 718.314
Syntactical distance : 0.0
Error Rate Precondition : 0.0
Error Rate Postcondition : 0.0
FSCORE : 1.0
Iteration 26
Size I+ 26
Size I- 1149
Time : 777.274
Syntactical distance : 0.0
Error Rate Precondition : 0.0
Error Rate Postcondition : 0.0
FSCORE : 1.0
Iteration 27
Size I+ 27
Size I- 1204
Time : 839.525
Syntactical distance : 0.0
Error Rate Precondition : 0.0
Error Rate Postcondition : 0.0
FSCORE : 1.0
Iteration 28
Size I+ 28
Size I- 1217
Time : 879.727
Syntactical distance : 0.0
Error Rate Precondition : 0.0
Error Rate Postcondition : 0.0
FSCORE : 1.0
Iteration 29
Size I+ 29
Size I- 1252
Time : 936.414
Syntactical distance : 0.0
Error Rate Precondition : 0.0
Error Rate Postcondition : 0.0
FSCORE : 1.0
Iteration 30
Size I+ 30
Size I- 1287
Time : 987.02
Syntactical distance : 0.0
Error Rate Precondition : 0.0
Error Rate Postcondition : 0.0
FSCORE : 1.0
############################################
### Fluent = 100.0% ###

*** Noise = 0.0% ***
Iteration 1
Time : 0.628
Syntactical distance : 0.0
Error Rate Precondition : 0.0
Error Rate Postcondition : 0.0
FSCORE : 1.0
Iteration 2
Size I+ 2
Size I- 117
Time : 7.083
Syntactical distance : 0.0
Error Rate Precondition : 0.0
Error Rate Postcondition : 0.0
FSCORE : 1.0
Iteration 3
Size I+ 3
Size I- 177
Time : 14.027
Syntactical distance : 0.0
Error Rate Precondition : 0.0
Error Rate Postcondition : 0.0
FSCORE : 1.0
Iteration 4
Size I+ 4
Size I- 215
Time : 21.109
Syntactical distance : 0.0
Error Rate Precondition : 0.0
Error Rate Postcondition : 0.0
FSCORE : 1.0
Iteration 5
Size I+ 5
Size I- 249
Time : 28.566
Syntactical distance : 0.0
Error Rate Precondition : 0.0
Error Rate Postcondition : 0.0
FSCORE : 1.0
Iteration 6
Size I+ 6
Size I- 291
Time : 36.906
Syntactical distance : 0.0
Error Rate Precondition : 0.0
Error Rate Postcondition : 0.0
FSCORE : 1.0
Iteration 7
Size I+ 7
Size I- 357
Time : 45.944
Syntactical distance : 0.0
Error Rate Precondition : 0.0
Error Rate Postcondition : 0.0
FSCORE : 1.0
Iteration 8
Size I+ 8
Size I- 413
Time : 55.959
Syntactical distance : 0.0
Error Rate Precondition : 0.0
Error Rate Postcondition : 0.0
FSCORE : 1.0
Iteration 9
Size I+ 9
Size I- 481
Time : 67.709
Syntactical distance : 0.0
Error Rate Precondition : 0.0
Error Rate Postcondition : 0.0
FSCORE : 1.0
Iteration 10
Size I+ 10
Size I- 538
Time : 78.13
Syntactical distance : 0.0
Error Rate Precondition : 0.0
Error Rate Postcondition : 0.0
FSCORE : 1.0
Iteration 11
Size I+ 11
Size I- 569
Time : 87.318
Syntactical distance : 0.0
Error Rate Precondition : 0.0
Error Rate Postcondition : 0.0
FSCORE : 1.0
Iteration 12
Size I+ 12
Size I- 634
Time : 100.289
Syntactical distance : 0.0
Error Rate Precondition : 0.0
Error Rate Postcondition : 0.0
FSCORE : 1.0
Iteration 13
Size I+ 13
Size I- 681
Time : 113.421
Syntactical distance : 0.0
Error Rate Precondition : 0.0
Error Rate Postcondition : 0.0
FSCORE : 1.0
Iteration 14
Size I+ 14
Size I- 734
Time : 127.03
Syntactical distance : 0.0
Error Rate Precondition : 0.0
Error Rate Postcondition : 0.0
FSCORE : 1.0
Iteration 15
Size I+ 15
Size I- 761
Time : 142.88
Syntactical distance : 0.0
Error Rate Precondition : 0.0
Error Rate Postcondition : 0.0
FSCORE : 1.0
Iteration 16
Size I+ 16
Size I- 800
Time : 153.334
Syntactical distance : 0.0
Error Rate Precondition : 0.0
Error Rate Postcondition : 0.0
FSCORE : 1.0
Iteration 17
Size I+ 17
Size I- 826
Time : 186.579
Syntactical distance : 0.0
Error Rate Precondition : 0.0
Error Rate Postcondition : 0.0
FSCORE : 1.0
Iteration 18
Size I+ 18
Size I- 872
Time : 203.322
Syntactical distance : 0.0
Error Rate Precondition : 0.0
Error Rate Postcondition : 0.0
FSCORE : 1.0
Iteration 19
Size I+ 19
Size I- 913
Time : 220.762
Syntactical distance : 0.0
Error Rate Precondition : 0.0
Error Rate Postcondition : 0.0
FSCORE : 1.0
Iteration 20
Size I+ 20
Size I- 950
Time : 239.105
Syntactical distance : 0.0
Error Rate Precondition : 0.0
Error Rate Postcondition : 0.0
FSCORE : 1.0
Iteration 21
Size I+ 21
Size I- 999
Time : 260.198
Syntactical distance : 0.0
Error Rate Precondition : 0.0
Error Rate Postcondition : 0.0
FSCORE : 1.0
Iteration 22
Size I+ 22
Size I- 1070
Time : 286.468
Syntactical distance : 0.0
Error Rate Precondition : 0.0
Error Rate Postcondition : 0.0
FSCORE : 1.0
Iteration 23
Size I+ 23
Size I- 1115
Time : 314.77
Syntactical distance : 0.0
Error Rate Precondition : 0.0
Error Rate Postcondition : 0.0
FSCORE : 1.0
Iteration 24
Size I+ 24
Size I- 1160
Time : 327.708
Syntactical distance : 0.0
Error Rate Precondition : 0.0
Error Rate Postcondition : 0.0
FSCORE : 1.0
Iteration 25
Size I+ 25
Size I- 1214
Time : 360.25
Syntactical distance : 0.0
Error Rate Precondition : 0.0
Error Rate Postcondition : 0.0
FSCORE : 1.0
Iteration 26
Size I+ 26
Size I- 1228
Time : 437.121
Syntactical distance : 0.0
Error Rate Precondition : 0.0
Error Rate Postcondition : 0.0
FSCORE : 1.0
Iteration 27
Size I+ 27
Size I- 1270
Time : 493.086
Syntactical distance : 0.0
Error Rate Precondition : 0.0
Error Rate Postcondition : 0.0
FSCORE : 1.0
Iteration 28
Size I+ 28
Size I- 1309
Time : 774.299
Syntactical distance : 0.0
Error Rate Precondition : 0.0
Error Rate Postcondition : 0.0
FSCORE : 1.0
Iteration 29
Size I+ 29
Size I- 1347
Time : 836.991
Syntactical distance : 0.0
Error Rate Precondition : 0.0
Error Rate Postcondition : 0.0
FSCORE : 1.0
Iteration 30
Size I+ 30
Size I- 1392
Time : 933.183
Syntactical distance : 0.0
Error Rate Precondition : 0.0
Error Rate Postcondition : 0.0
FSCORE : 1.0

*** Noise = 20.0% ***
Iteration 1
Time : 2.089
Syntactical distance : 0.0
Error Rate Precondition : 0.0
Error Rate Postcondition : 0.0
FSCORE : 1.0
Iteration 2
Size I+ 2
Size I- 117
Time : 8.581
Syntactical distance : 0.0
Error Rate Precondition : 0.0
Error Rate Postcondition : 0.0
FSCORE : 1.0
Iteration 3
Size I+ 3
Size I- 177
Time : 17.806
Syntactical distance : 0.0
Error Rate Precondition : 0.0
Error Rate Postcondition : 0.0
FSCORE : 1.0
Iteration 4
Size I+ 4
Size I- 215
Time : 27.493
Syntactical distance : 0.0
Error Rate Precondition : 0.0
Error Rate Postcondition : 0.0
FSCORE : 1.0
Iteration 5
Size I+ 5
Size I- 249
Time : 34.873
Syntactical distance : 0.0
Error Rate Precondition : 0.0
Error Rate Postcondition : 0.0
FSCORE : 1.0
Iteration 6
Size I+ 6
Size I- 291
Time : 43.143
Syntactical distance : 0.0
Error Rate Precondition : 0.0
Error Rate Postcondition : 0.0
FSCORE : 1.0
Iteration 7
Size I+ 7
Size I- 357
Time : 52.127
Syntactical distance : 0.0
Error Rate Precondition : 0.0
Error Rate Postcondition : 0.0
FSCORE : 1.0
Iteration 8
Size I+ 8
Size I- 413
Time : 62.119
Syntactical distance : 0.0
Error Rate Precondition : 0.0
Error Rate Postcondition : 0.0
FSCORE : 1.0
Iteration 9
Size I+ 9
Size I- 481
Time : 73.926
Syntactical distance : 0.0
Error Rate Precondition : 0.0
Error Rate Postcondition : 0.0
FSCORE : 1.0
Iteration 10
Size I+ 10
Size I- 538
Time : 91.592
Syntactical distance : 0.0
Error Rate Precondition : 0.0
Error Rate Postcondition : 0.0
FSCORE : 1.0
Iteration 11
Size I+ 11
Size I- 569
Time : 108.436
Syntactical distance : 0.0
Error Rate Precondition : 0.0
Error Rate Postcondition : 0.0
FSCORE : 1.0
Iteration 12
Size I+ 12
Size I- 634
Time : 132.956
Syntactical distance : 0.0
Error Rate Precondition : 0.0
Error Rate Postcondition : 0.0
FSCORE : 1.0
Iteration 13
Size I+ 13
Size I- 681
Time : 151.444
Syntactical distance : 0.0
Error Rate Precondition : 0.0
Error Rate Postcondition : 0.0
FSCORE : 1.0
Iteration 14
Size I+ 14
Size I- 734
Time : 165.37
Syntactical distance : 0.0
Error Rate Precondition : 0.0
Error Rate Postcondition : 0.0
FSCORE : 1.0
Iteration 15
Size I+ 15
Size I- 761
Time : 187.341
Syntactical distance : 0.0
Error Rate Precondition : 0.0
Error Rate Postcondition : 0.0
FSCORE : 1.0
Iteration 16
Size I+ 16
Size I- 800
Time : 203.639
Syntactical distance : 0.0
Error Rate Precondition : 0.0
Error Rate Postcondition : 0.0
FSCORE : 1.0
Iteration 17
Size I+ 17
Size I- 826
Time : 242.775
Syntactical distance : 0.0
Error Rate Precondition : 0.0
Error Rate Postcondition : 0.0
FSCORE : 1.0
Iteration 18
Size I+ 18
Size I- 872
Time : 266.592
Syntactical distance : 0.0
Error Rate Precondition : 0.0
Error Rate Postcondition : 0.0
FSCORE : 1.0
Iteration 19
Size I+ 19
Size I- 913
Time : 284.009
Syntactical distance : 0.0
Error Rate Precondition : 0.0
Error Rate Postcondition : 0.0
FSCORE : 1.0
Iteration 20
Size I+ 20
Size I- 950
Time : 302.489
Syntactical distance : 0.0
Error Rate Precondition : 0.0
Error Rate Postcondition : 0.0
FSCORE : 1.0
Iteration 21
Size I+ 21
Size I- 999
Time : 323.554
Syntactical distance : 0.0
Error Rate Precondition : 0.0
Error Rate Postcondition : 0.0
FSCORE : 1.0
Iteration 22
Size I+ 22
Size I- 1070
Time : 349.832
Syntactical distance : 0.0
Error Rate Precondition : 0.0
Error Rate Postcondition : 0.0
FSCORE : 1.0
Iteration 23
Size I+ 23
Size I- 1115
Time : 378.222
Syntactical distance : 0.0
Error Rate Precondition : 0.0
Error Rate Postcondition : 0.0
FSCORE : 1.0
Iteration 24
Size I+ 24
Size I- 1160
Time : 391.117
Syntactical distance : 0.0
Error Rate Precondition : 0.0
Error Rate Postcondition : 0.0
FSCORE : 1.0
Iteration 25
Size I+ 25
Size I- 1214
Time : 423.754
Syntactical distance : 0.0
Error Rate Precondition : 0.0
Error Rate Postcondition : 0.0
FSCORE : 1.0
Iteration 26
Size I+ 26
Size I- 1228
Time : 501.154
Syntactical distance : 0.0
Error Rate Precondition : 0.0
Error Rate Postcondition : 0.0
FSCORE : 1.0
Iteration 27
Size I+ 27
Size I- 1270
Time : 557.944
Syntactical distance : 0.0
Error Rate Precondition : 0.0
Error Rate Postcondition : 0.0
FSCORE : 1.0
Iteration 28
Size I+ 28
Size I- 1309
Time : 839.992
Syntactical distance : 0.0
Error Rate Precondition : 0.0
Error Rate Postcondition : 0.0
FSCORE : 1.0
Iteration 29
Size I+ 29
Size I- 1347
Time : 903.205
Syntactical distance : 0.0
Error Rate Precondition : 0.0
Error Rate Postcondition : 0.0
FSCORE : 1.0
Iteration 30
Size I+ 30
Size I- 1392
Time : 1000.42
Syntactical distance : 0.0
Error Rate Precondition : 0.0
Error Rate Postcondition : 0.0
FSCORE : 1.0
E+ size : 100
E- size : 16834
e+ mean size : 46.84
e- mean size : 33.108234
############################################
### Fluent = 25.0% ###

*** Noise = 0.0% ***
Iteration 1
Time : 3.179
Syntactical distance : 0.07515152
Error Rate Precondition : 0.033615403
Error Rate Postcondition : 0.0
FSCORE : 0.07518797
Iteration 2
Size I+ 2
Size I- 115
Time : 6.134
Syntactical distance : 0.0
Error Rate Precondition : 0.0
Error Rate Postcondition : 0.0
FSCORE : 1.0
Iteration 3
Size I+ 3
Size I- 166
Time : 12.206
Syntactical distance : 0.0
Error Rate Precondition : 0.0
Error Rate Postcondition : 0.0
FSCORE : 1.0
Iteration 4
Size I+ 4
Size I- 213
Time : 18.515
Syntactical distance : 0.0
Error Rate Precondition : 0.0
Error Rate Postcondition : 0.0
FSCORE : 1.0
Iteration 5
Size I+ 5
Size I- 251
Time : 25.108
Syntactical distance : 0.0
Error Rate Precondition : 0.0
Error Rate Postcondition : 0.0
FSCORE : 1.0
Iteration 6
Size I+ 6
Size I- 283
Time : 32.229
Syntactical distance : 0.0
Error Rate Precondition : 0.0
Error Rate Postcondition : 0.0
FSCORE : 1.0
Iteration 7
Size I+ 7
Size I- 319
Time : 40.034
Syntactical distance : 0.0
Error Rate Precondition : 0.0
Error Rate Postcondition : 0.0
FSCORE : 1.0
Iteration 8
Size I+ 8
Size I- 352
Time : 47.771
Syntactical distance : 0.0
Error Rate Precondition : 0.0
Error Rate Postcondition : 0.0
FSCORE : 1.0
Iteration 9
Size I+ 9
Size I- 390
Time : 56.293
Syntactical distance : 0.0
Error Rate Precondition : 0.0
Error Rate Postcondition : 0.0
FSCORE : 1.0
Iteration 10
Size I+ 10
Size I- 431
Time : 65.04
Syntactical distance : 0.0
Error Rate Precondition : 0.0
Error Rate Postcondition : 0.0
FSCORE : 1.0
Iteration 11
Size I+ 11
Size I- 489
Time : 74.021
Syntactical distance : 0.0
Error Rate Precondition : 0.0
Error Rate Postcondition : 0.0
FSCORE : 1.0
Iteration 12
Size I+ 12
Size I- 523
Time : 82.996
Syntactical distance : 0.0
Error Rate Precondition : 0.0
Error Rate Postcondition : 0.0
FSCORE : 1.0
Iteration 13
Size I+ 13
Size I- 547
Time : 94.241
Syntactical distance : 0.0
Error Rate Precondition : 0.0
Error Rate Postcondition : 0.0
FSCORE : 1.0
Iteration 14
Size I+ 14
Size I- 590
Time : 107.174
Syntactical distance : 0.0
Error Rate Precondition : 0.0
Error Rate Postcondition : 0.0
FSCORE : 1.0
Iteration 15
Size I+ 15
Size I- 628
Time : 120.018
Syntactical distance : 0.0
Error Rate Precondition : 0.0
Error Rate Postcondition : 0.0
FSCORE : 1.0
Iteration 16
Size I+ 16
Size I- 667
Time : 135.091
Syntactical distance : 0.0
Error Rate Precondition : 0.0
Error Rate Postcondition : 0.0
FSCORE : 1.0
Iteration 17
Size I+ 17
Size I- 706
Time : 146.981
Syntactical distance : 0.0
Error Rate Precondition : 0.0
Error Rate Postcondition : 0.0
FSCORE : 1.0
Iteration 18
Size I+ 18
Size I- 730
Time : 156.385
Syntactical distance : 0.0
Error Rate Precondition : 0.0
Error Rate Postcondition : 0.0
FSCORE : 1.0
Iteration 19
Size I+ 19
Size I- 759
Time : 165.907
Syntactical distance : 0.0
Error Rate Precondition : 0.0
Error Rate Postcondition : 0.0
FSCORE : 1.0
Iteration 20
Size I+ 20
Size I- 802
Time : 177.896
Syntactical distance : 0.0
Error Rate Precondition : 0.0
Error Rate Postcondition : 0.0
FSCORE : 1.0
Iteration 21
Size I+ 21
Size I- 858
Time : 191.43
Syntactical distance : 0.0
Error Rate Precondition : 0.0
Error Rate Postcondition : 0.0
FSCORE : 1.0
Iteration 22
Size I+ 22
Size I- 879
Time : 201.728
Syntactical distance : 0.0
Error Rate Precondition : 0.0
Error Rate Postcondition : 0.0
FSCORE : 1.0
Iteration 23
Size I+ 23
Size I- 924
Time : 217.008
Syntactical distance : 0.0
Error Rate Precondition : 0.0
Error Rate Postcondition : 0.0
FSCORE : 1.0
Iteration 24
Size I+ 24
Size I- 965
Time : 227.964
Syntactical distance : 0.0
Error Rate Precondition : 0.0
Error Rate Postcondition : 0.0
FSCORE : 1.0
Iteration 25
Size I+ 25
Size I- 999
Time : 239.159
Syntactical distance : 0.0
Error Rate Precondition : 0.0
Error Rate Postcondition : 0.0
FSCORE : 1.0
Iteration 26
Size I+ 26
Size I- 1041
Time : 255.006
Syntactical distance : 0.0
Error Rate Precondition : 0.0
Error Rate Postcondition : 0.0
FSCORE : 1.0
Iteration 27
Size I+ 27
Size I- 1060
Time : 266.619
Syntactical distance : 0.0
Error Rate Precondition : 0.0
Error Rate Postcondition : 0.0
FSCORE : 1.0
Iteration 28
Size I+ 28
Size I- 1079
Time : 278.408
Syntactical distance : 0.0
Error Rate Precondition : 0.0
Error Rate Postcondition : 0.0
FSCORE : 1.0
Iteration 29
Size I+ 29
Size I- 1110
Time : 290.387
Syntactical distance : 0.0
Error Rate Precondition : 0.0
Error Rate Postcondition : 0.0
FSCORE : 1.0
Iteration 30
Size I+ 30
Size I- 1164
Time : 313.317
Syntactical distance : 0.0
Error Rate Precondition : 0.0
Error Rate Postcondition : 0.0
FSCORE : 1.0

*** Noise = 20.0% ***
Iteration 1
Time : 2.394
Syntactical distance : 0.14181818
Error Rate Precondition : 0.07482288
Error Rate Postcondition : 0.057568237
FSCORE : 0.03821656
Iteration 2
Size I+ 2
Size I- 115
Time : 5.628
Syntactical distance : 0.0
Error Rate Precondition : 0.0
Error Rate Postcondition : 0.0
FSCORE : 1.0
Iteration 3
Size I+ 3
Size I- 166
Time : 13.339
Syntactical distance : 0.0
Error Rate Precondition : 0.0
Error Rate Postcondition : 0.0
FSCORE : 1.0
Iteration 4
Size I+ 4
Size I- 213
Time : 21.395
Syntactical distance : 0.0
Error Rate Precondition : 0.0
Error Rate Postcondition : 0.0
FSCORE : 1.0
Iteration 5
Size I+ 5
Size I- 251
Time : 30.331
Syntactical distance : 0.0
Error Rate Precondition : 0.0
Error Rate Postcondition : 0.0
FSCORE : 1.0
Iteration 6
Size I+ 6
Size I- 283
Time : 41.007
Syntactical distance : 0.0
Error Rate Precondition : 0.0
Error Rate Postcondition : 0.0
FSCORE : 1.0
Iteration 7
Size I+ 7
Size I- 319
Time : 52.988
Syntactical distance : 0.0
Error Rate Precondition : 0.0
Error Rate Postcondition : 0.0
FSCORE : 1.0
Iteration 8
Size I+ 8
Size I- 352
Time : 65.351
Syntactical distance : 0.0
Error Rate Precondition : 0.0
Error Rate Postcondition : 0.0
FSCORE : 1.0
Iteration 9
Size I+ 9
Size I- 390
Time : 79.655
Syntactical distance : 0.0
Error Rate Precondition : 0.0
Error Rate Postcondition : 0.0
FSCORE : 1.0
Iteration 10
Size I+ 10
Size I- 431
Time : 94.093
Syntactical distance : 0.0
Error Rate Precondition : 0.0
Error Rate Postcondition : 0.0
FSCORE : 1.0
Iteration 11
Size I+ 11
Size I- 489
Time : 110.514
Syntactical distance : 0.0
Error Rate Precondition : 0.0
Error Rate Postcondition : 0.0
FSCORE : 1.0
Iteration 12
Size I+ 12
Size I- 523
Time : 127.554
Syntactical distance : 0.0
Error Rate Precondition : 0.0
Error Rate Postcondition : 0.0
FSCORE : 1.0
Iteration 13
Size I+ 13
Size I- 547
Time : 147.927
Syntactical distance : 0.0
Error Rate Precondition : 0.0
Error Rate Postcondition : 0.0
FSCORE : 1.0
Iteration 14
Size I+ 14
Size I- 590
Time : 169.8
Syntactical distance : 0.0
Error Rate Precondition : 0.0
Error Rate Postcondition : 0.0
FSCORE : 1.0
Iteration 15
Size I+ 15
Size I- 628
Time : 193.047
Syntactical distance : 0.0
Error Rate Precondition : 0.0
Error Rate Postcondition : 0.0
FSCORE : 1.0
Iteration 16
Size I+ 16
Size I- 667
Time : 224.915
Syntactical distance : 0.0
Error Rate Precondition : 0.0
Error Rate Postcondition : 0.0
FSCORE : 1.0
Iteration 17
Size I+ 17
Size I- 706
Time : 236.781
Syntactical distance : 0.0
Error Rate Precondition : 0.0
Error Rate Postcondition : 0.0
FSCORE : 1.0
Iteration 18
Size I+ 18
Size I- 730
Time : 246.15
Syntactical distance : 0.0
Error Rate Precondition : 0.0
Error Rate Postcondition : 0.0
FSCORE : 1.0
Iteration 19
Size I+ 19
Size I- 759
Time : 255.658
Syntactical distance : 0.0
Error Rate Precondition : 0.0
Error Rate Postcondition : 0.0
FSCORE : 1.0
Iteration 20
Size I+ 20
Size I- 802
Time : 267.711
Syntactical distance : 0.0
Error Rate Precondition : 0.0
Error Rate Postcondition : 0.0
FSCORE : 1.0
Iteration 21
Size I+ 21
Size I- 858
Time : 281.26
Syntactical distance : 0.0
Error Rate Precondition : 0.0
Error Rate Postcondition : 0.0
FSCORE : 1.0
Iteration 22
Size I+ 22
Size I- 879
Time : 291.572
Syntactical distance : 0.0
Error Rate Precondition : 0.0
Error Rate Postcondition : 0.0
FSCORE : 1.0
Iteration 23
Size I+ 23
Size I- 924
Time : 306.854
Syntactical distance : 0.0
Error Rate Precondition : 0.0
Error Rate Postcondition : 0.0
FSCORE : 1.0
Iteration 24
Size I+ 24
Size I- 965
Time : 317.788
Syntactical distance : 0.0
Error Rate Precondition : 0.0
Error Rate Postcondition : 0.0
FSCORE : 1.0
Iteration 25
Size I+ 25
Size I- 999
Time : 328.933
Syntactical distance : 0.0
Error Rate Precondition : 0.0
Error Rate Postcondition : 0.0
FSCORE : 1.0
Iteration 26
Size I+ 26
Size I- 1041
Time : 344.887
Syntactical distance : 0.0
Error Rate Precondition : 0.0
Error Rate Postcondition : 0.0
FSCORE : 1.0
Iteration 27
Size I+ 27
Size I- 1060
Time : 356.557
Syntactical distance : 0.0
Error Rate Precondition : 0.0
Error Rate Postcondition : 0.0
FSCORE : 1.0
Iteration 28
Size I+ 28
Size I- 1079
Time : 368.349
Syntactical distance : 0.0
Error Rate Precondition : 0.0
Error Rate Postcondition : 0.0
FSCORE : 1.0
Iteration 29
Size I+ 29
Size I- 1110
Time : 380.343
Syntactical distance : 0.0
Error Rate Precondition : 0.0
Error Rate Postcondition : 0.0
FSCORE : 1.0
Iteration 30
Size I+ 30
Size I- 1164
Time : 403.318
Syntactical distance : 0.0
Error Rate Precondition : 0.0
Error Rate Postcondition : 0.0
FSCORE : 1.0
############################################
### Fluent = 100.0% ###

*** Noise = 0.0% ***
Iteration 1
Time : 1.458
Syntactical distance : 0.04848485
Error Rate Precondition : 0.025240455
Error Rate Postcondition : 0.0
FSCORE : 0.18181819
Iteration 2
Size I+ 2
Size I- 88
Time : 3.127
Syntactical distance : 0.0
Error Rate Precondition : 0.0
Error Rate Postcondition : 0.0
FSCORE : 1.0
Iteration 3
Size I+ 3
Size I- 145
Time : 8.897
Syntactical distance : 0.0
Error Rate Precondition : 0.0
Error Rate Postcondition : 0.0
FSCORE : 1.0
Iteration 4
Size I+ 4
Size I- 192
Time : 15.343
Syntactical distance : 0.0
Error Rate Precondition : 0.0
Error Rate Postcondition : 0.0
FSCORE : 1.0
Iteration 5
Size I+ 5
Size I- 251
Time : 21.994
Syntactical distance : 0.0
Error Rate Precondition : 0.0
Error Rate Postcondition : 0.0
FSCORE : 1.0
Iteration 6
Size I+ 6
Size I- 330
Time : 29.468
Syntactical distance : 0.0
Error Rate Precondition : 0.0
Error Rate Postcondition : 0.0
FSCORE : 1.0
Iteration 7
Size I+ 7
Size I- 354
Time : 37.305
Syntactical distance : 0.0
Error Rate Precondition : 0.0
Error Rate Postcondition : 0.0
FSCORE : 1.0
Iteration 8
Size I+ 8
Size I- 407
Time : 45.786
Syntactical distance : 0.0
Error Rate Precondition : 0.0
Error Rate Postcondition : 0.0
FSCORE : 1.0
Iteration 9
Size I+ 9
Size I- 446
Time : 55.41
Syntactical distance : 0.0
Error Rate Precondition : 0.0
Error Rate Postcondition : 0.0
FSCORE : 1.0
Iteration 10
Size I+ 10
Size I- 475
Time : 64.783
Syntactical distance : 0.0
Error Rate Precondition : 0.0
Error Rate Postcondition : 0.0
FSCORE : 1.0
Iteration 11
Size I+ 11
Size I- 539
Time : 74.185
Syntactical distance : 0.0
Error Rate Precondition : 0.0
Error Rate Postcondition : 0.0
FSCORE : 1.0
Iteration 12
Size I+ 12
Size I- 627
Time : 84.177
Syntactical distance : 0.0
Error Rate Precondition : 0.0
Error Rate Postcondition : 0.0
FSCORE : 1.0
Iteration 13
Size I+ 13
Size I- 662
Time : 95.103
Syntactical distance : 0.0
Error Rate Precondition : 0.0
Error Rate Postcondition : 0.0
FSCORE : 1.0
Iteration 14
Size I+ 14
Size I- 744
Time : 107.702
Syntactical distance : 0.0
Error Rate Precondition : 0.0
Error Rate Postcondition : 0.0
FSCORE : 1.0
Iteration 15
Size I+ 15
Size I- 791
Time : 117.015
Syntactical distance : 0.0
Error Rate Precondition : 0.0
Error Rate Postcondition : 0.0
FSCORE : 1.0
Iteration 16
Size I+ 16
Size I- 835
Time : 131.4
Syntactical distance : 0.0
Error Rate Precondition : 0.0
Error Rate Postcondition : 0.0
FSCORE : 1.0
Iteration 17
Size I+ 17
Size I- 884
Time : 145.123
Syntactical distance : 0.0
Error Rate Precondition : 0.0
Error Rate Postcondition : 0.0
FSCORE : 1.0
Iteration 18
Size I+ 18
Size I- 952
Time : 160.406
Syntactical distance : 0.0
Error Rate Precondition : 0.0
Error Rate Postcondition : 0.0
FSCORE : 1.0
Iteration 19
Size I+ 19
Size I- 962
Time : 170.872
Syntactical distance : 0.0
Error Rate Precondition : 0.0
Error Rate Postcondition : 0.0
FSCORE : 1.0
Iteration 20
Size I+ 20
Size I- 994
Time : 181.726
Syntactical distance : 0.0
Error Rate Precondition : 0.0
Error Rate Postcondition : 0.0
FSCORE : 1.0
Iteration 21
Size I+ 21
Size I- 1023
Time : 198.243
Syntactical distance : 0.0
Error Rate Precondition : 0.0
Error Rate Postcondition : 0.0
FSCORE : 1.0
Iteration 22
Size I+ 22
Size I- 1071
Time : 209.474
Syntactical distance : 0.0
Error Rate Precondition : 0.0
Error Rate Postcondition : 0.0
FSCORE : 1.0
Iteration 23
Size I+ 23
Size I- 1105
Time : 221.002
Syntactical distance : 0.0
Error Rate Precondition : 0.0
Error Rate Postcondition : 0.0
FSCORE : 1.0
Iteration 24
Size I+ 24
Size I- 1132
Time : 241.116
Syntactical distance : 0.0
Error Rate Precondition : 0.0
Error Rate Postcondition : 0.0
FSCORE : 1.0
Iteration 25
Size I+ 25
Size I- 1167
Time : 253.029
Syntactical distance : 0.0
Error Rate Precondition : 0.0
Error Rate Postcondition : 0.0
FSCORE : 1.0
Iteration 26
Size I+ 26
Size I- 1240
Time : 293.004
Syntactical distance : 0.0
Error Rate Precondition : 0.0
Error Rate Postcondition : 0.0
FSCORE : 1.0
Iteration 27
Size I+ 27
Size I- 1290
Time : 305.847
Syntactical distance : 0.0
Error Rate Precondition : 0.0
Error Rate Postcondition : 0.0
FSCORE : 1.0
Iteration 28
Size I+ 28
Size I- 1309
Time : 318.903
Syntactical distance : 0.0
Error Rate Precondition : 0.0
Error Rate Postcondition : 0.0
FSCORE : 1.0
Iteration 29
Size I+ 29
Size I- 1357
Time : 357.564
Syntactical distance : 0.0
Error Rate Precondition : 0.0
Error Rate Postcondition : 0.0
FSCORE : 1.0
Iteration 30
Size I+ 30
Size I- 1414
Time : 371.13
Syntactical distance : 0.0
Error Rate Precondition : 0.0
Error Rate Postcondition : 0.0
FSCORE : 1.0

*** Noise = 20.0% ***
Iteration 1
Time : 2.137
Syntactical distance : 0.20848484
Error Rate Precondition : 0.07467466
Error Rate Postcondition : 0.05580948
FSCORE : 0.039215684
Iteration 2
Size I+ 2
Size I- 88
Time : 5.031
Syntactical distance : 0.06666667
Error Rate Precondition : 0.033564523
Error Rate Postcondition : 0.0
FSCORE : 0.31796503
Iteration 3
Size I+ 3
Size I- 145
Time : 10.681
Syntactical distance : 0.06666667
Error Rate Precondition : 0.033564523
Error Rate Postcondition : 0.0
FSCORE : 0.31796503
Iteration 4
Size I+ 4
Size I- 192
Time : 16.962
Syntactical distance : 0.06666667
Error Rate Precondition : 0.033564523
Error Rate Postcondition : 0.0
FSCORE : 0.31796503
Iteration 5
Size I+ 5
Size I- 251
Time : 26.671
Syntactical distance : 0.0
Error Rate Precondition : 0.0
Error Rate Postcondition : 0.0
FSCORE : 1.0
Iteration 6
Size I+ 6
Size I- 330
Time : 40.873
Syntactical distance : 0.0
Error Rate Precondition : 0.0
Error Rate Postcondition : 0.0
FSCORE : 1.0
Iteration 7
Size I+ 7
Size I- 354
Time : 53.739
Syntactical distance : 0.0
Error Rate Precondition : 0.0
Error Rate Postcondition : 0.0
FSCORE : 1.0
Iteration 8
Size I+ 8
Size I- 407
Time : 70.476
Syntactical distance : 0.0
Error Rate Precondition : 0.0
Error Rate Postcondition : 0.0
FSCORE : 1.0
Iteration 9
Size I+ 9
Size I- 446
Time : 85.15
Syntactical distance : 0.0
Error Rate Precondition : 0.0
Error Rate Postcondition : 0.0
FSCORE : 1.0
Iteration 10
Size I+ 10
Size I- 475
Time : 94.491
Syntactical distance : 0.0
Error Rate Precondition : 0.0
Error Rate Postcondition : 0.0
FSCORE : 1.0
Iteration 11
Size I+ 11
Size I- 539
Time : 109.619
Syntactical distance : 0.0
Error Rate Precondition : 0.0
Error Rate Postcondition : 0.0
FSCORE : 1.0
Iteration 12
Size I+ 12
Size I- 627
Time : 126.033
Syntactical distance : 0.0
Error Rate Precondition : 0.0
Error Rate Postcondition : 0.0
FSCORE : 1.0
Iteration 13
Size I+ 13
Size I- 662
Time : 144.194
Syntactical distance : 0.0
Error Rate Precondition : 0.0
Error Rate Postcondition : 0.0
FSCORE : 1.0
Iteration 14
Size I+ 14
Size I- 744
Time : 156.91
Syntactical distance : 0.0
Error Rate Precondition : 0.0
Error Rate Postcondition : 0.0
FSCORE : 1.0
Iteration 15
Size I+ 15
Size I- 791
Time : 166.198
Syntactical distance : 0.0
Error Rate Precondition : 0.0
Error Rate Postcondition : 0.0
FSCORE : 1.0
Iteration 16
Size I+ 16
Size I- 835
Time : 180.543
Syntactical distance : 0.0
Error Rate Precondition : 0.0
Error Rate Postcondition : 0.0
FSCORE : 1.0
Iteration 17
Size I+ 17
Size I- 884
Time : 194.22
Syntactical distance : 0.0
Error Rate Precondition : 0.0
Error Rate Postcondition : 0.0
FSCORE : 1.0
Iteration 18
Size I+ 18
Size I- 952
Time : 209.452
Syntactical distance : 0.0
Error Rate Precondition : 0.0
Error Rate Postcondition : 0.0
FSCORE : 1.0
Iteration 19
Size I+ 19
Size I- 962
Time : 219.923
Syntactical distance : 0.0
Error Rate Precondition : 0.0
Error Rate Postcondition : 0.0
FSCORE : 1.0
Iteration 20
Size I+ 20
Size I- 994
Time : 230.554
Syntactical distance : 0.0
Error Rate Precondition : 0.0
Error Rate Postcondition : 0.0
FSCORE : 1.0
Iteration 21
Size I+ 21
Size I- 1023
Time : 263.615
Syntactical distance : 0.0
Error Rate Precondition : 0.0
Error Rate Postcondition : 0.0
FSCORE : 1.0
Iteration 22
Size I+ 22
Size I- 1071
Time : 292.212
Syntactical distance : 0.0
Error Rate Precondition : 0.0
Error Rate Postcondition : 0.0
FSCORE : 1.0
Iteration 23
Size I+ 23
Size I- 1105
Time : 321.866
Syntactical distance : 0.0
Error Rate Precondition : 0.0
Error Rate Postcondition : 0.0
FSCORE : 1.0
Iteration 24
Size I+ 24
Size I- 1132
Time : 341.861
Syntactical distance : 0.0
Error Rate Precondition : 0.0
Error Rate Postcondition : 0.0
FSCORE : 1.0
Iteration 25
Size I+ 25
Size I- 1167
Time : 353.912
Syntactical distance : 0.0
Error Rate Precondition : 0.0
Error Rate Postcondition : 0.0
FSCORE : 1.0
Iteration 26
Size I+ 26
Size I- 1240
Time : 393.791
Syntactical distance : 0.0
Error Rate Precondition : 0.0
Error Rate Postcondition : 0.0
FSCORE : 1.0
Iteration 27
Size I+ 27
Size I- 1290
Time : 406.553
Syntactical distance : 0.0
Error Rate Precondition : 0.0
Error Rate Postcondition : 0.0
FSCORE : 1.0
Iteration 28
Size I+ 28
Size I- 1309
Time : 419.608
Syntactical distance : 0.0
Error Rate Precondition : 0.0
Error Rate Postcondition : 0.0
FSCORE : 1.0
Iteration 29
Size I+ 29
Size I- 1357
Time : 457.787
Syntactical distance : 0.0
Error Rate Precondition : 0.0
Error Rate Postcondition : 0.0
FSCORE : 1.0
Iteration 30
Size I+ 30
Size I- 1414
Time : 471.426
Syntactical distance : 0.0
Error Rate Precondition : 0.0
Error Rate Postcondition : 0.0
FSCORE : 1.0
